17130	16386.8
1722
40918.2	27446.1
15
0	8	28
1	8	28
2	0	28
3	0	28
4	0	28
5	4	28
6	0	28
7	4	28
8	0	28
9	0	28
10	0	28
11	0	28
12	0	28
13	0	28
14	0	28
44
0	5	111082.040381	162195.900000	1.000000
0	6	77830.263952	110170.800000	1.000000
0	7	21600.363429	66306.500000	1.000000
1	2	74109.901328	136693.400000	1.000000
1	4	18549.491816	44884.400000	1.000000
1	5	146648.019587	216261.200000	1.000000
2	1	81821.843037	136693.400000	1.000000
2	4	0.000000	17341.700000	0.000000
2	7	61691.632748	136693.400000	1.000000
3	4	0.000000	38763.800000	0.000000
3	5	43727.250000	51005.000000	1.000000
4	1	20134.991816	44884.400000	1.000000
4	2	0.000000	17341.700000	0.000000
4	3	0.000000	38763.800000	0.000000
5	0	111310.024886	162195.900000	1.000000
5	1	157101.077878	216261.200000	1.000000
5	3	45354.750000	51005.000000	1.000000
5	12	36117.457204	70386.900000	1.000000
6	0	86666.333311	110170.800000	1.000000
6	9	54464.392876	91809.000000	1.000000
6	13	28383.156963	64266.300000	1.000000
7	0	27887.309565	66306.500000	1.000000
7	2	69036.074457	136693.400000	1.000000
7	8	18027.607124	38763.800000	1.000000
7	14	34303.500000	57125.600000	1.000000
8	7	18596.994969	38763.800000	1.000000
8	9	0.000000	19381.900000	0.000000
8	11	10356.755031	31623.100000	1.000000
8	14	0.000000	23462.300000	0.000000
9	6	57580.505031	91809.000000	1.000000
9	8	0.000000	19381.900000	0.000000
9	11	22245.142876	32643.200000	1.000000
10	12	20916.000000	25502.500000	1.000000
10	13	0.000000	14281.400000	0.000000
11	8	10322.392876	31623.100000	1.000000
11	9	25482.005031	32643.200000	1.000000
12	5	42078.750000	70386.900000	1.000000
12	10	20060.250000	25502.500000	1.000000
12	13	3659.250000	25502.500000	1.000000
13	6	32480.864167	64266.300000	1.000000
13	10	0.000000	14281.400000	0.000000
13	12	4381.042796	25502.500000	1.000000
14	7	41013.000000	57125.600000	1.000000
14	8	0.000000	23462.300000	0.000000
840
6	1	5	0	6	9	11	11	0	11	1	11	2	11	3	11	4	
5	1	5	0	6	9	5	0	5	1	5	2	5	5	5	4	
5	7	2	1	5	12	7	0	7	1	7	2	7	3	7	4	
2	3	5	5	0	5	1	5	2	5	5	5	4	
5	7	2	1	5	3	7	0	7	1	7	5	7	3	7	4	
6	11	9	6	0	5	3	11	0	11	1	11	5	11	3	11	4	
5	3	5	0	6	13	13	0	13	1	13	2	13	5	13	4	
2	6	13	6	0	6	1	6	5	6	3	6	4	
6	10	12	5	1	2	7	10	0	10	1	10	2	10	3	10	4	
4	3	5	0	6	5	0	5	1	5	5	5	3	5	4	
4	4	1	2	7	7	0	7	1	7	2	7	5	7	4	
4	1	2	7	8	7	0	7	1	7	2	7	1	7	0	
6	14	7	2	1	5	12	7	0	5	1	5	2	5	1	5	0	
4	7	2	1	4	7	0	7	1	7	2	7	3	7	4	
4	2	1	5	12	5	0	5	1	5	2	5	5	5	4	
4	0	5	1	2	0	0	0	1	2	2	2	5	2	4	
5	13	6	0	5	1	13	0	13	1	13	2	13	5	13	4	
5	7	2	1	5	3	7	0	7	1	7	2	5	1	5	0	
3	5	12	10	10	0	10	1	10	5	10	3	10	4	
2	12	5	5	0	5	1	5	2	5	1	5	0	
3	5	1	2	5	0	5	1	5	2	5	5	5	4	
4	8	7	2	1	7	0	7	1	7	2	7	1	7	0	
2	8	7	7	0	7	1	7	2	7	3	7	4	
6	10	12	5	0	6	9	10	0	10	1	10	2	10	3	10	4	
4	6	13	6	0	13	0	13	1	13	5	13	3	13	4	
3	14	7	0	7	0	7	1	7	5	7	3	7	4	
4	4	1	5	12	4	0	4	1	4	2	4	1	4	0	
3	2	1	5	5	0	5	1	5	5	5	3	5	4	
4	7	2	1	5	7	0	7	1	1	2	1	5	5	4	
3	0	7	14	7	0	7	1	7	5	7	3	7	4	
4	5	1	2	7	5	0	7	1	7	2	7	1	7	0	
3	8	11	9	8	0	8	1	8	5	8	3	8	4	
5	4	1	5	12	10	4	0	10	1	10	2	10	5	10	4	
3	5	12	10	10	0	10	1	10	2	10	5	10	4	
3	14	7	0	7	0	7	1	7	2	7	3	7	4	
6	3	5	0	6	9	11	11	0	11	1	11	5	11	3	11	4	
2	6	13	6	0	6	1	6	2	6	1	6	0	
7	8	7	2	1	5	12	10	10	0	10	1	10	2	10	1	10	0	
4	10	12	5	1	10	0	10	1	10	2	10	5	10	4	
2	0	5	5	0	5	1	5	2	5	3	5	4	
4	3	5	1	2	5	0	5	1	5	2	5	5	5	4	
5	7	2	1	5	12	12	0	12	1	12	2	12	1	12	0	
3	1	2	7	1	0	1	1	1	5	1	3	1	4	
7	10	12	5	1	2	7	14	10	0	10	1	10	2	10	3	10	4	
5	8	7	2	1	4	4	0	4	1	4	5	4	3	4	4	
5	2	1	5	12	10	10	0	10	1	10	5	10	3	10	4	
4	2	1	5	3	5	0	5	1	5	2	5	5	5	4	
2	4	1	1	0	1	1	1	5	1	3	1	4	
5	9	6	0	5	3	5	0	5	1	5	2	5	3	5	4	
5	7	2	1	5	12	7	0	7	1	7	2	7	5	12	4	
3	0	5	3	5	0	5	1	5	2	5	1	5	0	
5	9	6	0	5	3	5	0	5	1	5	2	5	5	5	4	
2	6	13	6	0	6	1	6	2	6	5	6	4	
3	12	5	0	5	0	5	1	5	2	5	3	5	4	
4	11	9	6	0	11	0	11	1	11	2	11	3	11	4	
5	10	12	5	1	2	10	0	10	1	10	2	10	3	10	4	
4	13	6	9	11	13	0	11	1	11	5	11	3	11	4	
4	7	2	1	4	4	0	4	1	4	2	4	1	4	0	
3	12	5	3	5	0	5	1	5	5	5	3	5	4	
5	12	5	1	2	7	12	0	12	1	12	2	12	3	5	4	
4	6	0	5	3	5	0	5	1	5	2	5	3	5	4	
4	9	6	0	5	5	0	5	1	5	5	5	3	5	4	
2	11	8	8	0	8	1	8	5	8	3	8	4	
2	12	10	10	0	10	1	10	2	10	1	10	0	
4	4	1	5	0	4	0	4	1	4	2	4	5	4	4	
4	0	6	9	11	11	0	11	1	11	2	11	1	11	0	
2	12	10	10	0	10	1	10	5	10	3	10	4	
3	9	6	13	6	0	6	1	6	2	6	5	6	4	
2	2	7	7	0	7	1	7	2	7	3	7	4	
4	14	7	0	6	7	0	7	1	7	2	7	1	7	0	
2	8	11	8	0	8	1	8	2	8	5	8	4	
2	5	1	5	0	5	1	5	2	5	5	5	4	
7	10	12	5	1	2	7	8	10	0	10	1	10	2	10	5	10	4	
5	3	5	1	2	7	5	0	1	1	1	2	1	1	1	0	
3	6	0	7	7	0	7	1	7	5	7	3	7	4	
6	2	1	5	0	6	13	13	0	13	1	13	2	13	3	13	4	
4	12	5	1	2	5	0	5	1	5	2	5	1	5	0	
4	3	5	1	4	5	0	5	1	5	2	5	1	5	0	
3	13	6	0	13	0	13	1	13	2	13	1	13	0	
5	5	1	2	7	8	8	0	8	1	8	2	8	1	8	0	
2	9	11	11	0	11	1	11	2	11	5	11	4	
3	9	11	8	8	0	8	1	8	2	8	5	8	4	
5	3	5	0	6	13	13	0	13	1	13	2	13	1	13	0	
3	1	5	0	5	0	5	1	5	5	5	3	5	4	
3	1	5	3	5	0	5	1	5	2	5	1	5	0	
5	2	1	5	12	10	10	0	10	1	10	2	10	1	10	0	
6	8	7	2	1	5	12	8	0	8	1	7	5	7	3	7	4	
5	8	7	0	6	13	13	0	13	1	13	2	13	3	13	4	
6	13	6	0	5	1	4	13	0	13	1	13	2	13	5	4	4	
3	1	5	3	5	0	5	1	5	2	5	3	5	4	
7	10	12	5	0	6	9	11	10	0	10	1	10	2	10	1	11	0	
4	4	1	2	7	4	0	4	1	4	2	4	3	4	4	
6	13	6	0	5	1	2	13	0	13	1	13	5	13	3	13	4	
2	9	11	9	0	9	1	9	2	9	3	9	4	
7	11	9	6	0	5	12	10	11	0	11	1	11	2	11	3	10	4	
4	4	1	5	12	4	0	4	1	4	5	4	3	4	4	
5	12	5	0	6	9	12	0	12	1	12	2	5	5	6	4	
4	14	7	0	5	5	0	5	1	5	2	5	5	5	4	
5	12	5	0	7	14	5	0	5	1	5	2	5	5	5	4	
3	3	5	12	5	0	5	1	5	2	5	3	5	4	
4	0	5	12	10	5	0	5	1	5	2	5	5	5	4	
7	14	7	2	1	5	12	10	10	0	10	1	10	2	10	3	10	4	
5	5	1	2	7	8	5	0	5	1	8	2	8	5	8	4	
3	8	7	2	7	0	7	1	7	2	7	5	7	4	
4	14	7	8	11	7	0	7	1	7	5	7	3	7	4	
8	14	7	2	1	4	1	2	7	4	0	4	1	4	5	4	3	4	4	
2	6	9	6	0	6	1	6	2	6	3	6	4	
7	14	7	0	6	13	6	9	13	0	13	1	13	5	13	3	13	4	
2	6	0	0	0	0	1	0	2	0	1	0	0	
4	14	7	0	5	5	0	5	1	5	5	5	3	5	4	
3	1	5	12	5	0	5	1	5	2	5	5	5	4	
3	5	0	6	5	0	5	1	5	2	5	3	5	4	
5	3	5	1	2	7	7	0	7	1	7	2	7	5	7	4	
3	0	5	12	5	0	5	1	5	2	5	3	5	4	
6	11	9	6	0	5	1	11	0	11	1	11	5	11	3	11	4	
5	9	6	0	5	1	5	0	5	1	5	2	5	5	5	4	
4	5	0	6	13	13	0	13	1	13	2	13	1	13	0	
4	11	9	6	0	11	0	11	1	11	5	11	3	11	4	
4	10	12	5	0	5	0	5	1	5	2	5	1	5	0	
7	10	12	5	1	2	7	14	10	0	10	1	10	2	10	5	10	4	
3	11	9	6	6	0	6	1	6	2	6	5	6	4	
3	7	2	1	7	0	7	1	7	2	7	1	7	0	
2	8	7	8	0	8	1	8	5	8	3	8	4	
4	3	5	12	10	5	0	5	1	5	2	5	5	5	4	
4	3	5	1	4	5	0	5	1	5	2	5	5	5	4	
2	9	6	6	0	6	1	6	5	6	3	6	4	
5	2	1	5	0	6	2	0	2	1	2	2	2	3	5	4	
5	8	7	2	1	5	8	0	8	1	8	2	2	3	2	4	
4	3	5	1	4	5	0	5	1	5	5	5	3	5	4	
4	14	7	0	5	5	0	5	1	5	2	5	3	5	4	
2	12	13	12	0	12	1	12	5	12	3	12	4	
3	7	0	6	7	0	7	1	7	2	7	3	7	4	
3	0	5	1	0	0	0	1	0	5	0	3	0	4	
4	5	0	6	13	13	0	13	1	13	5	13	3	13	4	
7	9	6	13	6	0	7	14	13	0	13	1	13	5	13	3	13	4	
2	10	12	10	0	10	1	10	5	10	3	10	4	
5	13	6	0	5	3	13	0	13	1	13	2	13	1	13	0	
6	4	1	5	0	6	13	4	0	4	1	4	2	4	1	13	0	
5	6	0	5	1	2	6	0	6	1	6	5	6	3	2	4	
5	14	7	2	1	4	7	0	7	1	7	2	7	1	7	0	
6	14	7	0	6	13	6	13	0	13	1	13	5	13	3	13	4	
2	1	2	1	0	1	1	1	2	1	1	1	0	
4	10	12	5	3	10	0	10	1	10	2	10	5	10	4	
5	10	12	5	0	6	10	0	10	1	10	5	10	3	10	4	
3	1	5	3	5	0	5	1	5	2	5	5	5	4	
3	1	5	0	5	0	5	1	5	2	5	3	5	4	
2	1	5	1	0	1	1	1	5	1	3	1	4	
5	4	1	5	0	6	4	0	4	1	4	2	4	3	4	4	
5	5	0	6	9	11	11	0	11	1	11	2	11	5	11	4	
4	8	7	0	6	8	0	8	1	8	5	8	3	8	4	
6	7	0	6	13	6	9	13	0	13	1	13	5	13	3	13	4	
2	2	1	1	0	1	1	1	2	1	5	1	4	
4	3	5	12	10	10	0	10	1	10	5	10	3	10	4	
5	6	0	5	12	10	10	0	10	1	10	2	10	1	10	0	
4	4	1	5	3	1	0	1	1	1	5	1	3	1	4	
4	0	5	1	4	4	0	4	1	4	2	4	5	4	4	
6	3	5	1	2	7	8	3	0	2	1	2	2	2	3	2	4	
4	2	7	8	11	8	0	8	1	8	5	8	3	8	4	
5	13	6	0	7	8	13	0	13	1	13	2	13	3	13	4	
2	9	6	6	0	6	1	6	2	6	5	6	4	
4	10	12	5	0	5	0	5	1	5	2	5	3	5	4	
4	7	0	6	13	7	0	7	1	7	2	7	5	7	4	
2	6	9	6	0	6	1	6	2	6	1	6	0	
5	14	7	0	5	3	5	0	5	1	5	2	5	3	5	4	
3	3	5	1	5	0	5	1	5	2	5	1	5	0	
4	1	2	7	8	7	0	7	1	7	2	7	5	7	4	
4	6	0	5	12	6	0	6	1	6	2	12	5	12	4	
3	3	5	1	1	0	1	1	1	5	1	3	1	4	
5	14	7	0	5	12	5	0	5	1	5	2	5	3	5	4	
3	4	1	2	4	0	4	1	4	2	4	1	4	0	
3	14	7	0	7	0	7	1	7	2	7	5	7	4	
3	13	12	10	12	0	12	1	12	5	12	3	12	4	
2	2	1	1	0	1	1	1	2	1	3	1	4	
5	0	6	9	11	8	11	0	11	1	11	2	11	3	11	4	
2	5	12	5	0	5	1	5	2	5	3	5	4	
4	11	8	7	2	8	0	8	1	8	5	8	3	8	4	
5	5	1	2	7	8	8	0	8	1	8	5	8	3	8	4	
6	12	5	0	6	9	11	11	0	11	1	11	2	11	1	11	0	
3	0	5	12	5	0	5	1	5	2	5	1	5	0	
4	1	2	7	14	7	0	7	1	7	2	7	1	7	0	
5	4	1	5	0	6	4	0	4	1	4	2	4	5	4	4	
6	4	1	5	0	6	9	4	0	4	1	4	2	4	3	4	4	
4	12	5	1	4	4	0	4	1	4	2	4	1	4	0	
3	0	7	8	7	0	7	1	7	2	7	1	7	0	
7	8	7	2	1	5	12	10	10	0	10	1	10	2	10	5	10	4	
2	13	6	6	0	6	1	6	2	6	3	6	4	
4	11	8	7	2	11	0	11	1	11	2	11	1	11	0	
2	7	2	7	0	7	1	7	2	7	1	7	0	
3	2	1	4	1	0	1	1	1	5	1	3	1	4	
5	5	1	2	7	8	5	0	5	1	1	2	1	3	1	4	
4	2	1	5	12	5	0	5	1	5	2	5	3	5	4	
4	8	7	0	6	8	0	8	1	8	2	8	3	0	4	
4	9	6	0	7	9	0	9	1	9	2	9	1	6	0	
5	3	5	0	6	9	5	0	5	1	5	2	5	5	5	4	
4	6	0	5	1	5	0	5	1	5	2	5	5	5	4	
5	9	6	0	5	12	6	0	6	1	6	2	6	5	5	4	
2	7	2	7	0	7	1	7	2	7	5	7	4	
3	3	5	12	5	0	5	1	5	2	5	1	5	0	
4	2	7	8	11	11	0	11	1	11	2	11	1	11	0	
5	8	7	0	6	13	13	0	13	1	13	5	13	3	13	4	
2	14	7	7	0	7	1	7	2	7	5	7	4	
6	8	7	2	1	5	12	7	0	7	1	7	2	1	3	5	4	
6	3	5	1	2	7	8	3	0	8	1	8	2	8	1	8	0	
2	9	6	6	0	6	1	6	2	6	3	6	4	
4	5	1	2	7	1	0	1	1	1	2	1	5	1	4	
4	8	7	0	6	8	0	8	1	8	2	8	1	6	0	
5	10	12	5	1	2	10	0	10	1	10	2	10	5	10	4	
4	11	8	7	14	8	0	8	1	8	5	8	3	8	4	
3	2	7	8	7	0	7	1	7	2	7	3	7	4	
5	14	7	0	6	13	7	0	7	1	7	2	7	3	7	4	
5	3	5	0	6	13	13	0	13	1	13	2	13	3	13	4	
4	4	1	5	0	4	0	4	1	4	5	4	3	4	4	
4	11	8	7	14	7	0	7	1	7	2	7	3	7	4	
5	11	9	6	0	5	11	0	11	1	11	2	11	5	11	4	
2	6	9	6	0	6	1	6	5	6	3	6	4	
4	14	7	8	11	7	0	7	1	7	2	7	1	7	0	
7	11	9	6	0	5	1	4	11	0	11	1	11	2	11	1	4	0	
3	2	7	14	7	0	7	1	7	2	7	5	7	4	
6	13	6	0	5	1	4	13	0	13	1	13	5	13	3	4	4	
7	14	7	2	1	5	12	10	10	0	10	1	10	2	10	1	10	0	
4	9	6	0	7	6	0	6	1	6	2	6	5	6	4	
4	10	12	5	3	10	0	10	1	10	2	10	3	10	4	
2	12	5	5	0	5	1	5	2	5	3	5	4	
5	1	5	0	6	13	13	0	13	1	13	2	13	5	13	4	
7	11	9	6	0	5	12	10	11	0	11	1	11	2	11	1	10	0	
4	11	9	6	0	11	0	11	1	11	2	11	1	11	0	
5	12	5	0	6	9	6	0	6	1	6	2	6	3	6	4	
2	0	6	0	0	0	1	0	2	0	5	0	4	
4	6	0	7	8	0	0	0	1	0	2	0	5	0	4	
5	4	1	2	7	14	4	0	4	1	4	2	4	1	4	0	
4	4	1	5	3	5	0	5	1	5	2	5	1	5	0	
2	5	12	5	0	5	1	5	2	5	1	5	0	
3	10	12	13	12	0	12	1	12	2	12	5	12	4	
2	2	1	1	0	1	1	1	5	1	3	1	4	
3	0	5	3	0	0	0	1	0	5	0	3	0	4	
6	3	5	0	6	9	11	11	0	11	1	11	2	11	5	11	4	
2	1	5	1	0	1	1	1	2	1	5	1	4	
5	14	7	2	1	4	7	0	7	1	7	2	7	5	7	4	
6	12	5	1	2	7	14	12	0	12	1	5	5	5	3	1	4	
3	6	0	5	5	0	5	1	5	2	5	3	5	4	
2	5	12	5	0	5	1	5	5	5	3	5	4	
3	11	9	6	6	0	6	1	6	2	6	1	6	0	
2	7	0	7	0	7	1	7	2	7	3	7	4	
3	0	5	1	5	0	5	1	5	2	5	3	5	4	
2	11	9	9	0	9	1	9	2	9	3	9	4	
7	10	12	5	1	2	7	8	10	0	10	1	10	5	10	3	10	4	
2	3	5	5	0	5	1	5	2	5	3	5	4	
5	4	1	2	7	8	7	0	7	1	7	2	7	1	7	0	
4	6	0	7	14	7	0	7	1	7	2	7	3	7	4	
3	1	5	3	1	0	1	1	1	5	1	3	1	4	
3	5	0	6	5	0	5	1	5	2	5	5	5	4	
5	9	6	0	5	12	9	0	9	1	9	2	9	3	5	4	
4	0	6	13	12	13	0	13	1	13	5	13	3	13	4	
3	5	0	6	0	0	0	1	0	5	0	3	0	4	
6	2	1	5	0	6	9	1	0	5	1	5	2	5	1	0	0	
5	4	1	2	7	14	4	0	4	1	4	5	4	3	4	4	
4	9	6	0	7	9	0	9	1	9	2	9	3	6	4	
3	7	2	1	7	0	7	1	7	2	7	5	7	4	
2	5	3	5	0	5	1	5	2	5	1	5	0	
3	9	11	8	8	0	8	1	8	5	8	3	8	4	
6	5	1	4	1	5	12	4	0	4	1	4	2	4	5	4	4	
2	0	5	0	0	0	1	0	5	0	3	0	4	
4	4	1	5	0	4	0	4	1	4	2	4	3	4	4	
3	6	9	11	6	0	6	1	6	2	6	1	6	0	
2	7	0	7	0	7	1	7	2	7	1	7	0	
5	2	1	5	0	6	0	0	6	1	6	2	6	1	6	0	
5	9	6	0	7	14	7	0	7	1	7	2	7	1	7	0	
4	6	0	7	8	0	0	7	1	7	5	8	3	8	4	
3	12	5	1	1	0	1	1	1	5	1	3	1	4	
5	1	5	0	6	13	13	0	13	1	13	2	13	1	13	0	
2	1	4	1	0	1	1	1	2	1	1	1	0	
6	11	9	6	0	5	1	11	0	11	1	11	2	11	5	11	4	
4	2	1	5	12	1	0	1	1	1	5	1	3	1	4	
4	13	6	9	11	13	0	11	1	11	2	11	1	11	0	
6	3	5	0	6	13	6	13	0	13	1	13	2	13	5	13	4	
4	2	1	5	3	5	0	5	1	5	2	5	3	5	4	
5	12	5	0	6	9	5	0	5	1	6	2	9	1	9	0	
6	7	2	1	5	12	10	10	0	10	1	10	2	10	5	10	4	
4	5	1	2	7	5	0	5	1	5	2	5	3	5	4	
5	14	7	0	6	9	6	0	9	1	9	2	9	5	9	4	
6	1	5	0	6	9	11	11	0	11	1	11	5	11	3	11	4	
3	4	1	5	1	0	1	1	1	5	1	3	1	4	
7	4	1	5	0	6	9	11	4	0	4	1	4	2	4	3	11	4	
2	0	7	7	0	7	1	7	2	7	1	7	0	
4	5	0	6	13	13	0	13	1	13	2	13	3	13	4	
4	12	5	0	6	12	0	12	1	0	2	0	1	6	0	
2	7	2	2	0	2	1	2	5	2	3	2	4	
3	13	6	0	0	0	0	1	0	2	0	5	0	4	
3	13	12	10	12	0	12	1	12	2	12	3	12	4	
5	13	6	0	7	14	7	0	7	1	7	2	7	5	7	4	
3	0	6	13	13	0	13	1	13	2	13	1	13	0	
3	0	5	1	0	0	0	1	0	2	0	5	0	4	
3	2	7	8	7	0	7	1	7	2	7	5	7	4	
2	6	0	0	0	0	1	0	2	0	3	0	4	
4	12	5	1	4	1	0	1	1	1	5	1	3	1	4	
3	14	7	2	7	0	7	1	7	2	7	1	7	0	
5	11	9	6	0	5	11	0	11	1	11	5	11	3	11	4	
4	2	7	8	11	11	0	11	1	11	2	11	3	11	4	
5	2	1	5	0	6	2	0	2	1	6	5	6	3	6	4	
7	11	9	6	0	5	1	4	11	0	11	1	11	2	11	5	4	4	
5	8	7	2	1	4	4	0	4	1	4	2	4	1	4	0	
5	10	12	5	1	4	10	0	4	1	4	2	4	5	4	4	
6	9	6	0	5	12	10	10	0	10	1	10	5	10	3	10	4	
4	6	0	5	3	0	0	0	1	0	5	0	3	0	4	
6	11	9	6	0	5	12	11	0	11	1	11	2	11	5	11	4	
4	8	7	0	6	7	0	7	1	7	2	0	5	0	4	
4	1	2	7	14	7	0	7	1	7	2	7	5	7	4	
7	8	7	2	1	5	12	10	10	0	10	1	10	5	10	3	10	4	
6	13	6	0	5	1	4	13	0	13	1	13	2	13	1	4	0	
3	5	1	4	4	0	4	1	4	2	4	1	4	0	
6	10	12	5	1	2	7	10	0	10	1	10	5	10	3	10	4	
3	4	1	2	4	0	4	1	4	5	4	3	4	4	
5	13	6	0	7	8	7	0	7	1	7	2	7	1	7	0	
6	9	6	0	5	1	4	4	0	4	1	4	2	4	3	4	4	
3	5	1	2	5	0	5	1	5	2	5	3	5	4	
4	7	0	6	13	13	0	13	1	13	5	13	3	13	4	
4	1	2	7	14	7	0	7	1	7	2	7	3	7	4	
4	4	1	5	3	5	0	5	1	5	2	5	3	5	4	
2	13	6	6	0	6	1	6	5	6	3	6	4	
5	3	5	0	7	14	5	0	5	1	5	2	5	3	5	4	
4	0	5	1	2	0	0	0	1	0	2	0	1	0	0	
6	9	6	13	6	0	5	13	0	13	1	13	2	13	5	13	4	
4	10	12	5	1	10	0	10	1	10	2	10	3	10	4	
4	11	8	7	14	7	0	7	1	7	2	7	1	7	0	
3	9	6	0	0	0	0	1	0	2	0	5	0	4	
4	7	2	1	5	7	0	5	1	5	2	5	1	5	0	
4	12	5	0	6	12	0	12	1	12	2	12	5	12	4	
2	4	1	1	0	1	1	1	2	1	1	1	0	
6	10	12	5	0	6	9	10	0	10	1	10	2	10	1	10	0	
4	14	7	0	6	7	0	7	1	7	2	7	3	7	4	
2	7	8	7	0	7	1	7	2	7	5	7	4	
6	5	0	6	13	6	9	13	0	13	1	13	5	13	3	13	4	
2	4	1	4	0	4	1	4	2	4	5	4	4	
2	8	11	8	0	8	1	8	2	8	1	8	0	
8	7	2	1	4	1	2	7	14	4	0	4	1	4	5	4	3	4	4	
3	0	7	14	7	0	7	1	7	2	7	3	7	4	
4	3	5	1	2	5	0	5	1	5	2	5	1	5	0	
5	5	0	6	9	11	11	0	11	1	11	2	11	1	11	0	
3	9	6	0	0	0	0	1	0	2	0	1	0	0	
4	14	7	8	11	7	0	7	1	7	2	7	3	7	4	
6	12	5	1	2	7	8	5	0	5	1	1	5	8	3	8	4	
3	8	7	14	7	0	7	1	7	2	7	5	7	4	
2	10	12	10	0	10	1	10	2	10	5	10	4	
2	12	5	12	0	12	1	12	5	12	3	12	4	
4	14	7	2	1	7	0	7	1	7	2	7	3	7	4	
5	10	12	5	1	4	10	0	4	1	4	2	4	1	4	0	
3	14	7	2	7	0	7	1	7	2	7	5	7	4	
6	12	5	1	2	7	14	12	0	12	1	12	2	12	3	12	4	
4	5	0	6	9	5	0	5	1	5	2	5	1	5	0	
4	13	6	0	7	7	0	7	1	7	2	7	5	7	4	
6	3	5	1	2	7	8	3	0	3	1	3	2	5	5	7	4	
2	0	5	0	0	0	1	0	2	0	5	0	4	
3	9	6	13	6	0	6	1	6	2	6	1	6	0	
3	5	1	4	1	0	1	1	1	5	1	3	1	4	
3	8	11	9	8	0	8	1	8	2	8	3	8	4	
3	10	12	5	12	0	12	1	12	5	12	3	12	4	
6	3	5	1	2	7	8	3	0	3	1	3	5	8	3	8	4	
3	10	12	5	10	0	10	1	10	2	10	3	10	4	
2	7	2	7	0	7	1	7	2	7	3	7	4	
2	6	13	13	0	13	1	13	2	13	3	13	4	
7	4	1	5	0	6	9	11	4	0	4	1	4	5	4	3	11	4	
3	0	6	13	13	0	13	1	13	5	13	3	13	4	
5	13	6	0	5	1	13	0	13	1	13	5	13	3	13	4	
3	11	9	6	6	0	6	1	6	2	6	3	6	4	
4	13	6	0	7	13	0	13	1	13	2	13	1	13	0	
6	8	7	2	1	5	12	2	0	2	1	2	2	2	1	2	0	
5	6	0	5	1	4	4	0	4	1	4	2	4	3	4	4	
7	10	12	5	0	6	9	11	10	0	10	1	10	2	10	3	11	4	
4	5	0	6	13	13	0	13	1	13	2	13	5	13	4	
3	0	5	1	5	0	5	1	5	2	5	1	5	0	
3	12	5	1	1	0	1	1	1	2	1	5	1	4	
2	12	13	13	0	13	1	13	2	13	5	13	4	
6	7	2	1	5	12	10	10	0	10	1	10	2	10	3	10	4	
5	8	7	0	6	13	13	0	13	1	13	2	13	1	13	0	
5	4	1	5	0	6	4	0	4	1	4	2	4	1	4	0	
3	4	1	2	4	0	4	1	4	2	4	3	4	4	
4	8	7	2	1	7	0	7	1	7	2	7	5	7	4	
2	5	1	5	0	5	1	5	2	5	3	5	4	
3	1	5	12	5	0	5	1	5	2	5	1	5	0	
4	4	1	2	7	1	0	1	1	1	5	1	3	1	4	
6	2	1	5	0	6	13	13	0	13	1	13	5	13	3	13	4	
5	9	6	0	5	3	0	0	0	1	0	5	0	3	0	4	
5	11	9	6	0	5	11	0	11	1	11	2	11	1	11	0	
5	14	7	0	6	13	7	0	7	1	7	2	7	5	7	4	
4	14	7	2	1	7	0	7	1	7	2	7	5	7	4	
3	7	8	11	11	0	11	1	11	2	11	5	11	4	
4	7	0	6	9	7	0	7	1	7	2	7	3	7	4	
4	1	5	12	10	1	0	1	1	1	5	1	3	1	4	
6	13	6	0	5	1	2	13	0	13	1	13	2	13	5	13	4	
5	4	1	5	12	10	4	0	10	1	10	2	10	3	10	4	
3	7	0	6	7	0	7	1	7	2	7	1	7	0	
5	1	5	0	6	9	5	0	5	1	5	2	5	1	5	0	
4	2	1	5	0	2	0	2	1	5	5	5	3	5	4	
2	3	5	5	0	5	1	5	2	5	1	5	0	
3	5	12	10	10	0	10	1	10	2	10	3	10	4	
3	6	0	5	0	0	0	1	0	5	0	3	0	4	
2	1	4	4	0	4	1	4	2	4	5	4	4	
2	3	5	3	0	3	1	3	5	3	3	3	4	
4	13	6	9	11	13	0	11	1	11	2	11	3	11	4	
2	7	0	0	0	0	1	0	5	0	3	0	4	
3	0	7	14	7	0	7	1	7	2	7	1	7	0	
5	9	6	13	6	0	13	0	13	1	13	5	13	3	13	4	
7	9	6	13	6	0	7	14	13	0	13	1	13	2	13	3	13	4	
3	8	7	2	7	0	7	1	7	2	7	1	7	0	
4	12	5	1	2	5	0	5	1	5	2	5	3	5	4	
3	11	9	6	6	0	6	1	6	5	6	3	6	4	
4	3	5	1	4	5	0	5	1	5	2	5	3	5	4	
3	4	1	5	4	0	4	1	4	2	4	3	4	4	
6	4	1	5	0	6	9	0	0	0	1	0	5	0	3	0	4	
2	7	14	7	0	7	1	7	2	7	3	7	4	
5	2	1	5	12	10	5	0	5	1	5	2	5	3	5	4	
4	5	1	2	7	1	0	2	1	2	5	7	3	7	4	
3	2	7	8	7	0	7	1	7	2	7	1	7	0	
4	14	7	2	1	7	0	7	1	7	2	7	1	7	0	
7	11	9	6	0	5	12	10	11	0	11	1	11	5	11	3	10	4	
3	9	6	13	6	0	6	1	6	5	6	3	6	4	
3	6	0	5	5	0	5	1	5	2	5	1	5	0	
6	3	5	1	2	7	14	5	0	5	1	7	2	7	1	7	0	
5	2	1	5	0	6	2	0	2	1	2	2	2	5	2	4	
2	8	11	8	0	8	1	8	5	8	3	8	4	
3	8	7	14	7	0	7	1	7	2	7	3	7	4	
3	9	11	8	8	0	8	1	8	2	8	1	8	0	
4	0	5	1	4	4	0	4	1	4	2	4	3	4	4	
5	7	2	1	5	12	7	0	1	1	1	5	12	3	12	4	
4	11	9	6	0	11	0	11	1	11	2	11	5	11	4	
5	11	9	6	0	5	11	0	11	1	11	2	11	3	11	4	
3	12	5	3	5	0	5	1	5	2	5	3	5	4	
4	4	1	2	7	7	0	7	1	7	2	7	1	7	0	
4	6	0	7	8	0	0	0	1	0	2	0	1	7	0	
2	13	12	12	0	12	1	12	2	12	3	12	4	
6	12	5	1	2	7	8	12	0	8	1	8	2	8	1	8	0	
3	2	1	5	5	0	5	1	5	2	5	1	5	0	
2	12	13	12	0	12	1	12	2	12	3	12	4	
4	10	12	5	1	1	0	1	1	1	5	1	3	1	4	
6	12	5	1	2	7	8	12	0	12	1	12	2	5	5	7	4	
2	0	7	0	0	0	1	0	5	0	3	0	4	
4	8	7	2	1	1	0	1	1	1	5	1	3	1	4	
3	5	1	4	4	0	4	1	4	2	4	3	4	4	
4	5	0	7	14	0	0	0	1	0	5	0	3	0	4	
5	1	5	0	6	9	5	0	5	1	5	2	5	3	5	4	
4	12	5	0	6	5	0	0	1	0	5	0	3	0	4	
6	9	6	0	5	1	4	0	0	0	1	0	5	0	3	0	4	
5	13	6	0	7	8	0	0	0	1	0	5	0	3	0	4	
3	12	5	3	12	0	12	1	12	2	12	5	12	4	
5	10	12	5	1	2	5	0	5	1	5	2	5	1	5	0	
3	13	6	9	6	0	6	1	6	2	6	3	6	4	
3	5	12	10	5	0	5	1	5	2	5	1	5	0	
6	10	12	5	0	6	9	10	0	10	1	10	2	10	5	10	4	
2	14	7	7	0	7	1	7	2	7	1	7	0	
3	3	5	1	5	0	5	1	5	2	5	3	5	4	
4	1	5	0	6	5	0	5	1	5	2	5	3	5	4	
7	10	12	5	0	6	9	11	10	0	10	1	10	2	10	5	11	4	
2	9	6	6	0	6	1	6	2	6	1	6	0	
5	13	6	0	5	1	13	0	13	1	13	2	13	1	13	0	
3	2	1	4	4	0	4	1	4	2	4	3	4	4	
6	9	6	0	5	1	2	9	0	9	1	9	2	6	1	6	0	
5	9	6	0	5	12	12	0	12	1	12	2	12	1	12	0	
2	13	12	12	0	12	1	12	2	12	1	12	0	
5	13	6	0	5	3	13	0	13	1	13	5	13	3	13	4	
7	11	9	6	0	5	12	10	11	0	11	1	11	2	11	5	10	4	
7	10	12	5	0	6	9	11	10	0	10	1	10	5	10	3	11	4	
4	6	0	5	12	0	0	0	1	0	2	0	3	5	4	
7	14	7	0	6	13	6	9	13	0	13	1	13	2	13	3	13	4	
3	1	5	0	5	0	5	1	5	2	5	1	5	0	
4	0	5	12	10	10	0	10	1	10	5	10	3	10	4	
5	4	1	2	7	8	4	0	4	1	4	2	4	5	4	4	
5	10	12	5	1	4	10	0	4	1	4	5	4	3	4	4	
5	4	1	2	7	14	4	0	4	1	4	2	4	5	4	4	
5	6	0	5	1	4	0	0	0	1	0	2	0	5	0	4	
6	8	7	2	1	5	3	3	0	3	1	3	2	3	5	3	4	
2	5	3	5	0	5	1	5	2	5	3	5	4	
3	5	1	2	1	0	1	1	1	5	1	3	1	4	
5	10	12	5	1	2	1	0	1	1	1	5	1	3	1	4	
4	5	0	7	14	7	0	7	1	7	2	7	5	7	4	
3	14	7	8	8	0	8	1	8	5	8	3	8	4	
4	5	0	6	9	0	0	0	1	0	2	0	5	0	4	
3	7	8	11	11	0	11	1	11	2	11	3	11	4	
3	8	7	14	7	0	7	1	7	2	7	1	7	0	
5	12	5	0	7	14	5	0	5	1	5	2	5	1	5	0	
6	1	5	0	6	9	11	11	0	11	1	11	2	11	1	11	0	
5	7	0	6	13	6	13	0	13	1	13	5	13	3	13	4	
6	11	9	6	0	5	3	11	0	11	1	11	2	11	1	11	0	
3	2	7	14	2	0	2	1	2	5	2	3	2	4	
6	14	7	2	1	5	12	7	0	7	1	7	2	7	5	7	4	
6	11	9	6	0	5	12	11	0	11	1	11	2	11	1	11	0	
4	0	5	1	4	0	0	0	1	0	5	0	3	0	4	
3	8	7	0	7	0	7	1	7	2	7	3	7	4	
5	1	5	0	6	13	13	0	13	1	13	5	13	3	13	4	
6	4	1	5	0	6	13	4	0	4	1	4	2	4	3	13	4	
3	14	7	8	7	0	7	1	7	2	7	1	7	0	
4	11	8	7	14	7	0	7	1	7	2	7	5	7	4	
5	5	0	6	9	11	11	0	11	1	11	2	11	3	11	4	
3	2	7	14	7	0	7	1	7	2	7	1	7	0	
3	8	7	0	7	0	7	1	7	2	7	1	7	0	
7	11	9	6	0	5	1	4	11	0	11	1	11	5	11	3	4	4	
5	6	0	5	12	10	10	0	10	1	10	2	10	5	10	4	
4	1	5	0	6	0	0	0	1	0	2	0	5	0	4	
4	7	2	1	4	4	0	4	1	4	2	4	5	4	4	
2	11	8	8	0	8	1	8	2	8	3	8	4	
4	14	7	2	1	1	0	1	1	1	5	1	3	1	4	
5	13	6	0	7	8	7	0	7	1	7	2	7	5	7	4	
3	9	11	8	8	0	8	1	8	2	8	3	8	4	
3	6	0	7	7	0	7	1	7	2	7	1	7	0	
3	0	7	14	7	0	7	1	7	2	7	5	7	4	
3	2	1	4	1	0	1	1	1	2	1	5	1	4	
4	3	5	0	6	5	0	5	1	5	2	5	3	5	4	
5	9	6	0	5	1	5	0	5	1	5	2	5	1	5	0	
5	7	2	1	5	3	2	0	2	1	2	2	2	3	2	4	
5	9	6	0	5	12	9	0	9	1	9	5	9	3	5	4	
2	14	7	7	0	7	1	7	2	7	3	7	4	
7	10	12	5	1	2	7	8	10	0	10	1	10	2	10	1	10	0	
3	11	8	7	11	0	11	1	11	2	11	3	11	4	
2	13	12	12	0	12	1	12	2	12	5	12	4	
4	10	12	5	0	0	0	0	1	0	2	0	5	0	4	
4	7	0	6	9	7	0	7	1	0	2	6	1	6	0	
3	4	1	5	4	0	4	1	4	2	4	1	4	0	
4	13	6	0	7	7	0	7	1	7	2	7	3	7	4	
5	6	13	6	0	7	13	0	13	1	13	2	13	5	13	4	
2	2	7	7	0	7	1	7	2	7	1	7	0	
2	0	6	0	0	0	1	0	2	0	3	0	4	
3	7	8	11	8	0	8	1	8	5	8	3	8	4	
4	10	12	5	3	10	0	10	1	10	5	10	3	10	4	
3	1	5	12	5	0	5	1	5	2	5	3	5	4	
4	1	2	7	8	1	0	1	1	1	5	1	3	1	4	
5	0	6	13	6	9	13	0	13	1	13	5	13	3	13	4	
4	11	8	7	2	11	0	11	1	11	2	11	5	11	4	
6	8	7	2	1	5	3	8	0	8	1	1	5	1	3	1	4	
5	6	0	5	12	10	10	0	10	1	10	5	10	3	10	4	
3	13	6	0	0	0	0	1	0	2	0	3	0	4	
3	13	12	10	12	0	12	1	12	2	12	1	12	0	
2	0	6	0	0	0	1	0	2	0	1	0	0	
4	2	7	8	11	11	0	11	1	11	2	11	5	11	4	
3	8	11	9	8	0	8	1	8	2	8	1	8	0	
5	14	7	0	6	13	7	0	7	1	7	2	7	1	7	0	
6	8	7	2	1	5	3	7	0	7	1	1	2	5	1	5	0	
5	14	7	2	1	5	7	0	7	1	7	2	5	1	5	0	
2	5	0	0	0	0	1	0	2	0	5	0	4	
3	14	7	2	7	0	7	1	7	2	7	3	7	4	
3	7	2	1	1	0	1	1	1	5	1	3	1	4	
6	2	1	5	0	6	9	2	0	6	1	6	2	9	5	9	4	
4	12	5	1	4	4	0	4	1	4	2	4	3	4	4	
4	6	0	5	1	5	0	5	1	5	2	5	3	5	4	
2	7	14	7	0	7	1	7	2	7	1	7	0	
6	4	1	5	0	6	13	4	0	4	1	4	5	4	3	13	4	
6	4	1	5	0	6	13	4	0	4	1	4	2	4	5	13	4	
4	3	5	0	6	5	0	5	1	5	2	5	1	5	0	
6	9	6	0	5	1	4	4	0	4	1	4	2	4	1	4	0	
5	3	5	0	7	14	7	0	7	1	7	2	7	5	7	4	
7	10	12	5	1	2	7	8	10	0	10	1	10	2	10	3	10	4	
2	11	9	9	0	9	1	9	5	9	3	9	4	
2	9	11	9	0	9	1	9	2	9	1	9	0	
5	3	5	0	6	9	5	0	5	1	5	2	5	1	5	0	
2	2	7	2	0	2	1	2	5	2	3	2	4	
5	7	2	1	5	3	7	0	7	1	7	2	2	5	5	4	
3	7	8	11	11	0	11	1	11	2	11	1	11	0	
3	10	12	13	12	0	12	1	12	2	12	3	12	4	
6	9	6	0	5	1	2	9	0	9	1	9	2	5	5	5	4	
6	6	13	6	0	7	14	13	0	13	1	13	5	13	3	13	4	
4	6	0	7	14	7	0	7	1	7	2	7	5	7	4	
6	2	1	5	0	6	9	0	0	9	1	9	2	9	3	9	4	
3	12	5	1	5	0	5	1	5	2	5	3	5	4	
2	8	7	7	0	7	1	7	2	7	1	7	0	
3	6	9	11	6	0	6	1	6	2	6	3	6	4	
2	5	0	0	0	0	1	0	5	0	3	0	4	
4	0	6	9	11	11	0	11	1	11	5	11	3	11	4	
3	11	8	7	11	0	11	1	11	2	11	5	11	4	
4	13	6	0	5	13	0	13	1	13	2	13	5	13	4	
2	0	7	7	0	7	1	7	2	7	3	7	4	
5	14	7	0	6	9	7	0	0	1	0	2	0	1	6	0	
2	10	12	10	0	10	1	10	2	10	1	10	0	
4	13	6	0	5	13	0	13	1	13	5	13	3	13	4	
5	9	6	0	7	14	9	0	9	1	9	2	9	5	9	4	
4	11	8	7	2	11	0	11	1	11	2	11	3	11	4	
3	10	12	13	12	0	12	1	12	5	12	3	12	4	
3	2	1	4	1	0	1	1	1	2	1	1	1	0	
4	12	5	1	4	1	0	1	1	1	2	1	5	1	4	
6	3	5	1	2	7	14	3	0	3	1	3	5	5	3	5	4	
4	6	0	7	14	7	0	7	1	7	2	7	1	7	0	
2	0	6	0	0	0	1	0	5	0	3	0	4	
5	9	6	0	5	1	5	0	5	1	5	2	5	3	5	4	
2	0	5	5	0	5	1	5	2	5	1	5	0	
4	1	5	12	10	5	0	5	1	5	2	5	1	5	0	
2	11	9	9	0	9	1	9	2	9	1	9	0	
2	6	9	6	0	6	1	6	2	6	5	6	4	
2	5	0	5	0	5	1	5	2	5	1	5	0	
4	1	2	7	8	7	0	7	1	7	2	7	3	7	4	
4	0	5	1	2	0	0	0	1	1	5	2	3	2	4	
3	11	8	7	11	0	11	1	11	2	11	1	11	0	
4	7	2	1	4	4	0	4	1	4	5	4	3	4	4	
4	14	7	8	11	7	0	7	1	7	2	7	5	7	4	
6	12	5	0	6	9	11	11	0	11	1	11	2	11	5	11	4	
2	8	7	7	0	7	1	7	2	7	5	7	4	
4	10	12	5	1	10	0	10	1	10	2	10	1	10	0	
5	13	6	0	5	3	13	0	13	1	13	2	13	3	13	4	
4	9	6	0	7	9	0	9	1	9	5	9	3	0	4	
5	4	1	5	0	6	0	0	0	1	0	5	0	3	0	4	
3	0	5	3	0	0	0	1	0	2	0	5	0	4	
3	1	5	12	1	0	1	1	1	5	1	3	1	4	
3	3	5	0	5	0	5	1	5	2	5	3	5	4	
4	4	1	5	12	4	0	4	1	4	2	4	3	4	4	
5	6	0	5	1	2	6	0	0	1	0	2	0	3	0	4	
4	7	2	1	5	7	0	7	1	7	2	7	3	7	4	
5	13	6	0	7	14	0	0	0	1	0	5	0	3	0	4	
2	13	6	6	0	6	1	6	2	6	5	6	4	
3	12	5	0	0	0	0	1	0	2	0	5	0	4	
5	14	7	0	6	13	0	0	0	1	0	5	0	3	0	4	
4	6	0	5	1	5	0	5	1	5	2	5	1	5	0	
3	0	7	8	7	0	7	1	7	2	7	5	7	4	
6	6	13	6	0	5	1	13	0	13	1	13	5	13	3	13	4	
3	1	5	0	0	0	0	1	0	2	0	5	0	4	
2	1	5	5	0	5	1	5	2	5	3	5	4	
5	3	5	0	6	9	0	0	0	1	0	5	0	3	0	4	
5	9	6	13	6	0	13	0	13	1	13	2	13	3	13	4	
6	13	6	0	5	1	2	13	0	13	1	13	2	13	1	13	0	
3	5	0	6	5	0	5	1	5	2	5	1	5	0	
3	0	6	13	0	0	0	1	0	2	0	5	0	4	
2	11	8	8	0	8	1	8	2	8	1	8	0	
5	14	7	2	1	4	1	0	1	1	1	5	1	3	1	4	
4	12	5	0	6	12	0	12	1	12	2	6	3	6	4	
5	14	7	0	5	12	0	0	0	1	0	5	0	3	0	4	
2	4	1	1	0	1	1	1	2	1	3	1	4	
3	8	11	9	8	0	8	1	8	2	8	5	8	4	
2	5	3	3	0	3	1	3	5	3	3	3	4	
6	1	5	0	6	13	6	13	0	13	1	13	5	13	3	13	4	
2	1	5	5	0	5	1	5	2	5	1	5	0	
3	14	7	0	7	0	7	1	7	2	7	1	7	0	
5	8	7	2	1	5	1	0	1	1	5	5	5	3	5	4	
2	5	0	5	0	5	1	5	2	5	3	5	4	
4	0	6	9	11	11	0	11	1	11	2	11	3	11	4	
3	3	5	1	1	0	1	1	1	2	1	5	1	4	
4	12	5	1	2	1	0	1	1	1	5	1	3	1	4	
6	7	2	1	5	12	10	10	0	10	1	10	5	10	3	10	4	
5	1	5	0	6	13	13	0	13	1	13	2	13	3	13	4	
5	12	5	1	2	7	12	0	12	1	12	2	7	5	7	4	
4	3	5	1	2	1	0	1	1	1	5	1	3	1	4	
4	4	1	5	3	1	0	1	1	1	2	1	5	1	4	
2	7	8	7	0	7	1	7	2	7	3	7	4	
3	3	5	0	5	0	5	1	5	2	5	1	5	0	
3	0	6	9	0	0	0	1	0	2	0	3	0	4	
6	11	9	6	0	5	1	11	0	11	1	11	2	11	3	11	4	
3	6	9	11	6	0	6	1	6	5	6	3	6	4	
3	14	7	8	7	0	7	1	7	2	7	5	7	4	
6	12	5	0	6	9	11	11	0	11	1	11	2	11	3	11	4	
4	10	12	5	3	10	0	10	1	10	2	10	1	10	0	
5	2	1	5	12	10	1	0	1	1	1	2	1	5	1	4	
4	2	1	5	0	2	0	2	1	2	2	2	3	1	4	
6	8	7	2	1	5	3	2	0	2	1	2	2	2	3	2	4	
5	6	0	5	1	4	0	0	0	1	0	5	0	3	0	4	
2	2	1	1	0	1	1	1	2	1	1	1	0	
2	11	8	8	0	8	1	8	2	8	5	8	4	
5	4	1	2	7	8	1	0	1	1	1	5	1	3	1	4	
5	4	1	2	7	8	4	0	4	1	4	2	4	3	4	4	
5	4	1	5	12	10	4	0	10	1	10	2	10	1	10	0	
5	10	12	5	0	6	10	0	10	1	10	2	10	5	10	4	
3	11	8	7	8	0	8	1	8	5	8	3	8	4	
2	12	10	10	0	10	1	10	2	10	5	10	4	
5	4	1	5	12	10	4	0	10	1	10	5	10	3	10	4	
4	4	1	5	12	4	0	4	1	4	2	4	5	4	4	
5	10	12	5	0	6	10	0	10	1	10	2	10	1	10	0	
2	11	9	9	0	9	1	9	2	9	5	9	4	
3	10	12	5	12	0	12	1	12	2	12	5	12	4	
6	14	7	2	1	5	3	3	0	3	1	3	2	3	1	3	0	
2	1	2	1	0	1	1	1	2	1	3	1	4	
2	6	0	0	0	0	1	0	2	0	5	0	4	
5	3	5	0	6	13	13	0	13	1	13	5	13	3	13	4	
3	12	5	1	5	0	5	1	5	2	5	1	5	0	
5	6	0	5	1	4	4	0	4	1	4	2	4	1	4	0	
5	8	7	2	1	5	2	0	2	1	2	2	2	1	5	0	
4	13	6	0	5	13	0	13	1	13	2	13	1	13	0	
6	9	6	0	5	12	10	10	0	10	1	10	2	10	1	10	0	
2	2	7	7	0	7	1	7	2	7	5	7	4	
6	7	2	1	5	12	10	10	0	10	1	10	2	10	1	10	0	
2	10	12	10	0	10	1	10	2	10	3	10	4	
6	2	1	5	0	6	9	2	0	6	1	6	5	9	3	9	4	
5	6	0	5	12	10	10	0	10	1	10	2	10	3	10	4	
4	11	9	6	13	6	0	6	1	6	2	6	1	6	0	
4	13	6	0	7	13	0	13	1	13	5	13	3	13	4	
2	7	8	7	0	7	1	7	2	7	1	7	0	
2	7	14	7	0	7	1	7	2	7	5	7	4	
6	9	6	0	5	1	4	0	0	0	1	0	2	0	5	0	4	
5	13	6	0	5	3	13	0	13	1	13	2	13	5	13	4	
3	6	9	11	6	0	6	1	6	2	6	5	6	4	
3	0	6	9	0	0	0	1	0	2	0	5	0	4	
3	10	12	13	12	0	12	1	12	2	12	1	12	0	
4	6	0	7	8	6	0	6	1	6	2	6	3	6	4	
4	10	12	5	0	10	0	10	1	10	5	10	3	10	4	
4	4	1	5	0	4	0	4	1	4	2	4	1	4	0	
6	11	9	6	0	5	1	11	0	11	1	11	2	11	1	11	0	
4	7	0	6	13	7	0	7	1	7	2	7	3	7	4	
5	8	11	9	6	0	11	0	11	1	11	5	11	3	11	4	
5	9	6	0	5	1	0	0	0	1	0	5	0	3	0	4	
6	12	5	1	2	7	8	12	0	12	1	12	2	2	3	2	4	
3	0	7	8	0	0	0	1	0	5	0	3	0	4	
4	7	0	6	9	9	0	9	1	9	2	9	5	9	4	
5	3	5	1	2	7	5	0	5	1	7	5	7	3	7	4	
4	13	6	0	5	13	0	13	1	13	2	13	3	13	4	
5	12	5	1	2	7	5	0	1	1	1	2	1	1	1	0	
5	12	5	0	6	9	9	0	9	1	9	5	9	3	9	4	
5	10	12	5	0	6	10	0	10	1	10	2	10	3	10	4	
5	6	0	5	1	2	6	0	6	1	2	2	2	1	2	0	
4	6	0	5	3	5	0	5	1	5	2	5	1	5	0	
5	8	7	2	1	4	4	0	4	1	4	2	4	3	4	4	
4	3	5	1	2	5	0	5	1	5	2	5	3	5	4	
3	1	2	7	7	0	7	1	7	2	7	3	7	4	
6	3	5	0	6	9	11	11	0	11	1	11	2	11	1	11	0	
6	11	9	6	0	5	12	11	0	11	1	11	5	11	3	11	4	
4	9	6	0	5	5	0	5	1	5	2	5	1	5	0	
4	2	1	5	12	5	0	5	1	5	2	5	1	5	0	
5	13	6	0	7	14	7	0	7	1	7	2	7	1	7	0	
3	8	7	14	8	0	8	1	8	5	8	3	8	4	
2	8	11	8	0	8	1	8	2	8	3	8	4	
5	13	6	0	7	14	7	0	7	1	7	2	7	3	7	4	
5	8	7	2	1	4	4	0	4	1	4	2	4	5	4	4	
6	10	12	5	1	2	7	10	0	10	1	10	2	10	1	10	0	
3	9	6	13	6	0	6	1	6	2	6	3	6	4	
6	11	9	6	0	5	12	11	0	11	1	11	2	11	3	11	4	
4	11	9	6	13	6	0	6	1	6	5	6	3	6	4	
4	11	9	6	13	6	0	6	1	6	2	6	5	6	4	
2	1	2	1	0	1	1	1	2	1	5	1	4	
6	4	1	5	0	6	9	4	0	4	1	4	2	4	1	4	0	
6	6	13	6	0	5	3	13	0	13	1	13	2	13	5	13	4	
4	3	5	12	10	5	0	5	1	5	2	5	3	5	4	
2	7	0	7	0	7	1	7	2	7	5	7	4	
3	0	5	12	0	0	0	1	0	2	0	5	0	4	
2	5	1	1	0	1	1	1	5	1	3	1	4	
4	0	5	1	2	0	0	0	1	0	2	5	3	5	4	
6	4	1	5	0	6	9	0	0	0	1	0	2	0	5	0	4	
5	14	7	2	1	4	4	0	4	1	4	2	4	3	4	4	
2	1	4	1	0	1	1	1	5	1	3	1	4	
3	1	2	7	7	0	7	1	7	2	7	1	7	0	
6	13	6	0	5	1	2	13	0	13	1	13	2	13	3	13	4	
3	4	1	5	1	0	1	1	1	2	1	5	1	4	
3	2	7	0	7	0	7	1	7	2	7	5	7	4	
3	12	5	0	0	0	0	1	0	5	0	3	0	4	
4	1	5	12	10	10	0	10	1	10	2	10	5	10	4	
3	13	12	10	12	0	12	1	12	2	12	5	12	4	
6	12	5	1	4	1	5	4	0	4	1	4	2	4	5	4	4	
2	13	6	6	0	6	1	6	2	6	1	6	0	
4	0	5	12	10	10	0	10	1	10	2	10	3	10	4	
6	11	9	6	0	5	3	11	0	11	1	11	2	11	3	11	4	
7	11	9	6	0	5	1	4	11	0	11	1	11	2	11	3	4	4	
4	1	5	12	10	10	0	10	1	10	2	10	3	10	4	
6	9	6	0	5	1	2	0	0	0	1	1	5	1	3	1	4	
4	7	2	1	5	7	0	7	1	7	5	7	3	7	4	
4	8	7	2	1	7	0	7	1	7	2	7	3	7	4	
4	2	1	5	3	5	0	5	1	5	2	5	1	5	0	
3	3	5	0	0	0	0	1	0	5	0	3	0	4	
3	3	5	12	12	0	12	1	12	2	12	5	12	4	
3	6	0	7	7	0	7	1	7	2	7	3	7	4	
4	6	0	5	12	0	0	0	1	0	5	0	3	0	4	
2	12	10	10	0	10	1	10	2	10	3	10	4	
6	2	1	5	0	6	13	13	0	13	1	13	2	13	5	13	4	
6	12	5	0	6	9	11	11	0	11	1	11	5	11	3	11	4	
5	5	0	6	9	11	11	0	11	1	11	5	11	3	11	4	
2	9	11	9	0	9	1	9	5	9	3	9	4	
3	14	7	2	2	0	2	1	2	5	2	3	2	4	
2	7	8	8	0	8	1	8	5	8	3	8	4	
4	2	1	5	3	1	0	1	1	1	5	1	3	1	4	
7	10	12	5	1	2	7	14	10	0	10	1	10	5	10	3	10	4	
3	0	6	9	0	0	0	1	0	2	0	1	0	0	
6	10	12	5	1	2	7	10	0	10	1	10	2	10	5	10	4	
7	4	1	5	0	6	9	11	4	0	4	1	4	2	4	1	11	0	
3	1	2	7	1	0	1	1	1	2	1	5	1	4	
2	1	4	1	0	1	1	1	2	1	3	1	4	
3	12	5	3	5	0	5	1	5	2	5	1	5	0	
3	5	1	4	1	0	1	1	1	2	1	5	1	4	
4	5	0	6	9	5	0	5	1	5	2	5	3	5	4	
7	4	1	5	0	6	9	11	4	0	4	1	4	2	4	5	11	4	
3	2	1	5	1	0	1	1	1	2	1	5	1	4	
5	13	6	0	5	1	13	0	13	1	13	2	13	3	13	4	
3	0	5	3	5	0	5	1	5	2	5	3	5	4	
3	3	5	12	12	0	12	1	12	5	12	3	12	4	
4	6	0	5	12	0	0	0	1	0	2	0	1	5	0	
5	3	5	1	2	7	5	0	5	1	2	2	2	3	2	4	
5	6	0	5	1	2	6	0	6	1	6	2	1	5	1	4	
4	7	0	6	13	7	0	7	1	7	2	7	1	7	0	
5	8	11	9	6	13	6	0	6	1	6	2	6	5	6	4	
7	14	7	2	1	5	12	10	10	0	10	1	10	2	10	5	10	4	
4	1	5	0	6	5	0	5	1	5	2	5	1	5	0	
4	9	6	0	5	5	0	5	1	5	2	5	3	5	4	
2	5	1	5	0	5	1	5	2	5	1	5	0	
6	13	6	0	5	1	4	13	0	13	1	13	2	13	3	4	4	
3	3	5	0	0	0	0	1	0	2	0	5	0	4	
5	1	5	0	6	9	0	0	0	1	0	5	0	3	0	4	
3	13	6	9	6	0	6	1	6	2	6	5	6	4	
3	8	7	2	8	0	8	1	8	5	8	3	8	4	
5	4	1	2	7	14	7	0	7	1	7	2	7	3	7	4	
7	10	12	5	1	2	7	14	10	0	10	1	10	2	10	1	10	0	
2	13	12	12	0	12	1	12	5	12	3	12	4	
2	0	7	7	0	7	1	7	2	7	5	7	4	
6	11	9	6	0	5	3	11	0	11	1	11	2	11	5	11	4	
3	4	1	2	1	0	1	1	1	2	1	5	1	4	
5	9	6	0	5	3	5	0	5	1	5	2	5	1	5	0	
2	12	13	12	0	12	1	12	2	12	1	12	0	
3	13	6	9	6	0	6	1	6	5	6	3	6	4	
4	0	5	12	10	5	0	5	1	5	2	5	1	5	0	
4	2	1	5	0	2	0	2	1	2	2	2	1	0	0	
5	10	12	5	1	4	10	0	4	1	4	2	4	3	4	4	
5	12	5	1	2	7	1	0	2	1	2	5	2	3	2	4	
6	8	7	2	1	5	12	8	0	12	1	12	2	12	5	12	4	
3	8	7	2	7	0	7	1	7	2	7	3	7	4	
5	7	0	6	13	6	13	0	13	1	13	2	13	5	13	4	
4	12	5	1	2	1	0	1	1	1	2	1	5	1	4	
3	2	1	5	5	0	5	1	5	2	5	3	5	4	
4	1	2	7	14	1	0	1	1	1	5	1	3	1	4	
5	14	7	0	5	3	0	0	0	1	0	5	0	3	0	4	
5	14	7	0	5	3	0	0	0	1	0	2	0	5	0	4	
3	10	12	5	10	0	10	1	10	2	10	1	10	0	
6	9	6	0	5	12	10	10	0	10	1	10	2	10	5	10	4	
2	5	3	3	0	3	1	3	2	3	5	3	4	
4	3	5	12	10	10	0	10	1	10	2	10	1	10	0	
5	5	1	2	7	14	5	0	5	1	5	2	1	3	1	4	
6	2	1	5	0	6	13	13	0	13	1	13	2	13	1	13	0	
7	8	7	2	1	5	12	10	10	0	10	1	10	2	10	3	10	4	
3	12	5	0	5	0	5	1	5	2	5	1	5	0	
3	7	2	1	7	0	7	1	7	2	7	3	7	4	
6	10	12	5	0	6	9	10	0	10	1	10	5	10	3	10	4	
6	9	6	0	5	12	10	10	0	10	1	10	2	10	3	10	4	
4	11	9	6	13	6	0	6	1	6	2	6	3	6	4	
2	1	2	1	0	1	1	1	5	1	3	1	4	
3	2	7	8	8	0	8	1	8	5	8	3	8	4	
4	14	7	0	6	0	0	0	1	0	2	0	5	0	4	
6	3	5	0	6	9	11	11	0	11	1	11	2	11	3	11	4	
4	0	6	9	11	11	0	11	1	11	2	11	5	11	4	
3	14	7	8	7	0	7	1	7	2	7	3	7	4	
5	6	13	6	0	5	13	0	13	1	13	2	13	5	13	4	
3	13	6	0	13	0	13	1	13	5	13	3	13	4	
3	2	7	14	7	0	7	1	7	2	7	3	7	4	
3	5	1	2	5	0	5	1	5	2	5	1	5	0	
7	14	7	2	1	5	12	10	10	0	10	1	10	5	10	3	10	4	
5	8	7	2	1	5	1	0	1	1	1	2	5	5	5	4	
6	9	6	0	5	1	2	9	0	9	1	9	2	9	3	9	4	
5	3	5	0	6	9	5	0	5	1	5	2	5	3	5	4	
6	1	5	0	6	9	11	11	0	11	1	11	2	11	5	11	4	
4	13	6	9	11	13	0	11	1	11	2	11	5	11	4	
3	13	6	9	6	0	6	1	6	2	6	1	6	0	
3	8	7	0	0	0	0	1	0	2	0	5	0	4	
4	0	5	1	4	4	0	4	1	4	2	4	1	4	0	
3	0	6	13	0	0	0	1	0	2	0	3	0	4	
5	5	1	2	7	14	5	0	5	1	5	2	7	1	7	0	
