4733.16	3933.16
1997
58915.9	40669.2
15
0	2539	2562
1	1672	1672
2	1251	1269
3	1183	1201
4	1500	1516
5	1565	1565
6	1830	1844
7	1562	1564
8	1497	1515
9	1644	1656
10	0	-1
11	0	-1
12	1589	1714
13	1812	1819
14	0	-1
44
0	5	97.162970	97.455506	1.000000
0	6	99.977004	100.293938	1.000000
0	7	93.916024	110.701856	1.000000
1	2	42.362710	108.809235	1.000000
1	4	38.182132	106.917613	1.000000
1	5	71.704218	108.809235	1.000000
2	1	42.913158	108.809235	1.000000
2	4	40.692894	100.293938	1.000000
2	7	92.290394	96.509295	1.000000
3	4	20.654712	93.670863	1.000000
3	5	45.317944	86.101477	1.000000
4	1	37.917042	106.917613	1.000000
4	2	39.759384	100.293938	1.000000
4	3	21.388710	93.670863	1.000000
5	0	97.386088	97.455506	1.000000
5	1	71.223370	108.809235	1.000000
5	3	45.254920	86.101477	1.000000
5	12	86.921674	87.047688	1.000000
6	0	100.210938	100.293938	1.000000
6	9	81.034602	91.778442	1.000000
6	13	85.391118	104.079181	1.000000
7	0	93.357976	110.701856	1.000000
7	2	92.741252	96.509295	1.000000
7	8	76.599124	103.132370	1.000000
7	14	52.101894	106.917613	1.000000
8	7	76.333358	103.132370	1.000000
8	9	42.686116	100.293938	1.000000
8	11	28.447118	85.155266	1.000000
8	14	14.305572	90.832331	1.000000
9	6	80.721386	91.778442	1.000000
9	8	42.755634	100.293938	1.000000
9	11	38.574106	105.970803	1.000000
10	12	28.499850	100.293938	1.000000
10	13	38.144628	95.563184	1.000000
11	8	29.058060	85.155266	1.000000
11	9	38.390176	105.970803	1.000000
12	5	85.688362	87.047688	1.000000
12	10	28.889268	100.293938	1.000000
12	13	38.887830	92.724652	1.000000
13	6	86.685938	104.079181	1.000000
13	10	38.248972	95.563184	1.000000
13	12	37.382912	92.724652	1.000000
14	7	52.270942	106.917613	1.000000
14	8	14.122884	90.832331	1.000000
840
4	10	12	5	3	12	0	5	1	3	5	3	3	3	4	
3	14	7	2	7	0	2	1	2	5	2	3	2	4	
3	3	5	0	0	0	0	1	0	5	0	3	0	4	
2	8	9	9	0	9	1	9	2	9	3	9	4	
4	14	7	2	4	4	0	4	1	4	5	4	3	4	4	
3	2	7	14	7	0	7	1	7	2	7	5	7	4	
4	9	6	13	12	6	0	13	1	13	5	12	3	12	4	
2	12	5	5	0	5	1	5	2	5	1	5	0	
3	2	7	8	8	0	8	1	8	2	8	5	8	4	
3	5	1	2	1	0	1	1	1	2	1	1	1	0	
5	13	12	5	1	4	13	0	1	1	1	2	4	3	4	4	
3	0	7	2	0	0	0	1	0	2	0	1	0	0	
4	4	1	5	12	12	0	12	1	12	5	12	3	12	4	
2	6	13	6	0	6	1	6	2	6	3	13	4	
3	8	7	0	0	0	0	1	0	2	0	5	0	4	
3	1	2	7	1	0	1	1	1	2	1	5	2	4	
3	8	9	6	6	0	6	1	6	2	6	5	6	4	
5	3	5	0	7	14	3	0	3	1	5	2	5	5	0	4	
2	8	7	7	0	7	1	7	5	7	3	7	4	
2	10	12	12	0	12	1	12	2	12	3	12	4	
4	3	5	0	7	3	0	3	1	3	2	3	3	3	4	
4	7	0	6	13	13	0	13	1	13	5	13	3	13	4	
4	14	7	2	1	1	0	1	1	1	5	1	3	1	4	
5	11	9	6	0	5	9	0	9	1	9	2	9	1	9	0	
2	1	2	1	0	1	1	1	2	1	3	1	4	
4	4	1	5	12	4	0	4	1	4	2	4	1	4	0	
3	7	2	1	2	0	2	1	2	5	2	3	2	4	
3	2	1	5	5	0	5	1	5	5	5	3	5	4	
2	9	6	9	0	9	1	9	5	9	3	9	4	
5	1	2	7	8	11	2	0	2	1	2	2	2	5	8	4	
4	11	9	6	0	9	0	9	1	9	2	9	1	9	0	
6	14	7	0	6	13	10	13	0	13	1	13	2	13	3	13	4	
2	4	1	4	0	4	1	4	2	4	1	4	0	
4	12	5	0	7	12	0	12	1	12	2	12	3	12	4	
2	5	0	5	0	5	1	5	2	5	3	5	4	
4	0	5	1	4	4	0	4	1	4	2	4	5	4	4	
2	11	9	9	0	9	1	9	2	9	1	9	0	
4	10	13	6	9	13	0	13	1	13	2	13	5	9	4	
2	9	8	9	0	9	1	9	5	9	3	9	4	
5	11	9	6	13	12	12	0	12	1	12	2	12	5	12	4	
3	7	0	6	0	0	0	1	0	2	0	5	6	4	
2	14	7	7	0	7	1	7	2	7	5	7	4	
4	13	6	9	11	13	0	13	1	13	5	13	3	13	4	
4	2	7	8	11	2	0	2	1	2	5	2	3	2	4	
3	6	13	10	13	0	13	1	13	5	13	3	13	4	
3	13	12	5	5	0	5	1	5	5	5	3	5	4	
3	0	5	1	1	0	1	1	1	2	1	3	1	4	
5	3	5	0	6	9	3	0	3	1	3	2	3	1	3	0	
4	3	5	12	10	3	0	3	1	3	2	3	5	5	4	
3	1	5	0	1	0	1	1	1	5	1	3	1	4	
3	7	0	5	0	0	0	1	0	2	0	3	0	4	
5	5	0	6	9	11	9	0	9	1	9	5	9	3	9	4	
3	0	7	8	0	0	0	1	0	2	0	5	0	4	
3	0	7	14	0	0	0	1	0	2	0	5	7	4	
2	3	4	3	0	3	1	3	2	3	1	3	0	
4	11	8	7	2	2	0	2	1	2	2	2	3	2	4	
2	14	8	8	0	8	1	8	2	8	1	8	0	
2	4	3	3	0	3	1	3	2	3	3	3	4	
2	2	4	4	0	4	1	4	2	4	3	4	4	
3	10	13	6	13	0	13	1	13	2	13	1	13	0	
3	13	6	0	13	0	13	1	13	2	13	5	6	4	
4	0	6	13	10	13	0	13	1	13	2	13	5	13	4	
4	6	0	5	1	0	0	0	1	0	2	0	5	5	4	
3	9	8	7	9	0	9	1	9	5	9	3	9	4	
5	8	9	6	13	10	9	0	9	1	9	2	9	3	9	4	
5	12	5	0	7	8	12	0	8	1	8	5	8	3	8	4	
4	14	7	0	5	5	0	5	1	5	2	5	1	5	0	
3	5	0	7	5	0	5	1	5	5	5	3	5	4	
3	12	13	6	12	0	12	1	12	5	12	3	12	4	
2	6	0	6	0	6	1	6	2	6	5	0	4	
2	5	1	5	0	5	1	5	5	5	3	5	4	
2	10	13	13	0	13	1	13	2	13	5	13	4	
4	13	12	5	3	3	0	3	1	3	2	3	3	3	4	
2	11	8	8	0	8	1	8	2	8	5	8	4	
4	6	0	7	2	2	0	2	1	2	2	2	3	2	4	
4	4	2	7	8	4	0	4	1	4	5	4	3	4	4	
4	9	6	13	10	9	0	9	1	9	2	9	1	9	0	
2	13	12	12	0	12	1	12	2	12	5	12	4	
2	10	13	13	0	13	1	13	2	13	3	13	4	
4	3	5	0	6	5	0	5	1	5	2	5	3	5	4	
5	7	0	6	13	10	7	0	7	1	7	2	7	1	13	0	
5	9	6	0	5	3	9	0	9	1	9	2	9	1	9	0	
3	12	5	3	12	0	12	1	12	2	12	5	12	4	
2	5	12	5	0	5	1	5	2	5	5	12	4	
3	7	8	9	9	0	9	1	9	5	9	3	9	4	
4	11	9	6	13	9	0	9	1	9	5	9	3	9	4	
3	0	6	13	6	0	6	1	6	5	6	3	6	4	
5	8	7	0	5	12	8	0	8	1	8	2	8	1	12	0	
3	14	8	11	8	0	8	1	8	2	8	3	8	4	
2	4	2	4	0	4	1	4	5	4	3	4	4	
3	12	5	0	5	0	5	1	5	2	5	3	5	4	
2	2	7	2	0	2	1	2	2	2	1	2	0	
5	14	7	0	6	13	7	0	7	1	7	2	7	5	13	4	
4	13	12	5	1	1	0	1	1	1	2	1	1	1	0	
2	6	0	6	0	6	1	6	2	6	1	6	0	
5	14	7	0	5	3	3	0	3	1	3	5	3	3	3	4	
3	14	7	2	2	0	2	1	2	2	2	5	2	4	
2	8	9	9	0	9	1	9	2	9	1	9	0	
3	6	13	12	12	0	12	1	12	2	12	5	12	4	
3	2	7	14	7	0	7	1	7	2	7	1	7	0	
4	10	12	5	1	1	0	1	1	1	2	1	5	1	4	
4	3	5	12	10	5	0	5	1	5	5	5	3	5	4	
2	9	8	9	0	9	1	9	2	9	3	9	4	
2	3	5	5	0	5	1	5	2	5	5	5	4	
3	5	1	2	1	0	1	1	1	2	1	5	2	4	
5	13	12	5	1	4	13	0	1	1	1	2	4	1	4	0	
3	0	7	2	0	0	0	1	0	2	0	3	0	4	
2	6	13	6	0	6	1	6	2	6	1	6	0	
3	8	7	0	7	0	7	1	7	2	7	1	7	0	
3	11	9	6	9	0	9	1	9	2	9	5	6	4	
3	1	2	7	7	0	7	1	7	2	7	1	7	0	
3	7	2	4	4	0	4	1	4	2	4	3	4	4	
3	3	4	2	4	0	4	1	4	2	4	5	4	4	
5	10	12	5	1	2	1	0	1	1	1	5	1	3	2	4	
3	3	4	1	4	0	4	1	4	5	4	3	4	4	
2	10	12	12	0	12	1	12	5	12	3	12	4	
3	13	6	9	13	0	13	1	9	5	9	3	9	4	
4	7	0	6	13	0	0	0	1	0	2	0	5	0	4	
5	11	9	6	0	5	9	0	6	1	6	2	6	3	6	4	
2	1	2	1	0	1	1	1	2	1	1	1	0	
4	4	1	5	12	12	0	12	1	12	2	12	3	12	4	
4	12	5	1	2	1	0	1	1	1	2	1	1	2	0	
3	2	1	5	1	0	1	1	1	2	1	3	1	4	
3	5	12	13	12	0	12	1	12	2	12	1	12	0	
4	5	0	7	14	7	0	7	1	7	5	7	3	7	4	
5	11	9	6	13	10	9	0	9	1	9	2	9	5	6	4	
3	13	6	9	13	0	13	1	13	2	13	5	13	4	
5	1	2	7	8	11	8	0	8	1	8	2	8	1	8	0	
2	8	11	8	0	8	1	8	2	8	3	8	4	
2	4	1	4	0	4	1	4	2	4	5	4	4	
3	14	8	9	8	0	8	1	8	2	8	5	8	4	
4	12	5	0	7	7	0	7	1	7	2	7	1	7	0	
2	5	0	0	0	0	1	0	2	0	1	0	0	
5	13	6	0	7	2	7	0	7	1	7	2	7	3	7	4	
4	0	5	1	4	0	0	0	1	0	2	0	1	4	0	
3	7	8	11	7	0	7	1	7	5	7	3	7	4	
4	6	0	5	3	3	0	3	1	3	2	3	3	3	4	
2	11	9	9	0	9	1	9	2	9	3	9	4	
3	10	12	5	12	0	12	1	12	2	12	5	5	4	
3	7	0	6	7	0	7	1	7	5	7	3	7	4	
5	12	5	0	7	14	0	0	0	1	0	2	0	1	7	0	
2	14	7	7	0	7	1	7	5	7	3	7	4	
4	13	6	9	11	6	0	6	1	6	2	6	5	9	4	
3	6	13	10	13	0	13	1	13	2	13	5	13	4	
3	13	12	5	12	0	12	1	12	2	12	5	5	4	
3	0	5	1	0	0	0	1	0	2	0	1	0	0	
5	3	5	0	6	9	3	0	3	1	3	2	3	3	3	4	
3	11	8	7	7	0	7	1	7	2	7	1	7	0	
3	1	5	0	0	0	0	1	0	2	0	3	0	4	
4	4	2	7	14	7	0	7	1	7	2	7	1	7	0	
5	5	0	6	9	11	0	0	0	1	0	2	0	5	0	4	
5	13	6	0	7	14	6	0	6	1	6	2	6	3	6	4	
3	0	7	8	7	0	7	1	7	2	7	1	7	0	
2	3	4	3	0	3	1	3	2	3	5	4	4	
4	11	8	7	2	7	0	7	1	7	2	7	1	7	0	
2	14	8	8	0	8	1	8	2	8	3	8	4	
5	2	1	5	12	10	12	0	12	1	12	5	12	3	12	4	
2	4	3	3	0	3	1	3	2	3	1	3	0	
3	12	5	1	1	0	1	1	1	2	1	3	1	4	
2	2	4	2	0	2	1	2	5	2	3	2	4	
4	5	0	7	14	5	0	5	1	5	2	5	3	5	4	
3	10	13	6	6	0	6	1	6	2	6	3	6	4	
3	13	6	0	0	0	0	1	0	5	0	3	0	4	
4	6	0	5	1	1	0	1	1	1	5	1	3	1	4	
4	8	7	2	4	2	0	2	1	2	5	2	3	2	4	
4	14	7	0	5	7	0	7	1	7	2	7	5	0	4	
5	8	9	6	13	10	9	0	9	1	9	5	9	3	9	4	
5	12	5	0	7	8	5	0	5	1	5	2	5	5	5	4	
3	5	0	7	0	0	0	1	0	2	0	5	0	4	
3	12	13	6	12	0	12	1	12	2	12	5	12	4	
2	5	1	1	0	1	1	1	2	1	5	1	4	
5	10	13	6	9	8	8	0	8	1	8	2	8	1	8	0	
3	0	5	3	3	0	3	1	3	2	3	3	3	4	
6	3	5	0	6	9	11	9	0	9	1	9	2	9	1	9	0	
4	4	2	7	8	2	0	2	1	2	2	2	5	7	4	
2	12	13	12	0	12	1	12	2	12	3	12	4	
2	7	8	8	0	8	1	8	5	8	3	8	4	
2	2	1	2	0	2	1	2	2	2	5	1	4	
4	9	6	13	10	13	0	13	1	13	2	13	5	13	4	
2	13	12	12	0	12	1	12	5	12	3	12	4	
2	10	13	13	0	13	1	13	2	13	1	13	0	
4	3	5	0	6	3	0	3	1	3	2	5	1	5	0	
4	9	6	13	12	12	0	12	1	12	2	12	5	12	4	
5	11	8	7	2	4	4	0	4	1	4	2	4	3	4	4	
2	8	11	8	0	8	1	8	5	8	3	8	4	
5	4	1	5	12	13	4	0	4	1	4	2	4	3	5	4	
5	9	6	0	5	3	3	0	3	1	3	2	3	3	3	4	
3	12	5	3	5	0	5	1	5	5	5	3	5	4	
2	5	12	5	0	5	1	5	5	5	3	5	4	
5	10	12	5	1	4	12	0	12	1	12	2	4	1	4	0	
4	1	5	12	13	5	0	5	1	5	2	5	5	5	4	
4	11	9	6	13	9	0	9	1	9	2	9	5	6	4	
5	8	7	0	5	12	8	0	8	1	8	2	8	3	8	4	
3	14	8	11	8	0	8	1	8	2	8	1	8	0	
5	2	7	0	6	13	7	0	0	1	0	2	0	5	13	4	
2	4	2	4	0	4	1	4	2	4	5	4	4	
3	9	6	13	9	0	9	1	9	2	9	1	9	0	
2	2	7	7	0	7	1	7	2	7	5	7	4	
4	13	12	5	1	1	0	1	1	1	2	1	3	1	4	
2	6	0	0	0	0	1	0	2	0	3	0	4	
2	11	8	8	0	8	1	8	2	8	3	8	4	
3	14	7	2	2	0	2	1	2	2	2	1	2	0	
4	6	0	7	2	0	0	0	1	0	5	0	3	0	4	
2	1	4	4	0	4	1	4	2	4	5	4	4	
3	7	2	1	2	0	2	1	2	2	2	1	2	0	
3	2	7	14	2	0	2	1	2	2	2	3	2	4	
2	9	8	8	0	8	1	8	2	8	1	8	0	
3	0	5	12	0	0	0	1	0	5	0	3	0	4	
3	5	1	2	2	0	2	1	2	5	2	3	2	4	
5	10	13	6	9	11	9	0	9	1	9	2	9	3	9	4	
3	0	7	2	2	0	2	1	2	5	2	3	2	4	
5	3	4	2	7	8	3	0	3	1	3	2	3	3	3	4	
3	8	7	0	8	0	8	1	8	2	8	3	8	4	
3	11	9	6	9	0	9	1	9	5	9	3	9	4	
3	3	5	12	3	0	3	1	3	5	3	3	3	4	
3	1	2	7	2	0	2	1	2	2	7	3	7	4	
3	7	2	4	2	0	2	1	2	2	2	1	2	0	
5	9	8	7	2	1	8	0	8	1	8	2	8	1	8	0	
3	2	7	0	0	0	0	1	0	2	0	1	0	0	
2	12	5	5	0	5	1	5	5	5	3	5	4	
5	10	12	5	1	2	5	0	5	1	5	2	1	5	2	4	
2	9	8	8	0	8	1	8	2	8	5	8	4	
2	10	12	12	0	12	1	12	2	12	5	12	4	
4	1	2	7	8	7	0	7	1	7	2	7	5	8	4	
4	3	5	0	7	3	0	3	1	3	2	0	5	0	4	
4	7	0	6	13	13	0	13	1	13	2	13	1	13	0	
2	8	14	8	0	8	1	8	2	8	1	8	0	
3	14	8	9	9	0	9	1	9	2	9	3	9	4	
5	1	2	7	8	9	1	0	9	1	9	2	9	5	9	4	
4	12	5	1	2	5	0	5	1	5	2	5	3	5	4	
3	2	1	5	5	0	5	1	5	2	5	1	5	0	
3	5	12	13	13	0	13	1	13	2	13	3	13	4	
5	10	13	6	0	7	0	0	0	1	0	2	0	3	0	4	
2	0	7	0	0	0	1	0	2	0	5	0	4	
5	11	9	6	13	10	13	0	13	1	13	5	13	3	13	4	
5	1	2	7	8	11	1	0	1	1	1	2	1	3	1	4	
2	8	11	8	0	8	1	8	2	8	1	8	0	
4	2	1	5	12	5	0	5	1	5	2	5	1	5	0	
2	4	1	1	0	1	1	1	5	1	3	1	4	
3	9	8	14	9	0	9	1	9	2	9	3	9	4	
5	9	8	7	2	4	2	0	2	1	2	5	2	3	2	4	
5	13	6	0	7	2	13	0	13	1	13	2	13	1	13	0	
4	0	5	1	4	0	0	0	1	0	2	0	3	4	4	
4	6	0	5	3	3	0	3	1	3	2	3	1	3	0	
3	8	7	2	7	0	7	1	7	2	7	1	7	0	
2	1	5	5	0	5	1	5	2	5	1	5	0	
3	7	0	6	6	0	6	1	6	2	6	3	6	4	
5	12	5	0	7	14	5	0	5	1	5	2	5	3	5	4	
4	13	6	9	11	13	0	13	1	13	2	13	1	13	0	
4	0	6	9	11	6	0	6	1	6	2	6	5	9	4	
3	6	13	10	13	0	13	1	13	2	13	1	13	0	
3	0	5	1	1	0	1	1	1	2	1	5	1	4	
2	7	0	7	0	7	1	7	2	0	5	0	4	
3	11	8	7	7	0	7	1	7	2	7	3	7	4	
3	1	5	0	5	0	5	1	5	2	5	1	5	0	
4	4	2	7	14	2	0	2	1	2	2	2	3	2	4	
4	9	8	7	2	9	0	2	1	2	2	2	3	2	4	
5	9	8	7	2	4	4	0	4	1	4	2	4	5	4	4	
3	2	4	3	3	0	3	1	3	2	3	3	3	4	
5	8	7	0	5	3	8	0	8	1	8	5	8	3	3	4	
5	5	0	6	9	11	9	0	9	1	9	2	9	1	9	0	
5	13	6	0	7	14	6	0	6	1	6	2	6	1	6	0	
3	0	7	8	7	0	7	1	7	2	7	3	7	4	
4	2	1	5	12	2	0	2	1	2	5	12	3	12	4	
5	1	2	7	8	9	9	0	9	1	9	2	9	1	9	0	
3	6	0	7	6	0	6	1	6	5	6	3	6	4	
4	8	9	6	13	13	0	13	1	13	2	13	3	13	4	
2	14	8	8	0	8	1	8	5	8	3	8	4	
5	2	1	5	12	10	2	0	2	1	2	2	1	5	1	4	
3	12	5	1	12	0	12	1	12	2	12	1	12	0	
2	2	4	2	0	2	1	2	2	2	5	4	4	
4	5	0	7	14	7	0	7	1	7	2	7	1	7	0	
3	13	6	0	13	0	13	1	13	2	13	3	13	4	
2	0	6	6	0	6	1	6	2	6	1	6	0	
6	11	9	6	0	5	3	9	0	9	1	9	2	9	5	9	4	
4	6	0	5	1	6	0	6	1	6	2	6	3	6	4	
4	8	7	2	4	7	0	7	1	7	2	7	5	7	4	
2	8	9	9	0	9	1	9	5	9	3	9	4	
5	8	9	6	13	10	13	0	13	1	13	2	13	5	13	4	
5	12	5	0	7	8	5	0	5	1	5	2	5	1	5	0	
3	5	0	7	0	0	0	1	0	2	0	1	0	0	
5	10	13	6	9	8	9	0	9	1	8	2	8	3	8	4	
3	0	5	3	3	0	3	1	3	2	3	1	3	0	
6	3	5	0	6	9	11	9	0	9	1	9	2	9	3	9	4	
4	8	7	2	1	8	0	8	1	8	2	8	3	1	4	
2	12	10	12	0	12	1	12	2	12	5	12	4	
4	1	5	0	6	6	0	6	1	6	2	6	3	6	4	
2	6	9	9	0	9	1	9	5	9	3	9	4	
4	4	2	7	8	8	0	8	1	8	2	8	1	8	0	
2	12	13	13	0	13	1	13	2	13	1	13	0	
2	2	1	1	0	1	1	1	5	1	3	1	4	
4	9	6	13	10	9	0	9	1	9	5	9	3	9	4	
2	13	12	13	0	13	1	13	2	13	3	13	4	
4	0	6	13	10	6	0	6	1	6	2	6	1	6	0	
5	13	6	0	7	2	0	0	0	1	0	5	0	3	0	4	
3	6	13	12	6	0	6	1	6	5	6	3	6	4	
5	11	8	7	2	4	8	0	8	1	8	2	8	1	8	0	
5	4	1	5	12	13	4	0	4	1	4	2	1	1	1	0	
3	12	5	3	3	0	3	1	3	2	3	3	3	4	
2	5	12	5	0	5	1	5	2	5	3	5	4	
5	10	12	5	1	4	12	0	12	1	12	2	4	3	4	4	
4	6	0	5	3	0	0	0	1	0	5	0	3	0	4	
4	11	9	6	13	9	0	9	1	9	2	9	1	9	0	
4	1	5	12	10	1	0	1	1	1	2	1	3	1	4	
2	7	2	2	0	2	1	2	2	2	5	2	4	
3	14	8	11	8	0	8	1	8	2	8	5	8	4	
5	2	7	0	6	13	7	0	0	1	0	5	0	3	13	4	
3	9	6	13	9	0	9	1	9	2	9	3	6	4	
4	13	6	0	7	0	0	0	1	0	5	0	3	0	4	
2	2	7	7	0	7	1	7	5	7	3	7	4	
4	7	0	5	12	0	0	0	1	0	5	0	3	0	4	
4	6	0	7	14	0	0	0	1	0	5	0	3	0	4	
4	8	7	0	5	0	0	0	1	0	5	0	3	0	4	
4	13	12	5	1	5	0	5	1	5	5	5	3	5	4	
2	0	5	5	0	5	1	5	2	5	3	5	4	
4	3	5	12	13	3	0	3	1	3	2	3	1	3	0	
2	11	8	8	0	8	1	8	2	8	1	8	0	
3	14	7	2	7	0	7	1	7	2	7	3	7	4	
2	1	4	1	0	1	1	1	5	1	3	1	4	
3	7	2	1	1	0	1	1	1	2	1	3	1	4	
2	7	0	0	0	0	1	0	5	0	3	0	4	
3	0	5	12	0	0	0	1	0	2	0	5	0	4	
3	7	8	11	7	0	7	1	7	2	7	5	8	4	
5	12	5	0	7	14	5	0	5	1	5	2	5	5	0	4	
5	10	13	6	9	11	9	0	9	1	9	2	9	1	9	0	
3	0	7	2	0	0	0	1	0	2	0	5	0	4	
5	3	4	2	7	8	3	0	3	1	3	2	3	1	3	0	
2	7	14	7	0	7	1	7	2	7	5	7	4	
3	11	9	6	6	0	6	1	6	2	6	3	6	4	
5	14	7	0	5	12	12	0	12	1	12	2	12	1	12	0	
3	7	2	4	4	0	4	1	4	2	4	5	4	4	
5	9	8	7	2	1	9	0	9	1	9	2	9	3	9	4	
2	13	6	6	0	6	1	6	5	6	3	6	4	
3	2	7	0	2	0	2	1	2	2	2	3	2	4	
4	4	1	5	12	12	0	12	1	12	2	12	5	12	4	
5	10	12	5	1	2	1	0	1	1	1	2	1	1	1	0	
3	6	9	8	9	0	9	1	9	5	9	3	9	4	
3	0	6	9	6	0	6	1	6	2	6	3	6	4	
3	3	4	1	3	0	3	1	3	2	3	1	3	0	
3	6	0	5	6	0	6	1	6	2	6	5	6	4	
3	7	0	5	5	0	5	1	5	5	5	3	5	4	
4	7	0	6	13	13	0	13	1	13	2	13	3	13	4	
2	8	14	8	0	8	1	8	2	8	3	8	4	
4	12	5	1	4	12	0	1	1	1	5	4	3	4	4	
3	14	8	9	9	0	9	1	9	2	9	1	9	0	
2	5	3	3	0	3	1	3	5	3	3	3	4	
4	12	5	1	2	1	0	1	1	1	5	1	3	1	4	
3	5	12	13	13	0	13	1	13	5	13	3	13	4	
5	10	13	6	0	7	13	0	13	1	13	2	13	1	13	0	
2	0	7	0	0	0	1	0	5	0	3	0	4	
5	11	9	6	13	10	9	0	9	1	9	2	9	3	9	4	
3	14	7	0	0	0	0	1	0	2	0	1	0	0	
4	7	0	5	3	3	0	3	1	3	2	3	1	3	0	
4	2	1	5	12	1	0	1	1	1	2	1	3	1	4	
4	8	7	2	1	8	0	8	1	8	5	8	3	8	4	
3	9	8	14	9	0	9	1	9	2	9	1	9	0	
4	13	6	9	8	9	0	9	1	9	2	9	5	9	4	
2	5	0	5	0	5	1	5	5	5	3	5	4	
2	6	9	6	0	6	1	6	2	6	5	9	4	
4	10	13	6	9	13	0	13	1	13	2	13	3	13	4	
4	3	5	12	10	3	0	3	1	3	2	3	3	3	4	
3	8	7	2	2	0	2	1	2	2	2	3	2	4	
2	1	5	1	0	1	1	1	2	1	3	1	4	
3	7	0	6	6	0	6	1	6	2	6	1	6	0	
3	9	8	7	8	0	8	1	8	2	8	1	8	0	
4	1	5	0	6	5	0	5	1	5	5	5	3	5	4	
4	5	0	7	8	5	0	5	1	5	2	5	5	0	4	
4	13	6	9	11	13	0	13	1	13	2	13	3	13	4	
4	0	6	9	11	6	0	6	1	6	5	6	3	6	4	
3	6	13	10	13	0	13	1	13	2	13	3	13	4	
5	11	8	7	2	1	1	0	1	1	1	5	1	3	1	4	
3	6	9	8	9	0	8	1	8	2	8	5	8	4	
4	4	1	5	0	4	0	4	1	4	5	1	3	1	4	
2	13	10	13	0	13	1	13	5	13	3	13	4	
3	11	8	7	7	0	7	1	7	5	7	3	7	4	
4	4	2	7	14	4	0	4	1	4	5	4	3	4	4	
4	9	8	7	2	2	0	2	1	2	2	2	1	2	0	
3	2	4	3	3	0	3	1	3	2	3	1	3	0	
5	5	0	6	9	11	5	0	5	1	5	2	5	3	5	4	
3	10	12	5	12	0	12	1	12	2	12	3	12	4	
5	6	0	5	1	4	0	0	0	1	0	2	0	1	4	0	
5	1	2	7	8	9	1	0	1	1	1	2	1	3	1	4	
3	6	9	11	9	0	9	1	9	5	9	3	9	4	
4	8	9	6	13	13	0	13	1	13	2	13	1	13	0	
5	12	13	6	9	11	13	0	13	1	13	2	13	5	13	4	
2	14	8	8	0	8	1	8	2	8	5	8	4	
5	2	1	5	12	10	1	0	1	1	1	2	1	1	1	0	
3	5	1	4	4	0	4	1	4	2	4	5	4	4	
4	9	6	13	12	12	0	12	1	12	2	12	3	12	4	
4	1	2	7	8	1	0	1	1	1	5	1	3	1	4	
4	5	0	7	14	5	0	5	1	5	2	5	5	0	4	
3	13	6	0	13	0	13	1	13	2	13	1	13	0	
2	0	6	6	0	6	1	6	2	6	3	6	4	
4	6	0	5	1	1	0	1	1	1	2	1	1	1	0	
4	8	7	2	4	2	0	2	1	2	2	2	1	2	0	
5	14	7	0	5	3	3	0	3	1	3	2	3	3	3	4	
2	7	0	0	0	0	1	0	2	0	3	0	4	
5	12	5	0	7	8	5	0	5	1	5	2	5	3	5	4	
4	1	5	12	13	1	0	1	1	1	5	1	3	1	4	
3	5	0	7	5	0	5	1	5	2	5	3	5	4	
3	13	6	9	9	0	9	1	9	2	9	1	9	0	
3	6	9	8	9	0	9	1	9	2	9	1	9	0	
4	3	5	12	13	3	0	3	1	3	2	3	5	3	4	
6	3	5	0	6	9	11	9	0	9	1	9	5	9	3	9	4	
4	8	7	2	1	1	0	1	1	1	2	1	1	1	0	
2	1	2	1	0	1	1	1	5	1	3	1	4	
4	1	5	0	6	1	0	1	1	1	2	1	1	1	0	
4	4	2	7	8	2	0	2	1	2	2	2	3	2	4	
3	9	6	0	9	0	9	1	9	2	9	3	9	4	
2	2	1	1	0	1	1	1	2	1	3	1	4	
4	5	0	6	9	6	0	6	1	6	2	9	1	9	0	
2	13	12	12	0	12	1	12	2	12	1	12	0	
4	0	6	13	10	0	0	0	1	0	2	0	3	0	4	
5	13	6	0	7	14	0	0	0	1	0	5	0	3	0	4	
3	11	8	14	8	0	8	1	8	2	8	5	8	4	
4	7	0	5	12	7	0	5	1	5	2	5	3	12	4	
5	11	8	7	2	4	4	0	4	1	4	2	4	5	4	4	
5	4	1	5	12	13	1	0	1	1	1	2	1	5	1	4	
3	12	5	3	3	0	3	1	3	2	3	1	3	0	
2	5	12	5	0	5	1	5	2	5	1	5	0	
5	10	12	5	1	4	12	0	12	1	12	5	4	3	4	4	
4	7	0	5	12	7	0	7	1	7	2	0	5	5	4	
3	6	0	7	6	0	6	1	6	2	6	3	6	4	
4	11	9	6	13	9	0	9	1	9	2	9	3	9	4	
4	1	5	12	10	12	0	12	1	12	2	12	1	12	0	
2	7	2	2	0	2	1	2	5	2	3	2	4	
2	12	10	12	0	12	1	12	2	12	1	12	0	
3	14	8	11	8	0	8	1	8	5	8	3	8	4	
5	2	7	0	6	13	7	0	0	1	0	2	0	3	13	4	
3	9	6	13	6	0	6	1	6	5	6	3	6	4	
4	13	6	0	7	0	0	0	1	0	2	0	5	0	4	
4	6	0	7	14	6	0	6	1	6	2	6	5	6	4	
4	13	12	5	1	13	0	13	1	13	2	13	5	12	4	
2	0	5	5	0	5	1	5	2	5	1	5	0	
4	3	5	12	13	3	0	3	1	3	2	3	3	3	4	
5	8	7	2	4	3	7	0	7	1	7	2	7	3	2	4	
5	1	2	7	8	9	7	0	7	1	7	5	7	3	7	4	
2	1	4	1	0	1	1	1	2	1	3	1	4	
5	4	1	5	12	10	4	0	4	1	4	2	1	1	1	0	
2	13	10	13	0	13	1	13	2	13	3	13	4	
3	0	5	12	5	0	5	1	5	2	12	1	12	0	
3	6	9	11	6	0	6	1	6	2	6	3	6	4	
4	1	2	7	14	7	0	7	1	7	5	7	3	7	4	
5	10	13	6	9	11	13	0	6	1	6	2	6	5	9	4	
5	3	4	2	7	8	3	0	3	1	3	2	7	5	7	4	
2	7	14	7	0	7	1	7	5	7	3	7	4	
3	11	9	6	6	0	6	1	6	2	6	1	6	0	
5	14	7	0	5	12	0	0	0	1	0	2	0	3	0	4	
4	2	7	0	6	2	0	2	1	2	5	2	3	2	4	
3	7	2	4	2	0	2	1	2	5	2	3	2	4	
5	9	8	7	2	1	2	0	2	1	2	5	2	3	2	4	
3	2	7	0	2	0	2	1	2	5	2	3	2	4	
3	5	12	10	5	0	5	1	12	2	12	3	12	4	
5	10	12	5	1	2	2	0	2	1	2	2	2	3	2	4	
3	0	6	9	0	0	0	1	0	2	0	1	0	0	
3	3	4	1	3	0	3	1	3	2	3	3	3	4	
3	6	0	5	5	0	5	1	5	5	5	3	5	4	
4	1	2	7	8	1	0	1	1	1	2	1	3	1	4	
5	4	1	5	0	6	4	0	6	1	6	2	6	1	6	0	
2	8	14	8	0	8	1	8	5	8	3	8	4	
4	12	5	1	4	1	0	1	1	1	2	1	5	4	4	
3	5	1	4	4	0	4	1	4	5	4	3	4	4	
2	5	3	3	0	3	1	3	2	3	5	3	4	
4	12	5	1	2	5	0	5	1	5	2	5	5	2	4	
3	5	12	13	13	0	13	1	13	2	13	5	13	4	
5	10	13	6	0	7	0	0	0	1	0	2	0	5	0	4	
3	12	5	1	12	0	12	1	12	5	12	3	12	4	
2	0	7	7	0	7	1	7	2	7	3	7	4	
5	11	9	6	13	10	6	0	6	1	6	2	6	1	6	0	
3	14	7	0	7	0	7	1	7	2	7	3	7	4	
4	7	0	5	3	3	0	3	1	3	2	3	3	3	4	
4	12	13	6	9	12	0	12	1	12	2	12	3	12	4	
3	9	6	0	6	0	6	1	6	2	6	5	0	4	
3	5	0	6	5	0	5	1	5	2	5	3	5	4	
3	9	8	14	9	0	9	1	9	2	9	5	9	4	
4	13	6	9	8	13	0	13	1	13	5	13	3	13	4	
3	6	0	7	7	0	7	1	7	2	7	5	7	4	
4	10	13	6	9	6	0	6	1	6	2	6	1	9	0	
3	1	4	3	1	0	1	1	1	5	1	3	1	4	
4	3	5	12	10	12	0	12	1	12	2	12	1	12	0	
3	8	7	2	2	0	2	1	2	5	2	3	2	4	
2	1	5	1	0	1	1	1	5	1	3	1	4	
5	4	2	7	8	9	4	0	4	1	4	2	4	3	4	4	
3	9	8	7	8	0	8	1	8	2	8	3	8	4	
2	9	11	9	0	9	1	9	5	9	3	9	4	
4	1	5	12	10	12	0	12	1	12	5	12	3	12	4	
4	5	0	7	8	5	0	5	1	5	5	5	3	5	4	
4	10	13	6	0	6	0	6	1	6	2	6	1	6	0	
4	0	6	9	11	6	0	6	1	6	2	6	3	9	4	
2	8	9	8	0	8	1	8	2	8	5	9	4	
5	11	8	7	2	1	1	0	1	1	1	2	1	5	1	4	
4	4	1	5	0	4	0	4	1	4	2	4	5	0	4	
2	10	13	13	0	13	1	13	5	13	3	13	4	
3	11	8	7	7	0	7	1	7	2	7	5	7	4	
4	2	7	8	9	2	0	2	1	2	2	2	5	2	4	
4	4	2	7	14	4	0	4	1	4	2	4	5	4	4	
4	9	8	7	2	2	0	2	1	2	2	2	5	2	4	
3	2	4	3	3	0	3	1	3	2	3	5	3	4	
3	10	12	5	12	0	12	1	12	2	12	1	12	0	
2	12	10	12	0	12	1	12	5	12	3	12	4	
5	6	0	5	1	4	0	0	0	1	0	2	0	3	0	4	
5	11	9	6	13	12	12	0	12	1	12	2	12	3	12	4	
5	4	2	7	8	11	4	0	4	1	4	2	4	5	8	4	
4	14	7	0	6	6	0	6	1	6	2	6	1	6	0	
3	4	1	5	5	0	5	1	5	2	5	3	5	4	
4	8	9	6	13	13	0	13	1	13	2	13	5	13	4	
5	12	13	6	9	11	12	0	12	1	12	5	12	3	12	4	
5	2	1	5	12	10	2	0	2	1	2	2	1	3	1	4	
5	13	6	0	7	2	6	0	6	1	6	2	6	5	2	4	
4	9	6	13	12	6	0	6	1	6	2	6	1	6	0	
5	3	5	0	6	9	6	0	6	1	6	2	6	5	6	4	
2	0	6	0	0	0	1	0	5	0	3	0	4	
3	3	5	12	12	0	12	1	12	2	12	3	12	4	
4	8	7	2	4	4	0	4	1	4	2	4	3	4	4	
5	14	7	0	5	3	0	0	0	1	0	2	0	1	0	0	
3	7	2	1	1	0	1	1	1	2	1	5	1	4	
2	7	0	0	0	0	1	0	2	0	1	0	0	
4	9	6	0	5	0	0	0	1	0	2	0	1	0	0	
5	4	2	7	8	11	8	0	8	1	8	5	8	3	8	4	
4	6	0	5	3	6	0	6	1	6	2	6	5	3	4	
3	13	6	9	13	0	13	1	13	2	13	3	13	4	
3	6	9	8	6	0	6	1	6	2	6	3	6	4	
5	10	13	6	9	8	13	0	13	1	13	2	13	5	9	4	
3	1	5	12	12	0	12	1	12	2	12	5	12	4	
6	3	5	0	6	9	11	9	0	9	1	9	2	9	5	9	4	
3	7	8	9	9	0	9	1	9	2	9	1	9	0	
5	14	7	0	6	13	0	0	0	1	0	2	0	3	0	4	
3	9	6	0	9	0	9	1	9	2	9	1	6	0	
4	8	7	0	5	5	0	5	1	5	2	5	5	5	4	
3	0	5	3	0	0	0	1	0	5	0	3	0	4	
2	2	1	1	0	1	1	1	2	1	1	1	0	
2	8	11	8	0	8	1	8	2	8	5	8	4	
4	5	0	6	9	6	0	6	1	6	2	6	3	6	4	
4	10	12	5	3	3	0	3	1	3	2	3	3	3	4	
4	0	6	13	10	0	0	0	1	0	5	0	3	0	4	
3	3	5	0	3	0	3	1	3	2	3	3	3	4	
3	11	8	14	8	0	8	1	8	5	8	3	8	4	
4	7	0	5	12	0	0	0	1	0	2	0	1	0	0	
5	11	8	7	2	4	7	0	7	1	7	5	7	3	7	4	
3	2	7	8	7	0	7	1	7	2	7	1	7	0	
6	10	13	6	0	7	14	6	0	6	1	6	2	0	5	0	4	
5	12	5	0	7	14	12	0	12	1	12	5	12	3	12	4	
5	10	12	5	1	4	1	0	1	1	1	2	1	5	1	4	
3	5	0	6	6	0	6	1	6	5	6	3	6	4	
3	6	0	7	6	0	6	1	6	2	6	1	6	0	
3	8	9	6	6	0	6	1	6	2	6	1	6	0	
4	14	7	2	1	7	0	7	1	7	2	7	3	7	4	
2	13	6	13	0	13	1	13	2	13	5	6	4	
4	12	13	6	9	12	0	12	1	12	5	12	3	9	4	
2	7	2	2	0	2	1	2	2	2	3	2	4	
2	12	10	12	0	12	1	12	2	12	3	12	4	
5	2	7	0	6	13	7	0	0	1	0	2	0	1	13	0	
4	14	7	2	1	7	0	7	1	7	2	7	5	1	4	
3	9	6	13	9	0	9	1	9	2	9	5	13	4	
4	13	6	0	7	6	0	6	1	6	2	6	1	6	0	
4	6	0	7	14	6	0	6	1	6	2	6	1	6	0	
2	0	5	5	0	5	1	5	2	5	5	5	4	
5	8	7	0	5	3	8	0	8	1	8	2	8	1	3	0	
2	1	4	4	0	4	1	4	2	4	1	4	0	
5	4	1	5	12	10	12	0	12	1	12	2	12	3	12	4	
2	9	6	6	0	6	1	6	2	6	3	6	4	
6	14	7	0	6	13	10	0	0	0	1	0	5	0	3	0	4	
2	13	10	13	0	13	1	13	2	13	1	13	0	
3	0	5	12	12	0	12	1	12	2	12	3	12	4	
3	6	9	11	9	0	9	1	9	2	9	1	9	0	
5	10	13	6	9	11	9	0	9	1	9	5	9	3	9	4	
4	1	5	12	13	12	0	12	1	12	2	12	1	12	0	
5	3	5	0	7	8	8	0	8	1	8	5	8	3	8	4	
2	7	14	7	0	7	1	7	2	7	3	7	4	
4	8	7	2	1	2	0	2	1	2	2	2	5	1	4	
5	14	7	0	5	12	0	0	0	1	0	5	0	3	0	4	
4	2	7	0	6	7	0	0	1	0	2	0	5	0	4	
5	9	8	7	2	1	9	0	9	1	9	2	9	5	7	4	
3	2	7	0	0	0	0	1	0	2	0	5	0	4	
3	5	12	10	12	0	12	1	12	2	12	1	12	0	
3	0	6	9	6	0	6	1	6	2	6	5	9	4	
3	6	0	5	5	0	5	1	5	2	5	3	5	4	
4	1	2	7	8	2	0	2	1	2	2	2	1	2	0	
5	4	1	5	0	6	4	0	4	1	4	2	4	3	4	4	
2	8	14	8	0	8	1	8	2	8	5	8	4	
4	12	5	1	4	12	0	1	1	1	2	4	1	4	0	
4	2	7	8	11	2	0	2	1	2	2	2	3	2	4	
2	5	3	3	0	3	1	3	2	3	1	3	0	
5	10	13	6	0	7	0	0	0	1	0	5	0	3	0	4	
2	13	10	13	0	13	1	13	2	13	5	13	4	
2	0	7	0	0	0	1	0	2	0	1	0	0	
4	8	7	0	5	5	0	5	1	5	2	5	3	5	4	
3	3	4	1	3	0	3	1	3	2	3	5	4	4	
3	14	7	0	0	0	0	1	0	5	0	3	0	4	
4	7	0	5	3	7	0	7	1	7	5	7	3	3	4	
4	12	13	6	9	12	0	12	1	12	2	12	1	12	0	
4	2	1	5	12	2	0	2	1	2	2	1	5	1	4	
3	5	0	6	6	0	6	1	6	2	6	1	6	0	
3	9	8	14	9	0	9	1	9	5	9	3	9	4	
4	13	6	9	8	6	0	6	1	6	2	6	3	6	4	
3	0	7	14	0	0	0	1	0	2	0	1	0	0	
2	4	3	3	0	3	1	3	5	3	3	3	4	
2	6	9	9	0	9	1	9	2	9	3	9	4	
3	6	9	11	6	0	6	1	6	2	6	5	9	4	
3	1	4	3	4	0	4	1	4	2	4	5	3	4	
3	8	7	2	7	0	7	1	7	2	7	5	7	4	
2	1	5	5	0	5	1	5	2	5	5	5	4	
5	4	2	7	8	9	2	0	2	1	2	2	2	1	2	0	
4	5	0	7	8	0	0	0	1	0	2	0	3	0	4	
4	10	13	6	0	13	0	13	1	13	2	13	3	13	4	
4	0	6	9	11	6	0	6	1	6	2	6	1	9	0	
5	11	8	7	2	1	1	0	1	1	1	2	1	1	1	0	
4	1	2	7	14	2	0	2	1	2	2	2	3	2	4	
6	14	7	0	6	13	10	0	0	0	1	0	2	0	5	13	4	
4	4	1	5	0	1	0	1	1	1	2	1	1	1	0	
4	2	7	8	9	2	0	2	1	2	5	2	3	2	4	
4	9	8	7	2	2	0	2	1	2	5	2	3	2	4	
4	13	12	5	3	12	0	12	1	12	5	12	3	12	4	
3	2	4	3	4	0	4	1	4	5	4	3	4	4	
2	6	0	0	0	0	1	0	5	0	3	0	4	
2	1	2	1	0	1	1	1	2	1	5	2	4	
5	6	0	5	1	4	4	0	4	1	4	5	4	3	4	4	
5	11	9	6	13	12	12	0	12	1	12	2	12	1	12	0	
4	14	7	0	6	0	0	0	1	0	2	0	3	0	4	
3	4	1	5	4	0	4	1	4	2	1	1	1	0	
4	8	9	6	13	13	0	13	1	13	5	13	3	13	4	
5	12	13	6	9	11	12	0	12	1	12	2	12	3	12	4	
3	5	1	4	4	0	4	1	4	2	4	3	4	4	
5	13	6	0	7	14	0	0	0	1	0	2	0	5	0	4	
2	0	6	6	0	6	1	6	2	6	5	6	4	
3	3	5	12	3	0	3	1	3	2	3	1	3	0	
5	7	0	6	13	10	13	0	13	1	13	2	13	5	13	4	
5	14	7	2	4	3	3	0	3	1	3	2	3	5	3	4	
6	11	9	6	0	5	3	9	0	9	1	9	5	9	3	9	4	
5	4	2	7	8	11	4	0	4	1	4	2	4	3	4	4	
4	9	6	0	5	9	0	9	1	9	2	9	3	9	4	
3	4	2	7	4	0	4	1	4	5	4	3	4	4	
6	10	13	6	0	7	14	6	0	6	1	6	2	6	1	6	0	
3	0	6	13	0	0	0	1	0	2	0	3	0	4	
2	3	5	5	0	5	1	5	2	5	1	5	0	
3	1	5	12	12	0	12	1	12	5	12	3	12	4	
3	7	8	9	9	0	9	1	9	2	9	3	9	4	
3	12	5	0	12	0	12	1	12	5	12	3	12	4	
5	14	7	0	6	13	7	0	7	1	7	2	7	1	13	0	
4	5	0	6	9	5	0	5	1	5	5	5	3	5	4	
4	10	12	5	3	12	0	12	1	12	2	12	1	12	0	
4	14	7	0	6	7	0	0	1	0	2	6	5	6	4	
3	3	5	0	5	0	5	1	5	2	5	1	5	0	
5	4	1	5	12	13	12	0	12	1	12	5	12	3	12	4	
3	11	8	14	8	0	8	1	8	2	8	3	8	4	
4	14	7	2	4	4	0	4	1	4	2	4	1	4	0	
3	4	2	7	4	0	4	1	4	2	4	3	4	4	
3	2	7	8	7	0	7	1	7	2	7	3	7	4	
4	1	2	7	14	1	0	1	1	1	2	1	5	1	4	
5	13	12	5	1	4	12	0	12	1	12	2	12	5	4	4	
2	6	13	13	0	13	1	13	2	13	5	13	4	
5	3	4	2	7	14	2	0	2	1	2	2	2	3	2	4	
3	8	9	6	8	0	8	1	8	2	8	3	8	4	
4	14	7	2	1	7	0	7	1	7	2	7	1	7	0	
2	7	2	7	0	7	1	2	2	2	1	2	0	
2	9	11	9	0	9	1	9	2	9	1	9	0	
4	13	6	0	7	0	0	0	1	0	2	0	3	0	4	
4	6	0	7	14	6	0	6	1	6	2	6	3	6	4	
5	11	9	6	0	5	9	0	9	1	9	5	9	3	9	4	
2	0	5	5	0	5	1	5	5	5	3	5	4	
3	7	8	11	7	0	7	1	7	2	7	1	7	0	
5	4	1	5	12	10	12	0	12	1	12	5	12	3	12	4	
2	9	6	9	0	9	1	9	2	9	1	9	0	
3	12	5	1	12	0	12	1	12	2	12	5	5	4	
4	11	9	6	0	9	0	9	1	9	5	9	3	9	4	
4	10	12	5	1	1	0	1	1	1	2	1	3	1	4	
4	3	5	12	13	3	0	3	1	3	5	3	3	3	4	
3	3	4	2	2	0	2	1	2	2	2	3	2	4	
4	1	5	12	13	1	0	1	1	12	2	12	3	12	4	
2	7	14	7	0	7	1	7	2	7	1	7	0	
4	12	5	0	7	0	0	0	1	0	2	0	5	7	4	
5	14	7	0	5	12	0	0	0	1	0	2	0	5	5	4	
4	2	7	0	6	2	0	2	1	2	2	2	1	2	0	
2	5	0	0	0	0	1	0	2	0	5	0	4	
5	3	5	0	7	14	3	0	3	1	3	5	3	3	3	4	
3	5	12	10	12	0	12	1	12	2	12	5	12	4	
2	11	9	9	0	9	1	9	5	9	3	9	4	
3	0	6	9	9	0	9	1	9	5	9	3	9	4	
3	6	0	5	6	0	6	1	6	2	6	1	6	0	
2	14	7	7	0	7	1	7	2	7	3	7	4	
5	4	1	5	0	6	4	0	4	1	4	5	4	3	4	4	
4	1	5	12	10	1	0	1	1	1	2	1	5	1	4	
4	12	5	1	4	12	0	1	1	1	2	4	3	4	4	
4	2	7	8	11	8	0	8	1	8	2	8	1	8	0	
2	5	3	3	0	3	1	3	2	3	3	3	4	
3	13	12	5	5	0	5	1	5	2	5	1	5	0	
3	6	13	12	6	0	6	1	6	2	6	1	6	0	
4	14	7	2	4	2	0	2	1	2	2	2	5	4	4	
4	8	7	0	5	8	0	8	1	8	2	8	1	8	0	
3	14	7	0	7	0	7	1	7	2	7	5	0	4	
4	7	2	4	3	3	0	3	1	3	2	3	5	3	4	
5	9	8	7	2	4	8	0	8	1	8	2	8	3	8	4	
2	9	11	9	0	9	1	9	2	9	5	9	4	
3	5	0	6	0	0	0	1	0	2	0	5	0	4	
4	13	6	9	8	8	0	8	1	8	2	8	1	8	0	
3	0	7	14	7	0	7	1	7	2	7	3	7	4	
2	6	9	9	0	9	1	9	2	9	1	9	0	
4	11	8	7	2	8	0	8	1	8	2	8	5	2	4	
3	1	4	3	4	0	4	1	4	2	4	1	4	0	
2	7	8	8	0	8	1	8	2	8	3	8	4	
4	10	13	6	9	13	0	13	1	13	5	13	3	13	4	
2	12	5	5	0	5	1	5	2	5	5	5	4	
5	11	9	6	13	12	13	0	13	1	13	5	13	3	13	4	
5	4	2	7	8	9	4	0	4	1	4	2	4	5	8	4	
5	3	5	0	6	9	9	0	9	1	9	5	9	3	9	4	
3	10	13	6	13	0	13	1	13	5	13	3	13	4	
4	5	0	7	8	7	0	7	1	7	2	7	1	7	0	
4	10	13	6	0	13	0	13	1	13	5	13	3	13	4	
5	11	8	7	2	1	1	0	1	1	1	2	1	3	1	4	
4	1	2	7	14	1	0	1	1	1	2	1	1	1	0	
4	4	1	5	0	1	0	1	1	0	2	0	3	0	4	
3	12	13	6	13	0	13	1	13	2	13	1	13	0	
4	2	7	8	9	2	0	9	1	9	2	9	3	9	4	
2	5	1	1	0	1	1	1	2	1	1	1	0	
4	13	12	5	3	13	0	13	1	13	2	13	5	12	4	
4	6	0	7	2	6	0	6	1	6	2	0	5	7	4	
5	6	0	5	1	4	5	0	5	1	5	2	4	5	4	4	
2	8	7	8	0	8	1	8	2	8	3	8	4	
3	7	0	5	0	0	0	1	0	2	0	5	5	4	
3	4	1	5	1	0	1	1	1	2	1	5	1	4	
5	12	13	6	9	11	13	0	13	1	13	2	13	1	9	0	
3	5	1	4	4	0	4	1	4	2	4	1	4	0	
6	10	13	6	0	7	14	0	0	0	1	0	5	0	3	0	4	
2	13	6	13	0	13	1	13	2	13	3	13	4	
3	0	5	1	0	0	0	1	0	5	0	3	0	4	
4	3	5	0	6	3	0	3	1	3	2	6	5	6	4	
3	3	5	12	12	0	12	1	12	2	12	5	12	4	
5	7	0	6	13	10	13	0	13	1	13	5	13	3	13	4	
5	9	6	0	5	3	9	0	9	1	9	5	9	3	9	4	
3	9	8	7	9	0	9	1	9	2	9	5	7	4	
5	4	2	7	8	11	2	0	2	1	2	2	2	1	2	0	
4	9	6	0	5	0	0	0	1	0	5	0	3	0	4	
6	10	13	6	0	7	14	6	0	6	1	6	2	6	3	6	4	
3	0	6	13	13	0	13	1	13	2	13	1	13	0	
2	3	5	3	0	3	1	3	2	3	3	3	4	
4	12	13	6	9	13	0	13	1	13	2	13	5	9	4	
6	11	9	6	0	5	3	9	0	6	1	6	2	6	1	3	0	
2	11	8	8	0	8	1	8	5	8	3	8	4	
3	1	5	12	5	0	5	1	5	2	5	3	5	4	
2	3	5	3	0	3	1	3	5	3	3	3	4	
2	4	2	2	0	2	1	2	2	2	1	2	0	
3	12	5	0	0	0	0	1	0	2	0	5	0	4	
5	10	13	6	9	8	8	0	8	1	8	5	8	3	8	4	
4	5	0	6	9	5	0	5	1	5	2	5	5	6	4	
4	10	12	5	3	3	0	3	1	3	2	3	5	3	4	
3	3	5	0	3	0	3	1	3	2	3	5	3	4	
3	11	8	14	8	0	8	1	8	2	8	1	8	0	
4	14	7	2	4	2	0	2	1	2	2	2	3	2	4	
3	2	7	14	2	0	2	1	2	5	2	3	2	4	
3	4	2	7	2	0	2	1	2	2	2	1	2	0	
2	12	5	12	0	12	1	12	2	12	3	12	4	
3	2	7	8	2	0	2	1	2	5	2	3	2	4	
3	5	1	2	2	0	2	1	2	2	2	3	2	4	
5	13	12	5	1	4	4	0	4	1	4	5	4	3	4	4	
2	6	13	13	0	13	1	13	5	13	3	13	4	
3	8	7	0	8	0	8	1	8	5	8	3	8	4	
3	7	8	9	8	0	8	1	8	2	8	5	9	4	
3	1	2	7	7	0	7	1	7	5	7	3	7	4	
5	3	4	2	7	14	4	0	4	1	4	2	4	1	4	0	
3	8	9	6	8	0	8	1	8	5	8	3	8	4	
2	9	11	9	0	9	1	9	2	9	3	9	4	
2	10	12	12	0	12	1	12	2	12	1	12	0	
4	3	4	2	7	4	0	4	1	4	2	4	1	4	0	
5	14	7	0	6	13	7	0	7	1	7	5	7	3	13	4	
5	11	9	6	0	5	5	0	5	1	5	2	5	5	5	4	
3	7	8	11	7	0	7	1	7	2	7	3	7	4	
3	2	1	5	1	0	1	1	1	2	1	5	1	4	
5	4	1	5	12	10	4	0	4	1	4	2	1	5	1	4	
2	9	6	6	0	6	1	6	2	6	5	6	4	
4	10	12	5	1	12	0	12	1	12	5	12	3	12	4	
2	12	13	12	0	12	1	12	2	12	5	13	4	
4	10	12	5	1	1	0	1	1	1	2	1	1	1	0	
5	1	2	7	8	11	2	0	2	1	2	5	2	3	2	4	
3	3	4	2	2	0	2	1	2	2	2	1	2	0	
4	11	9	6	0	9	0	6	1	6	2	6	3	6	4	
6	14	7	0	6	13	10	7	0	7	1	7	2	7	1	13	0	
2	4	1	4	0	4	1	4	2	4	3	4	4	
4	12	5	0	7	7	0	7	1	7	5	7	3	7	4	
4	2	7	0	6	2	0	2	1	2	2	2	3	2	4	
2	4	3	4	0	4	1	4	2	4	5	4	4	
3	3	4	2	2	0	2	1	2	5	2	3	2	4	
4	0	5	1	4	1	0	1	1	1	5	1	3	1	4	
3	5	12	10	12	0	12	1	12	5	12	3	12	4	
2	11	9	9	0	9	1	9	2	9	5	9	4	
4	11	9	6	0	9	0	6	1	6	2	6	5	6	4	
2	14	7	7	0	7	1	7	2	7	1	7	0	
5	4	1	5	0	6	4	0	6	1	6	2	6	5	6	4	
4	3	5	0	7	3	0	3	1	3	5	3	3	3	4	
4	2	7	8	11	8	0	8	1	8	2	8	5	8	4	
3	13	12	5	13	0	13	1	13	2	13	3	13	4	
3	9	6	0	9	0	9	1	9	5	9	3	9	4	
3	6	13	12	12	0	12	1	12	2	12	3	12	4	
3	1	5	0	5	0	5	1	5	2	0	5	0	4	
3	7	0	5	5	0	5	1	5	2	5	1	5	0	
2	12	13	13	0	13	1	13	5	13	3	13	4	
5	9	8	7	2	4	2	0	2	1	2	2	2	1	2	0	
3	0	7	8	7	0	7	1	7	5	7	3	7	4	
3	14	8	9	8	0	8	1	8	5	8	3	8	4	
3	0	7	14	7	0	7	1	7	5	7	3	7	4	
2	3	4	3	0	3	1	3	2	3	3	3	4	
2	8	7	7	0	7	1	7	2	7	5	7	4	
4	11	8	7	2	2	0	2	1	2	5	2	3	2	4	
3	1	4	3	3	0	3	1	3	2	3	3	3	4	
2	7	8	8	0	8	1	8	2	8	1	8	0	
3	10	12	5	12	0	12	1	12	5	12	3	12	4	
2	2	4	2	0	2	1	2	2	2	1	2	0	
5	4	2	7	8	9	2	0	2	1	2	5	2	3	2	4	
3	10	13	6	13	0	13	1	13	2	13	5	6	4	
4	10	13	6	0	13	0	13	1	13	2	13	5	6	4	
4	1	5	0	6	5	0	5	1	5	2	5	5	5	4	
5	8	7	0	5	12	8	0	8	1	8	2	8	5	12	4	
5	8	7	0	5	12	8	0	8	1	8	5	8	3	12	4	
5	8	9	6	13	10	8	0	8	1	9	2	9	1	9	0	
4	14	7	0	5	0	0	0	1	0	2	0	3	0	4	
3	4	2	7	2	0	2	1	2	2	2	5	2	4	
3	12	13	6	13	0	13	1	13	2	13	3	13	4	
4	2	7	8	9	8	0	8	1	9	2	9	1	9	0	
2	5	1	1	0	1	1	1	2	1	3	1	4	
4	13	12	5	3	3	0	3	1	3	2	3	1	3	0	
3	0	5	3	0	0	0	1	0	2	0	5	5	4	
4	6	0	7	2	2	0	2	1	2	2	2	1	2	0	
2	8	7	8	0	8	1	8	2	8	1	8	0	
3	4	1	5	4	0	4	1	4	5	4	3	4	4	
4	9	6	13	10	9	0	9	1	9	2	9	3	9	4	
4	14	7	0	6	7	0	0	1	0	5	6	3	6	4	
2	13	6	6	0	6	1	6	2	6	1	6	0	
2	7	8	7	0	7	1	7	2	7	5	7	4	
2	3	4	4	0	4	1	4	5	4	3	4	4	
4	3	5	0	6	3	0	3	1	3	5	3	3	3	4	
5	8	7	0	5	3	8	0	8	1	8	2	8	5	3	4	
5	7	0	6	13	10	13	0	13	1	13	2	13	3	13	4	
5	9	6	0	5	3	3	0	3	1	3	2	3	5	3	4	
4	14	7	0	5	7	0	7	1	7	5	7	3	7	4	
4	9	6	0	5	9	0	9	1	9	2	9	5	6	4	
3	0	6	13	6	0	6	1	6	2	13	5	13	4	
6	11	9	6	0	5	3	9	0	6	1	6	2	6	3	3	4	
3	1	5	12	12	0	12	1	12	2	12	1	12	0	
2	4	2	4	0	4	1	4	2	4	3	4	4	
3	12	5	0	12	0	12	1	12	2	12	1	12	0	
2	2	7	2	0	2	1	2	2	2	3	2	4	
