4403.94	3798.86
2461
123067	63458.9
15
0	6926	6941
1	0	-1
2	0	-1
3	0	-1
4	0	-1
5	6242	6265
6	0	-1
7	6471	6499
8	0	-1
9	0	-1
10	0	-1
11	0	-1
12	0	-1
13	0	-1
14	0	-1
44
0	5	119.998500	131.629919	1.000000
0	6	135.423100	135.464359	1.000000
0	7	149.504954	149.521758	1.000000
1	2	46.995338	146.965465	1.000000
1	4	38.143866	144.409910	1.000000
1	5	104.578712	146.965465	1.000000
2	1	47.625372	146.965465	1.000000
2	4	28.573790	135.464359	1.000000
2	7	95.058698	130.352511	1.000000
3	4	0.000000	126.518070	0.000000
3	5	65.972656	116.294373	1.000000
4	1	37.709466	144.409910	1.000000
4	2	28.543588	135.464359	1.000000
4	3	0.000000	126.518070	0.000000
5	0	120.637536	131.629919	1.000000
5	1	104.187588	146.965465	1.000000
5	3	66.643630	116.294373	1.000000
5	12	117.566192	117.572520	1.000000
6	0	135.380100	135.464359	1.000000
6	9	32.070940	123.962515	1.000000
6	13	83.118218	140.576208	1.000000
7	0	148.807922	149.521758	1.000000
7	2	94.685834	130.352511	1.000000
7	8	139.296962	139.298061	1.000000
7	14	141.946024	144.409910	1.000000
8	7	139.291854	139.298061	1.000000
8	9	80.648232	135.464359	1.000000
8	11	67.021224	115.016965	1.000000
8	14	74.497882	122.684368	1.000000
9	6	32.720430	123.962515	1.000000
9	8	79.938974	135.464359	1.000000
9	11	0.000000	143.131763	0.000000
10	12	28.513700	135.464359	1.000000
10	13	38.130778	129.074364	1.000000
11	8	67.448236	115.016965	1.000000
11	9	0.000000	143.131763	0.000000
12	5	117.572520	117.572520	1.000000
12	10	28.882468	135.464359	1.000000
12	13	22.233400	125.240662	1.000000
13	6	83.173398	140.576208	1.000000
13	10	38.255772	129.074364	1.000000
13	12	21.947472	125.240662	1.000000
14	7	140.891708	144.409910	1.000000
14	8	75.538558	122.684368	1.000000
840
4	10	12	5	3	5	0	5	1	5	5	5	3	5	4	
3	14	7	2	7	0	7	1	7	5	7	3	7	4	
3	3	5	0	0	0	0	1	0	5	0	3	0	4	
6	8	14	7	14	8	9	7	0	7	1	7	2	7	3	7	4	
4	14	7	2	4	7	0	7	1	7	5	7	3	7	4	
3	2	7	14	7	0	7	1	7	2	7	5	7	4	
5	9	6	0	5	12	0	0	5	1	5	5	5	3	5	4	
2	12	5	5	0	5	1	5	2	5	1	5	0	
3	2	7	8	7	0	7	1	7	2	7	5	7	4	
3	5	1	2	5	0	5	1	5	2	5	1	5	0	
5	13	12	5	1	4	5	0	5	1	5	2	5	3	5	4	
3	0	7	2	0	0	0	1	0	2	0	1	0	0	
4	4	1	5	12	5	0	5	1	5	5	5	3	5	4	
4	6	0	6	13	0	0	0	1	0	2	0	3	0	4	
3	8	7	0	0	0	0	1	0	2	0	5	0	4	
3	1	2	7	7	0	7	1	7	2	7	5	7	4	
4	8	7	0	6	0	0	0	1	0	2	0	5	0	4	
5	3	5	0	7	14	0	0	0	1	0	2	0	5	0	4	
2	8	7	7	0	7	1	7	5	7	3	7	4	
4	10	12	5	12	5	0	5	1	5	2	5	3	5	4	
4	3	5	0	7	0	0	0	1	0	2	0	3	0	4	
4	7	0	6	13	0	0	0	1	0	5	0	3	0	4	
4	14	7	2	1	7	0	7	1	7	5	7	3	7	4	
5	11	8	7	0	5	0	0	0	1	0	2	0	1	0	0	
4	1	5	1	2	5	0	5	1	5	2	5	3	5	4	
4	4	1	5	12	5	0	5	1	5	2	5	1	5	0	
3	7	2	1	7	0	7	1	7	5	7	3	7	4	
3	2	1	5	5	0	5	1	5	5	5	3	5	4	
5	9	8	7	0	6	7	0	7	1	0	5	0	3	0	4	
5	1	2	7	8	11	7	0	7	1	7	2	7	5	7	4	
4	11	8	7	0	7	0	0	1	0	2	0	1	0	0	
6	14	7	0	6	13	10	7	0	7	1	7	2	7	3	0	4	
4	4	1	5	1	5	0	5	1	5	2	5	1	5	0	
4	12	5	0	7	0	0	0	1	0	2	0	3	0	4	
2	5	0	5	0	5	1	5	2	5	3	5	4	
4	0	5	1	4	0	0	0	1	0	2	0	5	0	4	
7	11	8	14	7	14	8	9	7	0	7	1	7	2	7	1	7	0	
6	10	13	6	0	6	9	0	0	0	1	0	2	0	5	0	4	
5	9	6	0	7	8	0	0	0	1	0	5	0	3	0	4	
7	11	8	14	7	0	5	12	5	0	5	1	5	2	5	5	5	4	
3	7	0	6	0	0	0	1	0	2	0	5	0	4	
2	14	7	7	0	7	1	7	2	7	5	7	4	
6	13	6	0	7	8	11	0	0	0	1	0	5	0	3	0	4	
4	2	7	8	11	7	0	7	1	7	5	7	3	7	4	
5	6	0	6	13	10	0	0	0	1	0	5	0	3	0	4	
4	13	6	0	5	0	0	0	1	0	5	0	3	0	4	
3	0	5	1	5	0	5	1	5	2	5	3	5	4	
6	3	5	0	7	8	9	0	0	0	1	0	2	0	1	0	0	
4	3	5	12	10	5	0	5	1	5	2	5	5	5	4	
3	1	5	0	0	0	0	1	0	5	0	3	0	4	
3	7	0	5	5	0	5	1	5	2	5	3	5	4	
5	5	0	7	8	11	0	0	0	1	0	5	0	3	0	4	
3	0	7	8	0	0	0	1	0	2	0	5	7	4	
3	0	7	14	0	0	0	1	0	2	0	5	7	4	
4	3	5	1	4	5	0	5	1	5	2	5	1	5	0	
4	11	8	7	2	7	0	7	1	7	2	7	3	7	4	
3	14	7	8	7	0	7	1	7	2	7	1	7	0	
4	4	1	5	3	5	0	5	1	5	2	5	3	5	4	
4	2	7	2	4	7	0	7	1	7	2	7	3	7	4	
5	10	13	6	0	6	0	0	0	1	0	2	0	1	0	0	
3	13	6	0	0	0	0	1	0	2	0	5	0	4	
4	0	6	13	10	0	0	0	1	0	2	0	5	0	4	
4	6	0	5	1	0	0	0	1	0	2	0	5	0	4	
3	9	8	7	7	0	7	1	7	5	7	3	7	4	
6	8	7	0	6	13	10	7	0	7	1	7	2	7	3	7	4	
5	12	5	0	7	8	5	0	5	1	5	5	5	3	5	4	
4	14	7	0	5	5	0	5	1	5	2	5	1	5	0	
3	5	0	7	5	0	5	1	5	5	5	3	5	4	
4	12	5	0	6	5	0	5	1	5	5	5	3	5	4	
2	6	0	0	0	0	1	0	2	0	5	0	4	
2	5	1	5	0	5	1	5	5	5	3	5	4	
6	10	13	6	0	6	13	0	0	0	1	0	2	0	5	0	4	
4	13	12	5	3	5	0	5	1	5	2	5	3	5	4	
4	11	8	7	8	7	0	7	1	7	2	7	5	7	4	
4	6	0	7	2	0	0	0	1	0	2	0	3	0	4	
4	4	2	7	8	7	0	7	1	7	5	7	3	7	4	
9	9	8	14	7	8	9	6	13	10	7	0	7	1	7	2	7	1	7	0	
4	13	12	5	12	5	0	5	1	5	2	5	5	5	4	
6	10	13	6	0	6	13	0	0	0	1	0	2	0	3	0	4	
4	3	5	0	6	0	0	0	1	0	2	0	3	0	4	
5	7	0	6	13	10	7	0	7	1	7	2	7	1	7	0	
5	9	6	0	5	3	0	0	0	1	0	2	0	1	0	0	
3	12	5	3	5	0	5	1	5	2	5	5	5	4	
2	5	12	5	0	5	1	5	2	5	5	5	4	
4	7	0	6	9	7	0	7	1	7	5	7	3	0	4	
6	11	8	7	0	6	13	7	0	7	1	7	5	7	3	7	4	
3	0	6	13	0	0	0	1	0	5	0	3	0	4	
5	8	7	0	5	12	7	0	7	1	7	2	7	1	7	0	
4	14	7	8	11	7	0	7	1	7	2	7	3	7	4	
4	4	2	7	2	7	0	7	1	7	5	7	3	7	4	
4	12	13	6	0	0	0	0	1	0	2	0	3	0	4	
2	2	7	7	0	7	1	7	2	7	1	7	0	
5	14	7	0	6	13	7	0	7	1	7	2	7	5	0	4	
4	13	12	5	1	5	0	5	1	5	2	5	1	5	0	
2	6	0	0	0	0	1	0	2	0	1	0	0	
5	14	7	0	5	3	0	0	0	1	0	5	0	3	0	4	
3	14	7	2	7	0	7	1	7	2	7	5	7	4	
4	8	7	8	9	7	0	7	1	7	2	7	1	7	0	
4	6	0	5	12	5	0	5	1	5	2	5	5	5	4	
3	2	7	14	7	0	7	1	7	2	7	1	7	0	
4	10	12	5	1	5	0	5	1	5	2	5	5	5	4	
4	3	5	12	10	5	0	5	1	5	5	5	3	5	4	
4	9	8	7	8	7	0	7	1	7	2	7	3	7	4	
2	3	5	5	0	5	1	5	2	5	5	5	4	
3	5	1	2	5	0	5	1	5	2	5	5	5	4	
6	13	6	0	5	1	4	0	0	0	1	0	2	0	1	0	0	
3	0	7	2	0	0	0	1	0	2	0	3	0	4	
4	6	0	6	13	0	0	0	1	0	2	0	1	0	0	
3	8	7	0	7	0	7	1	7	2	7	1	7	0	
5	11	8	7	0	6	7	0	7	1	0	2	0	5	0	4	
3	1	2	7	7	0	7	1	7	2	7	1	7	0	
3	7	2	4	7	0	7	1	7	2	7	3	7	4	
4	3	5	1	2	5	0	5	1	5	2	5	5	5	4	
5	10	12	5	1	2	5	0	5	1	5	5	5	3	5	4	
3	3	5	1	5	0	5	1	5	5	5	3	5	4	
4	10	12	5	12	5	0	5	1	5	5	5	3	5	4	
5	13	6	0	6	9	0	0	0	1	0	5	0	3	0	4	
4	7	0	6	13	7	0	7	1	7	2	7	5	7	4	
6	11	8	14	7	0	5	0	0	0	1	0	2	0	3	5	4	
4	1	5	1	2	5	0	5	1	5	2	5	1	5	0	
4	4	1	5	12	5	0	5	1	5	2	5	3	5	4	
4	12	5	1	2	5	0	5	1	5	2	5	1	5	0	
3	2	1	5	5	0	5	1	5	2	5	3	5	4	
3	5	12	13	5	0	5	1	5	2	5	1	5	0	
4	5	0	7	14	0	0	0	1	0	5	0	3	0	4	
7	11	8	7	0	6	13	10	0	0	0	1	0	2	0	5	0	4	
5	13	6	0	6	9	0	0	0	1	0	2	0	5	0	4	
6	1	2	7	14	8	11	7	0	7	1	7	2	7	1	7	0	
4	8	7	8	11	7	0	7	1	7	2	7	3	7	4	
4	4	1	5	1	5	0	5	1	5	2	5	5	5	4	
5	14	7	14	8	9	7	0	7	1	7	2	7	5	7	4	
4	12	5	0	7	7	0	7	1	7	2	7	1	7	0	
2	5	0	0	0	0	1	0	2	0	1	0	0	
5	13	6	0	7	2	7	0	7	1	7	2	7	3	7	4	
4	0	5	1	4	0	0	0	1	0	2	0	1	0	0	
3	7	8	11	7	0	7	1	7	5	7	3	7	4	
4	6	0	5	3	5	0	5	1	5	2	5	3	5	4	
5	11	8	7	8	9	7	0	7	1	7	2	7	3	7	4	
3	10	12	5	5	0	5	1	5	2	5	5	5	4	
3	7	0	6	7	0	7	1	7	5	7	3	7	4	
5	12	5	0	7	14	7	0	7	1	7	2	7	1	7	0	
2	14	7	7	0	7	1	7	5	7	3	7	4	
9	13	6	9	8	14	7	14	8	11	7	0	7	1	7	2	7	5	7	4	
5	6	0	6	13	10	0	0	0	1	0	2	0	5	0	4	
3	13	12	5	5	0	5	1	5	2	5	5	5	4	
3	0	5	1	0	0	0	1	0	2	0	1	0	0	
6	3	5	0	7	8	9	0	0	0	1	0	2	0	3	0	4	
3	11	8	7	7	0	7	1	7	2	7	1	7	0	
3	1	5	0	5	0	5	1	5	2	5	3	5	4	
4	4	2	7	14	7	0	7	1	7	2	7	1	7	0	
6	5	0	7	14	8	11	5	0	5	1	5	2	5	5	5	4	
5	13	6	0	7	14	7	0	7	1	7	2	7	3	7	4	
3	0	7	8	7	0	7	1	7	2	7	1	7	0	
4	3	5	1	4	5	0	5	1	5	2	5	5	5	4	
4	11	8	7	2	7	0	7	1	7	2	7	1	7	0	
3	14	7	8	7	0	7	1	7	2	7	3	7	4	
6	2	7	0	6	13	10	7	0	7	1	0	5	0	3	0	4	
4	4	1	5	3	5	0	5	1	5	2	5	1	5	0	
3	12	5	1	5	0	5	1	5	2	5	3	5	4	
4	2	7	2	4	7	0	7	1	7	5	7	3	7	4	
4	5	0	7	14	7	0	7	1	7	2	7	3	7	4	
5	10	13	6	0	6	0	0	0	1	0	2	0	3	0	4	
3	13	6	0	0	0	0	1	0	5	0	3	0	4	
4	6	0	5	1	5	0	5	1	5	5	5	3	5	4	
4	8	7	2	4	7	0	7	1	7	5	7	3	7	4	
4	14	7	0	5	7	0	7	1	7	2	7	5	7	4	
6	8	7	0	6	13	10	0	0	0	1	0	5	0	3	0	4	
5	12	5	0	7	8	0	0	0	1	0	2	0	5	7	4	
3	5	0	7	0	0	0	1	0	2	0	5	7	4	
4	12	5	0	6	0	0	0	1	0	2	0	5	0	4	
2	5	1	5	0	5	1	5	2	5	5	5	4	
6	10	13	6	0	7	8	0	0	0	1	0	2	0	1	0	0	
3	0	5	3	5	0	5	1	5	2	5	3	5	4	
6	3	5	0	7	8	11	0	0	0	1	0	2	0	1	0	0	
4	4	2	7	8	7	0	7	1	7	2	7	5	7	4	
4	12	5	12	13	5	0	5	1	5	2	5	3	5	4	
2	7	8	7	0	7	1	7	5	7	3	7	4	
4	2	1	5	1	5	0	5	1	5	2	5	5	5	4	
10	9	8	14	7	14	8	9	6	13	10	7	0	7	1	7	2	7	5	7	4	
5	13	6	0	5	12	0	0	0	1	0	5	0	3	0	4	
6	10	13	6	0	6	13	0	0	0	1	0	2	0	1	0	0	
4	3	5	0	6	0	0	0	1	0	2	0	1	0	0	
5	9	6	0	5	12	0	0	0	1	0	2	0	5	0	4	
5	11	8	7	2	4	7	0	7	1	7	2	7	3	7	4	
4	8	7	8	11	7	0	7	1	7	5	7	3	7	4	
5	4	1	5	12	13	5	0	5	1	5	2	5	3	5	4	
7	9	8	14	7	0	5	3	5	0	5	1	5	2	5	3	5	4	
3	12	5	3	5	0	5	1	5	5	5	3	5	4	
2	5	12	5	0	5	1	5	5	5	3	5	4	
5	10	12	5	1	4	5	0	5	1	5	2	5	1	5	0	
4	1	5	12	13	5	0	5	1	5	2	5	5	5	4	
9	11	8	14	7	14	8	9	6	13	7	0	7	1	7	2	7	5	7	4	
5	8	7	0	5	12	7	0	7	1	7	2	7	3	7	4	
4	14	7	8	11	7	0	7	1	7	2	7	1	7	0	
6	2	7	8	9	6	13	7	0	7	1	7	2	7	5	7	4	
4	4	2	7	2	7	0	7	1	7	2	7	5	7	4	
7	9	8	7	8	9	6	13	7	0	7	1	7	2	7	1	7	0	
2	2	7	7	0	7	1	7	2	7	5	7	4	
4	13	12	5	1	5	0	5	1	5	2	5	3	5	4	
2	6	0	0	0	0	1	0	2	0	3	0	4	
4	11	8	7	8	7	0	7	1	7	2	7	3	7	4	
3	14	7	2	7	0	7	1	7	2	7	1	7	0	
4	6	0	7	2	0	0	0	1	0	5	0	3	0	4	
4	1	5	1	4	5	0	5	1	5	2	5	5	5	4	
3	7	2	1	7	0	7	1	7	2	7	1	7	0	
3	2	7	14	7	0	7	1	7	2	7	3	7	4	
4	9	8	7	8	7	0	7	1	7	2	7	1	7	0	
3	0	5	12	5	0	5	1	5	5	5	3	5	4	
3	5	1	2	5	0	5	1	5	5	5	3	5	4	
7	10	13	6	0	7	8	11	0	0	0	1	0	2	0	3	0	4	
3	0	7	2	0	0	0	1	0	5	0	3	0	4	
5	3	5	0	7	8	0	0	0	1	0	2	0	3	0	4	
3	8	7	0	0	0	0	1	0	2	0	3	0	4	
5	11	8	7	0	6	7	0	7	1	0	5	0	3	0	4	
3	3	5	12	5	0	5	1	5	5	5	3	5	4	
3	1	2	7	7	0	7	1	7	2	7	3	7	4	
3	7	2	4	7	0	7	1	7	2	7	1	7	0	
5	9	8	7	2	1	7	0	7	1	7	2	7	1	7	0	
3	2	7	0	0	0	0	1	0	2	0	1	0	0	
2	12	5	5	0	5	1	5	5	5	3	5	4	
5	10	12	5	1	2	5	0	5	1	5	2	5	5	5	4	
4	9	8	7	8	7	0	7	1	7	2	7	5	7	4	
4	10	12	5	12	5	0	5	1	5	2	5	5	5	4	
4	1	2	7	8	7	0	7	1	7	2	7	5	7	4	
4	3	5	0	7	0	0	0	1	0	2	0	5	0	4	
4	7	0	6	13	0	0	0	1	0	2	0	1	0	0	
3	8	7	14	7	0	7	1	7	2	7	1	7	0	
4	14	7	8	9	7	0	7	1	7	2	7	3	7	4	
5	1	2	7	8	9	7	0	7	1	7	2	7	5	7	4	
4	12	5	1	2	5	0	5	1	5	2	5	3	5	4	
3	2	1	5	5	0	5	1	5	2	5	1	5	0	
4	5	0	6	13	5	0	5	1	5	2	5	3	0	4	
7	10	13	6	9	8	14	7	7	0	7	1	7	2	7	3	7	4	
2	0	7	0	0	0	1	0	2	0	5	0	4	
7	11	8	7	0	6	13	10	7	0	7	1	7	5	7	3	0	4	
5	1	2	7	8	11	7	0	7	1	7	2	7	3	7	4	
4	8	7	8	11	7	0	7	1	7	2	7	1	7	0	
4	2	1	5	12	5	0	5	1	5	2	5	1	5	0	
4	4	1	5	1	5	0	5	1	5	5	5	3	5	4	
4	9	8	7	14	7	0	7	1	7	2	7	3	7	4	
6	9	6	0	5	1	4	0	0	0	1	0	5	0	3	0	4	
5	13	6	0	7	2	0	0	0	1	0	2	0	1	0	0	
4	0	5	1	4	0	0	0	1	0	2	0	3	0	4	
4	6	0	5	3	0	0	0	1	0	2	0	1	0	0	
3	8	7	2	7	0	7	1	7	2	7	1	7	0	
2	1	5	5	0	5	1	5	2	5	1	5	0	
3	7	0	6	0	0	0	1	0	2	0	3	0	4	
5	12	5	0	7	14	0	0	0	1	0	2	0	3	0	4	
6	13	6	0	7	8	11	0	0	0	1	0	2	0	1	0	0	
4	0	7	8	11	0	0	0	1	0	2	0	5	0	4	
5	6	0	6	13	10	0	0	0	1	0	2	0	1	0	0	
3	0	5	1	0	0	0	1	0	2	0	5	0	4	
2	7	0	7	0	7	1	7	2	7	5	7	4	
3	11	8	7	7	0	7	1	7	2	7	3	7	4	
3	1	5	0	0	0	0	1	0	2	0	1	0	0	
4	4	2	7	14	7	0	7	1	7	2	7	3	7	4	
4	9	8	7	2	7	0	7	1	7	2	7	3	7	4	
5	9	8	7	2	4	7	0	7	1	7	2	7	5	7	4	
4	2	1	5	3	5	0	5	1	5	2	5	3	5	4	
5	8	7	0	5	3	0	0	0	1	0	5	0	3	0	4	
5	5	0	7	8	11	0	0	0	1	0	2	0	1	0	0	
6	13	6	9	8	7	14	7	0	7	1	7	2	7	1	7	0	
3	0	7	8	0	0	0	1	0	2	0	3	0	4	
4	2	1	5	12	5	0	5	1	5	5	5	3	5	4	
6	1	2	7	14	8	9	7	0	7	1	7	2	7	1	7	0	
4	6	9	8	7	7	0	7	1	7	5	7	3	7	4	
5	8	7	0	6	13	0	0	0	1	0	2	0	3	0	4	
3	14	7	8	7	0	7	1	7	5	7	3	7	4	
5	2	1	5	12	10	5	0	5	1	5	2	5	5	5	4	
3	12	5	1	5	0	5	1	5	2	5	1	5	0	
4	2	7	2	4	7	0	7	1	7	2	7	5	7	4	
4	5	0	7	14	0	0	0	1	0	2	0	1	0	0	
3	13	6	0	0	0	0	1	0	2	0	3	0	4	
2	0	6	0	0	0	1	0	2	0	1	0	0	
7	11	8	14	7	0	5	3	5	0	5	1	5	2	5	5	5	4	
4	6	0	5	1	5	0	5	1	5	2	5	3	5	4	
4	8	7	2	4	7	0	7	1	7	2	7	5	7	4	
5	8	7	0	6	9	7	0	7	1	7	5	7	3	0	4	
6	8	7	0	6	13	10	0	0	0	1	0	2	0	5	0	4	
5	12	5	0	7	8	0	0	0	1	0	2	0	1	0	0	
3	5	0	7	0	0	0	1	0	2	0	1	0	0	
6	10	13	6	0	7	8	0	0	0	1	0	2	0	3	0	4	
3	0	5	3	5	0	5	1	5	2	5	1	5	0	
6	3	5	0	7	8	11	0	0	0	1	0	2	0	3	0	4	
4	8	7	2	1	7	0	7	1	7	2	7	3	7	4	
4	12	5	12	10	5	0	5	1	5	2	5	5	5	4	
4	1	5	0	6	0	0	0	1	0	2	0	3	0	4	
4	6	0	6	9	0	0	0	1	0	5	0	3	0	4	
4	4	2	7	8	7	0	7	1	7	2	7	1	7	0	
5	12	5	0	6	13	5	0	5	1	5	2	5	1	0	0	
4	2	1	5	1	5	0	5	1	5	5	5	3	5	4	
7	9	8	7	0	6	13	10	7	0	7	1	0	5	0	3	0	4	
4	13	12	5	12	5	0	5	1	5	2	5	3	5	4	
4	0	6	13	10	0	0	0	1	0	2	0	1	0	0	
5	13	6	0	7	2	0	0	0	1	0	5	0	3	0	4	
4	6	0	5	12	5	0	5	1	5	5	5	3	5	4	
5	11	8	7	2	4	7	0	7	1	7	2	7	1	7	0	
5	4	1	5	12	13	5	0	5	1	5	2	5	1	5	0	
3	12	5	3	5	0	5	1	5	2	5	3	5	4	
2	5	12	5	0	5	1	5	2	5	3	5	4	
5	10	12	5	1	4	5	0	5	1	5	2	5	3	5	4	
4	6	0	5	3	5	0	5	1	5	5	5	3	5	4	
6	11	8	7	0	6	13	7	0	7	1	7	2	7	1	0	0	
4	1	5	12	10	5	0	5	1	5	2	5	3	5	4	
2	7	2	7	0	7	1	7	2	7	5	7	4	
5	14	7	14	8	11	7	0	7	1	7	2	7	5	7	4	
5	2	7	0	6	13	7	0	0	1	0	5	0	3	0	4	
7	9	8	7	8	9	6	13	7	0	7	1	7	2	7	3	7	4	
4	13	6	0	7	0	0	0	1	0	5	0	3	0	4	
2	2	7	7	0	7	1	7	5	7	3	7	4	
4	7	0	5	12	5	0	5	1	5	5	5	3	5	4	
4	6	0	7	14	0	0	0	1	0	5	0	3	0	4	
4	8	7	0	5	0	0	0	1	0	5	0	3	0	4	
5	13	6	0	5	1	0	0	0	1	0	5	0	3	0	4	
2	0	5	0	0	0	1	0	2	0	3	0	4	
5	3	5	0	6	13	5	0	5	1	5	2	5	1	0	0	
4	11	8	7	8	7	0	7	1	7	2	7	1	7	0	
3	14	7	2	7	0	7	1	7	2	7	3	7	4	
4	1	5	1	4	5	0	5	1	5	5	5	3	5	4	
3	7	2	1	7	0	7	1	7	2	7	3	7	4	
2	7	0	0	0	0	1	0	5	0	3	0	4	
3	0	5	12	5	0	5	1	5	2	5	5	5	4	
4	7	14	8	11	7	0	7	1	7	2	7	5	7	4	
5	12	5	0	7	14	5	0	5	1	5	2	5	5	5	4	
10	10	13	6	9	8	14	7	14	8	11	7	0	7	1	7	2	7	1	7	0	
3	0	7	2	0	0	0	1	0	2	0	5	0	4	
5	3	5	0	7	8	0	0	0	1	0	2	0	1	0	0	
2	7	14	7	0	7	1	7	2	7	5	7	4	
5	11	8	7	0	6	7	0	7	1	0	2	0	3	0	4	
5	14	7	0	5	12	5	0	5	1	5	2	5	1	5	0	
3	7	2	4	7	0	7	1	7	2	7	5	7	4	
5	9	8	7	2	1	7	0	7	1	7	2	7	3	7	4	
4	13	6	0	6	0	0	0	1	0	5	0	3	0	4	
3	2	7	0	0	0	0	1	0	2	0	3	0	4	
4	4	1	5	12	5	0	5	1	5	2	5	5	5	4	
5	10	12	5	1	2	5	0	5	1	5	2	5	1	5	0	
4	6	0	7	8	0	0	0	1	0	5	0	3	0	4	
5	0	7	14	8	9	0	0	0	1	0	2	0	3	0	4	
3	3	5	1	5	0	5	1	5	2	5	1	5	0	
3	6	0	5	0	0	0	1	0	2	0	5	0	4	
3	7	0	5	0	0	0	1	0	5	0	3	0	4	
4	7	0	6	13	0	0	0	1	0	2	0	3	0	4	
3	8	7	14	7	0	7	1	7	2	7	3	7	4	
4	12	5	1	4	5	0	5	1	5	5	5	3	5	4	
5	14	7	14	8	9	7	0	7	1	7	2	7	1	7	0	
2	5	3	5	0	5	1	5	5	5	3	5	4	
4	12	5	1	2	5	0	5	1	5	5	5	3	5	4	
4	5	0	6	13	5	0	5	1	5	5	5	3	0	4	
5	10	13	6	0	7	0	0	0	1	0	2	0	1	0	0	
2	0	7	0	0	0	1	0	5	0	3	0	4	
7	11	8	7	0	6	13	10	7	0	7	1	7	2	7	3	0	4	
3	14	7	0	0	0	0	1	0	2	0	1	0	0	
4	7	0	5	3	0	0	0	1	0	2	0	1	0	0	
4	2	1	5	12	5	0	5	1	5	2	5	3	5	4	
4	8	7	2	1	7	0	7	1	7	5	7	3	7	4	
4	9	8	7	14	7	0	7	1	7	2	7	1	7	0	
5	13	6	0	7	8	0	0	0	1	0	2	0	5	0	4	
2	5	0	5	0	5	1	5	5	5	3	5	4	
5	6	0	7	8	9	0	0	0	1	0	2	0	5	0	4	
10	10	13	6	9	8	14	7	14	8	9	7	0	7	1	7	2	7	3	7	4	
4	3	5	12	10	5	0	5	1	5	2	5	3	5	4	
3	8	7	2	7	0	7	1	7	2	7	3	7	4	
2	1	5	5	0	5	1	5	2	5	3	5	4	
3	7	0	6	0	0	0	1	0	2	0	1	0	0	
3	9	8	7	7	0	7	1	7	2	7	1	7	0	
4	1	5	0	6	0	0	0	1	0	5	0	3	0	4	
4	5	0	7	8	0	0	0	1	0	2	0	5	0	4	
6	13	6	0	7	8	11	0	0	0	1	0	2	0	3	0	4	
4	0	7	8	11	0	0	0	1	0	5	0	3	0	4	
5	6	0	6	13	10	0	0	0	1	0	2	0	3	0	4	
5	11	8	7	2	1	7	0	7	1	7	5	7	3	7	4	
4	6	0	7	8	0	0	0	1	0	2	0	5	0	4	
4	4	1	5	0	5	0	5	1	5	5	5	3	5	4	
6	13	6	0	6	13	10	0	0	0	1	0	5	0	3	0	4	
3	11	8	7	7	0	7	1	7	5	7	3	7	4	
4	4	2	7	14	7	0	7	1	7	5	7	3	7	4	
4	9	8	7	2	7	0	7	1	7	2	7	1	7	0	
4	2	1	5	3	5	0	5	1	5	2	5	1	5	0	
5	5	0	7	8	11	0	0	0	1	0	2	0	3	0	4	
3	10	12	5	5	0	5	1	5	2	5	3	5	4	
5	6	0	5	1	4	0	0	0	1	0	2	0	1	0	0	
5	1	2	7	8	9	7	0	7	1	7	2	7	3	7	4	
5	6	0	7	8	11	0	0	0	1	0	5	0	3	0	4	
6	8	7	8	9	6	13	7	0	7	1	7	2	7	1	7	0	
7	12	5	0	7	14	8	11	5	0	5	1	5	2	5	5	5	4	
3	14	7	8	7	0	7	1	7	2	7	5	7	4	
5	2	1	5	12	10	5	0	5	1	5	2	5	1	5	0	
3	5	1	4	5	0	5	1	5	2	5	5	5	4	
7	9	8	14	7	0	5	12	5	0	5	1	5	2	5	3	5	4	
4	1	2	7	8	7	0	7	1	7	5	7	3	7	4	
4	5	0	7	14	0	0	0	1	0	2	0	5	0	4	
3	13	6	0	0	0	0	1	0	2	0	1	0	0	
2	0	6	0	0	0	1	0	2	0	3	0	4	
4	6	0	5	1	0	0	0	1	0	2	0	1	0	0	
4	8	7	2	4	7	0	7	1	7	2	7	1	7	0	
5	14	7	0	5	3	0	0	0	1	0	2	0	3	0	4	
2	7	0	0	0	0	1	0	2	0	3	0	4	
5	12	5	0	7	8	5	0	5	1	5	2	5	3	5	4	
4	1	5	12	13	5	0	5	1	5	5	5	3	5	4	
3	5	0	7	5	0	5	1	5	2	5	3	5	4	
5	13	6	0	6	9	0	0	0	1	0	2	0	1	0	0	
4	6	0	7	8	0	0	0	1	0	2	0	1	0	0	
4	3	5	12	13	5	0	5	1	5	2	5	5	5	4	
6	3	5	0	7	8	11	0	0	0	1	0	5	0	3	0	4	
4	8	7	2	1	7	0	7	1	7	2	7	1	7	0	
4	1	5	1	2	5	0	5	1	5	5	5	3	5	4	
4	1	5	0	6	5	0	5	1	5	2	5	1	5	0	
5	4	2	7	14	8	7	0	7	1	7	2	7	3	7	4	
3	9	6	0	0	0	0	1	0	2	0	3	0	4	
4	2	1	5	1	5	0	5	1	5	2	5	3	5	4	
4	5	0	6	9	0	0	0	1	0	2	0	1	0	0	
4	13	12	5	12	5	0	5	1	5	2	5	1	5	0	
4	0	6	13	10	0	0	0	1	0	2	0	3	0	4	
5	13	6	0	7	14	0	0	0	1	0	5	0	3	0	4	
4	11	8	7	14	7	0	7	1	7	2	7	5	7	4	
4	7	0	5	12	5	0	5	1	5	2	5	3	5	4	
6	11	8	14	7	2	4	7	0	7	1	7	2	7	5	7	4	
5	4	1	5	12	13	5	0	5	1	5	2	5	5	5	4	
3	12	5	3	5	0	5	1	5	2	5	1	5	0	
2	5	12	5	0	5	1	5	2	5	1	5	0	
5	10	12	5	1	4	5	0	5	1	5	5	5	3	5	4	
4	7	0	5	12	5	0	5	1	5	2	5	5	5	4	
4	6	9	8	7	7	0	7	1	7	2	7	3	7	4	
7	11	8	7	8	9	6	13	7	0	7	1	7	2	7	3	7	4	
4	1	5	12	10	5	0	5	1	5	2	5	1	5	0	
2	7	2	7	0	7	1	7	5	7	3	7	4	
4	12	5	12	10	5	0	5	1	5	2	5	1	5	0	
4	14	7	8	11	7	0	7	1	7	5	7	3	7	4	
5	2	7	0	6	13	7	0	0	1	0	2	0	3	0	4	
6	9	8	7	0	6	13	7	0	0	1	0	5	0	3	0	4	
4	13	6	0	7	0	0	0	1	0	2	0	5	0	4	
4	6	0	7	14	7	0	7	1	7	2	7	5	7	4	
4	13	12	5	1	5	0	5	1	5	2	5	5	5	4	
2	0	5	0	0	0	1	0	2	0	1	0	0	
4	3	5	12	13	5	0	5	1	5	2	5	3	5	4	
5	8	7	0	5	3	0	0	0	1	0	2	0	3	0	4	
7	1	5	0	7	14	8	9	5	0	5	1	5	5	5	3	5	4	
4	1	5	1	4	5	0	5	1	5	2	5	3	5	4	
5	4	1	5	12	10	5	0	5	1	5	2	5	1	5	0	
6	13	6	0	6	13	10	0	0	0	1	0	2	0	3	0	4	
3	0	5	12	5	0	5	1	5	2	5	1	5	0	
5	6	0	7	8	11	0	0	0	1	0	2	0	3	0	4	
4	1	2	7	14	7	0	7	1	7	5	7	3	7	4	
10	10	13	6	9	8	14	7	14	8	11	7	0	7	1	7	2	7	5	7	4	
5	3	5	0	7	8	0	0	0	1	0	2	0	5	0	4	
2	7	14	7	0	7	1	7	5	7	3	7	4	
5	11	8	7	0	6	7	0	7	1	0	2	0	1	0	0	
5	14	7	0	5	12	5	0	5	1	5	2	5	3	5	4	
4	2	7	0	6	0	0	0	1	0	5	0	3	0	4	
3	7	2	4	7	0	7	1	7	5	7	3	7	4	
5	9	6	0	5	1	0	0	0	1	0	5	0	3	0	4	
3	2	7	0	0	0	0	1	0	5	0	3	0	4	
3	5	12	10	5	0	5	1	5	2	5	3	5	4	
5	10	12	5	1	2	5	0	5	1	5	2	5	3	5	4	
4	0	7	8	9	0	0	0	1	0	2	0	1	0	0	
3	3	5	1	5	0	5	1	5	2	5	3	5	4	
3	6	0	5	5	0	5	1	5	5	5	3	5	4	
4	1	2	7	8	7	0	7	1	7	2	7	3	7	4	
5	4	1	5	0	6	0	0	0	1	0	2	0	1	0	0	
3	8	7	14	7	0	7	1	7	5	7	3	7	4	
4	12	5	1	4	5	0	5	1	5	2	5	5	5	4	
3	5	1	4	5	0	5	1	5	5	5	3	5	4	
2	5	3	5	0	5	1	5	2	5	5	5	4	
4	12	5	1	2	5	0	5	1	5	2	5	5	5	4	
3	5	12	13	5	0	5	1	5	2	5	5	5	4	
5	10	13	6	0	7	0	0	0	1	0	2	0	5	0	4	
3	12	5	1	5	0	5	1	5	5	5	3	5	4	
2	0	7	7	0	7	1	7	2	7	3	7	4	
10	11	8	14	7	14	8	9	6	13	10	7	0	7	1	7	2	7	1	7	0	
3	14	7	0	7	0	7	1	7	2	0	3	0	4	
4	7	0	5	3	0	0	0	1	0	2	0	3	0	4	
7	12	5	0	7	14	8	9	5	0	5	1	5	2	5	3	5	4	
5	9	8	14	7	0	0	0	0	1	0	2	0	5	0	4	
3	5	0	6	0	0	0	1	0	2	0	3	0	4	
4	9	8	7	14	7	0	7	1	7	2	7	5	7	4	
5	13	6	0	7	8	7	0	7	1	7	5	7	3	7	4	
3	6	0	7	7	0	7	1	7	2	7	5	7	4	
7	10	13	6	0	7	8	9	0	0	0	1	0	2	0	1	0	0	
3	1	5	3	5	0	5	1	5	5	5	3	5	4	
4	3	5	12	10	5	0	5	1	5	2	5	1	5	0	
3	8	7	2	7	0	7	1	7	5	7	3	7	4	
2	1	5	5	0	5	1	5	5	5	3	5	4	
5	4	2	7	8	9	7	0	7	1	7	2	7	3	7	4	
3	9	8	7	7	0	7	1	7	2	7	3	7	4	
5	9	8	7	8	11	7	0	7	1	7	5	7	3	7	4	
4	1	5	12	10	5	0	5	1	5	5	5	3	5	4	
5	5	0	7	14	8	5	0	5	1	5	5	5	3	5	4	
4	10	13	6	0	0	0	0	1	0	2	0	1	0	0	
4	0	7	8	11	0	0	0	1	0	2	0	3	0	4	
6	8	14	7	14	8	9	7	0	7	1	7	2	7	5	7	4	
5	11	8	7	2	1	7	0	7	1	7	2	7	5	7	4	
4	4	1	5	0	0	0	0	1	0	2	0	5	0	4	
6	10	13	6	0	6	13	0	0	0	1	0	5	0	3	0	4	
3	11	8	7	7	0	7	1	7	2	7	5	7	4	
5	2	7	14	8	9	7	0	7	1	7	2	7	5	7	4	
4	4	2	7	14	7	0	7	1	7	2	7	5	7	4	
5	9	8	14	7	2	7	0	7	1	7	2	7	5	7	4	
4	2	1	5	3	5	0	5	1	5	2	5	5	5	4	
3	10	12	5	5	0	5	1	5	2	5	1	5	0	
4	12	5	12	10	5	0	5	1	5	5	5	3	5	4	
5	6	0	5	1	4	0	0	0	1	0	2	0	3	0	4	
7	11	8	14	7	0	5	12	5	0	5	1	5	2	5	3	5	4	
5	4	2	7	8	11	7	0	7	1	7	2	7	5	7	4	
4	14	7	0	6	0	0	0	1	0	2	0	1	0	0	
3	4	1	5	5	0	5	1	5	2	5	3	5	4	
5	8	7	0	6	13	0	0	0	1	0	2	0	5	0	4	
7	12	5	0	7	14	8	11	5	0	5	1	5	5	5	3	5	4	
5	2	1	5	12	10	5	0	5	1	5	2	5	3	5	4	
7	13	6	9	8	14	7	2	7	0	7	1	7	2	7	5	7	4	
7	9	8	14	7	0	5	12	5	0	5	1	5	2	5	1	5	0	
7	3	5	0	7	14	8	9	5	0	5	1	5	2	0	5	0	4	
2	0	6	0	0	0	1	0	5	0	3	0	4	
3	3	5	12	5	0	5	1	5	2	5	3	5	4	
4	8	7	2	4	7	0	7	1	7	2	7	3	7	4	
5	14	7	0	5	3	5	0	5	1	5	2	5	1	5	0	
3	7	2	1	7	0	7	1	7	2	7	5	7	4	
2	7	0	0	0	0	1	0	2	0	1	0	0	
5	9	8	7	0	5	7	0	7	1	0	2	0	1	5	0	
5	4	2	7	8	11	7	0	7	1	7	5	7	3	7	4	
4	6	0	5	3	0	0	0	1	0	2	0	5	0	4	
9	13	6	9	8	14	7	14	8	9	7	0	7	1	7	2	7	3	7	4	
7	6	9	8	14	7	14	8	7	0	7	1	7	2	7	3	7	4	
6	10	13	6	0	7	8	0	0	0	1	0	2	0	5	0	4	
3	1	5	12	5	0	5	1	5	2	5	5	5	4	
6	3	5	0	7	8	11	0	0	0	1	0	2	0	5	0	4	
3	7	8	9	7	0	7	1	7	2	7	1	7	0	
5	14	7	0	6	13	0	0	0	1	0	2	0	3	0	4	
4	9	8	7	0	7	0	0	1	0	2	0	1	0	0	
4	8	7	0	5	0	0	0	1	0	2	0	5	5	4	
3	0	5	3	0	0	0	1	0	5	0	3	0	4	
4	2	1	5	1	5	0	5	1	5	2	5	1	5	0	
4	8	7	8	11	7	0	7	1	7	2	7	5	7	4	
5	5	0	7	8	9	0	0	0	1	0	2	0	3	0	4	
4	10	12	5	3	5	0	5	1	5	2	5	3	5	4	
4	0	6	13	10	0	0	0	1	0	5	0	3	0	4	
3	3	5	0	0	0	0	1	0	2	0	3	0	4	
4	11	8	7	14	7	0	7	1	7	5	7	3	7	4	
4	7	0	5	12	0	0	5	1	5	2	5	1	5	0	
5	11	8	7	2	4	7	0	7	1	7	5	7	3	7	4	
4	2	7	14	8	7	0	7	1	7	2	7	1	7	0	
6	10	13	6	0	7	14	0	0	0	1	0	2	0	5	0	4	
5	12	5	0	7	14	5	0	5	1	5	5	5	3	5	4	
5	10	12	5	1	4	5	0	5	1	5	2	5	5	5	4	
3	5	0	6	5	0	5	1	5	5	5	3	5	4	
4	6	9	8	7	7	0	7	1	7	2	7	1	7	0	
4	8	7	0	6	0	0	0	1	0	2	0	1	0	0	
4	14	7	2	1	7	0	7	1	7	2	7	3	7	4	
4	13	6	0	6	0	0	0	1	0	2	0	5	0	4	
7	12	5	0	7	14	8	9	5	0	5	1	5	5	5	3	5	4	
2	7	2	7	0	7	1	7	2	7	3	7	4	
4	12	5	12	10	5	0	5	1	5	2	5	3	5	4	
5	2	7	0	6	13	7	0	0	1	0	2	0	1	0	0	
4	14	7	2	1	7	0	7	1	7	2	7	5	7	4	
6	9	8	7	0	6	13	7	0	0	1	0	2	0	5	0	4	
5	13	6	9	8	7	7	0	7	1	7	2	7	1	7	0	
4	6	0	7	14	0	0	0	1	0	2	0	1	0	0	
2	0	5	0	0	0	1	0	2	0	5	0	4	
5	8	7	0	5	3	0	0	0	1	0	2	0	1	0	0	
4	1	5	1	4	5	0	5	1	5	2	5	1	5	0	
5	4	1	5	12	10	5	0	5	1	5	2	5	3	5	4	
5	9	8	7	0	6	7	0	7	1	0	2	0	3	0	4	
6	14	7	0	6	13	10	0	0	0	1	0	5	0	3	0	4	
6	13	6	0	6	13	10	0	0	0	1	0	2	0	1	0	0	
3	0	5	12	0	0	0	1	0	2	0	3	0	4	
5	6	0	7	8	11	0	0	0	1	0	2	0	1	0	0	
8	10	12	5	0	7	14	8	11	5	0	5	1	5	5	5	3	5	4	
4	1	5	12	13	5	0	5	1	5	2	5	1	5	0	
5	3	5	0	7	8	0	0	0	1	0	5	0	3	0	4	
2	7	14	7	0	7	1	7	2	7	3	7	4	
4	8	7	2	1	7	0	7	1	7	2	7	5	7	4	
5	14	7	0	5	12	0	0	0	1	0	5	0	3	0	4	
4	2	7	0	6	0	0	0	1	0	2	0	5	0	4	
5	9	8	7	2	1	7	0	7	1	7	2	7	5	7	4	
3	2	7	0	0	0	0	1	0	2	0	5	0	4	
3	5	12	10	5	0	5	1	5	2	5	1	5	0	
4	0	7	8	9	0	0	0	1	0	2	0	5	0	4	
3	6	0	5	0	0	0	1	0	2	0	3	0	4	
4	1	2	7	8	7	0	7	1	7	2	7	1	7	0	
5	4	1	5	0	6	5	0	5	1	5	2	5	3	5	4	
3	8	7	14	7	0	7	1	7	2	7	5	7	4	
4	12	5	1	4	5	0	5	1	5	2	5	1	5	0	
5	2	7	14	8	11	7	0	7	1	7	2	7	3	7	4	
2	5	3	5	0	5	1	5	2	5	1	5	0	
5	10	13	6	0	7	0	0	0	1	0	5	0	3	0	4	
6	13	6	0	6	13	10	0	0	0	1	0	2	0	5	0	4	
2	0	7	0	0	0	1	0	2	0	1	0	0	
4	8	7	0	5	5	0	5	1	5	2	5	3	5	4	
3	3	5	1	5	0	5	1	5	2	5	5	5	4	
3	14	7	0	0	0	0	1	0	5	0	3	0	4	
4	7	0	5	3	0	0	0	1	0	5	0	3	0	4	
7	12	5	0	7	14	8	9	5	0	5	1	5	2	5	1	5	0	
4	2	1	5	12	5	0	5	1	5	2	5	5	5	4	
3	5	0	6	5	0	5	1	5	2	5	1	5	0	
4	9	8	7	14	7	0	7	1	7	5	7	3	7	4	
5	13	6	0	7	8	0	0	0	1	0	2	0	3	0	4	
3	0	7	14	0	0	0	1	0	2	0	1	0	0	
4	4	1	5	3	5	0	5	1	5	5	5	3	5	4	
8	6	9	8	14	7	14	8	9	7	0	7	1	7	2	7	3	7	4	
5	6	0	7	8	11	0	0	0	1	0	2	0	5	0	4	
3	1	5	3	5	0	5	1	5	2	5	5	5	4	
3	8	7	2	7	0	7	1	7	2	7	5	7	4	
2	1	5	5	0	5	1	5	2	5	5	5	4	
6	4	2	7	14	8	9	7	0	7	1	7	2	7	1	7	0	
4	5	0	7	8	0	0	0	1	0	2	0	3	0	4	
4	10	13	6	0	0	0	0	1	0	2	0	3	0	4	
4	0	7	8	11	0	0	0	1	0	2	0	1	0	0	
5	11	8	7	2	1	7	0	7	1	7	2	7	1	7	0	
4	1	2	7	14	7	0	7	1	7	2	7	3	7	4	
8	14	7	14	8	9	6	13	10	7	0	7	1	7	2	7	5	7	4	
4	4	1	5	0	0	0	0	1	0	2	0	1	0	0	
5	2	7	0	6	9	7	0	7	1	0	5	0	3	0	4	
5	9	6	0	7	2	0	0	0	1	0	5	0	3	0	4	
4	13	12	5	3	5	0	5	1	5	5	5	3	5	4	
4	2	1	5	3	5	0	5	1	5	5	5	3	5	4	
2	6	0	0	0	0	1	0	5	0	3	0	4	
4	1	5	1	2	5	0	5	1	5	2	5	5	5	4	
5	6	0	5	1	4	5	0	5	1	5	5	5	3	5	4	
6	11	8	7	0	5	12	0	0	0	1	0	2	0	1	0	0	
4	14	7	0	6	0	0	0	1	0	2	0	3	0	4	
3	4	1	5	5	0	5	1	5	2	5	1	5	0	
5	8	7	0	6	13	0	0	0	1	0	5	0	3	0	4	
7	12	5	0	7	14	8	11	5	0	5	1	5	2	5	3	5	4	
3	5	1	4	5	0	5	1	5	2	5	3	5	4	
5	13	6	0	7	14	0	0	0	1	0	2	0	5	0	4	
2	0	6	0	0	0	1	0	2	0	5	0	4	
3	3	5	12	5	0	5	1	5	2	5	1	5	0	
6	7	8	9	6	13	10	7	0	7	1	7	2	7	5	7	4	
5	14	7	0	5	3	0	0	0	1	0	2	0	5	0	4	
7	11	8	14	7	0	5	3	5	0	5	1	5	5	5	3	5	4	
6	4	2	7	14	8	11	7	0	7	1	7	2	7	3	7	4	
5	9	8	7	0	5	7	0	7	1	0	2	0	3	5	4	
3	4	2	7	7	0	7	1	7	5	7	3	7	4	
8	10	13	6	9	8	14	7	14	7	0	7	1	7	2	7	1	7	0	
3	0	6	13	0	0	0	1	0	2	0	3	0	4	
2	3	5	5	0	5	1	5	2	5	1	5	0	
3	1	5	12	5	0	5	1	5	5	5	3	5	4	
3	7	8	9	7	0	7	1	7	2	7	3	7	4	
3	12	5	0	5	0	5	1	5	5	5	3	5	4	
5	14	7	0	6	13	0	0	0	1	0	2	0	1	0	0	
4	5	0	6	9	0	0	0	1	0	5	0	3	0	4	
4	10	12	5	3	5	0	5	1	5	2	5	1	5	0	
4	14	7	0	6	7	0	7	1	7	2	7	5	0	4	
3	3	5	0	0	0	0	1	0	2	0	1	0	0	
5	4	1	5	12	13	5	0	5	1	5	5	5	3	5	4	
4	11	8	7	14	7	0	7	1	7	2	7	3	7	4	
4	14	7	2	4	7	0	7	1	7	2	7	1	7	0	
3	4	2	7	7	0	7	1	7	2	7	3	7	4	
4	2	7	14	8	7	0	7	1	7	2	7	3	7	4	
4	1	2	7	14	7	0	7	1	7	2	7	5	7	4	
5	13	12	5	1	4	5	0	5	1	5	2	5	5	5	4	
4	6	0	6	13	0	0	0	1	0	2	0	5	0	4	
5	3	5	0	7	14	5	0	5	1	5	2	0	3	0	4	
4	8	7	0	6	0	0	0	1	0	2	0	3	0	4	
4	14	7	2	1	7	0	7	1	7	2	7	1	7	0	
2	7	2	7	0	7	1	7	2	7	1	7	0	
5	9	8	7	8	11	7	0	7	1	7	2	7	1	7	0	
5	13	6	9	8	7	7	0	7	1	7	2	7	3	7	4	
4	6	0	7	14	0	0	0	1	0	2	0	3	0	4	
5	11	8	7	0	5	7	0	7	1	7	5	7	3	5	4	
2	0	5	0	0	0	1	0	5	0	3	0	4	
3	7	8	11	7	0	7	1	7	2	7	1	7	0	
5	4	1	5	12	10	5	0	5	1	5	5	5	3	5	4	
5	9	8	7	0	6	7	0	7	1	0	2	0	1	0	0	
3	12	5	1	5	0	5	1	5	2	5	5	5	4	
4	11	8	7	0	7	0	0	1	0	5	0	3	0	4	
4	10	12	5	1	5	0	5	1	5	2	5	3	5	4	
5	3	5	0	6	13	5	0	5	1	5	5	5	3	0	4	
4	3	5	1	2	5	0	5	1	5	2	5	3	5	4	
4	1	5	12	13	5	0	5	1	5	2	5	3	5	4	
2	7	14	7	0	7	1	7	2	7	1	7	0	
4	12	5	0	7	0	0	0	1	0	2	0	5	0	4	
5	14	7	0	5	12	5	0	5	1	5	2	5	5	5	4	
4	2	7	0	6	7	0	7	1	0	2	0	1	0	0	
2	5	0	0	0	0	1	0	2	0	5	0	4	
5	3	5	0	7	14	5	0	5	1	5	5	5	3	5	4	
3	5	12	10	5	0	5	1	5	2	5	5	5	4	
6	11	8	7	0	6	9	7	0	7	1	7	5	7	3	0	4	
3	0	6	9	0	0	0	1	0	5	0	3	0	4	
3	6	0	5	0	0	0	1	0	2	0	1	5	0	
2	14	7	7	0	7	1	7	2	7	3	7	4	
5	4	1	5	0	6	5	0	5	1	5	5	5	3	5	4	
4	1	5	12	10	5	0	5	1	5	2	5	5	5	4	
4	12	5	1	4	5	0	5	1	5	2	5	3	5	4	
5	2	7	14	8	11	7	0	7	1	7	2	7	1	7	0	
2	5	3	5	0	5	1	5	2	5	3	5	4	
4	13	6	0	5	0	0	0	1	0	2	0	1	0	0	
4	6	0	5	12	5	0	5	1	5	2	5	1	5	0	
4	14	7	2	4	7	0	7	1	7	2	7	5	7	4	
4	8	7	0	5	0	0	0	1	0	2	0	1	0	0	
3	14	7	0	0	0	0	1	0	2	0	5	0	4	
4	7	0	5	3	0	0	0	1	0	2	0	5	0	4	
5	9	8	7	2	4	7	0	7	1	7	2	7	3	7	4	
7	9	8	14	7	14	8	11	7	0	7	1	7	2	7	5	7	4	
3	5	0	6	0	0	0	1	0	2	0	5	0	4	
6	13	6	9	8	7	8	7	0	7	1	7	2	7	1	7	0	
3	0	7	14	0	0	0	1	0	2	0	3	0	4	
6	6	9	8	7	8	9	7	0	7	1	7	2	7	1	7	0	
4	11	8	7	2	7	0	7	1	7	2	7	5	7	4	
3	1	5	3	5	0	5	1	5	2	5	1	5	0	
2	7	8	7	0	7	1	7	2	7	3	7	4	
8	10	12	5	0	7	14	8	9	5	0	5	1	5	5	5	3	5	4	
2	12	5	5	0	5	1	5	2	5	5	5	4	
6	11	8	7	0	5	12	0	0	0	1	0	5	0	3	0	4	
5	4	2	7	8	9	7	0	7	1	7	2	7	5	7	4	
5	3	5	0	6	9	0	0	0	1	0	5	0	3	0	4	
5	10	13	6	0	6	0	0	0	1	0	5	0	3	0	4	
4	5	0	7	8	0	0	0	1	0	2	0	1	0	0	
4	10	13	6	0	0	0	0	1	0	5	0	3	0	4	
5	11	8	7	2	1	7	0	7	1	7	2	7	3	7	4	
4	1	2	7	14	7	0	7	1	7	2	7	1	7	0	
4	4	1	5	0	0	0	0	1	0	2	0	3	0	4	
4	12	5	0	6	5	0	5	1	5	2	5	1	0	0	
5	2	7	14	8	9	7	0	7	1	7	2	7	3	7	4	
2	5	1	5	0	5	1	5	2	5	1	5	0	
4	13	12	5	3	5	0	5	1	5	2	5	5	5	4	
4	6	0	7	2	0	0	0	1	0	2	0	5	0	4	
5	6	0	5	1	4	5	0	5	1	5	2	5	5	5	4	
2	8	7	7	0	7	1	7	2	7	3	7	4	
3	7	0	5	0	0	0	1	0	2	0	5	0	4	
3	4	1	5	5	0	5	1	5	2	5	5	5	4	
7	12	5	0	7	14	8	11	0	0	0	1	0	2	0	1	0	0	
3	5	1	4	5	0	5	1	5	2	5	1	5	0	
6	10	13	6	0	7	14	0	0	0	1	0	5	0	3	0	4	
4	13	6	0	6	0	0	0	1	0	2	0	3	0	4	
3	0	5	1	0	0	0	1	0	5	0	3	0	4	
4	3	5	0	6	0	0	0	1	0	2	0	5	0	4	
3	3	5	12	5	0	5	1	5	2	5	5	5	4	
5	7	0	6	13	10	0	0	0	1	0	5	0	3	0	4	
5	9	6	0	5	3	0	0	0	1	0	5	0	3	0	4	
3	9	8	7	7	0	7	1	7	2	7	5	7	4	
6	4	2	7	14	8	11	7	0	7	1	7	2	7	1	7	0	
4	9	6	0	5	0	0	0	1	0	5	0	3	0	4	
8	10	13	6	9	8	14	7	14	7	0	7	1	7	2	7	3	7	4	
3	0	6	13	0	0	0	1	0	2	0	1	0	0	
2	3	5	5	0	5	1	5	2	5	3	5	4	
7	12	5	0	7	14	8	9	5	0	5	1	5	2	5	5	5	4	
6	11	8	7	0	5	3	0	0	0	1	0	2	0	1	0	0	
4	11	8	7	8	7	0	7	1	7	5	7	3	7	4	
3	1	5	12	5	0	5	1	5	2	5	3	5	4	
2	3	5	5	0	5	1	5	5	5	3	5	4	
4	4	2	7	2	7	0	7	1	7	2	7	1	7	0	
3	12	5	0	5	0	5	1	5	2	5	5	0	4	
6	10	13	6	0	7	8	0	0	0	1	0	5	0	3	0	4	
4	5	0	6	9	5	0	5	1	5	2	5	5	0	4	
4	10	12	5	3	5	0	5	1	5	2	5	5	5	4	
3	3	5	0	0	0	0	1	0	2	0	5	0	4	
4	11	8	7	14	7	0	7	1	7	2	7	1	7	0	
4	14	7	2	4	7	0	7	1	7	2	7	3	7	4	
3	2	7	14	7	0	7	1	7	5	7	3	7	4	
3	4	2	7	7	0	7	1	7	2	7	1	7	0	
2	12	5	5	0	5	1	5	2	5	3	5	4	
3	2	7	8	7	0	7	1	7	5	7	3	7	4	
3	5	1	2	5	0	5	1	5	2	5	3	5	4	
6	13	6	0	5	1	4	0	0	0	1	0	5	0	3	0	4	
4	6	0	6	13	0	0	0	1	0	5	0	3	0	4	
3	8	7	0	0	0	0	1	0	5	0	3	0	4	
3	7	8	9	7	0	7	1	7	2	7	5	7	4	
3	1	2	7	7	0	7	1	7	5	7	3	7	4	
5	3	5	0	7	14	0	0	0	1	0	2	0	1	0	0	
4	8	7	0	6	0	0	0	1	0	5	0	3	0	4	
5	9	8	7	8	11	7	0	7	1	7	2	7	3	7	4	
4	10	12	5	12	5	0	5	1	5	2	5	1	5	0	
4	3	5	0	7	0	0	0	1	0	2	0	1	0	0	
5	14	7	0	6	13	0	0	0	1	0	5	0	3	0	4	
5	11	8	7	0	5	7	0	7	1	7	2	7	5	5	4	
3	7	8	11	7	0	7	1	7	2	7	3	7	4	
3	2	1	5	5	0	5	1	5	2	5	5	5	4	
5	4	1	5	12	10	5	0	5	1	5	2	5	5	5	4	
8	9	8	14	7	14	8	9	6	7	0	7	1	7	2	7	5	7	4	
4	10	12	5	1	5	0	5	1	5	5	5	3	5	4	
4	12	5	12	13	5	0	5	1	5	2	5	5	5	4	
4	10	12	5	1	5	0	5	1	5	2	5	1	5	0	
5	1	2	7	8	11	7	0	7	1	7	5	7	3	7	4	
4	3	5	1	2	5	0	5	1	5	2	5	1	5	0	
4	11	8	7	0	7	0	0	1	0	2	0	3	0	4	
6	14	7	0	6	13	10	7	0	7	1	7	2	7	1	0	0	
4	4	1	5	1	5	0	5	1	5	2	5	3	5	4	
4	12	5	0	7	5	0	5	1	5	5	5	3	5	4	
6	2	7	14	8	9	6	7	0	7	1	7	2	7	3	7	4	
4	4	1	5	3	5	0	5	1	5	2	5	5	5	4	
4	3	5	1	2	5	0	5	1	5	5	5	3	5	4	
4	0	5	1	4	5	0	5	1	5	5	5	3	5	4	
3	5	12	10	5	0	5	1	5	5	5	3	5	4	
7	11	8	14	7	14	8	9	7	0	7	1	7	2	7	5	7	4	
5	11	8	14	7	0	0	0	0	1	0	2	0	5	0	4	
2	14	7	7	0	7	1	7	2	7	1	7	0	
5	4	1	5	0	6	5	0	5	1	5	2	5	5	5	4	
4	3	5	0	7	5	0	5	1	0	5	0	3	7	4	
4	2	7	8	11	7	0	7	1	7	2	7	5	7	4	
3	13	12	5	5	0	5	1	5	2	5	3	5	4	
3	9	6	0	0	0	0	1	0	5	0	3	0	4	
4	6	0	5	12	5	0	5	1	5	2	5	3	5	4	
3	1	5	0	0	0	0	1	0	2	0	5	0	4	
3	7	0	5	5	0	5	1	5	2	5	1	5	0	
5	12	5	0	6	13	5	0	5	1	5	5	5	3	0	4	
5	9	8	7	2	4	7	0	7	1	7	2	7	1	7	0	
3	0	7	8	0	0	0	1	0	5	0	3	0	4	
4	14	7	8	9	7	0	7	1	7	5	7	3	7	4	
3	0	7	14	0	0	0	1	0	5	0	3	0	4	
4	3	5	1	4	5	0	5	1	5	2	5	3	5	4	
2	8	7	7	0	7	1	7	2	7	5	7	4	
4	11	8	7	2	7	0	7	1	7	5	7	3	7	4	
3	1	5	3	5	0	5	1	5	2	5	3	5	4	
2	7	8	7	0	7	1	7	2	7	1	7	0	
3	10	12	5	5	0	5	1	5	5	5	3	5	4	
4	2	7	2	4	7	0	7	1	7	2	7	1	7	0	
5	4	2	7	8	9	7	0	7	1	7	5	7	3	7	4	
5	10	13	6	0	6	0	0	0	1	0	2	0	5	0	4	
4	10	13	6	0	0	0	0	1	0	2	0	5	0	4	
4	1	5	0	6	0	0	0	1	0	2	0	5	0	4	
6	8	14	7	0	5	12	5	0	5	1	5	2	5	5	5	4	
5	8	7	0	5	12	0	0	0	1	0	5	0	3	0	4	
6	8	7	0	6	13	10	7	0	7	1	7	2	7	1	0	0	
4	14	7	0	5	5	0	5	1	5	2	5	3	5	4	
3	4	2	7	7	0	7	1	7	2	7	5	7	4	
4	12	5	0	6	5	0	5	1	5	2	5	3	0	4	
4	2	7	8	9	7	0	7	1	7	2	7	1	7	0	
2	5	1	5	0	5	1	5	2	5	3	5	4	
5	13	6	0	5	3	0	0	0	1	0	2	0	1	0	0	
3	0	5	3	0	0	0	1	0	2	0	5	0	4	
6	6	9	8	14	7	2	7	0	7	1	7	2	7	1	7	0	
2	8	7	7	0	7	1	7	2	7	1	7	0	
3	4	1	5	5	0	5	1	5	5	5	3	5	4	
7	9	8	7	0	6	13	10	7	0	7	1	0	2	0	3	0	4	
4	14	7	0	6	0	0	0	1	0	5	0	3	0	4	
4	13	6	0	6	0	0	0	1	0	2	0	1	0	0	
2	7	8	7	0	7	1	7	2	7	5	7	4	
4	3	5	1	4	5	0	5	1	5	5	5	3	5	4	
4	3	5	0	6	5	0	5	1	5	5	5	3	5	4	
6	8	14	7	0	5	3	0	0	0	1	0	2	0	5	5	4	
5	7	0	6	13	10	7	0	7	1	7	2	7	3	0	4	
5	9	6	0	5	3	0	0	0	1	0	2	0	5	0	4	
4	14	7	0	5	0	0	0	1	0	5	0	3	0	4	
6	9	8	14	7	0	5	0	0	0	1	0	2	0	5	5	4	
3	0	6	13	0	0	0	1	0	2	0	5	0	4	
7	11	8	14	7	0	5	3	0	0	0	1	0	2	0	3	0	4	
3	1	5	12	5	0	5	1	5	2	5	1	5	0	
4	4	2	7	2	7	0	7	1	7	2	7	3	7	4	
3	12	5	0	5	0	5	1	5	2	5	1	5	0	
2	2	7	7	0	7	1	7	2	7	3	7	4	
