3336.46	3036.35
1786
52809.5	38932.6
15
0	13019	13058
1	0	-1
2	0	-1
3	0	-1
4	0	-1
5	6625	6959
6	0	-1
7	0	-1
8	0	-1
9	0	-1
10	0	-1
11	0	-1
12	0	-1
13	0	-1
14	0	-1
44
0	5	201.458716	201.981107	1.000000
0	6	207.775288	207.864046	1.000000
0	7	229.327232	229.434604	1.000000
1	2	62.773102	225.512861	1.000000
1	4	66.717656	221.591118	1.000000
1	5	195.689162	225.512861	1.000000
2	1	63.090378	225.512861	1.000000
2	4	0.000000	207.864046	0.000000
2	7	31.659600	200.019911	1.000000
3	4	0.000000	194.136973	0.000000
3	5	65.972656	178.449353	1.000000
4	1	66.253054	221.591118	1.000000
4	2	0.000000	207.864046	0.000000
4	3	0.000000	194.136973	0.000000
5	0	201.210090	201.981107	1.000000
5	1	195.640998	225.512861	1.000000
5	3	66.643630	178.449353	1.000000
5	12	167.427816	180.410549	1.000000
6	0	207.820548	207.864046	1.000000
6	9	107.747258	190.215230	1.000000
6	13	33.256594	215.708180	1.000000
7	0	229.429602	229.434604	1.000000
7	2	30.943776	200.019911	1.000000
7	8	92.621708	213.746984	1.000000
7	14	66.407466	221.591118	1.000000
8	7	92.032366	213.746984	1.000000
8	9	0.000000	207.864046	0.000000
8	11	25.455644	176.488157	1.000000
8	14	0.000000	188.254034	0.000000
9	6	107.940306	190.215230	1.000000
9	8	0.000000	207.864046	0.000000
9	11	41.565580	219.629923	1.000000
10	12	66.644478	207.864046	1.000000
10	13	0.000000	198.059364	0.000000
11	8	25.629840	176.488157	1.000000
11	9	41.818396	219.629923	1.000000
12	5	166.889442	180.410549	1.000000
12	10	67.138240	207.864046	1.000000
12	13	33.839250	192.176426	1.000000
13	6	33.856476	215.708180	1.000000
13	10	0.000000	198.059364	0.000000
13	12	33.133614	192.176426	1.000000
14	7	66.393826	221.591118	1.000000
14	8	0.000000	188.254034	0.000000
840
4	10	12	5	3	5	0	5	1	5	5	5	3	5	4	
5	14	7	0	7	2	0	0	0	1	0	5	0	3	0	4	
3	3	5	0	0	0	0	1	0	5	0	3	0	4	
5	8	7	0	6	9	0	0	0	1	0	2	0	3	0	4	
6	14	7	0	5	1	4	5	0	5	1	5	5	5	3	5	4	
6	2	1	5	0	7	14	0	0	0	1	0	2	0	5	0	4	
5	9	6	0	5	12	5	0	5	1	5	5	5	3	5	4	
2	12	5	5	0	5	1	5	2	5	1	5	0	
5	2	7	0	7	8	0	0	0	1	0	2	0	5	0	4	
3	5	1	2	5	0	5	1	5	2	5	1	5	0	
5	13	12	5	1	4	5	0	5	1	5	2	5	3	5	4	
4	0	5	1	2	0	0	0	1	0	2	0	1	0	0	
4	4	1	5	12	5	0	5	1	5	5	5	3	5	4	
4	6	0	6	13	0	0	0	1	0	2	0	3	0	4	
3	8	7	0	0	0	0	1	0	2	0	5	0	4	
5	1	5	1	2	7	5	0	5	1	5	2	5	5	5	4	
4	8	7	0	6	0	0	0	1	0	2	0	5	0	4	
5	3	5	0	7	14	0	0	0	1	0	2	0	5	0	4	
4	8	7	0	7	0	0	0	1	0	5	0	3	0	4	
4	10	12	5	12	5	0	5	1	5	2	5	3	5	4	
4	3	5	0	7	0	0	0	1	0	2	0	3	0	4	
4	7	0	6	13	0	0	0	1	0	5	0	3	0	4	
5	14	7	0	5	1	0	0	0	1	0	5	0	3	0	4	
6	11	8	7	2	1	5	5	0	5	1	5	2	5	1	5	0	
4	1	5	1	2	5	0	5	1	5	2	5	3	5	4	
4	4	1	5	12	5	0	5	1	5	2	5	1	5	0	
4	7	0	5	1	0	0	0	1	0	5	0	3	0	4	
3	2	1	5	5	0	5	1	5	5	5	3	5	4	
4	9	6	0	6	0	0	0	1	0	5	0	3	0	4	
6	1	5	0	6	9	11	0	0	0	1	0	2	0	5	0	4	
4	11	9	6	0	0	0	0	1	0	2	0	1	0	0	
6	14	7	0	5	12	10	5	0	5	1	5	2	5	3	5	4	
4	4	1	5	1	5	0	5	1	5	2	5	1	5	0	
4	12	5	0	7	0	0	0	1	0	2	0	3	0	4	
2	5	0	5	0	5	1	5	2	5	3	0	4	
4	0	5	1	4	0	0	0	1	0	2	0	5	0	4	
6	11	9	6	0	6	9	0	0	0	1	0	2	0	1	0	0	
6	10	12	5	0	6	9	0	0	0	1	0	2	0	5	0	4	
5	9	6	0	7	8	0	0	0	1	0	5	0	3	0	4	
6	11	9	6	0	5	12	5	0	5	1	5	2	5	5	5	4	
3	7	0	6	0	0	0	1	0	2	0	5	0	4	
4	14	7	0	7	0	0	0	1	0	2	0	5	0	4	
6	13	6	0	6	9	11	0	0	0	1	0	5	0	3	0	4	
6	2	7	0	6	9	11	0	0	0	1	0	5	0	3	0	4	
5	6	0	5	12	10	5	0	5	1	5	5	5	3	5	4	
3	13	12	5	5	0	5	1	5	5	5	3	5	4	
3	0	5	1	5	0	5	1	5	2	5	3	5	4	
5	3	5	0	6	9	0	0	0	1	0	2	0	1	0	0	
4	3	5	12	10	5	0	5	1	5	2	5	5	5	4	
3	1	5	0	0	0	0	1	0	5	0	3	0	4	
3	7	0	5	0	0	0	1	0	2	0	3	0	4	
5	5	0	7	8	11	5	0	5	1	5	5	5	3	5	4	
3	0	7	8	0	0	0	1	0	2	0	5	0	4	
3	0	7	14	0	0	0	1	0	2	0	5	0	4	
4	3	5	1	4	5	0	5	1	5	2	5	1	5	0	
7	11	8	7	0	5	1	2	0	0	0	1	0	2	0	3	0	4	
5	14	7	0	7	8	0	0	0	1	0	2	0	1	0	0	
4	4	1	5	3	5	0	5	1	5	2	5	3	5	4	
5	2	1	5	1	4	5	0	5	1	5	2	5	3	5	4	
5	10	12	5	0	6	5	0	5	1	5	2	5	1	5	0	
3	13	6	0	0	0	0	1	0	2	0	5	0	4	
4	0	5	12	10	5	0	5	1	5	2	5	5	5	4	
4	6	0	5	1	0	0	0	1	0	2	0	5	0	4	
4	9	6	0	7	0	0	0	1	0	5	0	3	0	4	
6	8	7	0	5	12	10	0	0	0	1	0	2	0	3	0	4	
5	12	5	0	7	8	0	0	0	1	0	5	0	3	0	4	
5	14	7	2	1	5	5	0	5	1	5	2	5	1	5	0	
3	5	0	7	0	0	0	1	0	5	0	3	0	4	
4	12	5	0	6	0	0	0	1	0	5	0	3	0	4	
2	6	0	0	0	0	1	0	2	0	5	0	4	
2	5	1	5	0	5	1	5	5	5	3	5	4	
5	10	12	5	12	13	5	0	5	1	5	2	5	5	5	4	
4	13	12	5	3	5	0	5	1	5	2	5	3	5	4	
6	11	9	6	0	7	8	0	0	0	1	0	2	0	5	0	4	
4	6	0	7	2	0	0	0	1	0	2	0	3	0	4	
6	4	1	5	0	7	8	0	0	0	1	0	5	0	3	0	4	
6	9	6	0	5	12	10	0	0	0	1	0	2	0	1	0	0	
4	13	12	5	12	5	0	5	1	5	2	5	5	5	4	
5	10	12	5	12	13	5	0	5	1	5	2	5	3	5	4	
4	3	5	0	6	0	0	0	1	0	2	0	3	0	4	
6	7	2	1	5	12	10	5	0	5	1	5	2	5	1	5	0	
5	9	6	0	5	3	0	0	0	1	0	2	0	1	0	0	
3	12	5	3	5	0	5	1	5	2	5	5	5	4	
2	5	12	5	0	5	1	5	2	5	5	5	4	
4	7	0	6	9	0	0	0	1	0	5	0	3	0	4	
6	11	9	6	0	6	13	0	0	0	1	0	5	0	3	0	4	
3	0	6	13	0	0	0	1	0	5	0	3	0	4	
6	8	7	2	1	5	12	5	0	5	1	5	2	5	1	5	0	
6	14	7	0	6	9	11	0	0	0	1	0	2	0	3	0	4	
5	4	1	5	1	2	5	0	5	1	5	5	5	3	5	4	
3	12	5	0	0	0	0	1	0	2	0	3	0	4	
4	2	7	0	7	0	0	0	1	0	2	0	1	0	0	
5	14	7	0	6	13	0	0	0	1	0	2	0	5	0	4	
4	13	12	5	1	5	0	5	1	5	2	5	1	5	0	
2	6	0	0	0	0	1	0	2	0	1	0	0	
5	14	7	0	5	3	0	0	0	1	0	5	0	3	0	4	
6	14	7	0	5	1	2	0	0	0	1	0	2	0	5	0	4	
5	8	7	0	6	9	0	0	0	1	0	2	0	1	0	0	
4	6	0	5	12	0	0	0	1	0	2	0	5	0	4	
5	2	7	0	7	14	0	0	0	1	0	2	0	1	0	0	
4	10	12	5	1	5	0	5	1	5	2	5	5	5	4	
4	3	5	12	10	5	0	5	1	5	5	5	3	5	4	
5	9	6	0	7	8	0	0	0	1	0	2	0	3	0	4	
2	3	5	5	0	5	1	5	2	5	5	5	4	
3	5	1	2	5	0	5	1	5	2	5	5	5	4	
5	13	12	5	1	4	5	0	5	1	5	2	5	1	5	0	
3	0	7	2	0	0	0	1	0	2	0	3	0	4	
4	6	0	6	13	0	0	0	1	0	2	0	1	0	0	
3	8	7	0	0	0	0	1	0	2	0	1	0	0	
5	11	9	6	0	6	0	0	0	1	0	2	0	5	0	4	
4	1	5	0	7	0	0	0	1	0	2	0	1	0	0	
5	7	0	5	1	4	0	0	0	1	0	2	0	3	5	4	
4	3	5	1	2	5	0	5	1	5	2	5	5	5	4	
5	10	12	5	1	2	5	0	5	1	5	5	5	3	5	4	
3	3	5	1	5	0	5	1	5	5	5	3	5	4	
4	10	12	5	12	5	0	5	1	5	5	5	3	5	4	
5	13	6	0	6	9	0	0	0	1	0	5	0	3	0	4	
4	7	0	6	13	0	0	0	1	0	2	0	5	0	4	
5	11	8	7	0	5	0	0	0	1	0	2	0	3	0	4	
4	1	5	1	2	5	0	5	1	5	2	5	1	5	0	
4	4	1	5	12	5	0	5	1	5	2	5	3	5	4	
4	12	5	1	2	5	0	5	1	5	2	5	1	5	0	
3	2	1	5	5	0	5	1	5	2	5	3	5	4	
3	5	12	13	5	0	5	1	5	2	5	1	5	0	
4	5	0	7	14	0	0	0	1	0	5	0	3	0	4	
7	11	8	7	0	5	12	10	0	0	0	1	0	2	0	5	0	4	
5	13	6	0	6	9	0	0	0	1	0	2	0	5	0	4	
6	1	5	0	7	8	11	0	0	0	1	0	2	0	1	0	0	
6	8	7	0	7	8	11	0	0	0	1	0	2	0	3	0	4	
4	4	1	5	1	5	0	5	1	5	2	5	5	5	4	
5	14	7	0	6	9	0	0	0	1	0	2	0	5	0	4	
4	12	5	0	7	0	0	0	1	0	2	0	1	0	0	
2	5	0	0	0	0	1	0	2	0	1	0	0	
5	13	12	5	1	2	5	0	5	1	5	2	5	3	5	4	
4	0	5	1	4	0	0	0	1	0	2	0	1	0	0	
5	7	0	6	9	11	0	0	0	1	0	5	0	3	0	4	
4	6	0	5	3	0	0	0	1	0	2	0	3	0	4	
6	11	8	7	0	6	9	0	0	0	1	0	2	0	3	0	4	
3	10	12	5	5	0	5	1	5	2	5	5	5	4	
3	7	0	6	0	0	0	1	0	5	0	3	0	4	
5	12	5	0	7	14	0	0	0	1	0	2	0	1	0	0	
4	14	7	0	7	0	0	0	1	0	5	0	3	0	4	
6	13	6	0	6	9	11	0	0	0	1	0	2	0	5	0	4	
5	6	0	5	12	10	0	0	0	1	0	2	0	5	0	4	
3	13	12	5	5	0	5	1	5	2	5	5	5	4	
3	0	5	1	0	0	0	1	0	2	0	1	0	0	
5	3	5	0	6	9	0	0	0	1	0	2	0	3	0	4	
5	11	8	7	0	7	0	0	0	1	0	2	0	1	0	0	
3	1	5	0	0	0	0	1	0	2	0	3	0	4	
6	4	1	5	0	7	14	0	0	0	1	0	2	0	1	0	0	
5	5	0	7	8	11	0	0	0	1	0	2	0	5	0	4	
5	13	6	0	7	14	0	0	0	1	0	2	0	3	0	4	
3	0	7	8	0	0	0	1	0	2	0	1	0	0	
4	3	5	1	4	5	0	5	1	5	2	5	5	5	4	
6	11	9	6	0	7	2	0	0	0	1	0	2	0	1	0	0	
5	14	7	0	7	8	0	0	0	1	0	2	0	3	0	4	
5	2	1	5	12	10	5	0	5	1	5	5	5	3	5	4	
4	4	1	5	3	5	0	5	1	5	2	5	1	5	0	
3	12	5	1	5	0	5	1	5	2	5	3	5	4	
5	2	1	5	1	4	5	0	5	1	5	5	5	3	5	4	
4	5	0	7	14	0	0	0	1	0	2	0	3	0	4	
5	10	12	5	0	6	0	0	0	1	0	2	0	3	0	4	
3	13	6	0	0	0	0	1	0	5	0	3	0	4	
4	6	0	5	1	0	0	0	1	0	5	0	3	0	4	
6	8	7	0	5	1	4	0	0	0	1	0	5	0	3	5	4	
4	14	7	0	5	0	0	0	1	0	2	0	5	0	4	
6	8	7	0	5	12	10	0	0	0	1	0	5	0	3	0	4	
5	12	5	0	7	8	0	0	0	1	0	2	0	5	0	4	
3	5	0	7	0	0	0	1	0	2	0	5	0	4	
4	12	5	0	6	0	0	0	1	0	2	0	5	0	4	
2	5	1	5	0	5	1	5	2	5	5	5	4	
6	10	12	5	0	7	8	0	0	0	1	0	2	0	1	0	0	
3	0	5	3	0	0	0	1	0	2	0	3	0	4	
6	3	5	0	6	9	11	0	0	0	1	0	2	0	1	0	0	
6	4	1	5	0	7	8	0	0	0	1	0	2	0	5	0	4	
4	12	5	12	13	5	0	5	1	5	2	5	3	5	4	
4	7	0	7	8	0	0	0	1	0	5	0	3	0	4	
4	2	1	5	1	5	0	5	1	5	2	5	5	5	4	
6	9	6	0	5	12	10	0	0	0	1	0	2	0	5	0	4	
4	13	12	5	12	5	0	5	1	5	5	5	3	5	4	
5	10	12	5	12	13	5	0	5	1	5	2	5	1	5	0	
4	3	5	0	6	0	0	0	1	0	2	0	1	0	0	
5	9	6	0	5	12	0	0	0	1	0	2	0	5	0	4	
7	11	8	7	0	5	1	4	0	0	0	1	0	2	0	3	0	4	
6	8	7	0	6	9	11	0	0	0	1	0	5	0	3	0	4	
5	4	1	5	12	13	5	0	5	1	5	2	5	3	5	4	
5	9	6	0	5	3	0	0	0	1	0	2	0	3	0	4	
3	12	5	3	5	0	5	1	5	5	5	3	5	4	
2	5	12	5	0	5	1	5	5	5	3	5	4	
5	10	12	5	1	4	5	0	5	1	5	2	5	1	5	0	
4	1	5	12	13	5	0	5	1	5	2	5	5	5	4	
6	11	8	7	0	6	13	0	0	0	1	0	2	0	5	0	4	
5	8	7	0	5	12	0	0	0	1	0	2	0	3	0	4	
6	14	7	0	6	9	11	0	0	0	1	0	2	0	1	0	0	
5	2	1	5	12	13	5	0	5	1	5	2	5	5	5	4	
5	4	1	5	1	2	5	0	5	1	5	2	5	5	5	4	
5	9	6	0	6	13	0	0	0	1	0	2	0	1	0	0	
5	2	1	5	0	7	0	0	0	1	0	2	0	5	0	4	
4	13	12	5	1	5	0	5	1	5	2	5	3	5	4	
2	6	0	0	0	0	1	0	2	0	3	0	4	
6	11	8	7	0	7	8	0	0	0	1	0	2	0	3	0	4	
5	14	7	0	7	2	0	0	0	1	0	2	0	1	0	0	
4	6	0	7	2	0	0	0	1	0	5	0	3	0	4	
4	1	5	1	4	5	0	5	1	5	2	5	5	5	4	
5	7	2	1	5	1	5	0	5	1	5	2	5	1	5	0	
6	2	1	5	0	7	14	0	0	0	1	0	2	0	3	0	4	
5	9	6	0	7	8	0	0	0	1	0	2	0	1	0	0	
3	0	5	12	0	0	0	1	0	5	0	3	0	4	
3	5	1	2	5	0	5	1	5	5	5	3	5	4	
7	10	12	5	0	6	9	11	0	0	0	1	0	2	0	3	0	4	
3	0	7	2	0	0	0	1	0	5	0	3	0	4	
5	3	5	0	7	8	0	0	0	1	0	2	0	3	0	4	
3	8	7	0	0	0	0	1	0	2	0	3	0	4	
5	11	9	6	0	6	0	0	0	1	0	5	0	3	0	4	
3	3	5	12	5	0	5	1	5	5	5	3	5	4	
4	1	5	0	7	0	0	0	1	0	2	0	3	0	4	
5	7	0	5	1	4	0	0	0	1	0	2	0	1	5	0	
5	9	6	0	5	1	0	0	0	1	0	2	0	1	0	0	
4	2	1	5	0	0	0	0	1	0	2	0	1	0	0	
2	12	5	5	0	5	1	5	5	5	3	5	4	
5	10	12	5	1	2	5	0	5	1	5	2	5	5	5	4	
5	9	6	0	7	8	0	0	0	1	0	2	0	5	0	4	
4	10	12	5	12	5	0	5	1	5	2	5	5	5	4	
5	1	5	0	7	8	0	0	0	1	0	2	0	5	0	4	
4	3	5	0	7	0	0	0	1	0	2	0	5	0	4	
4	7	0	6	13	0	0	0	1	0	2	0	1	0	0	
5	8	7	0	7	14	0	0	0	1	0	2	0	1	0	0	
5	14	7	0	6	9	0	0	0	1	0	2	0	3	0	4	
5	1	5	0	6	9	0	0	0	1	0	2	0	5	0	4	
4	12	5	1	2	5	0	5	1	5	2	5	3	5	4	
3	2	1	5	5	0	5	1	5	2	5	1	5	0	
3	5	12	13	5	0	5	1	5	2	5	3	5	4	
5	10	12	5	0	7	0	0	0	1	0	2	0	3	0	4	
2	0	7	0	0	0	1	0	2	0	5	0	4	
7	11	9	6	0	5	12	10	0	0	0	1	0	5	0	3	0	4	
6	1	5	0	6	9	11	0	0	0	1	0	2	0	3	0	4	
6	8	7	0	6	9	11	0	0	0	1	0	2	0	1	0	0	
4	2	1	5	12	5	0	5	1	5	2	5	1	5	0	
4	4	1	5	1	5	0	5	1	5	5	5	3	5	4	
5	9	6	0	7	14	0	0	0	1	0	2	0	3	0	4	
6	9	6	0	5	1	4	0	0	0	1	0	5	0	3	5	4	
5	13	12	5	1	2	5	0	5	1	5	2	5	1	5	0	
4	0	5	1	4	0	0	0	1	0	2	0	3	0	4	
4	6	0	5	3	0	0	0	1	0	2	0	1	0	0	
5	8	7	0	7	2	0	0	0	1	0	2	0	1	0	0	
2	1	5	5	0	5	1	5	2	5	1	5	0	
3	7	0	6	0	0	0	1	0	2	0	3	0	4	
5	12	5	0	7	14	0	0	0	1	0	2	0	3	0	4	
6	13	6	0	6	9	11	0	0	0	1	0	2	0	1	0	0	
4	0	6	9	11	0	0	0	1	0	2	0	5	0	4	
5	6	0	5	12	10	0	0	0	1	0	2	0	1	0	0	
3	0	5	1	0	0	0	1	0	2	0	5	0	4	
2	7	0	0	0	0	1	0	2	0	5	0	4	
5	11	8	7	0	7	0	0	0	1	0	2	0	3	0	4	
3	1	5	0	0	0	0	1	0	2	0	1	0	0	
6	4	1	5	0	7	14	0	0	0	1	0	2	0	3	0	4	
5	9	6	0	7	2	0	0	0	1	0	2	0	3	0	4	
6	9	6	0	5	1	4	0	0	0	1	0	2	0	5	0	4	
4	2	1	5	3	5	0	5	1	5	2	5	3	5	4	
5	8	7	0	5	3	0	0	0	1	0	5	0	3	0	4	
6	5	1	2	7	8	11	5	0	5	1	5	2	5	1	5	0	
5	13	6	0	7	14	0	0	0	1	0	2	0	1	0	0	
3	0	7	8	0	0	0	1	0	2	0	3	0	4	
4	2	1	5	12	5	0	5	1	5	5	5	3	5	4	
5	1	5	0	6	9	0	0	0	1	0	2	0	1	0	0	
3	6	0	7	0	0	0	1	0	5	0	3	0	4	
5	8	7	0	6	13	0	0	0	1	0	2	0	3	0	4	
5	14	7	0	7	8	0	0	0	1	0	5	0	3	0	4	
5	2	1	5	12	10	5	0	5	1	5	2	5	5	5	4	
3	12	5	1	5	0	5	1	5	2	5	1	5	0	
5	2	1	5	1	4	5	0	5	1	5	2	5	5	5	4	
4	5	0	7	14	0	0	0	1	0	2	0	1	0	0	
3	13	6	0	0	0	0	1	0	2	0	3	0	4	
2	0	6	0	0	0	1	0	2	0	1	0	0	
6	11	9	6	0	5	3	0	0	0	1	0	2	0	5	0	4	
4	6	0	5	1	0	0	0	1	0	2	0	3	0	4	
7	8	7	2	1	5	1	4	5	0	5	1	5	2	5	5	5	4	
5	8	7	0	6	9	0	0	0	1	0	5	0	3	0	4	
6	8	7	0	5	12	10	0	0	0	1	0	2	0	5	0	4	
5	12	5	0	7	8	0	0	0	1	0	2	0	1	0	0	
3	5	0	7	0	0	0	1	0	2	0	1	0	0	
6	10	12	5	0	7	8	0	0	0	1	0	2	0	3	0	4	
3	0	5	3	0	0	0	1	0	2	0	1	0	0	
6	3	5	0	6	9	11	0	0	0	1	0	2	0	3	0	4	
5	8	7	0	5	1	0	0	0	1	0	2	0	3	0	4	
4	12	5	12	10	5	0	5	1	5	2	5	5	5	4	
4	1	5	0	6	0	0	0	1	0	2	0	3	0	4	
4	6	0	6	9	0	0	0	1	0	5	0	3	0	4	
6	4	1	5	0	7	8	0	0	0	1	0	2	0	1	0	0	
4	12	5	12	13	5	0	5	1	5	2	5	1	5	0	
4	2	1	5	1	5	0	5	1	5	5	5	3	5	4	
6	9	6	0	5	12	10	0	0	0	1	0	5	0	3	0	4	
4	13	12	5	12	5	0	5	1	5	2	5	3	5	4	
4	0	5	12	10	0	0	0	1	0	2	0	1	0	0	
5	13	12	5	1	2	5	0	5	1	5	5	5	3	5	4	
4	6	0	5	12	0	0	0	1	0	5	0	3	0	4	
8	11	8	7	2	1	5	1	4	5	0	5	1	5	2	5	1	5	0	
5	4	1	5	12	13	5	0	5	1	5	2	5	1	5	0	
3	12	5	3	5	0	5	1	5	2	5	3	5	4	
2	5	12	5	0	5	1	5	2	5	3	5	4	
5	10	12	5	1	4	5	0	5	1	5	2	5	3	5	4	
4	6	0	5	3	0	0	0	1	0	5	0	3	0	4	
6	11	9	6	0	6	13	0	0	0	1	0	2	0	1	0	0	
4	1	5	12	10	5	0	5	1	5	2	5	3	5	4	
5	7	0	5	1	2	0	0	0	1	0	2	0	5	0	4	
6	14	7	0	6	9	11	0	0	0	1	0	2	0	5	0	4	
5	2	1	5	12	13	5	0	5	1	5	5	5	3	5	4	
5	9	6	0	6	13	0	0	0	1	0	2	0	3	0	4	
4	13	6	0	7	0	0	0	1	0	5	0	3	0	4	
4	2	7	0	7	0	0	0	1	0	5	0	3	0	4	
4	7	0	5	12	0	0	0	1	0	5	0	3	0	4	
4	6	0	7	14	0	0	0	1	0	5	0	3	0	4	
4	8	7	0	5	0	0	0	1	0	5	0	3	0	4	
4	13	12	5	1	5	0	5	1	5	5	5	3	5	4	
2	0	5	0	0	0	1	0	2	0	3	0	4	
4	3	5	12	13	5	0	5	1	5	2	5	1	5	0	
6	11	9	6	0	7	8	0	0	0	1	0	2	0	1	0	0	
6	14	7	0	5	1	2	0	0	0	1	0	2	0	3	0	4	
4	1	5	1	4	5	0	5	1	5	5	5	3	5	4	
4	7	0	5	1	0	0	0	1	0	2	0	3	0	4	
2	7	0	0	0	0	1	0	5	0	3	0	4	
3	0	5	12	0	0	0	1	0	2	0	5	0	4	
5	7	0	6	9	11	0	0	0	1	0	2	0	5	0	4	
5	12	5	0	7	14	0	0	0	1	0	2	0	5	0	4	
7	10	12	5	0	6	9	11	0	0	0	1	0	2	0	1	0	0	
3	0	7	2	0	0	0	1	0	2	0	5	0	4	
5	3	5	0	7	8	0	0	0	1	0	2	0	1	0	0	
4	7	0	7	14	0	0	0	1	0	2	0	5	0	4	
5	11	9	6	0	6	0	0	0	1	0	2	0	3	0	4	
5	14	7	0	5	12	5	0	5	1	5	2	5	1	5	0	
5	7	0	5	1	4	0	0	0	1	0	2	0	5	0	4	
5	9	6	0	5	1	0	0	0	1	0	2	0	3	0	4	
4	13	6	0	6	0	0	0	1	0	5	0	3	0	4	
3	2	7	0	0	0	0	1	0	2	0	3	0	4	
4	4	1	5	12	5	0	5	1	5	2	5	5	5	4	
5	10	12	5	1	2	5	0	5	1	5	2	5	1	5	0	
4	6	0	7	8	0	0	0	1	0	5	0	3	0	4	
3	0	6	9	0	0	0	1	0	2	0	3	0	4	
3	3	5	1	5	0	5	1	5	2	5	1	5	0	
3	6	0	5	0	0	0	1	0	2	0	5	0	4	
3	7	0	5	0	0	0	1	0	5	0	3	5	4	
4	7	0	6	13	0	0	0	1	0	2	0	3	0	4	
5	8	7	0	7	14	0	0	0	1	0	2	0	3	0	4	
4	12	5	1	4	5	0	5	1	5	5	5	3	5	4	
5	14	7	0	6	9	0	0	0	1	0	2	0	1	0	0	
2	5	3	5	0	5	1	5	5	5	3	5	4	
4	12	5	1	2	5	0	5	1	5	5	5	3	5	4	
3	5	12	13	5	0	5	1	5	5	5	3	5	4	
5	10	12	5	0	7	0	0	0	1	0	2	0	1	0	0	
2	0	7	0	0	0	1	0	5	0	3	0	4	
7	11	8	7	0	5	12	10	0	0	0	1	0	2	0	3	0	4	
3	14	7	0	0	0	0	1	0	2	0	1	0	0	
4	7	0	5	3	5	0	5	1	5	2	5	1	5	0	
4	2	1	5	12	5	0	5	1	5	2	5	3	5	4	
5	8	7	0	5	1	0	0	0	1	0	5	0	3	0	4	
5	9	6	0	7	14	0	0	0	1	0	2	0	1	0	0	
5	13	6	0	7	8	0	0	0	1	0	2	0	5	0	4	
2	5	0	5	0	5	1	5	5	5	3	5	4	
4	6	0	6	9	0	0	0	1	0	2	0	5	0	4	
6	10	12	5	0	6	9	0	0	0	1	0	2	0	3	0	4	
4	3	5	12	10	5	0	5	1	5	2	5	3	5	4	
6	8	7	0	5	1	2	0	0	0	1	0	2	0	3	0	4	
2	1	5	5	0	5	1	5	2	5	3	5	4	
3	7	0	6	0	0	0	1	0	2	0	1	0	0	
4	9	6	0	7	0	0	0	1	0	2	0	1	0	0	
4	1	5	0	6	0	0	0	1	0	5	0	3	0	4	
4	5	0	7	8	5	0	5	1	5	2	5	5	5	4	
6	13	6	0	6	9	11	0	0	0	1	0	2	0	3	0	4	
4	0	6	9	11	0	0	0	1	0	5	0	3	0	4	
5	6	0	5	12	10	0	0	0	1	0	2	0	3	0	4	
6	11	9	6	0	5	1	5	0	5	1	5	5	5	3	5	4	
4	6	0	7	8	0	0	0	1	0	2	0	5	0	4	
4	4	1	5	0	0	0	0	1	0	5	0	3	0	4	
5	13	12	5	12	10	5	0	5	1	5	5	5	3	5	4	
5	11	9	6	0	7	0	0	0	1	0	5	0	3	0	4	
6	4	1	5	0	7	14	0	0	0	1	0	5	0	3	0	4	
5	9	6	0	7	2	0	0	0	1	0	2	0	1	0	0	
4	2	1	5	3	5	0	5	1	5	2	5	1	5	0	
5	5	0	6	9	11	0	0	0	1	0	2	0	3	0	4	
3	10	12	5	5	0	5	1	5	2	5	3	5	4	
5	6	0	5	1	4	0	0	0	1	0	2	0	1	0	0	
5	1	5	0	6	9	0	0	0	1	0	2	0	3	0	4	
5	6	0	6	9	11	0	0	0	1	0	5	0	3	0	4	
5	8	7	0	6	13	0	0	0	1	0	2	0	1	0	0	
7	12	5	1	2	7	8	11	5	0	5	1	5	2	5	5	5	4	
5	14	7	0	7	8	0	0	0	1	0	2	0	5	0	4	
5	2	1	5	12	10	5	0	5	1	5	2	5	1	5	0	
3	5	1	4	5	0	5	1	5	2	5	5	5	4	
5	9	6	0	5	12	0	0	0	1	0	2	0	3	0	4	
5	1	5	0	7	8	0	0	0	1	0	5	0	3	0	4	
4	5	0	7	14	0	0	0	1	0	2	0	5	0	4	
3	13	6	0	0	0	0	1	0	2	0	1	0	0	
2	0	6	0	0	0	1	0	2	0	3	0	4	
4	6	0	5	1	5	0	5	1	5	2	5	1	5	0	
6	8	7	0	5	1	4	0	0	0	1	0	2	0	1	5	0	
5	14	7	0	5	3	0	0	0	1	0	2	0	3	0	4	
2	7	0	0	0	0	1	0	2	0	3	0	4	
5	12	5	0	7	8	0	0	0	1	0	2	0	3	0	4	
4	1	5	12	13	5	0	5	1	5	5	5	3	5	4	
3	5	0	7	0	0	0	1	0	2	0	3	0	4	
5	13	6	0	6	9	0	0	0	1	0	2	0	1	0	0	
4	6	0	7	8	0	0	0	1	0	2	0	1	0	0	
4	3	5	12	13	5	0	5	1	5	2	5	5	5	4	
6	3	5	0	6	9	11	0	0	0	1	0	5	0	3	0	4	
6	8	7	2	1	5	1	5	0	5	1	5	2	5	1	5	0	
4	1	5	1	2	5	0	5	1	5	5	5	3	5	4	
4	1	5	0	6	0	0	0	1	0	2	0	1	0	0	
6	4	1	5	0	7	8	0	0	0	1	0	2	0	3	0	4	
3	9	6	0	0	0	0	1	0	2	0	3	0	4	
4	2	1	5	1	5	0	5	1	5	2	5	3	5	4	
4	5	0	6	9	0	0	0	1	0	2	0	1	0	0	
4	13	12	5	12	5	0	5	1	5	2	5	1	5	0	
4	0	5	12	10	0	0	0	1	0	2	0	3	0	4	
5	13	6	0	7	14	0	0	0	1	0	5	0	3	0	4	
6	11	9	6	0	7	14	0	0	0	1	0	2	0	5	0	4	
4	7	0	5	12	0	0	0	1	0	2	0	3	0	4	
7	11	8	7	0	5	1	4	0	0	0	1	0	2	0	5	0	4	
5	4	1	5	12	13	5	0	5	1	5	2	5	5	5	4	
3	12	5	3	5	0	5	1	5	2	5	1	5	0	
2	5	12	5	0	5	1	5	2	5	1	5	0	
5	10	12	5	1	4	5	0	5	1	5	5	5	3	5	4	
4	7	0	5	12	0	0	0	1	0	2	0	5	0	4	
3	6	0	7	0	0	0	1	0	2	0	3	0	4	
6	11	9	6	0	6	13	0	0	0	1	0	2	0	3	0	4	
4	1	5	12	10	5	0	5	1	5	2	5	1	5	0	
4	7	0	7	2	0	0	0	1	0	5	0	3	0	4	
4	12	5	12	10	5	0	5	1	5	2	5	1	5	0	
6	14	7	0	6	9	11	0	0	0	1	0	5	0	3	0	4	
5	2	1	5	12	13	5	0	5	1	5	2	5	3	5	4	
5	9	6	0	6	13	0	0	0	1	0	5	0	3	0	4	
4	13	6	0	7	0	0	0	1	0	2	0	5	0	4	
4	6	0	7	14	0	0	0	1	0	2	0	5	0	4	
4	13	12	5	1	5	0	5	1	5	2	5	5	5	4	
2	0	5	0	0	0	1	0	2	0	1	0	0	
4	3	5	12	13	5	0	5	1	5	2	5	3	5	4	
5	8	7	0	5	3	0	0	0	1	0	2	0	3	0	4	
5	1	5	0	6	9	0	0	0	1	0	5	0	3	0	4	
4	1	5	1	4	5	0	5	1	5	2	5	3	5	4	
5	4	1	5	12	10	5	0	5	1	5	2	5	1	5	0	
5	13	12	5	12	10	5	0	5	1	5	2	5	3	5	4	
3	0	5	12	0	0	0	1	0	2	0	1	0	0	
5	6	0	6	9	11	0	0	0	1	0	2	0	3	0	4	
5	1	5	0	7	14	0	0	0	1	0	5	0	3	0	4	
8	10	12	5	1	2	7	8	11	5	0	5	1	5	2	5	5	5	4	
5	3	5	0	7	8	5	0	5	1	5	2	0	5	0	4	
4	7	0	7	14	0	0	0	1	0	5	0	3	0	4	
5	11	8	7	0	6	0	0	0	1	0	2	0	1	0	0	
5	14	7	0	5	12	5	0	5	1	5	2	5	3	5	4	
4	2	7	0	6	0	0	0	1	0	5	0	3	0	4	
5	7	0	5	1	4	5	0	5	1	5	5	5	3	5	4	
5	9	6	0	5	1	5	0	5	1	5	5	5	3	5	4	
3	2	7	0	0	0	0	1	0	5	0	3	0	4	
3	5	12	10	5	0	5	1	5	2	5	3	5	4	
5	10	12	5	1	2	5	0	5	1	5	2	5	3	5	4	
3	0	6	9	0	0	0	1	0	2	0	1	0	0	
3	3	5	1	5	0	5	1	5	2	5	3	5	4	
3	6	0	5	0	0	0	1	0	5	0	3	0	4	
5	1	5	0	7	8	0	0	0	1	0	2	0	3	0	4	
5	4	1	5	0	6	0	0	0	1	0	2	0	1	0	0	
5	8	7	0	7	14	0	0	0	1	0	5	0	3	0	4	
4	12	5	1	4	5	0	5	1	5	2	5	5	5	4	
3	5	1	4	5	0	5	1	5	5	5	3	5	4	
2	5	3	5	0	5	1	5	2	5	5	5	4	
4	12	5	1	2	5	0	5	1	5	2	5	5	5	4	
3	5	12	13	5	0	5	1	5	2	5	5	5	4	
5	10	12	5	0	7	0	0	0	1	0	2	0	5	0	4	
3	12	5	1	5	0	5	1	5	5	5	3	5	4	
2	0	7	0	0	0	1	0	2	0	3	0	4	
8	11	8	7	2	1	5	12	10	5	0	5	1	5	2	5	1	5	0	
3	14	7	0	0	0	0	1	0	2	0	3	0	4	
4	7	0	5	3	0	0	0	1	0	2	0	3	0	4	
5	12	5	0	6	9	0	0	0	1	0	2	0	3	0	4	
3	9	6	0	0	0	0	1	0	2	0	5	0	4	
3	5	0	6	0	0	0	1	0	2	0	3	0	4	
5	9	6	0	7	14	0	0	0	1	0	2	0	5	0	4	
5	13	6	0	7	8	0	0	0	1	0	5	0	3	0	4	
3	6	0	7	0	0	0	1	0	2	0	5	0	4	
6	10	12	5	0	6	9	0	0	0	1	0	2	0	1	0	0	
3	1	5	3	5	0	5	1	5	5	5	3	5	4	
4	3	5	12	10	5	0	5	1	5	2	5	1	5	0	
5	8	7	0	7	2	0	0	0	1	0	5	0	3	0	4	
2	1	5	5	0	5	1	5	5	5	3	5	4	
6	4	1	5	0	6	9	5	0	5	1	5	2	0	3	0	4	
4	9	6	0	7	0	0	0	1	0	2	0	3	0	4	
6	9	6	0	6	9	11	0	0	0	1	0	5	0	3	0	4	
4	1	5	12	10	5	0	5	1	5	5	5	3	5	4	
4	5	0	7	8	0	0	0	1	0	5	0	3	0	4	
4	10	12	5	0	0	0	0	1	0	2	0	1	0	0	
4	0	6	9	11	0	0	0	1	0	2	0	3	0	4	
5	8	7	0	6	9	0	0	0	1	0	2	0	5	0	4	
6	11	9	6	0	5	1	0	0	0	1	0	2	0	5	5	4	
4	4	1	5	0	0	0	0	1	0	2	0	5	0	4	
5	10	12	5	12	13	5	0	5	1	5	5	5	3	5	4	
5	11	9	6	0	7	0	0	0	1	0	2	0	5	0	4	
6	2	1	5	0	6	9	0	0	0	1	0	2	0	5	0	4	
7	4	1	5	1	2	7	14	5	0	5	1	5	2	5	5	5	4	
5	9	6	0	7	2	0	0	0	1	0	2	0	5	0	4	
4	2	1	5	3	5	0	5	1	5	2	5	5	5	4	
3	10	12	5	5	0	5	1	5	2	5	1	5	0	
4	12	5	12	10	5	0	5	1	5	5	5	3	5	4	
5	6	0	5	1	4	0	0	0	1	0	2	0	3	5	4	
6	11	8	7	0	5	12	0	0	0	1	0	2	0	3	0	4	
7	4	1	5	0	6	9	11	5	0	5	1	5	2	0	5	0	4	
4	14	7	0	6	0	0	0	1	0	2	0	1	0	0	
3	4	1	5	5	0	5	1	5	2	5	3	5	4	
5	8	7	0	6	13	0	0	0	1	0	2	0	5	0	4	
6	12	5	0	7	8	11	5	0	5	1	5	5	5	3	5	4	
5	2	1	5	12	10	5	0	5	1	5	2	5	3	5	4	
5	13	12	5	1	2	5	0	5	1	5	2	5	5	5	4	
5	9	6	0	5	12	0	0	0	1	0	2	0	1	0	0	
5	3	5	0	6	9	0	0	0	1	0	2	0	5	0	4	
2	0	6	0	0	0	1	0	5	0	3	0	4	
3	3	5	12	5	0	5	1	5	2	5	3	5	4	
6	8	7	0	5	1	4	0	0	0	1	0	2	0	3	5	4	
5	14	7	0	5	3	0	0	0	1	0	2	0	1	0	0	
4	7	0	5	1	0	0	0	1	0	2	0	5	0	4	
2	7	0	0	0	0	1	0	2	0	1	0	0	
4	9	6	0	5	5	0	5	1	5	2	5	1	5	0	
7	4	1	5	0	7	8	11	5	0	5	1	5	5	5	3	5	4	
4	6	0	5	3	5	0	5	1	5	2	5	5	5	4	
5	13	6	0	6	9	0	0	0	1	0	2	0	3	0	4	
4	6	0	7	8	0	0	0	1	0	2	0	3	0	4	
6	10	12	5	0	7	8	0	0	0	1	0	2	0	5	0	4	
3	1	5	12	5	0	5	1	5	2	5	5	5	4	
6	3	5	0	7	8	11	0	0	0	1	0	2	0	5	0	4	
4	7	0	6	9	0	0	0	1	0	2	0	1	0	0	
5	14	7	0	6	13	0	0	0	1	0	2	0	3	0	4	
3	9	6	0	0	0	0	1	0	2	0	1	0	0	
4	8	7	0	5	0	0	0	1	0	2	0	5	0	4	
3	0	5	3	5	0	5	1	5	5	5	3	5	4	
4	2	1	5	1	5	0	5	1	5	2	5	1	5	0	
6	8	7	0	7	8	11	0	0	0	1	0	2	0	5	0	4	
4	5	0	6	9	5	0	5	1	5	2	5	3	5	4	
4	10	12	5	3	5	0	5	1	5	2	5	3	5	4	
4	0	5	12	10	0	0	0	1	0	5	0	3	0	4	
3	3	5	0	5	0	5	1	5	2	5	3	5	4	
6	11	9	6	0	7	14	0	0	0	1	0	5	0	3	0	4	
5	7	2	1	5	12	5	0	5	1	5	2	5	1	5	0	
7	11	9	6	0	5	1	4	5	0	5	1	5	5	5	3	5	4	
5	2	7	0	7	8	0	0	0	1	0	2	0	1	0	0	
6	10	12	5	0	7	14	0	0	0	1	0	2	0	5	0	4	
5	12	5	0	7	14	0	0	0	1	0	5	0	3	0	4	
5	10	12	5	1	4	5	0	5	1	5	2	5	5	5	4	
3	5	0	6	0	0	0	1	0	5	0	3	0	4	
3	6	0	7	0	0	0	1	0	2	0	1	0	0	
4	8	7	0	6	0	0	0	1	0	2	0	1	0	0	
5	14	7	0	5	1	0	0	0	1	0	2	0	3	0	4	
4	13	6	0	6	0	0	0	1	0	2	0	5	0	4	
5	12	5	0	6	9	5	0	5	1	5	5	5	3	5	4	
5	7	0	5	1	2	0	0	0	1	0	2	0	3	0	4	
4	12	5	12	10	5	0	5	1	5	2	5	3	5	4	
5	2	1	5	12	13	5	0	5	1	5	2	5	1	5	0	
5	14	7	0	5	1	0	0	0	1	0	2	0	5	0	4	
5	9	6	0	6	13	0	0	0	1	0	2	0	5	0	4	
4	13	6	0	7	0	0	0	1	0	2	0	1	0	0	
4	6	0	7	14	0	0	0	1	0	2	0	1	0	0	
2	0	5	5	0	5	1	5	2	5	5	5	4	
5	8	7	0	5	3	5	0	5	1	5	2	5	1	5	0	
4	1	5	1	4	5	0	5	1	5	2	5	1	5	0	
5	4	1	5	12	10	5	0	5	1	5	2	5	3	5	4	
4	9	6	0	6	0	0	0	1	0	2	0	3	0	4	
6	14	7	0	5	12	10	0	0	0	1	0	5	0	3	0	4	
5	13	12	5	12	10	5	0	5	1	5	2	5	1	5	0	
3	0	5	12	0	0	0	1	0	2	0	3	0	4	
5	6	0	6	9	11	0	0	0	1	0	2	0	1	0	0	
7	10	12	5	0	6	9	11	5	0	5	1	5	5	5	3	5	4	
4	1	5	12	13	5	0	5	1	5	2	5	1	5	0	
5	3	5	0	7	8	0	0	0	1	0	5	0	3	0	4	
4	7	0	7	14	0	0	0	1	0	2	0	3	0	4	
5	8	7	0	5	1	0	0	0	1	0	2	0	5	0	4	
5	14	7	0	5	12	5	0	5	1	5	5	5	3	5	4	
4	2	7	0	6	0	0	0	1	0	2	0	5	0	4	
5	9	6	0	5	1	5	0	5	1	5	2	5	5	5	4	
4	2	1	5	0	0	0	0	1	0	2	0	5	0	4	
3	5	12	10	5	0	5	1	5	2	5	1	5	0	
3	0	6	9	0	0	0	1	0	2	0	5	0	4	
3	6	0	5	0	0	0	1	0	2	0	3	0	4	
5	1	5	0	7	8	0	0	0	1	0	2	0	1	0	0	
5	4	1	5	0	6	0	0	0	1	0	2	0	3	0	4	
5	8	7	0	7	14	0	0	0	1	0	2	0	5	0	4	
4	12	5	1	4	5	0	5	1	5	2	5	1	5	0	
6	2	7	0	7	8	11	0	0	0	1	0	2	0	3	0	4	
2	5	3	5	0	5	1	5	2	5	1	5	0	
5	10	12	5	0	7	5	0	5	1	5	5	5	3	5	4	
5	13	12	5	12	10	5	0	5	1	5	2	5	5	5	4	
2	0	7	0	0	0	1	0	2	0	1	0	0	
4	8	7	0	5	0	0	0	1	0	2	0	3	0	4	
3	3	5	1	5	0	5	1	5	2	5	5	5	4	
3	14	7	0	0	0	0	1	0	5	0	3	0	4	
4	7	0	5	3	0	0	0	1	0	5	0	3	0	4	
5	12	5	0	6	9	0	0	0	1	0	2	0	1	0	0	
4	2	1	5	12	5	0	5	1	5	2	5	5	5	4	
3	5	0	6	0	0	0	1	0	2	0	1	0	0	
5	9	6	0	7	14	0	0	0	1	0	5	0	3	0	4	
5	13	6	0	7	8	0	0	0	1	0	2	0	3	0	4	
3	0	7	14	0	0	0	1	0	2	0	1	0	0	
4	4	1	5	3	5	0	5	1	5	5	5	3	5	4	
4	6	0	6	9	0	0	0	1	0	2	0	3	0	4	
5	6	0	7	8	11	0	0	0	1	0	2	0	5	0	4	
3	1	5	3	5	0	5	1	5	2	5	5	5	4	
6	8	7	0	5	1	2	0	0	0	1	0	2	0	5	0	4	
2	1	5	5	0	5	1	5	2	5	5	5	4	
6	4	1	5	0	6	9	0	0	0	1	0	2	0	1	0	0	
4	5	0	7	8	0	0	0	1	0	2	0	3	0	4	
4	10	12	5	0	0	0	0	1	0	2	0	3	0	4	
4	0	6	9	11	0	0	0	1	0	2	0	1	0	0	
7	11	8	7	2	1	5	1	5	0	5	1	5	2	5	1	5	0	
5	1	5	0	7	14	0	0	0	1	0	2	0	3	0	4	
6	14	7	0	5	12	10	0	0	0	1	0	2	0	5	0	4	
4	4	1	5	0	0	0	0	1	0	2	0	1	0	0	
5	2	7	0	6	9	0	0	0	1	0	5	0	3	0	4	
5	9	6	0	7	2	0	0	0	1	0	5	0	3	0	4	
4	13	12	5	3	5	0	5	1	5	5	5	3	5	4	
4	2	1	5	3	5	0	5	1	5	5	5	3	5	4	
2	6	0	0	0	0	1	0	5	0	3	0	4	
4	1	5	1	2	5	0	5	1	5	2	5	5	5	4	
5	6	0	5	1	4	0	0	0	1	0	5	0	3	0	4	
7	11	8	7	2	1	5	12	5	0	5	1	5	2	5	1	5	0	
4	14	7	0	6	0	0	0	1	0	2	0	3	0	4	
3	4	1	5	5	0	5	1	5	2	5	1	5	0	
5	8	7	0	6	13	0	0	0	1	0	5	0	3	0	4	
7	12	5	1	2	7	8	11	5	0	5	1	5	2	5	3	5	4	
3	5	1	4	5	0	5	1	5	2	5	3	5	4	
5	13	6	0	7	14	0	0	0	1	0	2	0	5	0	4	
2	0	6	0	0	0	1	0	2	0	5	0	4	
3	3	5	12	5	0	5	1	5	2	5	1	5	0	
5	7	0	5	12	10	0	0	0	1	0	2	0	5	0	4	
5	14	7	0	5	3	0	0	0	1	0	2	0	5	0	4	
6	11	9	6	0	5	3	0	0	0	1	0	5	0	3	0	4	
7	4	1	5	0	6	9	11	0	0	0	1	0	2	0	3	0	4	
4	9	6	0	5	0	0	0	1	0	2	0	3	0	4	
5	4	1	5	0	7	0	0	0	1	0	5	0	3	0	4	
6	10	12	5	0	7	14	0	0	0	1	0	2	0	1	0	0	
3	0	6	13	0	0	0	1	0	2	0	3	0	4	
2	3	5	5	0	5	1	5	2	5	1	5	0	
3	1	5	12	5	0	5	1	5	5	5	3	5	4	
4	7	0	6	9	0	0	0	1	0	2	0	3	0	4	
3	12	5	0	0	0	0	1	0	5	0	3	0	4	
5	14	7	0	6	13	0	0	0	1	0	2	0	1	0	0	
4	5	0	6	9	0	0	0	1	0	5	0	3	0	4	
4	10	12	5	3	5	0	5	1	5	2	5	1	5	0	
4	14	7	0	6	0	0	0	1	0	2	0	5	0	4	
3	3	5	0	5	0	5	1	5	2	5	1	5	0	
5	4	1	5	12	13	5	0	5	1	5	5	5	3	5	4	
6	11	9	6	0	7	14	0	0	0	1	0	2	0	3	0	4	
6	14	7	0	5	1	4	0	0	0	1	0	2	0	1	5	0	
5	4	1	5	0	7	5	0	5	1	5	2	5	3	5	4	
6	2	1	5	0	7	8	0	0	0	1	0	2	0	3	0	4	
5	1	5	0	7	14	0	0	0	1	0	2	0	5	0	4	
5	13	12	5	1	4	5	0	5	1	5	2	5	5	5	4	
4	6	0	6	13	0	0	0	1	0	2	0	5	0	4	
5	3	5	0	7	14	0	0	0	1	0	2	0	3	0	4	
4	8	7	0	6	0	0	0	1	0	2	0	3	0	4	
6	14	7	2	1	5	1	5	0	5	1	5	2	5	1	5	0	
4	7	0	7	2	0	0	0	1	0	2	0	1	0	0	
6	9	6	0	6	9	11	0	0	0	1	0	2	0	1	0	0	
4	13	6	0	7	0	0	0	1	0	2	0	3	0	4	
4	6	0	7	14	0	0	0	1	0	2	0	3	0	4	
5	11	9	6	0	5	5	0	5	1	5	5	5	3	5	4	
2	0	5	5	0	5	1	5	5	5	3	5	4	
5	7	0	7	8	11	0	0	0	1	0	2	0	1	0	0	
5	4	1	5	12	10	5	0	5	1	5	5	5	3	5	4	
4	9	6	0	6	0	0	0	1	0	2	0	1	0	0	
3	12	5	1	5	0	5	1	5	2	5	5	5	4	
4	11	9	6	0	0	0	0	1	0	5	0	3	0	4	
4	10	12	5	1	5	0	5	1	5	2	5	3	5	4	
4	3	5	12	13	5	0	5	1	5	5	5	3	5	4	
4	3	5	1	2	5	0	5	1	5	2	5	3	5	4	
4	1	5	12	13	5	0	5	1	5	2	5	3	5	4	
4	7	0	7	14	0	0	0	1	0	2	0	1	0	0	
4	12	5	0	7	0	0	0	1	0	2	0	5	0	4	
5	14	7	0	5	12	0	0	0	1	0	2	0	5	0	4	
4	2	7	0	6	0	0	0	1	0	2	0	1	0	0	
2	5	0	0	0	0	1	0	2	0	5	0	4	
5	3	5	0	7	14	5	0	5	1	5	5	0	3	0	4	
3	5	12	10	5	0	5	1	5	2	5	5	5	4	
6	11	9	6	0	6	9	0	0	0	1	0	5	0	3	0	4	
3	0	6	9	0	0	0	1	0	5	0	3	0	4	
3	6	0	5	0	0	0	1	0	2	0	1	0	0	
4	14	7	0	7	0	0	0	1	0	2	0	3	0	4	
5	4	1	5	0	6	0	0	0	1	0	5	0	3	0	4	
4	1	5	12	10	5	0	5	1	5	2	5	5	5	4	
4	12	5	1	4	5	0	5	1	5	2	5	3	5	4	
7	2	1	5	0	6	9	11	0	0	0	1	0	2	0	1	0	0	
2	5	3	5	0	5	1	5	2	5	3	5	4	
3	13	12	5	5	0	5	1	5	2	5	1	5	0	
4	6	0	5	12	0	0	0	1	0	2	0	1	0	0	
6	14	7	0	5	1	4	0	0	0	1	0	2	0	5	0	4	
4	8	7	0	5	0	0	0	1	0	2	0	1	0	0	
3	14	7	0	0	0	0	1	0	2	0	5	0	4	
4	7	0	5	3	0	0	0	1	0	2	0	5	5	4	
6	9	6	0	5	1	4	0	0	0	1	0	2	0	3	0	4	
6	9	6	0	6	9	11	0	0	0	1	0	2	0	5	0	4	
3	5	0	6	0	0	0	1	0	2	0	5	0	4	
5	13	6	0	7	8	0	0	0	1	0	2	0	1	0	0	
3	0	7	14	0	0	0	1	0	2	0	3	0	4	
4	6	0	6	9	0	0	0	1	0	2	0	1	0	0	
6	11	9	6	0	7	2	0	0	0	1	0	2	0	5	0	4	
3	1	5	3	5	0	5	1	5	2	5	1	5	0	
4	7	0	7	8	0	0	0	1	0	2	0	3	0	4	
6	10	12	5	0	6	9	0	0	0	1	0	5	0	3	0	4	
2	12	5	5	0	5	1	5	2	5	5	5	4	
6	11	9	6	0	5	12	0	0	0	1	0	5	0	3	0	4	
6	4	1	5	0	6	9	5	0	5	1	5	2	0	5	0	4	
5	3	5	0	6	9	0	0	0	1	0	5	0	3	0	4	
5	10	12	5	0	6	0	0	0	1	0	5	0	3	0	4	
4	5	0	7	8	5	0	5	1	5	2	0	1	0	0	
4	10	12	5	0	0	0	0	1	0	5	0	3	0	4	
6	11	9	6	0	5	1	0	0	0	1	0	2	0	3	0	4	
5	1	5	0	7	14	5	0	5	1	0	2	0	1	0	0	
4	4	1	5	0	5	0	5	1	5	2	0	3	0	4	
4	12	5	0	6	0	0	0	1	0	2	0	1	0	0	
6	2	1	5	0	6	9	0	0	0	1	0	2	0	3	0	4	
2	5	1	5	0	5	1	5	2	5	1	5	0	
4	13	12	5	3	5	0	5	1	5	2	5	5	5	4	
4	6	0	7	2	0	0	0	1	0	2	0	5	0	4	
5	6	0	5	1	4	0	0	0	1	0	2	0	5	0	4	
4	8	7	0	7	0	0	0	1	0	2	0	3	0	4	
3	7	0	5	0	0	0	1	0	2	0	5	5	4	
3	4	1	5	5	0	5	1	5	2	5	5	5	4	
7	12	5	1	2	7	8	11	5	0	5	1	5	2	5	1	5	0	
3	5	1	4	5	0	5	1	5	2	5	1	5	0	
6	10	12	5	0	7	14	0	0	0	1	0	5	0	3	0	4	
4	13	6	0	6	0	0	0	1	0	2	0	3	0	4	
3	0	5	1	0	0	0	1	0	5	0	3	0	4	
4	3	5	0	6	0	0	0	1	0	2	0	5	0	4	
3	3	5	12	5	0	5	1	5	2	5	5	5	4	
5	7	0	5	12	10	0	0	0	1	0	5	0	3	0	4	
5	9	6	0	5	3	0	0	0	1	0	5	0	3	0	4	
4	9	6	0	7	0	0	0	1	0	2	0	5	0	4	
8	4	1	5	1	2	7	8	11	5	0	5	1	5	2	5	1	5	0	
4	9	6	0	5	0	0	0	1	0	5	0	3	0	4	
6	10	12	5	0	7	14	0	0	0	1	0	2	0	3	0	4	
3	0	6	13	0	0	0	1	0	2	0	1	0	0	
2	3	5	5	0	5	1	5	2	5	3	5	4	
5	12	5	0	6	9	0	0	0	1	0	2	0	5	0	4	
7	11	8	7	2	1	5	3	5	0	5	1	5	2	5	1	5	0	
6	11	9	6	0	7	8	0	0	0	1	0	5	0	3	0	4	
3	1	5	12	5	0	5	1	5	2	5	3	5	4	
2	3	5	5	0	5	1	5	5	5	3	5	4	
5	4	1	5	1	2	5	0	5	1	5	2	5	1	5	0	
3	12	5	0	0	0	0	1	0	2	0	5	0	4	
6	10	12	5	0	7	8	0	0	0	1	0	5	0	3	0	4	
4	5	0	6	9	0	0	0	1	0	2	0	5	0	4	
4	10	12	5	3	5	0	5	1	5	2	5	5	5	4	
3	3	5	0	0	0	0	1	0	2	0	5	0	4	
6	11	9	6	0	7	14	0	0	0	1	0	2	0	1	0	0	
6	14	7	0	5	1	4	0	0	0	1	0	2	0	3	5	4	
5	2	7	0	7	14	0	0	0	1	0	5	0	3	0	4	
5	4	1	5	0	7	0	0	0	1	0	2	0	1	0	0	
2	12	5	5	0	5	1	5	2	5	3	5	4	
5	2	7	0	7	8	0	0	0	1	0	5	0	3	0	4	
3	5	1	2	5	0	5	1	5	2	5	3	5	4	
5	13	12	5	1	4	5	0	5	1	5	5	5	3	5	4	
4	6	0	6	13	0	0	0	1	0	5	0	3	0	4	
3	8	7	0	0	0	0	1	0	5	0	3	0	4	
4	7	0	6	9	0	0	0	1	0	2	0	5	0	4	
4	1	5	0	7	0	0	0	1	0	5	0	3	0	4	
5	3	5	0	7	14	0	0	0	1	0	2	0	1	0	0	
4	8	7	0	6	0	0	0	1	0	5	0	3	0	4	
6	9	6	0	6	9	11	0	0	0	1	0	2	0	3	0	4	
4	10	12	5	12	5	0	5	1	5	2	5	1	5	0	
4	3	5	0	7	0	0	0	1	0	2	0	1	0	0	
5	14	7	0	6	13	0	0	0	1	0	5	0	3	0	4	
5	11	8	7	0	5	0	0	0	1	0	2	0	5	0	4	
5	7	0	6	9	11	0	0	0	1	0	2	0	3	0	4	
3	2	1	5	5	0	5	1	5	2	5	5	5	4	
5	4	1	5	12	10	5	0	5	1	5	2	5	5	5	4	
4	9	6	0	6	0	0	0	1	0	2	0	5	0	4	
4	10	12	5	1	5	0	5	1	5	5	5	3	5	4	
4	12	5	12	13	5	0	5	1	5	2	5	5	5	4	
4	10	12	5	1	5	0	5	1	5	2	5	1	5	0	
6	1	5	0	7	8	11	0	0	0	1	0	5	0	3	0	4	
4	3	5	1	2	5	0	5	1	5	2	5	1	5	0	
4	11	9	6	0	0	0	0	1	0	2	0	3	0	4	
7	14	7	2	1	5	12	10	5	0	5	1	5	2	5	1	5	0	
4	4	1	5	1	5	0	5	1	5	2	5	3	5	4	
4	12	5	0	7	0	0	0	1	0	5	0	3	0	4	
5	2	1	5	0	6	0	0	0	1	0	2	0	3	0	4	
4	4	1	5	3	5	0	5	1	5	2	5	5	5	4	
4	3	5	1	2	5	0	5	1	5	5	5	3	5	4	
4	0	5	1	4	0	0	0	1	0	5	0	3	0	4	
3	5	12	10	5	0	5	1	5	5	5	3	5	4	
6	11	9	6	0	6	9	0	0	0	1	0	2	0	5	0	4	
4	11	9	6	0	0	0	0	1	0	2	0	5	0	4	
4	14	7	0	7	0	0	0	1	0	2	0	1	0	0	
5	4	1	5	0	6	5	0	5	1	5	2	0	5	0	4	
4	3	5	0	7	0	0	0	1	0	5	0	3	0	4	
6	2	7	0	6	9	11	0	0	0	1	0	2	0	5	0	4	
3	13	12	5	5	0	5	1	5	2	5	3	5	4	
3	9	6	0	0	0	0	1	0	5	0	3	0	4	
4	6	0	5	12	0	0	0	1	0	2	0	3	0	4	
3	1	5	0	0	0	0	1	0	2	0	5	0	4	
3	7	0	5	0	0	0	1	0	2	0	1	5	0	
4	12	5	12	13	5	0	5	1	5	5	5	3	5	4	
6	9	6	0	5	1	4	0	0	0	1	0	2	0	1	0	0	
3	0	7	8	0	0	0	1	0	5	0	3	0	4	
5	14	7	0	6	9	0	0	0	1	0	5	0	3	0	4	
3	0	7	14	0	0	0	1	0	5	0	3	0	4	
4	3	5	1	4	5	0	5	1	5	2	5	3	5	4	
4	8	7	0	7	0	0	0	1	0	2	0	5	0	4	
6	11	9	6	0	7	2	0	0	0	1	0	5	0	3	0	4	
3	1	5	3	5	0	5	1	5	2	5	3	5	4	
4	7	0	7	8	0	0	0	1	0	2	0	1	0	0	
3	10	12	5	5	0	5	1	5	5	5	3	5	4	
5	2	1	5	1	4	5	0	5	1	5	2	5	1	5	0	
6	4	1	5	0	6	9	0	0	0	1	0	5	0	3	0	4	
5	10	12	5	0	6	0	0	0	1	0	2	0	5	0	4	
4	10	12	5	0	0	0	0	1	0	2	0	5	0	4	
4	1	5	0	6	5	0	5	1	5	2	5	5	0	4	
5	8	7	0	5	12	0	0	0	1	0	2	0	5	5	4	
5	8	7	0	5	12	0	0	0	1	0	5	0	3	0	4	
7	8	7	2	1	5	12	10	5	0	5	1	5	2	5	1	5	0	
4	14	7	0	5	0	0	0	1	0	2	0	3	0	4	
5	4	1	5	0	7	0	0	0	1	0	2	0	5	0	4	
4	12	5	0	6	0	0	0	1	0	2	0	3	0	4	
5	2	7	0	6	9	0	0	0	1	0	2	0	1	0	0	
2	5	1	5	0	5	1	5	2	5	3	5	4	
4	13	12	5	3	5	0	5	1	5	2	5	1	5	0	
3	0	5	3	0	0	0	1	0	2	0	5	0	4	
4	6	0	7	2	0	0	0	1	0	2	0	1	0	0	
4	8	7	0	7	0	0	0	1	0	2	0	1	0	0	
3	4	1	5	5	0	5	1	5	5	5	3	5	4	
6	9	6	0	5	12	10	0	0	0	1	0	2	0	3	0	4	
4	14	7	0	6	0	0	0	1	0	5	0	3	0	4	
4	13	6	0	6	0	0	0	1	0	2	0	1	0	0	
4	7	0	7	8	0	0	0	1	0	2	0	5	0	4	
4	3	5	1	4	5	0	5	1	5	5	5	3	5	4	
4	3	5	0	6	0	0	0	1	0	5	0	3	0	4	
5	8	7	0	5	3	0	0	0	1	0	2	0	5	0	4	
5	7	0	5	12	10	0	0	0	1	0	2	0	3	0	4	
5	9	6	0	5	3	0	0	0	1	0	2	0	5	5	4	
4	14	7	0	5	0	0	0	1	0	5	0	3	0	4	
4	9	6	0	5	0	0	0	1	0	2	0	5	5	4	
3	0	6	13	0	0	0	1	0	2	0	5	0	4	
6	11	8	7	0	5	3	0	0	0	1	0	2	0	3	0	4	
3	1	5	12	5	0	5	1	5	2	5	1	5	0	
5	4	1	5	1	2	5	0	5	1	5	2	5	3	5	4	
3	12	5	0	0	0	0	1	0	2	0	1	0	0	
4	2	7	0	7	0	0	0	1	0	2	0	3	0	4	
