26559.9	25478
1716
44381.4	31469.9
15
0	34	320
1	20	320
2	6	320
3	6	320
4	0	320
5	0	320
6	0	320
7	19	320
8	0	320
9	0	320
10	0	320
11	2	320
12	2	320
13	0	320
14	0	320
44
0	5	20718.540918	162195.900000	1.000000
0	6	15025.273717	110170.800000	1.000000
0	7	4240.419794	66306.500000	1.000000
1	2	15188.921499	136693.400000	1.000000
1	4	2305.000000	44884.400000	1.000000
1	5	27941.714477	216261.200000	1.000000
2	1	16791.000000	136693.400000	1.000000
2	4	0.000000	17341.700000	0.000000
2	7	12140.921499	136693.400000	1.000000
3	4	982.000000	38763.800000	1.000000
3	5	7347.000000	51005.000000	1.000000
4	1	2412.000000	44884.400000	1.000000
4	2	0.000000	17341.700000	0.000000
4	3	1177.000000	38763.800000	1.000000
5	0	20896.893135	162195.900000	1.000000
5	1	29994.635977	216261.200000	1.000000
5	3	7462.000000	51005.000000	1.000000
5	12	6877.726283	70386.900000	1.000000
6	0	16757.000000	110170.800000	1.000000
6	9	10489.000000	91809.000000	1.000000
6	13	4237.273717	64266.300000	1.000000
7	0	5254.341293	66306.500000	1.000000
7	2	13673.000000	136693.400000	1.000000
7	8	2292.618805	38763.800000	1.000000
7	14	5411.381195	57125.600000	1.000000
8	7	2645.000000	38763.800000	1.000000
8	9	0.000000	19381.900000	0.000000
8	11	1684.000000	31623.100000	1.000000
8	14	1186.000000	23462.300000	1.000000
9	6	11133.000000	91809.000000	1.000000
9	8	0.000000	19381.900000	0.000000
9	11	3898.000000	32643.200000	1.000000
10	12	3984.000000	25502.500000	1.000000
10	13	0.000000	14281.400000	0.000000
11	8	1627.000000	31623.100000	1.000000
11	9	4565.000000	32643.200000	1.000000
12	5	8015.000000	70386.900000	1.000000
12	10	3821.000000	25502.500000	1.000000
12	13	697.000000	25502.500000	1.000000
13	6	5016.000000	64266.300000	1.000000
13	10	0.000000	14281.400000	0.000000
13	12	836.273717	25502.500000	1.000000
14	7	6395.000000	57125.600000	1.000000
14	8	1480.381195	23462.300000	1.000000
840
6	1	5	0	6	9	11	0	0	0	1	0	2	0	3	11	4	
5	1	5	0	6	9	0	0	0	1	0	2	0	5	0	4	
5	7	2	1	5	12	12	0	12	1	12	2	12	3	12	4	
2	3	5	3	0	3	1	3	2	3	5	3	4	
5	7	2	1	5	3	3	0	3	1	3	5	3	3	3	4	
6	11	9	6	0	5	3	11	0	11	1	11	5	11	3	3	4	
8	3	5	1	2	7	0	6	13	7	0	7	1	7	2	7	5	7	4	
2	6	13	6	0	6	1	6	5	6	3	6	4	
6	10	12	5	1	2	7	12	0	12	1	12	2	12	3	12	4	
4	3	5	0	6	3	0	3	1	3	5	3	3	0	4	
4	4	1	2	7	7	0	7	1	7	2	7	5	7	4	
4	1	2	7	8	7	0	7	1	8	2	8	1	8	0	
6	14	7	2	1	5	12	14	0	14	1	14	2	14	1	12	0	
4	7	2	1	4	7	0	2	1	2	2	2	3	2	4	
4	2	1	5	12	12	0	12	1	12	2	12	5	12	4	
4	0	5	1	2	0	0	0	1	0	2	0	5	0	4	
5	13	6	0	5	1	0	0	0	1	0	2	0	5	0	4	
5	7	2	1	5	3	3	0	3	1	3	2	3	1	3	0	
3	5	12	10	12	0	12	1	12	5	12	3	12	4	
2	12	5	12	0	12	1	12	2	12	1	12	0	
3	5	1	2	2	0	2	1	2	2	2	5	2	4	
4	8	7	2	1	7	0	7	1	7	2	7	1	7	0	
2	8	7	7	0	7	1	7	2	7	3	7	4	
6	10	12	5	0	6	9	12	0	12	1	0	2	0	3	0	4	
2	6	0	0	0	0	1	0	5	0	3	0	4	
3	14	7	0	7	0	7	1	7	5	7	3	7	4	
4	4	1	5	12	12	0	12	1	12	2	12	1	12	0	
3	2	1	5	2	0	2	1	2	5	2	3	2	4	
4	7	2	1	5	7	0	7	1	7	2	7	5	7	4	
3	0	7	14	7	0	7	1	7	5	7	3	7	4	
4	5	1	2	7	7	0	7	1	7	2	7	1	7	0	
5	8	7	0	6	9	0	0	0	1	0	5	0	3	0	4	
5	4	1	5	12	10	12	0	12	1	12	2	12	5	12	4	
3	5	12	10	12	0	12	1	12	2	12	5	12	4	
3	14	7	0	7	0	7	1	7	2	7	3	7	4	
6	3	5	0	6	9	11	3	0	0	1	0	5	0	3	11	4	
2	6	13	6	0	6	1	6	2	6	1	6	0	
7	8	7	2	1	5	12	10	12	0	12	1	12	2	12	1	12	0	
4	10	12	5	1	12	0	12	1	12	2	12	5	12	4	
2	0	5	0	0	0	1	0	2	0	3	0	4	
4	3	5	1	2	2	0	2	1	2	2	2	5	2	4	
5	7	2	1	5	12	12	0	12	1	12	2	12	1	12	0	
3	1	2	7	7	0	7	1	7	5	7	3	7	4	
7	10	12	5	1	2	7	14	12	0	14	1	14	2	14	3	14	4	
5	8	7	2	1	4	8	0	8	1	8	5	7	3	7	4	
5	2	1	5	12	10	12	0	12	1	12	5	12	3	12	4	
4	2	1	5	3	3	0	3	1	3	2	3	5	3	4	
2	4	1	1	0	1	1	1	5	1	3	1	4	
5	9	6	0	5	3	0	0	0	1	0	2	0	3	3	4	
5	7	2	1	5	12	12	0	12	1	12	2	12	5	12	4	
3	0	5	3	0	0	0	1	0	2	3	1	3	0	
5	9	6	0	5	3	0	0	0	1	0	2	0	5	3	4	
2	6	13	6	0	6	1	6	2	6	5	6	4	
3	12	5	0	12	0	12	1	12	2	0	3	0	4	
4	11	9	6	0	6	0	6	1	6	2	6	3	6	4	
5	10	12	5	1	2	12	0	12	1	12	2	12	3	12	4	
4	13	6	9	11	6	0	6	1	6	5	6	3	6	4	
4	7	2	1	4	7	0	2	1	1	2	1	1	4	0	
3	12	5	3	12	0	12	1	12	5	12	3	3	4	
5	12	5	1	2	7	12	0	12	1	12	2	12	3	12	4	
4	6	0	5	3	0	0	0	1	0	2	0	3	3	4	
4	9	6	0	5	0	0	0	1	0	5	0	3	0	4	
2	11	8	8	0	8	1	8	5	8	3	8	4	
2	12	10	12	0	12	1	12	2	12	1	12	0	
4	4	1	5	0	0	0	0	1	0	2	0	5	0	4	
4	0	6	9	11	6	0	6	1	6	2	6	1	6	0	
2	12	10	12	0	12	1	12	5	12	3	12	4	
3	9	6	13	6	0	6	1	6	2	6	5	6	4	
2	2	7	7	0	7	1	7	2	7	3	7	4	
4	14	7	0	6	7	0	7	1	7	2	7	1	7	0	
2	8	11	11	0	11	1	11	2	11	5	11	4	
2	5	1	1	0	1	1	1	2	1	5	1	4	
7	10	12	5	1	2	7	8	12	0	12	1	12	2	12	5	12	4	
5	3	5	1	2	7	7	0	7	1	7	2	7	1	7	0	
3	6	0	7	0	0	0	1	0	5	0	3	0	4	
6	2	1	5	0	6	13	0	0	0	1	0	2	0	3	0	4	
4	12	5	1	2	12	0	12	1	12	2	12	1	12	0	
2	3	4	4	0	4	1	4	2	4	1	4	0	
3	13	6	0	0	0	0	1	0	2	0	1	0	0	
5	5	1	2	7	8	7	0	8	1	8	2	8	1	8	0	
2	9	11	11	0	11	1	11	2	11	5	11	4	
5	9	6	0	7	8	0	0	0	1	0	2	0	5	0	4	
5	3	5	0	6	13	3	0	0	1	0	2	0	1	0	0	
3	1	5	0	0	0	0	1	0	5	0	3	0	4	
3	1	5	3	1	0	1	1	1	2	1	1	1	0	
5	2	1	5	12	10	12	0	12	1	12	2	12	1	12	0	
6	8	7	2	1	5	12	12	0	12	1	12	5	12	3	12	4	
5	8	7	0	6	13	0	0	0	1	0	2	0	3	0	4	
6	13	6	0	5	1	4	0	0	0	1	0	2	0	5	0	4	
3	1	5	3	3	0	3	1	3	2	3	3	3	4	
7	10	12	5	0	6	9	11	12	0	0	1	0	2	0	1	11	0	
4	4	1	2	7	7	0	7	1	7	2	7	3	7	4	
6	13	6	0	5	1	2	0	0	0	1	0	5	0	3	0	4	
2	9	11	11	0	11	1	11	2	11	3	11	4	
7	11	9	6	0	5	12	10	11	0	11	1	11	2	11	3	12	4	
4	4	1	5	12	12	0	12	1	12	5	12	3	12	4	
5	12	5	0	6	9	12	0	12	1	12	2	12	5	0	4	
5	14	7	2	1	5	7	0	7	1	7	2	7	5	7	4	
6	12	5	1	2	7	14	12	0	14	1	14	2	14	5	14	4	
3	3	5	12	3	0	3	1	3	2	3	3	12	4	
4	0	5	12	10	0	0	0	1	0	2	0	5	12	4	
7	14	7	2	1	5	12	10	14	0	14	1	14	2	14	3	12	4	
4	5	0	7	8	0	0	0	1	0	2	0	5	0	4	
3	8	7	2	7	0	7	1	7	2	7	5	7	4	
3	14	8	11	8	0	8	1	8	5	8	3	8	4	
2	14	7	7	0	7	1	7	5	7	3	7	4	
2	6	9	6	0	6	1	6	2	6	3	6	4	
5	14	7	0	6	9	14	0	14	1	0	5	0	3	0	4	
2	6	0	0	0	0	1	0	2	0	1	0	0	
5	14	7	2	1	5	14	0	14	1	14	5	14	3	14	4	
3	1	5	12	12	0	12	1	12	2	12	5	12	4	
3	5	0	6	0	0	0	1	0	2	0	3	0	4	
5	3	5	1	2	7	7	0	7	1	7	2	7	5	7	4	
3	0	5	12	0	0	0	1	0	2	12	3	12	4	
6	11	9	6	0	5	1	11	0	0	1	0	5	0	3	0	4	
5	9	6	0	5	1	0	0	0	1	0	2	0	5	0	4	
4	5	0	6	13	0	0	0	1	0	2	0	1	0	0	
4	11	9	6	0	6	0	6	1	6	5	6	3	6	4	
4	10	12	5	0	12	0	0	1	0	2	0	1	0	0	
7	10	12	5	1	2	7	14	12	0	14	1	14	2	14	5	14	4	
3	11	9	6	6	0	6	1	6	2	6	5	6	4	
3	7	2	1	7	0	7	1	7	2	7	1	7	0	
2	8	7	7	0	7	1	7	5	7	3	7	4	
4	3	5	12	10	3	0	3	1	3	2	3	5	12	4	
2	3	4	3	0	3	1	3	2	3	5	3	4	
2	9	6	6	0	6	1	6	5	6	3	6	4	
5	2	1	5	0	6	0	0	0	1	0	2	0	3	0	4	
5	8	7	2	1	5	7	0	7	1	7	2	7	3	7	4	
2	3	4	4	0	4	1	4	5	4	3	4	4	
5	14	7	2	1	5	14	0	14	1	14	2	14	3	14	4	
2	12	13	12	0	12	1	12	5	12	3	12	4	
3	7	0	6	7	0	7	1	7	2	7	3	7	4	
3	0	5	1	0	0	0	1	0	5	0	3	0	4	
4	5	0	6	13	0	0	0	1	0	5	0	3	0	4	
5	9	6	0	7	14	0	0	0	1	0	5	0	3	14	4	
2	10	12	12	0	12	1	12	5	12	3	12	4	
5	13	6	0	5	3	0	0	0	1	0	2	0	1	3	0	
6	4	1	5	0	6	13	0	0	0	1	0	2	0	1	0	0	
5	6	0	5	1	2	0	0	0	1	0	5	0	3	0	4	
5	14	7	2	1	4	14	0	14	1	14	2	14	1	14	0	
4	14	7	0	6	7	0	7	1	7	5	7	3	7	4	
2	1	2	2	0	2	1	2	2	2	1	2	0	
4	10	12	5	3	3	0	3	1	3	2	3	5	3	4	
5	10	12	5	0	6	12	0	0	1	0	5	0	3	0	4	
3	1	5	3	3	0	3	1	3	2	3	5	3	4	
3	1	5	0	0	0	0	1	0	2	0	3	0	4	
2	1	5	1	0	1	1	1	5	1	3	1	4	
5	4	1	5	0	6	0	0	0	1	0	2	0	3	0	4	
5	5	0	6	9	11	0	0	0	1	0	2	0	5	11	4	
4	8	7	0	6	0	0	0	1	0	5	0	3	0	4	
4	7	0	6	9	0	0	0	1	0	5	0	3	0	4	
2	2	1	2	0	2	1	2	2	2	5	2	4	
4	3	5	12	10	3	0	3	1	3	5	3	3	12	4	
5	6	0	5	12	10	0	0	0	1	0	2	0	1	12	0	
2	4	3	4	0	4	1	4	5	4	3	4	4	
4	0	5	1	4	0	0	0	1	0	2	0	5	0	4	
7	3	5	1	2	7	14	8	7	0	7	1	7	2	7	3	7	4	
4	2	7	8	11	11	0	11	1	11	5	11	3	11	4	
5	13	6	0	7	8	0	0	0	1	0	2	0	3	0	4	
2	9	6	6	0	6	1	6	2	6	5	6	4	
4	10	12	5	0	12	0	12	1	0	2	0	3	0	4	
4	7	0	6	13	0	0	0	1	0	2	0	5	0	4	
2	6	9	6	0	6	1	6	2	6	1	6	0	
6	14	7	2	1	5	3	14	0	14	1	14	2	14	3	3	4	
3	3	5	1	1	0	1	1	1	2	1	1	1	0	
5	1	5	0	7	8	0	0	0	1	0	2	0	5	0	4	
4	6	0	5	12	0	0	0	1	0	2	0	5	12	4	
3	3	5	1	1	0	1	1	1	5	1	3	1	4	
6	14	7	2	1	5	12	14	0	14	1	14	2	14	3	12	4	
3	4	1	2	2	0	2	1	2	2	2	1	2	0	
3	14	7	0	7	0	7	1	7	2	7	5	7	4	
3	13	12	10	12	0	12	1	12	5	12	3	12	4	
2	2	1	2	0	2	1	2	2	2	3	2	4	
3	0	7	8	0	0	0	1	0	2	0	3	0	4	
2	5	12	12	0	12	1	12	2	12	3	12	4	
4	11	8	7	2	7	0	7	1	7	5	7	3	7	4	
5	5	1	2	7	8	2	0	2	1	7	5	7	3	7	4	
6	12	5	0	6	9	11	12	0	0	1	0	2	0	1	11	0	
3	0	5	12	0	0	0	1	0	2	12	1	12	0	
4	1	2	7	14	7	0	7	1	7	2	7	1	7	0	
5	4	1	5	0	6	0	0	0	1	0	2	0	5	0	4	
6	4	1	5	0	6	9	0	0	0	1	0	2	0	3	0	4	
4	12	5	1	4	12	0	12	1	12	2	12	1	12	0	
3	0	7	8	0	0	0	1	0	2	0	1	0	0	
7	8	7	2	1	5	12	10	12	0	12	1	12	2	12	5	12	4	
2	13	6	6	0	6	1	6	2	6	3	6	4	
4	11	8	7	2	7	0	7	1	7	2	7	1	7	0	
2	7	2	7	0	7	1	7	2	7	1	7	0	
3	2	1	4	2	0	2	1	2	5	1	3	1	4	
4	5	0	7	8	0	0	0	1	0	2	0	3	0	4	
4	2	1	5	12	12	0	12	1	12	2	12	3	12	4	
4	8	7	0	6	0	0	0	1	0	2	0	3	0	4	
4	9	6	0	7	0	0	0	1	0	2	0	1	0	0	
8	3	5	1	2	7	0	6	9	7	0	7	1	7	2	7	5	7	4	
4	6	0	5	1	0	0	0	1	0	2	0	5	0	4	
5	9	6	0	5	12	0	0	0	1	0	2	0	5	12	4	
2	7	2	7	0	7	1	7	2	7	5	7	4	
3	3	5	12	3	0	3	1	3	2	3	1	12	0	
4	2	7	8	11	11	0	11	1	11	2	11	1	11	0	
5	8	7	0	6	13	0	0	0	1	0	5	0	3	0	4	
2	14	7	7	0	7	1	7	2	7	5	7	4	
6	8	7	2	1	5	12	12	0	12	1	12	2	12	3	12	4	
6	3	5	1	2	7	8	3	0	3	1	3	2	3	1	3	0	
2	9	6	6	0	6	1	6	2	6	3	6	4	
4	5	1	2	7	7	0	7	1	7	2	7	5	7	4	
4	8	7	0	6	0	0	0	1	0	2	0	1	0	0	
5	10	12	5	1	2	12	0	12	1	12	2	12	5	12	4	
3	11	8	14	8	0	8	1	8	5	8	3	8	4	
3	2	7	8	2	0	2	1	2	2	2	3	2	4	
5	14	7	0	6	13	7	0	7	1	7	2	7	3	7	4	
5	3	5	0	6	13	3	0	3	1	3	2	3	3	0	4	
4	4	1	5	0	0	0	0	1	0	5	0	3	0	4	
3	11	8	14	8	0	8	1	8	2	8	3	8	4	
5	11	9	6	0	5	11	0	0	1	0	2	0	5	0	4	
2	6	9	6	0	6	1	6	5	6	3	6	4	
3	14	8	11	8	0	8	1	8	2	8	1	8	0	
7	11	9	6	0	5	1	4	11	0	11	1	11	2	11	1	0	0	
3	2	7	14	7	0	7	1	7	2	7	5	7	4	
6	13	6	0	5	1	4	0	0	0	1	0	5	0	3	0	4	
7	14	7	2	1	5	12	10	14	0	14	1	12	2	12	1	12	0	
4	9	6	0	7	0	0	0	1	0	2	0	5	0	4	
4	10	12	5	3	3	0	3	1	3	2	3	3	3	4	
2	12	5	12	0	12	1	12	2	12	3	12	4	
5	1	5	0	6	13	0	0	0	1	0	2	0	5	0	4	
7	11	9	6	0	5	12	10	11	0	11	1	11	2	11	1	12	0	
4	11	9	6	0	6	0	6	1	6	2	6	1	6	0	
5	12	5	0	6	9	12	0	12	1	12	2	12	3	0	4	
2	0	6	0	0	0	1	0	2	0	5	0	4	
4	6	0	7	8	0	0	0	1	0	2	0	5	0	4	
5	4	1	2	7	14	14	0	14	1	14	2	14	1	14	0	
2	4	3	4	0	4	1	4	2	4	1	4	0	
2	5	12	12	0	12	1	12	2	12	1	12	0	
3	10	12	13	12	0	12	1	12	2	12	5	12	4	
2	2	1	2	0	2	1	2	5	2	3	2	4	
3	0	5	3	0	0	0	1	0	5	3	3	3	4	
6	3	5	0	6	9	11	3	0	0	1	0	2	0	5	11	4	
2	1	5	1	0	1	1	1	2	1	5	1	4	
5	14	7	2	1	4	14	0	14	1	14	2	14	5	14	4	
6	12	5	1	2	7	14	12	0	14	1	14	5	14	3	14	4	
3	6	0	5	0	0	0	1	0	2	0	3	0	4	
2	5	12	12	0	12	1	12	5	12	3	12	4	
3	11	9	6	6	0	6	1	6	2	6	1	6	0	
2	7	0	0	0	0	1	0	2	0	3	0	4	
3	0	5	1	0	0	0	1	0	2	0	3	0	4	
2	11	9	11	0	11	1	11	2	11	3	11	4	
7	10	12	5	1	2	7	8	12	0	12	1	12	5	12	3	12	4	
2	3	5	3	0	3	1	3	2	3	3	3	4	
5	4	1	2	7	8	4	0	1	1	1	2	1	1	7	0	
4	6	0	7	14	7	0	7	1	7	2	7	3	7	4	
3	1	5	3	1	0	1	1	1	5	1	3	1	4	
3	5	0	6	0	0	0	1	0	2	0	5	0	4	
5	9	6	0	5	12	0	0	0	1	0	2	0	3	12	4	
3	0	5	12	0	0	0	1	0	5	12	3	12	4	
3	5	0	6	0	0	0	1	0	5	0	3	0	4	
6	2	1	5	0	6	9	0	0	0	1	0	2	0	1	0	0	
5	4	1	2	7	14	7	0	7	1	7	5	7	3	7	4	
4	9	6	0	7	0	0	0	1	0	2	0	3	0	4	
3	7	2	1	7	0	7	1	7	2	7	5	7	4	
2	5	3	3	0	3	1	3	2	3	1	3	0	
5	9	6	0	7	8	0	0	0	1	0	5	0	3	0	4	
2	5	12	12	0	12	1	12	2	12	5	12	4	
2	0	5	0	0	0	1	0	5	0	3	0	4	
4	4	1	5	0	0	0	0	1	0	2	0	3	0	4	
3	6	9	11	6	0	6	1	6	2	6	1	6	0	
2	7	0	0	0	0	1	0	2	0	1	0	0	
5	2	1	5	0	6	0	0	0	1	0	2	0	1	0	0	
5	9	6	0	7	14	0	0	0	1	0	2	0	1	14	0	
4	6	0	7	8	0	0	0	1	0	5	0	3	0	4	
3	12	5	1	12	0	12	1	12	5	12	3	12	4	
5	1	5	0	6	13	0	0	0	1	0	2	0	1	0	0	
2	1	4	1	0	1	1	1	2	1	1	1	0	
6	11	9	6	0	5	1	11	0	0	1	0	2	0	5	0	4	
4	2	1	5	12	12	0	12	1	12	5	12	3	12	4	
4	13	6	9	11	6	0	6	1	6	2	6	1	6	0	
7	3	5	1	2	7	0	6	7	0	7	1	7	2	7	5	7	4	
4	2	1	5	3	3	0	3	1	3	2	3	3	3	4	
5	12	5	0	6	9	12	0	12	1	12	2	12	1	0	0	
6	7	2	1	5	12	10	12	0	12	1	12	2	12	5	12	4	
4	5	1	2	7	7	0	7	1	7	2	7	3	7	4	
5	14	7	0	6	9	14	0	14	1	0	2	0	5	0	4	
6	1	5	0	6	9	11	0	0	0	1	0	5	0	3	11	4	
3	4	1	5	1	0	1	1	1	5	1	3	1	4	
7	4	1	5	0	6	9	11	0	0	0	1	0	2	0	3	11	4	
2	0	7	0	0	0	1	0	2	0	1	0	0	
4	5	0	6	13	0	0	0	1	0	2	0	3	0	4	
4	12	5	0	6	12	0	12	1	12	2	12	1	0	0	
2	7	2	7	0	7	1	7	5	7	3	7	4	
3	13	6	0	0	0	0	1	0	2	0	5	0	4	
3	13	12	10	12	0	12	1	12	2	12	3	12	4	
5	13	6	0	7	14	7	0	7	1	7	2	7	5	7	4	
3	0	6	13	0	0	0	1	0	2	0	1	0	0	
3	0	5	1	0	0	0	1	0	2	0	5	0	4	
3	2	7	8	2	0	2	1	2	2	2	5	2	4	
2	6	0	6	0	6	1	6	2	6	3	6	4	
4	12	5	1	4	12	0	12	1	12	5	12	3	12	4	
3	14	7	2	7	0	7	1	7	2	7	1	7	0	
5	11	9	6	0	5	11	0	0	1	0	5	0	3	0	4	
4	2	7	8	11	11	0	11	1	11	2	11	3	11	4	
5	2	1	5	0	6	0	0	0	1	0	5	0	3	0	4	
7	11	9	6	0	5	1	4	11	0	11	1	11	2	11	5	0	4	
5	8	7	2	1	4	2	0	1	1	4	2	4	1	4	0	
5	10	12	5	1	4	12	0	12	1	12	2	12	5	12	4	
6	9	6	0	5	12	10	0	0	0	1	0	5	0	3	12	4	
4	6	0	5	3	0	0	0	1	0	5	0	3	3	4	
6	11	9	6	0	5	12	11	0	11	1	11	2	11	5	12	4	
4	8	7	0	6	0	0	0	1	0	2	0	5	0	4	
4	1	2	7	14	7	0	7	1	7	2	7	5	7	4	
7	8	7	2	1	5	12	10	12	0	12	1	12	5	12	3	12	4	
6	13	6	0	5	1	4	0	0	0	1	0	2	0	1	0	0	
3	5	1	4	1	0	1	1	1	2	1	1	1	0	
6	10	12	5	1	2	7	12	0	12	1	12	5	12	3	12	4	
3	4	1	2	2	0	2	1	2	5	2	3	2	4	
5	13	6	0	7	8	0	0	0	1	0	2	0	1	0	0	
6	9	6	0	5	1	4	0	0	0	1	0	2	0	3	0	4	
3	5	1	2	2	0	2	1	2	2	2	3	2	4	
4	7	0	6	13	0	0	0	1	0	5	0	3	0	4	
4	1	2	7	14	7	0	7	1	7	2	7	3	7	4	
2	4	3	3	0	3	1	3	2	3	3	3	4	
2	13	6	6	0	6	1	6	5	6	3	6	4	
6	3	5	1	2	7	14	7	0	7	1	7	2	7	3	7	4	
4	0	5	1	2	0	0	0	1	0	2	0	1	0	0	
4	9	6	0	5	0	0	0	1	0	2	0	5	0	4	
4	10	12	5	1	12	0	12	1	12	2	12	3	12	4	
3	11	8	14	8	0	8	1	8	2	8	1	8	0	
3	9	6	0	0	0	0	1	0	2	0	5	0	4	
4	7	2	1	5	7	0	7	1	7	2	7	1	7	0	
4	12	5	0	6	12	0	12	1	12	2	12	5	0	4	
2	4	1	1	0	1	1	1	2	1	1	1	0	
6	10	12	5	0	6	9	12	0	12	1	0	2	0	1	0	0	
4	14	7	0	6	7	0	7	1	7	2	7	3	7	4	
2	7	8	8	0	8	1	8	2	8	5	8	4	
4	5	0	6	9	0	0	0	1	0	5	0	3	0	4	
2	4	1	1	0	1	1	1	2	1	5	1	4	
2	8	11	11	0	11	1	11	2	11	1	11	0	
2	7	14	7	0	7	1	7	5	7	3	7	4	
3	0	7	14	7	0	7	1	7	2	7	3	7	4	
4	3	5	1	2	2	0	2	1	2	2	2	1	2	0	
5	5	0	6	9	11	0	0	0	1	0	2	0	1	11	0	
3	9	6	0	0	0	0	1	0	2	0	1	0	0	
3	14	8	11	8	0	8	1	8	2	8	3	8	4	
6	12	5	1	2	7	8	12	0	12	1	12	5	12	3	12	4	
2	8	14	14	0	14	1	14	2	14	5	14	4	
2	10	12	12	0	12	1	12	2	12	5	12	4	
2	12	5	12	0	12	1	12	5	12	3	12	4	
4	14	7	2	1	7	0	7	1	7	2	7	3	7	4	
5	10	12	5	1	4	12	0	12	1	12	2	12	1	12	0	
3	14	7	2	7	0	7	1	7	2	7	5	7	4	
6	12	5	1	2	7	14	12	0	14	1	14	2	14	3	14	4	
4	5	0	6	9	0	0	0	1	0	2	0	1	0	0	
4	13	6	0	7	0	0	0	1	0	2	0	5	0	4	
7	3	5	1	2	7	14	8	7	0	7	1	7	2	7	5	7	4	
2	0	5	0	0	0	1	0	2	0	5	0	4	
3	9	6	13	6	0	6	1	6	2	6	1	6	0	
3	5	1	4	1	0	1	1	1	5	1	3	1	4	
5	8	7	0	6	9	0	0	0	1	0	2	0	3	0	4	
3	10	12	5	12	0	12	1	12	5	12	3	12	4	
6	3	5	1	2	7	8	3	0	3	1	3	5	3	3	3	4	
3	10	12	5	12	0	12	1	12	2	12	3	12	4	
2	7	2	7	0	7	1	7	2	7	3	7	4	
2	6	13	6	0	6	1	6	2	6	3	6	4	
7	4	1	5	0	6	9	11	0	0	0	1	0	5	0	3	11	4	
3	0	6	13	0	0	0	1	0	5	0	3	0	4	
5	13	6	0	5	1	0	0	0	1	0	5	0	3	0	4	
3	11	9	6	6	0	6	1	6	2	6	3	6	4	
4	13	6	0	7	0	0	0	1	0	2	0	1	0	0	
6	8	7	2	1	5	12	12	0	12	1	12	2	12	1	12	0	
5	6	0	5	1	4	0	0	0	1	0	2	0	3	0	4	
7	10	12	5	0	6	9	11	12	0	0	1	0	2	0	3	11	4	
4	5	0	6	13	0	0	0	1	0	2	0	5	0	4	
3	0	5	1	0	0	0	1	0	2	0	1	0	0	
3	12	5	1	12	0	12	1	12	2	12	5	12	4	
2	12	13	12	0	12	1	12	2	12	5	12	4	
6	7	2	1	5	12	10	12	0	12	1	12	2	12	3	12	4	
5	8	7	0	6	13	0	0	0	1	0	2	0	1	0	0	
5	4	1	5	0	6	0	0	0	1	0	2	0	1	0	0	
3	4	1	2	2	0	2	1	2	2	2	3	2	4	
4	8	7	2	1	7	0	7	1	7	2	7	5	7	4	
2	5	1	1	0	1	1	1	2	1	3	1	4	
3	1	5	12	12	0	12	1	12	2	12	1	12	0	
4	4	1	2	7	7	0	7	1	7	5	7	3	7	4	
6	2	1	5	0	6	13	0	0	0	1	0	5	0	3	0	4	
5	9	6	0	5	3	0	0	0	1	0	5	0	3	3	4	
5	11	9	6	0	5	11	0	0	1	0	2	0	1	0	0	
5	14	7	0	6	13	7	0	7	1	7	2	7	5	7	4	
4	14	7	2	1	7	0	7	1	7	2	7	5	7	4	
3	7	8	11	11	0	11	1	11	2	11	5	11	4	
4	7	0	6	9	0	0	0	1	0	2	0	3	0	4	
4	1	5	12	10	12	0	12	1	12	5	12	3	12	4	
6	13	6	0	5	1	2	0	0	0	1	0	2	0	5	0	4	
5	4	1	5	12	10	12	0	12	1	12	2	12	3	12	4	
3	7	0	6	0	0	0	1	0	2	0	1	0	0	
5	1	5	0	6	9	0	0	0	1	0	2	0	1	0	0	
4	2	1	5	0	0	0	0	1	0	5	0	3	0	4	
2	3	5	3	0	3	1	3	2	3	1	3	0	
3	5	12	10	12	0	12	1	12	2	12	3	12	4	
3	6	0	5	0	0	0	1	0	5	0	3	0	4	
2	1	4	1	0	1	1	1	2	1	5	1	4	
2	3	5	3	0	3	1	3	5	3	3	3	4	
4	13	6	9	11	6	0	6	1	6	2	6	3	6	4	
2	7	0	0	0	0	1	0	5	0	3	0	4	
3	0	7	14	7	0	7	1	7	2	7	1	7	0	
3	9	6	0	0	0	0	1	0	5	0	3	0	4	
5	9	6	0	7	14	0	0	0	1	0	2	0	3	14	4	
3	8	7	2	7	0	7	1	7	2	7	1	7	0	
4	12	5	1	2	12	0	12	1	12	2	12	3	12	4	
3	11	9	6	6	0	6	1	6	5	6	3	6	4	
2	3	4	3	0	3	1	3	2	3	3	3	4	
3	4	1	5	1	0	1	1	1	2	1	3	1	4	
6	4	1	5	0	6	9	0	0	0	1	0	5	0	3	0	4	
2	7	14	7	0	7	1	7	2	7	3	7	4	
5	2	1	5	12	10	12	0	12	1	12	2	12	3	12	4	
4	5	1	2	7	7	0	7	1	7	5	7	3	7	4	
3	2	7	8	7	0	7	1	8	2	8	1	8	0	
4	14	7	2	1	7	0	7	1	7	2	7	1	7	0	
7	11	9	6	0	5	12	10	11	0	11	1	11	5	11	3	12	4	
3	9	6	13	6	0	6	1	6	5	6	3	6	4	
3	6	0	5	0	0	0	1	0	2	0	1	0	0	
6	3	5	1	2	7	14	7	0	7	1	7	2	7	1	7	0	
5	2	1	5	0	6	0	0	0	1	0	2	0	5	0	4	
2	8	11	8	0	8	1	8	5	8	3	8	4	
2	8	14	8	0	8	1	8	2	8	3	8	4	
5	9	6	0	7	8	0	0	0	1	0	2	0	1	0	0	
4	0	5	1	4	0	0	0	1	0	2	0	3	0	4	
5	7	2	1	5	12	12	0	12	1	12	5	12	3	12	4	
4	11	9	6	0	6	0	6	1	6	2	6	5	6	4	
5	11	9	6	0	5	11	0	0	1	0	2	0	3	0	4	
3	12	5	3	12	0	12	1	12	2	12	3	3	4	
4	4	1	2	7	7	0	7	1	7	2	7	1	7	0	
4	6	0	7	8	0	0	0	1	0	2	0	1	0	0	
2	13	12	12	0	12	1	12	2	12	3	12	4	
6	12	5	1	2	7	8	12	0	12	1	12	2	12	1	12	0	
3	2	1	5	2	0	2	1	2	2	2	1	2	0	
2	12	13	12	0	12	1	12	2	12	3	12	4	
4	10	12	5	1	12	0	12	1	12	5	12	3	12	4	
6	12	5	1	2	7	8	12	0	12	1	12	2	12	5	12	4	
2	0	7	0	0	0	1	0	5	0	3	0	4	
4	8	7	2	1	7	0	7	1	7	5	7	3	7	4	
3	5	1	4	1	0	1	1	1	2	1	3	1	4	
5	5	1	2	7	14	7	0	7	1	7	5	7	3	7	4	
5	1	5	0	6	9	0	0	0	1	0	2	0	3	0	4	
4	12	5	0	6	12	0	12	1	12	5	12	3	0	4	
6	9	6	0	5	1	4	0	0	0	1	0	5	0	3	0	4	
5	13	6	0	7	8	0	0	0	1	0	5	0	3	0	4	
3	12	5	3	12	0	12	1	12	2	12	5	3	4	
5	10	12	5	1	2	12	0	12	1	12	2	12	1	12	0	
3	13	6	9	6	0	6	1	6	2	6	3	6	4	
3	5	12	10	12	0	12	1	12	2	12	1	12	0	
6	10	12	5	0	6	9	12	0	12	1	0	2	0	5	0	4	
2	14	7	7	0	7	1	7	2	7	1	7	0	
3	3	5	1	3	0	3	1	3	2	3	3	3	4	
4	1	5	0	6	0	0	0	1	0	2	0	3	0	4	
7	10	12	5	0	6	9	11	12	0	0	1	0	2	0	5	11	4	
2	9	6	6	0	6	1	6	2	6	1	6	0	
5	13	6	0	5	1	0	0	0	1	0	2	0	1	0	0	
3	2	1	4	2	0	2	1	2	2	2	3	2	4	
6	9	6	0	5	1	2	0	0	0	1	0	2	0	1	0	0	
5	9	6	0	5	12	0	0	0	1	0	2	0	1	12	0	
2	13	12	12	0	12	1	12	2	12	1	12	0	
5	13	6	0	5	3	0	0	0	1	0	5	0	3	3	4	
7	11	9	6	0	5	12	10	11	0	11	1	11	2	11	5	12	4	
7	10	12	5	0	6	9	11	12	0	0	1	0	5	0	3	11	4	
4	6	0	5	12	0	0	0	1	0	2	0	3	12	4	
5	14	7	0	6	9	14	0	14	1	0	2	0	3	0	4	
3	1	5	0	0	0	0	1	0	2	0	1	0	0	
4	0	5	12	10	0	0	0	1	0	5	0	3	12	4	
5	4	1	2	7	8	4	0	4	1	4	2	1	5	8	4	
5	10	12	5	1	4	12	0	12	1	12	5	12	3	12	4	
5	4	1	2	7	14	7	0	7	1	7	2	7	5	7	4	
5	6	0	5	1	4	0	0	0	1	0	2	0	5	0	4	
6	8	7	2	1	5	3	3	0	3	1	3	2	3	5	3	4	
2	5	3	3	0	3	1	3	2	3	3	3	4	
3	5	1	2	2	0	2	1	2	5	2	3	2	4	
5	10	12	5	1	2	12	0	12	1	12	5	12	3	12	4	
5	5	1	2	7	14	7	0	7	1	7	2	7	5	7	4	
2	14	8	8	0	8	1	8	5	8	3	8	4	
4	5	0	6	9	0	0	0	1	0	2	0	5	0	4	
3	7	8	11	11	0	11	1	11	2	11	3	11	4	
2	8	14	14	0	14	1	14	2	14	1	14	0	
6	12	5	1	2	7	14	12	0	14	1	14	2	14	1	14	0	
6	1	5	0	6	9	11	0	0	0	1	0	2	0	1	11	0	
3	7	0	6	0	0	0	1	0	5	0	3	0	4	
6	11	9	6	0	5	3	11	0	11	1	11	2	11	1	3	0	
3	2	7	14	7	0	7	1	7	5	7	3	7	4	
6	14	7	2	1	5	12	14	0	14	1	14	2	14	5	12	4	
6	11	9	6	0	5	12	11	0	11	1	11	2	11	1	12	0	
4	0	5	1	4	0	0	0	1	0	5	0	3	0	4	
3	8	7	0	7	0	7	1	7	2	7	3	7	4	
5	1	5	0	6	13	0	0	0	1	0	5	0	3	0	4	
6	4	1	5	0	6	13	0	0	0	1	0	2	0	3	0	4	
2	14	8	8	0	8	1	8	2	8	1	8	0	
3	11	8	14	8	0	8	1	8	2	8	5	8	4	
5	5	0	6	9	11	0	0	0	1	0	2	0	3	11	4	
3	2	7	14	7	0	7	1	7	2	7	1	7	0	
3	8	7	0	0	0	0	1	0	2	0	1	0	0	
7	11	9	6	0	5	1	4	11	0	11	1	11	5	11	3	0	4	
5	6	0	5	12	10	0	0	0	1	0	2	0	5	12	4	
4	1	5	0	6	0	0	0	1	0	2	0	5	0	4	
4	7	2	1	4	4	0	4	1	4	2	4	5	4	4	
2	11	8	8	0	8	1	8	2	8	3	8	4	
4	14	7	2	1	7	0	7	1	7	5	7	3	7	4	
5	13	6	0	7	8	0	0	0	1	0	2	0	5	0	4	
5	9	6	0	7	8	0	0	0	1	0	2	0	3	0	4	
3	6	0	7	0	0	0	1	0	2	0	1	0	0	
3	0	7	14	7	0	7	1	7	2	7	5	7	4	
3	2	1	4	2	0	2	1	2	2	2	5	1	4	
7	3	5	1	2	7	0	6	7	0	7	1	7	2	7	3	7	4	
5	9	6	0	5	1	0	0	0	1	0	2	0	1	0	0	
5	7	2	1	5	3	3	0	3	1	3	2	3	3	3	4	
5	9	6	0	5	12	0	0	0	1	0	5	0	3	12	4	
2	14	7	7	0	7	1	7	2	7	3	7	4	
7	10	12	5	1	2	7	8	12	0	12	1	12	2	12	1	12	0	
3	11	8	7	7	0	7	1	7	2	7	3	7	4	
2	13	12	12	0	12	1	12	2	12	5	12	4	
4	10	12	5	0	12	0	12	1	0	2	0	5	0	4	
4	7	0	6	9	0	0	0	1	0	2	0	1	0	0	
3	4	1	5	1	0	1	1	1	2	1	1	1	0	
4	13	6	0	7	0	0	0	1	0	2	0	3	0	4	
3	6	0	7	7	0	7	1	7	2	7	5	7	4	
2	2	7	7	0	7	1	7	2	7	1	7	0	
2	0	6	0	0	0	1	0	2	0	3	0	4	
3	7	8	11	11	0	11	1	11	5	11	3	11	4	
4	10	12	5	3	12	0	12	1	12	5	3	3	3	4	
3	1	5	12	12	0	12	1	12	2	12	3	12	4	
4	1	2	7	8	7	0	7	1	7	5	7	3	7	4	
3	0	6	9	6	0	6	1	6	5	6	3	6	4	
4	11	8	7	2	7	0	7	1	7	2	7	5	7	4	
6	8	7	2	1	5	3	3	0	3	1	3	5	3	3	3	4	
5	6	0	5	12	10	0	0	0	1	0	5	0	3	12	4	
3	13	6	0	0	0	0	1	0	2	0	3	0	4	
3	13	12	10	12	0	12	1	12	2	12	1	12	0	
2	0	6	0	0	0	1	0	2	0	1	0	0	
4	2	7	8	11	11	0	11	1	11	2	11	5	11	4	
5	8	7	0	6	9	0	0	0	1	0	2	0	1	0	0	
5	14	7	0	6	13	7	0	7	1	7	2	7	1	7	0	
6	8	7	2	1	5	3	3	0	3	1	3	2	3	1	3	0	
5	14	7	2	1	5	7	0	7	1	7	2	7	1	7	0	
2	5	0	0	0	0	1	0	2	0	5	0	4	
3	14	7	2	7	0	7	1	7	2	7	3	7	4	
3	7	2	1	7	0	7	1	7	5	7	3	7	4	
6	2	1	5	0	6	9	0	0	0	1	0	2	0	5	0	4	
4	12	5	1	4	12	0	12	1	12	2	12	3	12	4	
4	6	0	5	1	0	0	0	1	0	2	0	3	0	4	
2	7	14	7	0	7	1	7	2	7	1	7	0	
6	4	1	5	0	6	13	0	0	0	1	0	5	0	3	0	4	
6	4	1	5	0	6	13	0	0	0	1	0	2	0	5	0	4	
4	3	5	0	6	3	0	3	1	3	2	3	1	0	0	
6	9	6	0	5	1	4	0	0	0	1	0	2	0	1	0	0	
6	3	5	1	2	7	14	7	0	7	1	7	2	7	5	7	4	
7	10	12	5	1	2	7	8	12	0	12	1	12	2	12	3	12	4	
2	11	9	11	0	11	1	11	5	11	3	11	4	
2	9	11	11	0	11	1	11	2	11	1	11	0	
5	3	5	0	6	9	3	0	3	1	3	2	3	1	0	0	
2	2	7	7	0	7	1	7	5	7	3	7	4	
5	7	2	1	5	3	3	0	3	1	3	2	3	5	3	4	
3	7	8	11	11	0	11	1	11	2	11	1	11	0	
3	10	12	13	12	0	12	1	12	2	12	3	12	4	
6	9	6	0	5	1	2	0	0	0	1	0	2	0	5	0	4	
4	6	0	7	14	7	0	7	1	7	5	7	3	7	4	
4	6	0	7	14	14	0	14	1	14	2	14	5	14	4	
6	2	1	5	0	6	9	0	0	0	1	0	2	0	3	0	4	
3	12	5	1	12	0	12	1	12	2	12	3	12	4	
2	8	7	7	0	7	1	7	2	7	1	7	0	
3	6	9	11	6	0	6	1	6	2	6	3	6	4	
2	5	0	0	0	0	1	0	5	0	3	0	4	
4	0	6	9	11	6	0	6	1	6	5	6	3	6	4	
3	11	8	7	7	0	7	1	7	2	7	5	7	4	
4	13	6	0	5	0	0	0	1	0	2	0	5	0	4	
2	0	7	0	0	0	1	0	2	0	3	0	4	
5	14	7	0	6	9	14	0	0	1	0	2	0	1	0	0	
2	10	12	12	0	12	1	12	2	12	1	12	0	
4	13	6	0	5	0	0	0	1	0	5	0	3	0	4	
5	9	6	0	7	14	0	0	0	1	0	2	0	5	14	4	
4	11	8	7	2	7	0	7	1	7	2	7	3	7	4	
3	10	12	13	12	0	12	1	12	5	12	3	12	4	
3	2	1	4	1	0	4	1	4	2	4	1	4	0	
4	12	5	1	4	12	0	12	1	12	2	12	5	12	4	
6	3	5	1	2	7	14	7	0	7	1	7	5	7	3	7	4	
4	6	0	7	14	7	0	7	1	7	2	7	1	7	0	
2	0	6	0	0	0	1	0	5	0	3	0	4	
5	9	6	0	5	1	0	0	0	1	0	2	0	3	0	4	
2	0	5	0	0	0	1	0	2	0	1	0	0	
4	1	5	12	10	12	0	12	1	12	2	12	1	12	0	
2	11	9	11	0	11	1	11	2	11	1	11	0	
2	6	9	6	0	6	1	6	2	6	5	6	4	
2	5	0	0	0	0	1	0	2	0	1	0	0	
5	1	5	0	7	8	0	0	0	1	0	2	0	3	0	4	
4	0	5	1	2	0	0	0	1	0	5	0	3	0	4	
3	11	8	7	7	0	7	1	7	2	7	1	7	0	
4	7	2	1	4	4	0	4	1	4	5	4	3	4	4	
3	14	8	11	8	0	8	1	8	2	8	5	8	4	
6	12	5	0	6	9	11	12	0	0	1	0	2	0	5	11	4	
2	8	7	7	0	7	1	7	2	7	5	7	4	
4	10	12	5	1	12	0	12	1	12	2	12	1	12	0	
5	13	6	0	5	3	0	0	0	1	0	2	0	3	3	4	
4	9	6	0	7	0	0	0	1	0	5	0	3	0	4	
5	4	1	5	0	6	0	0	0	1	0	5	0	3	0	4	
3	0	5	3	0	0	0	1	0	2	3	5	3	4	
3	1	5	12	12	0	12	1	12	5	12	3	12	4	
3	3	5	0	3	0	3	1	3	2	0	3	0	4	
4	4	1	5	12	12	0	12	1	12	2	12	3	12	4	
5	6	0	5	1	2	0	0	0	1	0	2	0	3	0	4	
4	7	2	1	5	7	0	7	1	7	2	7	3	7	4	
5	13	6	0	7	14	7	0	7	1	7	5	7	3	7	4	
2	13	6	6	0	6	1	6	2	6	5	6	4	
3	12	5	0	12	0	12	1	12	2	0	5	0	4	
5	14	7	0	6	13	7	0	7	1	7	5	7	3	7	4	
4	6	0	5	1	0	0	0	1	0	2	0	1	0	0	
3	0	7	8	0	0	0	1	0	2	0	5	0	4	
4	6	0	5	1	0	0	0	1	0	5	0	3	0	4	
3	1	5	0	0	0	0	1	0	2	0	5	0	4	
2	1	5	1	0	1	1	1	2	1	3	1	4	
5	3	5	0	6	9	3	0	3	1	3	5	3	3	0	4	
3	9	6	0	0	0	0	1	0	2	0	3	0	4	
6	13	6	0	5	1	2	0	0	0	1	0	2	0	1	0	0	
3	5	0	6	0	0	0	1	0	2	0	1	0	0	
3	0	6	13	0	0	0	1	0	2	0	5	0	4	
2	11	8	8	0	8	1	8	2	8	1	8	0	
5	14	7	2	1	4	14	0	14	1	14	5	14	3	14	4	
4	12	5	0	6	12	0	12	1	12	2	12	3	0	4	
6	14	7	2	1	5	12	14	0	14	1	14	5	14	3	12	4	
2	4	1	1	0	1	1	1	2	1	3	1	4	
5	8	7	0	6	9	0	0	0	1	0	2	0	5	0	4	
2	5	3	3	0	3	1	3	5	3	3	3	4	
4	1	5	0	6	0	0	0	1	0	5	0	3	0	4	
2	1	5	1	0	1	1	1	2	1	1	1	0	
3	14	7	0	7	0	7	1	7	2	7	1	7	0	
5	8	7	2	1	5	7	0	7	1	7	5	7	3	7	4	
2	5	0	0	0	0	1	0	2	0	3	0	4	
4	0	6	9	11	6	0	6	1	6	2	6	3	6	4	
3	3	5	1	3	0	3	1	3	2	3	5	3	4	
4	12	5	1	2	12	0	12	1	12	5	12	3	12	4	
6	7	2	1	5	12	10	12	0	12	1	12	5	12	3	12	4	
5	1	5	0	6	13	0	0	0	1	0	2	0	3	0	4	
5	12	5	1	2	7	12	0	12	1	12	2	12	5	12	4	
4	3	5	1	2	2	0	2	1	2	5	2	3	2	4	
2	4	3	4	0	4	1	4	2	4	5	4	4	
2	7	8	7	0	7	1	7	2	8	3	8	4	
3	3	5	0	3	0	3	1	3	2	0	1	0	0	
3	0	6	9	0	0	0	1	0	2	0	3	0	4	
6	11	9	6	0	5	1	11	0	0	1	0	2	0	3	0	4	
3	6	9	11	6	0	6	1	6	5	6	3	6	4	
2	14	8	14	0	14	1	14	2	14	5	14	4	
6	12	5	0	6	9	11	12	0	0	1	0	2	0	3	11	4	
4	10	12	5	3	12	0	3	1	3	2	3	1	3	0	
5	2	1	5	12	10	12	0	12	1	12	2	12	5	12	4	
4	2	1	5	0	0	0	0	1	0	2	0	3	0	4	
6	8	7	2	1	5	3	3	0	3	1	3	2	3	3	3	4	
5	6	0	5	1	4	0	0	0	1	0	5	0	3	0	4	
2	2	1	2	0	2	1	2	2	2	1	2	0	
2	11	8	11	0	11	1	11	2	11	5	11	4	
5	4	1	2	7	8	8	0	8	1	8	5	8	3	8	4	
5	4	1	2	7	8	4	0	4	1	4	2	7	3	7	4	
5	4	1	5	12	10	12	0	12	1	12	2	12	1	12	0	
5	10	12	5	0	6	12	0	12	1	0	2	0	5	0	4	
3	11	8	7	7	0	7	1	7	5	7	3	7	4	
2	12	10	12	0	12	1	12	2	12	5	12	4	
5	4	1	5	12	10	12	0	12	1	12	5	12	3	12	4	
4	4	1	5	12	12	0	12	1	12	2	12	5	12	4	
5	10	12	5	0	6	12	0	0	1	0	2	0	1	0	0	
2	11	9	11	0	11	1	11	2	11	5	11	4	
3	10	12	5	12	0	12	1	12	2	12	5	12	4	
6	14	7	2	1	5	3	14	0	14	1	14	2	14	1	3	0	
2	1	2	2	0	2	1	2	2	2	3	2	4	
2	6	0	0	0	0	1	0	2	0	5	0	4	
5	3	5	0	6	13	3	0	3	1	3	5	3	3	0	4	
3	12	5	1	12	0	12	1	12	2	12	1	12	0	
5	6	0	5	1	4	0	0	0	1	0	2	0	1	0	0	
5	8	7	2	1	5	7	0	7	1	7	2	7	1	7	0	
4	13	6	0	5	0	0	0	1	0	2	0	1	0	0	
6	9	6	0	5	12	10	0	0	0	1	0	2	0	1	12	0	
2	2	7	7	0	7	1	7	2	7	5	7	4	
6	7	2	1	5	12	10	12	0	12	1	12	2	12	1	12	0	
2	10	12	12	0	12	1	12	2	12	3	12	4	
6	2	1	5	0	6	9	0	0	0	1	0	5	0	3	0	4	
5	6	0	5	12	10	0	0	0	1	0	2	0	3	12	4	
4	11	9	6	13	6	0	6	1	6	2	6	1	6	0	
4	13	6	0	7	0	0	0	1	0	5	0	3	0	4	
2	7	8	7	0	7	1	7	2	8	1	8	0	
2	7	14	7	0	7	1	7	2	7	5	7	4	
6	9	6	0	5	1	4	0	0	0	1	0	2	0	5	0	4	
5	13	6	0	5	3	0	0	0	1	0	2	0	5	3	4	
3	6	9	11	6	0	6	1	6	2	6	5	6	4	
3	0	6	9	0	0	0	1	0	2	0	5	0	4	
3	10	12	13	12	0	12	1	12	2	12	1	12	0	
4	6	0	7	8	0	0	0	1	0	2	0	3	0	4	
4	10	12	5	0	12	0	0	1	0	5	0	3	0	4	
4	4	1	5	0	0	0	0	1	0	2	0	1	0	0	
6	11	9	6	0	5	1	11	0	11	1	0	2	0	1	0	0	
4	7	0	6	13	0	0	0	1	0	2	0	3	0	4	
3	8	7	0	0	0	0	1	0	5	0	3	0	4	
5	9	6	0	5	1	0	0	0	1	0	5	0	3	0	4	
6	12	5	1	2	7	8	12	0	12	1	12	2	12	3	12	4	
3	0	7	8	0	0	0	1	0	5	0	3	0	4	
4	7	0	6	9	7	0	7	1	7	2	7	5	7	4	
5	3	5	1	2	7	7	0	7	1	7	5	7	3	7	4	
4	13	6	0	5	0	0	0	1	0	2	0	3	0	4	
5	12	5	1	2	7	12	0	12	1	12	2	12	1	12	0	
5	12	5	0	6	9	12	0	12	1	12	5	12	3	0	4	
5	10	12	5	0	6	12	0	12	1	0	2	0	3	0	4	
5	6	0	5	1	2	0	0	0	1	0	2	0	1	0	0	
4	6	0	5	3	0	0	0	1	0	2	0	1	3	0	
5	8	7	2	1	4	2	0	4	1	4	2	4	3	4	4	
4	3	5	1	2	2	0	2	1	2	2	2	3	2	4	
3	1	2	7	7	0	7	1	7	2	7	3	7	4	
6	3	5	0	6	9	11	3	0	0	1	0	2	0	1	11	0	
6	11	9	6	0	5	12	11	0	11	1	11	5	11	3	12	4	
4	9	6	0	5	0	0	0	1	0	2	0	1	0	0	
4	2	1	5	12	12	0	12	1	12	2	12	1	12	0	
5	13	6	0	7	14	7	0	7	1	7	2	7	1	7	0	
2	8	14	14	0	14	1	14	5	14	3	14	4	
2	8	11	8	0	8	1	8	2	8	3	8	4	
5	13	6	0	7	14	7	0	7	1	7	2	7	3	7	4	
5	8	7	2	1	4	8	0	8	1	8	2	7	5	4	4	
6	10	12	5	1	2	7	12	0	12	1	12	2	12	1	12	0	
3	9	6	13	6	0	6	1	6	2	6	3	6	4	
6	11	9	6	0	5	12	11	0	11	1	11	2	11	3	12	4	
4	11	9	6	13	11	0	11	1	11	5	11	3	11	4	
4	11	9	6	13	6	0	6	1	6	2	6	5	6	4	
2	1	2	2	0	2	1	2	2	2	5	2	4	
6	4	1	5	0	6	9	0	0	0	1	0	2	0	1	0	0	
4	6	0	5	3	0	0	0	1	0	2	0	5	3	4	
4	3	5	12	10	3	0	3	1	3	2	3	3	12	4	
2	7	0	7	0	7	1	7	2	7	5	7	4	
3	0	5	12	0	0	0	1	0	2	12	5	12	4	
2	5	1	1	0	1	1	1	5	1	3	1	4	
4	0	5	1	2	0	0	0	1	0	2	0	3	0	4	
6	4	1	5	0	6	9	0	0	0	1	0	2	0	5	0	4	
5	14	7	2	1	4	14	0	14	1	14	2	14	3	14	4	
2	1	4	1	0	1	1	1	5	1	3	1	4	
3	1	2	7	7	0	7	1	7	2	7	1	7	0	
6	13	6	0	5	1	2	0	0	0	1	0	2	0	3	0	4	
3	4	1	5	1	0	1	1	1	2	1	5	1	4	
4	2	1	5	0	0	0	0	1	0	2	0	5	0	4	
3	12	5	0	12	0	12	1	12	5	0	3	0	4	
4	1	5	12	10	12	0	12	1	12	2	12	5	12	4	
3	13	12	10	12	0	12	1	12	2	12	5	12	4	
2	12	5	12	0	12	1	12	2	12	5	12	4	
2	13	6	6	0	6	1	6	2	6	1	6	0	
4	0	5	12	10	0	0	0	1	0	2	0	3	12	4	
6	11	9	6	0	5	3	11	0	11	1	11	2	11	3	3	4	
7	11	9	6	0	5	1	4	11	0	11	1	11	2	11	3	0	4	
4	1	5	12	10	12	0	12	1	12	2	12	3	12	4	
6	9	6	0	5	1	2	0	0	0	1	0	5	0	3	0	4	
4	7	2	1	5	7	0	7	1	7	5	7	3	7	4	
4	8	7	2	1	7	0	7	1	7	2	7	3	7	4	
4	2	1	5	3	3	0	3	1	3	2	3	1	3	0	
6	3	5	1	2	7	0	7	0	7	1	7	5	7	3	7	4	
3	3	5	12	3	0	3	1	3	2	3	5	12	4	
3	6	0	7	0	0	0	1	0	2	0	3	0	4	
4	6	0	5	12	0	0	0	1	0	5	0	3	12	4	
2	12	10	12	0	12	1	12	2	12	3	12	4	
6	2	1	5	0	6	13	0	0	0	1	0	2	0	5	0	4	
6	12	5	0	6	9	11	12	0	0	1	0	5	0	3	11	4	
5	5	0	6	9	11	0	0	0	1	0	5	0	3	11	4	
2	9	11	11	0	11	1	11	5	11	3	11	4	
3	14	7	2	7	0	7	1	7	5	7	3	7	4	
2	7	8	7	0	7	1	7	5	8	3	8	4	
4	2	1	5	3	3	0	3	1	3	5	3	3	3	4	
7	10	12	5	1	2	7	14	12	0	14	1	14	5	14	3	14	4	
3	0	6	9	0	0	0	1	0	2	0	1	0	0	
6	10	12	5	1	2	7	12	0	12	1	12	2	12	5	12	4	
7	4	1	5	0	6	9	11	0	0	0	1	0	2	0	1	11	0	
3	1	2	7	7	0	7	1	7	2	7	5	7	4	
2	1	4	1	0	1	1	1	2	1	3	1	4	
3	12	5	3	12	0	12	1	12	2	12	1	3	0	
5	5	0	5	1	4	0	0	0	1	0	2	0	5	0	4	
4	5	0	6	9	0	0	0	1	0	2	0	3	0	4	
7	4	1	5	0	6	9	11	0	0	0	1	0	2	0	5	11	4	
3	2	1	5	2	0	2	1	2	2	2	5	2	4	
5	13	6	0	5	1	0	0	0	1	0	2	0	3	0	4	
3	0	5	3	0	0	0	1	0	2	3	3	3	4	
9	3	5	1	2	7	0	6	13	12	7	0	7	1	7	5	7	3	7	4	
4	6	0	5	12	0	0	0	1	0	2	0	1	12	0	
5	3	5	1	2	7	7	0	7	1	7	2	7	3	7	4	
5	6	0	5	1	2	0	0	0	1	0	2	0	5	0	4	
4	7	0	6	13	0	0	0	1	0	2	0	1	0	0	
5	8	7	0	6	13	0	0	0	1	0	2	0	5	0	4	
7	14	7	2	1	5	12	10	14	0	14	1	14	2	14	5	12	4	
4	1	5	0	6	0	0	0	1	0	2	0	1	0	0	
4	9	6	0	5	0	0	0	1	0	2	0	3	0	4	
2	5	1	1	0	1	1	1	2	1	1	1	0	
6	13	6	0	5	1	4	0	0	0	1	0	2	0	3	0	4	
6	3	5	1	2	7	0	7	0	7	1	7	2	7	5	7	4	
5	1	5	0	6	9	0	0	0	1	0	5	0	3	0	4	
3	13	6	9	6	0	6	1	6	2	6	5	6	4	
3	8	7	2	7	0	7	1	7	5	7	3	7	4	
5	4	1	2	7	14	14	0	14	1	14	2	14	3	14	4	
7	10	12	5	1	2	7	14	12	0	14	1	14	2	14	1	14	0	
2	13	12	12	0	12	1	12	5	12	3	12	4	
2	0	7	7	0	7	1	7	2	7	5	7	4	
6	11	9	6	0	5	3	11	0	11	1	11	2	11	5	3	4	
3	4	1	2	2	0	2	1	2	2	2	5	2	4	
5	9	6	0	5	3	0	0	0	1	0	2	0	1	3	0	
2	12	13	12	0	12	1	12	2	12	1	12	0	
3	13	6	9	6	0	6	1	6	5	6	3	6	4	
4	0	5	12	10	0	0	0	1	0	2	0	1	12	0	
4	2	1	5	0	0	0	0	1	0	2	0	1	0	0	
5	10	12	5	1	4	12	0	12	1	12	2	12	3	12	4	
5	12	5	1	2	7	12	0	12	1	12	5	12	3	12	4	
6	8	7	2	1	5	12	12	0	12	1	12	2	12	5	12	4	
3	8	7	2	7	0	7	1	7	2	7	3	7	4	
3	7	0	6	0	0	0	1	0	2	0	5	0	4	
4	12	5	1	2	12	0	12	1	12	2	12	5	12	4	
3	2	1	5	2	0	2	1	2	2	2	3	2	4	
4	1	2	7	14	7	0	7	1	7	5	7	3	7	4	
6	14	7	2	1	5	3	14	0	14	1	14	5	14	3	3	4	
6	14	7	2	1	5	3	14	0	14	1	14	2	14	5	3	4	
3	10	12	5	12	0	12	1	12	2	12	1	12	0	
6	9	6	0	5	12	10	0	0	0	1	0	2	0	5	12	4	
2	5	3	3	0	3	1	3	2	3	5	3	4	
4	3	5	12	10	3	0	12	1	12	2	12	1	12	0	
5	5	1	2	7	14	7	0	7	1	7	2	7	3	7	4	
6	2	1	5	0	6	13	0	0	0	1	0	2	0	1	0	0	
7	8	7	2	1	5	12	10	12	0	12	1	12	2	12	3	12	4	
3	12	5	0	12	0	12	1	12	2	0	1	0	0	
3	7	2	1	7	0	7	1	7	2	7	3	7	4	
6	10	12	5	0	6	9	12	0	0	1	0	5	0	3	0	4	
6	9	6	0	5	12	10	0	0	0	1	0	2	0	3	12	4	
4	11	9	6	13	11	0	11	1	11	2	11	3	11	4	
2	1	2	2	0	2	1	2	5	2	3	2	4	
3	2	7	8	2	0	2	1	2	5	7	3	7	4	
4	14	7	0	6	7	0	7	1	7	2	7	5	7	4	
6	3	5	0	6	9	11	3	0	0	1	0	2	0	3	11	4	
4	0	6	9	11	6	0	6	1	6	2	6	5	6	4	
2	14	8	8	0	8	1	8	2	8	3	8	4	
3	6	0	5	0	0	0	1	0	2	0	5	0	4	
3	13	6	0	0	0	0	1	0	5	0	3	0	4	
3	2	7	14	7	0	7	1	7	2	7	3	7	4	
3	5	1	2	2	0	2	1	2	2	2	1	2	0	
7	14	7	2	1	5	12	10	14	0	14	1	14	5	14	3	12	4	
5	8	7	2	1	5	7	0	7	1	7	2	7	5	7	4	
6	9	6	0	5	1	2	0	0	0	1	0	2	0	3	0	4	
8	3	5	1	2	7	0	6	9	7	0	7	1	7	2	7	3	7	4	
6	1	5	0	6	9	11	0	0	0	1	0	2	0	5	11	4	
4	13	6	9	11	11	0	11	1	11	2	11	5	11	4	
3	13	6	9	6	0	6	1	6	2	6	1	6	0	
3	8	7	0	0	0	0	1	0	2	0	5	0	4	
4	0	5	1	4	0	0	0	1	0	2	0	1	0	0	
3	0	6	13	0	0	0	1	0	2	0	3	0	4	
5	5	1	2	7	14	7	0	7	1	7	2	7	1	7	0	
