4598.87	4030.45
1532
52951.6	38538.6
15
0	3221	3225
1	0	-1
2	0	-1
3	0	-1
4	0	-1
5	5564	5599
6	5155	5160
7	5704	5760
8	0	-1
9	0	-1
10	0	-1
11	0	-1
12	0	-1
13	0	-1
14	0	-1
44
0	5	100.859238	103.306469	1.000000
0	6	100.534244	106.316017	1.000000
0	7	96.205810	117.348780	1.000000
1	2	47.002538	115.342976	1.000000
1	4	37.572046	113.336330	1.000000
1	5	104.578312	115.342976	1.000000
2	1	46.768922	115.342976	1.000000
2	4	29.145610	106.316017	1.000000
2	7	95.059098	102.303568	1.000000
3	4	0.000000	99.294862	0.000000
3	5	65.972656	91.270805	1.000000
4	1	37.709466	113.336330	1.000000
4	2	28.543588	106.316017	1.000000
4	3	0.000000	99.294862	0.000000
5	0	100.539494	103.306469	1.000000
5	1	104.479018	115.342976	1.000000
5	3	66.643630	91.270805	1.000000
5	12	91.817138	92.273707	1.000000
6	0	95.335174	106.316017	1.000000
6	9	96.170834	97.289059	1.000000
6	13	108.867272	110.327625	1.000000
7	0	101.623628	117.348780	1.000000
7	2	94.394404	102.303568	1.000000
7	8	104.198132	109.324723	1.000000
7	14	66.407466	113.336330	1.000000
8	7	108.975368	109.324723	1.000000
8	9	46.681368	106.316017	1.000000
8	11	28.447118	90.267903	1.000000
8	14	0.000000	96.286157	0.000000
9	6	90.997304	97.289059	1.000000
9	8	46.736836	106.316017	1.000000
9	11	38.574106	112.333428	1.000000
10	12	29.371350	106.316017	1.000000
10	13	37.273128	101.300666	1.000000
11	8	33.932424	90.267903	1.000000
11	9	33.515812	112.333428	1.000000
12	5	91.156516	92.273707	1.000000
12	10	28.889268	106.316017	1.000000
12	13	43.181892	98.291960	1.000000
13	6	109.589402	110.327625	1.000000
13	10	38.248972	101.300666	1.000000
13	12	41.378164	98.291960	1.000000
14	7	66.393826	113.336330	1.000000
14	8	0.000000	96.286157	0.000000
840
4	10	12	5	3	5	0	5	1	5	5	5	3	5	4	
3	14	7	2	7	0	7	1	7	5	7	3	7	4	
3	3	5	0	0	0	0	1	0	5	0	3	0	4	
4	8	7	8	9	7	0	7	1	7	2	7	3	7	4	
4	14	7	2	4	7	0	7	1	7	5	7	3	7	4	
3	2	7	14	7	0	7	1	7	2	7	5	7	4	
4	9	6	13	12	6	0	6	1	6	5	6	3	6	4	
2	12	5	5	0	5	1	5	2	5	1	5	0	
3	2	7	8	7	0	7	1	7	2	7	5	7	4	
3	5	1	2	5	0	5	1	5	2	5	1	5	0	
5	13	12	5	1	4	5	0	5	1	5	2	5	3	5	4	
3	0	7	2	0	0	0	1	0	2	0	1	0	0	
4	4	1	5	12	5	0	5	1	5	5	5	3	5	4	
2	6	13	6	0	6	1	6	2	6	3	6	4	
3	8	7	0	7	0	7	1	7	2	7	5	7	4	
3	1	2	7	7	0	7	1	7	2	7	5	7	4	
3	8	9	6	6	0	6	1	6	2	6	5	6	4	
5	3	5	0	7	14	5	0	5	1	5	2	5	5	5	4	
2	8	7	7	0	7	1	7	5	7	3	7	4	
4	10	12	5	12	5	0	5	1	5	2	5	3	5	4	
4	3	5	0	7	5	0	5	1	5	2	5	3	5	4	
4	7	0	6	13	6	0	6	1	6	5	6	3	6	4	
4	14	7	2	1	7	0	7	1	7	5	7	3	7	4	
5	11	9	6	0	5	6	0	6	1	6	2	6	1	5	0	
4	1	5	1	2	5	0	5	1	5	2	5	3	5	4	
4	4	1	5	12	5	0	5	1	5	2	5	1	5	0	
3	7	2	1	7	0	7	1	7	5	7	3	7	4	
3	2	1	5	5	0	5	1	5	5	5	3	5	4	
2	9	6	6	0	6	1	6	5	6	3	6	4	
5	1	2	7	8	11	7	0	7	1	7	2	7	5	7	4	
4	11	9	6	0	6	0	6	1	6	2	6	1	6	0	
6	14	7	0	6	13	10	6	0	6	1	6	2	6	3	6	4	
4	4	1	5	1	5	0	5	1	5	2	5	1	5	0	
4	12	5	0	7	0	0	0	1	0	2	0	3	0	4	
2	5	0	5	0	5	1	5	2	5	3	5	4	
4	0	5	1	4	0	0	5	1	5	2	5	5	5	4	
4	11	9	6	9	6	0	6	1	6	2	6	1	6	0	
4	10	13	6	9	6	0	6	1	6	2	6	5	6	4	
4	9	8	7	8	7	0	7	1	7	5	7	3	7	4	
5	11	9	6	13	12	6	0	6	1	6	2	6	5	6	4	
3	7	0	6	0	0	0	1	0	2	0	5	0	4	
2	14	7	7	0	7	1	7	2	7	5	7	4	
4	13	6	9	11	6	0	6	1	6	5	6	3	6	4	
4	2	7	8	11	7	0	7	1	7	5	7	3	7	4	
3	6	13	10	6	0	6	1	6	5	6	3	6	4	
3	13	12	5	5	0	5	1	5	5	5	3	5	4	
3	0	5	1	5	0	5	1	5	2	5	3	5	4	
5	3	5	0	6	9	6	0	6	1	6	2	6	1	6	0	
4	3	5	12	10	5	0	5	1	5	2	5	5	5	4	
3	1	5	0	0	0	0	1	0	5	0	3	0	4	
3	7	0	5	0	0	0	1	0	2	0	3	0	4	
5	5	0	6	9	11	6	0	6	1	6	5	6	3	6	4	
3	0	7	8	7	0	7	1	7	2	7	5	7	4	
3	0	7	14	0	0	0	1	0	2	7	5	7	4	
4	3	5	1	4	5	0	5	1	5	2	5	1	5	0	
4	11	8	7	2	7	0	7	1	7	2	7	3	7	4	
3	14	7	8	7	0	7	1	7	2	7	1	7	0	
4	4	1	5	3	5	0	5	1	5	2	5	3	5	4	
4	2	7	2	4	7	0	7	1	7	2	7	3	7	4	
3	10	13	6	6	0	6	1	6	2	6	1	6	0	
3	13	6	0	6	0	6	1	6	2	6	5	6	4	
4	0	6	13	10	0	0	0	1	0	2	0	5	6	4	
4	6	0	5	1	0	0	0	1	0	2	5	5	5	4	
3	9	8	7	7	0	7	1	7	5	7	3	7	4	
5	8	9	6	13	10	6	0	6	1	6	2	6	3	6	4	
5	12	13	6	9	8	6	0	6	1	6	5	6	3	6	4	
4	14	7	0	5	0	0	0	1	0	2	0	1	0	0	
3	5	0	7	0	0	0	1	0	5	0	3	0	4	
3	12	13	6	6	0	6	1	6	5	6	3	6	4	
2	6	0	0	0	0	1	0	2	0	5	0	4	
2	5	1	5	0	5	1	5	5	5	3	5	4	
4	10	13	6	13	6	0	6	1	6	2	6	5	6	4	
4	13	12	5	3	5	0	5	1	5	2	5	3	5	4	
4	11	8	7	8	7	0	7	1	7	2	7	5	7	4	
4	6	0	7	2	6	0	6	1	6	2	6	3	6	4	
4	4	2	7	8	7	0	7	1	7	5	7	3	7	4	
4	9	6	13	10	6	0	6	1	6	2	6	1	6	0	
4	13	6	13	12	6	0	6	1	6	2	6	5	6	4	
4	10	13	6	13	6	0	6	1	6	2	6	3	6	4	
4	3	5	0	6	0	0	6	1	6	2	6	3	6	4	
5	7	0	6	13	10	0	0	0	1	0	2	0	1	0	0	
5	9	6	0	5	3	0	0	0	1	0	2	0	1	0	0	
3	12	5	3	5	0	5	1	5	2	5	5	5	4	
2	5	12	5	0	5	1	5	2	5	5	5	4	
3	7	8	9	7	0	7	1	7	5	7	3	7	4	
4	11	9	6	13	6	0	6	1	6	5	6	3	6	4	
3	0	6	13	0	0	6	1	6	5	6	3	6	4	
5	8	9	6	13	12	6	0	6	1	6	2	6	1	6	0	
4	14	7	8	11	7	0	7	1	7	2	7	3	7	4	
4	4	2	7	2	7	0	7	1	7	5	7	3	7	4	
3	12	5	0	0	0	0	1	0	2	0	3	0	4	
2	2	7	7	0	7	1	7	2	7	1	7	0	
5	14	7	0	6	13	0	0	0	1	0	2	6	5	6	4	
4	13	12	5	1	5	0	5	1	5	2	5	1	5	0	
2	6	0	0	0	0	1	0	2	0	1	0	0	
5	14	7	0	5	3	0	0	0	1	0	5	0	3	5	4	
3	14	7	2	7	0	7	1	7	2	7	5	7	4	
4	8	9	6	9	6	0	6	1	6	2	6	1	6	0	
3	6	13	12	6	0	6	1	6	2	6	5	6	4	
3	2	7	14	7	0	7	1	7	2	7	1	7	0	
4	10	12	5	1	5	0	5	1	5	2	5	5	5	4	
4	3	5	12	10	5	0	5	1	5	5	5	3	5	4	
4	9	8	7	8	7	0	7	1	7	2	7	3	7	4	
2	3	5	5	0	5	1	5	2	5	5	5	4	
3	5	1	2	5	0	5	1	5	2	5	5	5	4	
5	13	12	5	1	4	5	0	5	1	5	2	5	1	5	0	
3	0	7	2	7	0	7	1	7	2	7	3	7	4	
2	6	13	6	0	6	1	6	2	6	1	6	0	
3	8	7	0	7	0	7	1	7	2	7	1	7	0	
3	11	9	6	6	0	6	1	6	2	6	5	6	4	
3	1	2	7	7	0	7	1	7	2	7	1	7	0	
3	7	2	4	7	0	7	1	7	2	7	3	7	4	
4	3	5	1	2	5	0	5	1	5	2	5	5	5	4	
5	10	12	5	1	2	5	0	5	1	5	5	5	3	5	4	
3	3	5	1	5	0	5	1	5	5	5	3	5	4	
4	10	12	5	12	5	0	5	1	5	5	5	3	5	4	
3	13	6	9	6	0	6	1	6	5	6	3	6	4	
4	7	0	6	13	0	0	0	1	0	2	0	5	0	4	
5	11	9	6	0	5	6	0	6	1	6	2	6	3	6	4	
4	1	5	1	2	5	0	5	1	5	2	5	1	5	0	
4	4	1	5	12	5	0	5	1	5	2	5	3	5	4	
4	12	5	1	2	5	0	5	1	5	2	5	1	5	0	
3	2	1	5	5	0	5	1	5	2	5	3	5	4	
3	5	12	13	5	0	5	1	5	2	5	1	5	0	
4	5	0	7	14	7	0	7	1	7	5	7	3	7	4	
5	11	9	6	13	10	6	0	6	1	6	2	6	5	6	4	
3	13	6	9	6	0	6	1	6	2	6	5	6	4	
5	1	2	7	8	11	7	0	7	1	7	2	7	1	7	0	
4	8	7	8	11	7	0	7	1	7	2	7	3	7	4	
4	4	1	5	1	5	0	5	1	5	2	5	5	5	4	
4	14	7	8	9	7	0	7	1	7	2	7	5	7	4	
4	12	5	0	7	0	0	0	1	0	2	0	1	0	0	
2	5	0	0	0	0	1	0	2	0	1	0	0	
5	13	6	0	7	2	0	0	0	1	0	2	0	3	0	4	
4	0	7	2	4	0	0	0	1	0	2	0	1	0	0	
3	7	8	11	7	0	7	1	7	5	7	3	7	4	
4	6	0	5	3	0	0	0	1	0	2	0	3	0	4	
4	11	9	6	9	6	0	6	1	6	2	6	3	6	4	
3	10	12	5	5	0	5	1	5	2	5	5	5	4	
3	7	0	6	0	0	0	1	0	5	0	3	0	4	
5	12	5	0	7	14	7	0	7	1	7	2	7	1	7	0	
2	14	7	7	0	7	1	7	5	7	3	7	4	
4	13	6	9	11	6	0	6	1	6	2	6	5	6	4	
3	6	13	10	6	0	6	1	6	2	6	5	6	4	
3	13	12	5	5	0	5	1	5	2	5	5	5	4	
3	0	5	1	0	0	0	1	0	2	0	1	0	0	
5	3	5	0	6	9	0	0	0	1	0	2	0	3	0	4	
3	11	8	7	7	0	7	1	7	2	7	1	7	0	
3	1	5	0	0	0	0	1	0	2	0	3	0	4	
4	4	2	7	14	7	0	7	1	7	2	7	1	7	0	
5	5	0	6	9	11	0	0	0	1	0	2	0	5	0	4	
5	13	6	0	7	14	7	0	7	1	7	2	7	3	7	4	
3	0	7	8	0	0	0	1	0	2	0	1	0	0	
4	3	5	1	4	5	0	5	1	5	2	5	5	5	4	
4	11	8	7	2	7	0	7	1	7	2	7	1	7	0	
3	14	7	8	7	0	7	1	7	2	7	3	7	4	
5	2	1	5	12	10	5	0	5	1	5	5	5	3	5	4	
4	4	1	5	3	5	0	5	1	5	2	5	1	5	0	
3	12	5	1	5	0	5	1	5	2	5	3	5	4	
4	2	7	2	4	7	0	7	1	7	5	7	3	7	4	
4	5	0	7	14	7	0	7	1	7	2	7	3	7	4	
3	10	13	6	6	0	6	1	6	2	6	3	6	4	
3	13	6	0	0	0	0	1	0	5	0	3	0	4	
4	6	0	5	1	0	0	0	1	0	5	0	3	0	4	
4	8	7	2	4	7	0	7	1	7	5	7	3	7	4	
4	14	7	0	5	7	0	7	1	7	2	7	5	7	4	
5	8	9	6	13	10	6	0	6	1	6	5	6	3	6	4	
5	12	13	6	9	8	6	0	6	1	6	2	6	5	6	4	
3	5	0	7	7	0	7	1	7	2	7	5	7	4	
3	12	13	6	6	0	6	1	6	2	6	5	6	4	
2	5	1	5	0	5	1	5	2	5	5	5	4	
5	10	13	6	9	8	6	0	6	1	6	2	6	1	6	0	
3	0	5	3	0	0	0	1	0	2	0	3	0	4	
6	3	5	0	6	9	11	6	0	6	1	6	2	6	1	6	0	
4	4	2	7	8	7	0	7	1	7	2	7	5	7	4	
4	12	13	6	13	6	0	6	1	6	2	6	3	6	4	
2	7	8	7	0	7	1	7	5	7	3	7	4	
4	2	1	5	1	5	0	5	1	5	2	5	5	5	4	
4	9	6	13	10	6	0	6	1	6	2	6	5	6	4	
4	13	6	13	12	6	0	6	1	6	5	6	3	6	4	
4	10	13	6	13	6	0	6	1	6	2	6	1	6	0	
4	3	5	0	6	0	0	0	1	0	2	0	1	0	0	
4	9	6	13	12	6	0	6	1	6	2	6	5	6	4	
5	11	8	7	2	4	7	0	7	1	7	2	7	3	7	4	
4	8	7	8	11	7	0	7	1	7	5	7	3	7	4	
5	4	1	5	12	13	5	0	5	1	5	2	5	3	5	4	
5	9	6	0	5	3	0	0	0	1	0	2	0	3	0	4	
3	12	5	3	5	0	5	1	5	5	5	3	5	4	
2	5	12	5	0	5	1	5	5	5	3	5	4	
5	10	12	5	1	4	5	0	5	1	5	2	5	1	5	0	
4	1	5	12	13	5	0	5	1	5	2	5	5	5	4	
4	11	9	6	13	6	0	6	1	6	2	6	5	6	4	
5	8	7	0	5	12	0	0	0	1	0	2	0	3	0	4	
4	14	7	8	11	7	0	7	1	7	2	7	1	7	0	
5	2	7	0	6	13	7	0	7	1	0	2	0	5	6	4	
4	4	2	7	2	7	0	7	1	7	2	7	5	7	4	
3	9	6	13	6	0	6	1	6	2	6	1	6	0	
2	2	7	7	0	7	1	7	2	7	5	7	4	
4	13	12	5	1	5	0	5	1	5	2	5	3	5	4	
2	6	0	0	0	0	1	0	2	0	3	0	4	
4	11	8	7	8	7	0	7	1	7	2	7	3	7	4	
3	14	7	2	7	0	7	1	7	2	7	1	7	0	
4	6	0	7	2	0	0	0	1	0	5	0	3	0	4	
4	1	5	1	4	5	0	5	1	5	2	5	5	5	4	
3	7	2	1	7	0	7	1	7	2	7	1	7	0	
3	2	7	14	7	0	7	1	7	2	7	3	7	4	
4	9	8	7	8	7	0	7	1	7	2	7	1	7	0	
3	0	5	12	0	0	0	1	0	5	0	3	0	4	
3	5	1	2	5	0	5	1	5	5	5	3	5	4	
5	10	13	6	9	11	6	0	6	1	6	2	6	3	6	4	
3	0	7	2	0	0	0	1	0	5	0	3	0	4	
5	3	5	0	7	8	0	0	0	1	0	2	0	3	0	4	
3	8	7	0	7	0	7	1	7	2	7	3	7	4	
3	11	9	6	6	0	6	1	6	5	6	3	6	4	
3	3	5	12	5	0	5	1	5	5	5	3	5	4	
3	1	2	7	7	0	7	1	7	2	7	3	7	4	
3	7	2	4	7	0	7	1	7	2	7	1	7	0	
5	9	8	7	2	1	7	0	7	1	7	2	7	1	7	0	
3	2	7	0	0	0	0	1	0	2	0	1	0	0	
2	12	5	5	0	5	1	5	5	5	3	5	4	
5	10	12	5	1	2	5	0	5	1	5	2	5	5	5	4	
4	9	8	7	8	7	0	7	1	7	2	7	5	7	4	
4	10	12	5	12	5	0	5	1	5	2	5	5	5	4	
4	1	2	7	8	7	0	7	1	7	2	7	5	7	4	
4	3	5	0	7	0	0	0	1	0	2	0	5	0	4	
4	7	0	6	13	0	0	0	1	0	2	0	1	0	0	
3	8	7	14	7	0	7	1	7	2	7	1	7	0	
4	14	7	8	9	7	0	7	1	7	2	7	3	7	4	
5	1	2	7	8	9	7	0	7	1	7	2	7	5	7	4	
4	12	5	1	2	5	0	5	1	5	2	5	3	5	4	
3	2	1	5	5	0	5	1	5	2	5	1	5	0	
3	5	12	13	5	0	5	1	5	2	5	3	5	4	
5	10	13	6	0	7	0	0	0	1	0	2	0	3	0	4	
2	0	7	7	0	7	1	7	2	7	5	7	4	
5	11	9	6	13	10	6	0	6	1	6	5	6	3	6	4	
5	1	2	7	8	11	7	0	7	1	7	2	7	3	7	4	
4	8	7	8	11	7	0	7	1	7	2	7	1	7	0	
4	2	1	5	12	5	0	5	1	5	2	5	1	5	0	
4	4	1	5	1	5	0	5	1	5	5	5	3	5	4	
4	9	8	7	14	7	0	7	1	7	2	7	3	7	4	
5	9	8	7	2	4	7	0	7	1	7	5	7	3	7	4	
5	13	6	0	7	2	0	0	0	1	0	2	0	1	0	0	
4	0	5	1	4	0	0	0	1	0	2	0	3	5	4	
4	6	0	5	3	0	0	0	1	0	2	0	1	0	0	
3	8	7	2	7	0	7	1	7	2	7	1	7	0	
2	1	5	5	0	5	1	5	2	5	1	5	0	
3	7	0	6	0	0	0	1	0	2	0	3	0	4	
5	12	5	0	7	14	0	0	0	1	0	2	0	3	0	4	
4	13	6	9	11	6	0	6	1	6	2	6	1	6	0	
4	0	6	9	11	6	0	6	1	6	2	6	5	6	4	
3	6	13	10	6	0	6	1	6	2	6	1	6	0	
3	0	5	1	0	0	0	1	0	2	0	5	0	4	
2	7	0	7	0	7	1	7	2	7	5	7	4	
3	11	8	7	7	0	7	1	7	2	7	3	7	4	
3	1	5	0	0	0	0	1	0	2	0	1	0	0	
4	4	2	7	14	7	0	7	1	7	2	7	3	7	4	
4	9	8	7	2	7	0	7	1	7	2	7	3	7	4	
5	9	8	7	2	4	7	0	7	1	7	2	7	5	7	4	
4	2	1	5	3	5	0	5	1	5	2	5	3	5	4	
5	8	7	0	5	3	0	0	0	1	0	5	0	3	5	4	
5	5	0	6	9	11	6	0	6	1	6	2	6	1	6	0	
5	13	6	0	7	14	0	0	0	1	0	2	0	1	7	0	
3	0	7	8	7	0	7	1	7	2	7	3	7	4	
4	2	1	5	12	5	0	5	1	5	5	5	3	5	4	
5	1	2	7	8	9	7	0	7	1	7	2	7	1	7	0	
3	6	0	7	6	0	6	1	6	5	6	3	6	4	
4	8	9	6	13	6	0	6	1	6	2	6	3	6	4	
3	14	7	8	7	0	7	1	7	5	7	3	7	4	
5	2	1	5	12	10	5	0	5	1	5	2	5	5	5	4	
3	12	5	1	5	0	5	1	5	2	5	1	5	0	
4	2	7	2	4	7	0	7	1	7	2	7	5	7	4	
4	5	0	7	14	0	0	0	1	0	2	0	1	0	0	
3	13	6	0	6	0	6	1	6	2	6	3	6	4	
2	0	6	6	0	6	1	6	2	6	1	6	0	
6	11	8	7	0	5	3	0	0	0	1	0	2	0	5	5	4	
4	6	0	5	1	6	0	6	1	6	2	6	3	6	4	
4	8	7	2	4	7	0	7	1	7	2	7	5	7	4	
4	8	7	8	9	7	0	7	1	7	5	7	3	7	4	
5	8	9	6	13	10	6	0	6	1	6	2	6	5	6	4	
5	12	13	6	9	8	6	0	6	1	6	2	6	1	6	0	
3	5	0	7	0	0	0	1	0	2	0	1	0	0	
5	10	13	6	9	8	6	0	6	1	6	2	6	3	6	4	
3	0	5	3	0	0	0	1	0	2	0	1	0	0	
6	3	5	0	6	9	11	6	0	6	1	6	2	6	3	6	4	
4	8	7	2	1	7	0	7	1	7	2	7	3	7	4	
4	12	5	12	10	5	0	5	1	5	2	5	5	5	4	
4	1	5	0	6	0	0	0	1	0	2	0	3	0	4	
2	6	9	6	0	6	1	6	5	6	3	6	4	
4	4	2	7	8	7	0	7	1	7	2	7	1	7	0	
4	12	13	6	13	6	0	6	1	6	2	6	1	6	0	
4	2	1	5	1	5	0	5	1	5	5	5	3	5	4	
4	9	6	13	10	6	0	6	1	6	5	6	3	6	4	
4	13	6	13	12	6	0	6	1	6	2	6	3	6	4	
4	0	6	13	10	0	0	0	1	0	2	0	1	6	0	
5	13	6	0	7	2	0	0	0	1	0	5	0	3	0	4	
3	6	13	12	6	0	6	1	6	5	6	3	6	4	
5	11	8	7	2	4	7	0	7	1	7	2	7	1	7	0	
6	4	1	5	0	6	13	5	0	5	1	0	2	0	1	6	0	
3	12	5	3	5	0	5	1	5	2	5	3	5	4	
2	5	12	5	0	5	1	5	2	5	3	5	4	
5	10	12	5	1	4	5	0	5	1	5	2	5	3	5	4	
4	6	0	5	3	0	0	0	1	0	5	0	3	0	4	
4	11	9	6	13	6	0	6	1	6	2	6	1	6	0	
4	1	5	12	10	5	0	5	1	5	2	5	3	5	4	
2	7	2	7	0	7	1	7	2	7	5	7	4	
4	14	7	8	11	7	0	7	1	7	2	7	5	7	4	
5	2	7	0	6	13	7	0	7	1	0	5	0	3	6	4	
3	9	6	13	6	0	6	1	6	2	6	3	6	4	
4	13	6	0	7	0	0	0	1	0	5	0	3	0	4	
2	2	7	7	0	7	1	7	5	7	3	7	4	
4	7	0	5	12	0	0	0	1	0	5	0	3	0	4	
4	6	0	7	14	0	0	7	1	7	5	7	3	7	4	
4	8	7	0	5	0	0	0	1	0	5	0	3	0	4	
4	13	12	5	1	5	0	5	1	5	5	5	3	5	4	
2	0	5	0	0	0	1	0	2	0	3	0	4	
4	3	5	12	13	5	0	5	1	5	2	5	1	5	0	
4	11	8	7	8	7	0	7	1	7	2	7	1	7	0	
3	14	7	2	7	0	7	1	7	2	7	3	7	4	
4	1	5	1	4	5	0	5	1	5	5	5	3	5	4	
3	7	2	1	7	0	7	1	7	2	7	3	7	4	
2	7	0	0	0	0	1	0	5	0	3	0	4	
3	0	5	12	0	0	0	1	0	2	0	5	0	4	
3	7	8	11	7	0	7	1	7	2	7	5	7	4	
5	12	5	0	7	14	0	0	0	1	0	2	0	5	0	4	
5	10	13	6	9	11	6	0	6	1	6	2	6	1	6	0	
3	0	7	2	7	0	7	1	7	2	7	5	7	4	
5	3	5	0	7	8	5	0	0	1	0	2	0	1	0	0	
2	7	14	7	0	7	1	7	2	7	5	7	4	
3	11	9	6	6	0	6	1	6	2	6	3	6	4	
5	14	7	0	5	12	5	0	5	1	5	2	5	1	5	0	
3	7	2	4	7	0	7	1	7	2	7	5	7	4	
5	9	6	0	5	1	6	0	6	1	6	2	6	3	6	4	
2	13	6	6	0	6	1	6	5	6	3	6	4	
3	2	7	0	7	0	7	1	7	2	7	3	7	4	
4	4	1	5	12	5	0	5	1	5	2	5	5	5	4	
5	10	12	5	1	2	5	0	5	1	5	2	5	1	5	0	
3	6	9	8	6	0	6	1	6	5	6	3	6	4	
3	0	6	9	6	0	6	1	6	2	6	3	6	4	
3	3	5	1	5	0	5	1	5	2	5	1	5	0	
3	6	0	5	6	0	6	1	6	2	6	5	6	4	
3	7	0	5	5	0	5	1	5	5	5	3	5	4	
4	7	0	6	13	6	0	6	1	6	2	6	3	6	4	
3	8	7	14	7	0	7	1	7	2	7	3	7	4	
4	12	5	1	4	5	0	5	1	5	5	5	3	5	4	
4	14	7	8	9	7	0	7	1	7	2	7	1	7	0	
2	5	3	5	0	5	1	5	5	5	3	5	4	
4	12	5	1	2	5	0	5	1	5	5	5	3	5	4	
3	5	12	13	5	0	5	1	5	5	5	3	5	4	
5	10	13	6	0	7	6	0	6	1	6	2	6	1	6	0	
2	0	7	0	0	0	1	0	5	0	3	0	4	
5	11	9	6	13	10	6	0	6	1	6	2	6	3	6	4	
3	14	7	0	0	0	0	1	0	2	0	1	0	0	
4	7	0	5	3	5	0	5	1	5	2	5	1	5	0	
4	2	1	5	12	5	0	5	1	5	2	5	3	5	4	
4	8	7	2	1	7	0	7	1	7	5	7	3	7	4	
4	9	8	7	14	7	0	7	1	7	2	7	1	7	0	
4	13	6	9	8	6	0	6	1	6	2	6	5	6	4	
2	5	0	5	0	5	1	5	5	5	3	5	4	
2	6	9	6	0	6	1	6	2	6	5	6	4	
4	10	13	6	9	6	0	6	1	6	2	6	3	6	4	
4	3	5	12	10	5	0	5	1	5	2	5	3	5	4	
3	8	7	2	7	0	7	1	7	2	7	3	7	4	
2	1	5	5	0	5	1	5	2	5	3	5	4	
3	7	0	6	6	0	6	1	6	2	6	1	6	0	
3	9	8	7	7	0	7	1	7	2	7	1	7	0	
4	1	5	0	6	6	0	6	1	6	5	6	3	6	4	
4	5	0	7	8	5	0	5	1	5	2	5	5	5	4	
4	13	6	9	11	6	0	6	1	6	2	6	3	6	4	
4	0	6	9	11	6	0	6	1	6	5	6	3	6	4	
3	6	13	10	6	0	6	1	6	2	6	3	6	4	
5	11	8	7	2	1	7	0	7	1	7	5	7	3	7	4	
3	6	9	8	6	0	6	1	6	2	6	5	6	4	
4	4	1	5	0	0	0	0	1	0	5	0	3	0	4	
4	13	6	13	10	6	0	6	1	6	5	6	3	6	4	
3	11	8	7	7	0	7	1	7	5	7	3	7	4	
4	4	2	7	14	7	0	7	1	7	5	7	3	7	4	
4	9	8	7	2	7	0	7	1	7	2	7	1	7	0	
4	2	1	5	3	5	0	5	1	5	2	5	1	5	0	
5	5	0	6	9	11	0	0	0	1	0	2	0	3	0	4	
3	10	12	5	5	0	5	1	5	2	5	3	5	4	
5	6	0	5	1	4	0	0	0	1	0	2	0	1	0	0	
5	1	2	7	8	9	7	0	7	1	7	2	7	3	7	4	
3	6	9	11	6	0	6	1	6	5	6	3	6	4	
4	8	9	6	13	6	0	6	1	6	2	6	1	6	0	
5	12	13	6	9	11	6	0	6	1	6	2	6	5	6	4	
3	14	7	8	7	0	7	1	7	2	7	5	7	4	
5	2	1	5	12	10	5	0	5	1	5	2	5	1	5	0	
3	5	1	4	5	0	5	1	5	2	5	5	5	4	
4	9	6	13	12	6	0	6	1	6	2	6	3	6	4	
4	1	2	7	8	7	0	7	1	7	5	7	3	7	4	
4	5	0	7	14	0	0	0	1	0	2	0	5	0	4	
3	13	6	0	6	0	6	1	6	2	6	1	6	0	
2	0	6	6	0	6	1	6	2	6	3	6	4	
4	6	0	5	1	6	0	6	1	6	2	6	1	6	0	
4	8	7	2	4	7	0	7	1	7	2	7	1	7	0	
5	14	7	0	5	3	0	0	0	1	0	2	0	3	5	4	
2	7	0	7	0	7	1	7	2	7	3	7	4	
5	12	13	6	9	8	6	0	6	1	6	2	6	3	6	4	
4	1	5	12	13	5	0	5	1	5	5	5	3	5	4	
3	5	0	7	5	0	5	1	5	2	5	3	5	4	
3	13	6	9	6	0	6	1	6	2	6	1	6	0	
3	6	9	8	6	0	6	1	6	2	6	1	6	0	
4	3	5	12	13	5	0	5	1	5	2	5	5	5	4	
6	3	5	0	6	9	11	6	0	6	1	6	5	6	3	6	4	
4	8	7	2	1	7	0	7	1	7	2	7	1	7	0	
4	1	5	1	2	5	0	5	1	5	5	5	3	5	4	
4	1	5	0	6	0	0	6	1	6	2	6	1	6	0	
4	4	2	7	8	7	0	7	1	7	2	7	3	7	4	
3	9	6	0	0	0	0	1	0	2	0	3	0	4	
4	2	1	5	1	5	0	5	1	5	2	5	3	5	4	
4	5	0	6	9	6	0	6	1	6	2	6	1	6	0	
4	13	6	13	12	6	0	6	1	6	2	6	1	6	0	
4	0	6	13	10	6	0	6	1	6	2	6	3	6	4	
5	13	6	0	7	14	0	0	0	1	0	5	0	3	7	4	
4	11	8	7	14	7	0	7	1	7	2	7	5	7	4	
4	7	0	5	12	0	0	0	1	0	2	0	3	0	4	
5	11	8	7	2	4	7	0	7	1	7	2	7	5	7	4	
5	4	1	5	12	13	5	0	5	1	5	2	5	5	5	4	
3	12	5	3	5	0	5	1	5	2	5	1	5	0	
2	5	12	5	0	5	1	5	2	5	1	5	0	
5	10	12	5	1	4	5	0	5	1	5	5	5	3	5	4	
4	7	0	5	12	0	0	0	1	0	2	0	5	5	4	
3	6	0	7	6	0	6	1	6	2	6	3	6	4	
4	11	9	6	13	6	0	6	1	6	2	6	3	6	4	
4	1	5	12	10	5	0	5	1	5	2	5	1	5	0	
2	7	2	7	0	7	1	7	5	7	3	7	4	
4	12	5	12	10	5	0	5	1	5	2	5	1	5	0	
4	14	7	8	11	7	0	7	1	7	5	7	3	7	4	
5	2	7	0	6	13	6	0	6	1	6	2	6	3	6	4	
3	9	6	13	6	0	6	1	6	5	6	3	6	4	
4	13	6	0	7	6	0	6	1	6	2	6	5	6	4	
4	6	0	7	14	0	0	7	1	7	2	7	5	7	4	
4	13	12	5	1	5	0	5	1	5	2	5	5	5	4	
2	0	5	0	0	0	1	0	2	0	1	0	0	
4	3	5	12	13	5	0	5	1	5	2	5	3	5	4	
5	8	7	0	5	3	0	0	0	1	0	2	0	3	5	4	
5	1	2	7	8	9	7	0	7	1	7	5	7	3	7	4	
4	1	5	1	4	5	0	5	1	5	2	5	3	5	4	
5	4	1	5	12	10	5	0	5	1	5	2	5	1	5	0	
4	13	6	13	10	6	0	6	1	6	2	6	3	6	4	
3	0	5	12	0	0	0	1	0	2	0	1	0	0	
3	6	9	11	6	0	6	1	6	2	6	3	6	4	
4	1	2	7	14	7	0	7	1	7	5	7	3	7	4	
5	10	13	6	9	11	6	0	6	1	6	2	6	5	6	4	
5	3	5	0	7	8	5	0	0	1	0	2	0	5	0	4	
2	7	14	7	0	7	1	7	5	7	3	7	4	
3	11	9	6	6	0	6	1	6	2	6	1	6	0	
5	14	7	0	5	12	0	0	0	1	0	2	0	3	0	4	
4	2	7	0	6	0	0	0	1	0	5	0	3	0	4	
3	7	2	4	7	0	7	1	7	5	7	3	7	4	
5	9	8	7	2	1	7	0	7	1	7	5	7	3	7	4	
3	2	7	0	0	0	0	1	0	5	0	3	0	4	
3	5	12	10	5	0	5	1	5	2	5	3	5	4	
5	10	12	5	1	2	5	0	5	1	5	2	5	3	5	4	
3	0	6	9	0	0	0	1	0	2	0	1	0	0	
3	3	5	1	5	0	5	1	5	2	5	3	5	4	
3	6	0	5	0	0	0	1	0	5	0	3	0	4	
4	1	2	7	8	7	0	7	1	7	2	7	3	7	4	
5	4	1	5	0	6	0	0	0	1	0	2	0	1	0	0	
3	8	7	14	7	0	7	1	7	5	7	3	7	4	
4	12	5	1	4	5	0	5	1	5	2	5	5	5	4	
3	5	1	4	5	0	5	1	5	5	5	3	5	4	
2	5	3	5	0	5	1	5	2	5	5	5	4	
4	12	5	1	2	5	0	5	1	5	2	5	5	5	4	
3	5	12	13	5	0	5	1	5	2	5	5	5	4	
5	10	13	6	0	7	0	0	0	1	0	2	0	5	0	4	
3	12	5	1	5	0	5	1	5	5	5	3	5	4	
2	0	7	7	0	7	1	7	2	7	3	7	4	
5	11	9	6	13	10	6	0	6	1	6	2	6	1	6	0	
3	14	7	0	7	0	7	1	7	2	7	3	7	4	
4	7	0	5	3	0	0	0	1	0	2	0	3	5	4	
4	12	13	6	9	6	0	6	1	6	2	6	3	6	4	
3	9	6	0	6	0	6	1	6	2	6	5	0	4	
3	5	0	6	6	0	6	1	6	2	6	3	6	4	
4	9	8	7	14	7	0	7	1	7	2	7	5	7	4	
4	13	6	9	8	6	0	6	1	6	5	6	3	6	4	
3	6	0	7	6	0	6	1	6	2	6	5	7	4	
4	10	13	6	9	6	0	6	1	6	2	6	1	6	0	
3	1	5	3	5	0	5	1	5	5	5	3	5	4	
4	3	5	12	10	5	0	5	1	5	2	5	1	5	0	
3	8	7	2	7	0	7	1	7	5	7	3	7	4	
2	1	5	5	0	5	1	5	5	5	3	5	4	
5	4	2	7	8	9	7	0	7	1	7	2	7	3	7	4	
3	9	8	7	7	0	7	1	7	2	7	3	7	4	
4	9	6	9	11	6	0	6	1	6	5	6	3	6	4	
4	1	5	12	10	5	0	5	1	5	5	5	3	5	4	
4	5	0	7	8	0	0	0	1	0	5	0	3	0	4	
4	10	13	6	0	0	0	0	1	0	2	0	1	0	0	
4	0	6	9	11	0	0	0	1	0	2	0	3	0	4	
4	8	7	8	9	7	0	7	1	7	2	7	5	7	4	
5	11	8	7	2	1	7	0	7	1	7	2	7	5	7	4	
4	4	1	5	0	0	0	0	1	0	2	0	5	0	4	
4	10	13	6	13	6	0	6	1	6	5	6	3	6	4	
3	11	8	7	7	0	7	1	7	2	7	5	7	4	
4	2	7	8	9	7	0	7	1	7	2	7	5	7	4	
4	4	2	7	14	7	0	7	1	7	2	7	5	7	4	
4	9	8	7	2	7	0	7	1	7	2	7	5	7	4	
4	2	1	5	3	5	0	5	1	5	2	5	5	5	4	
3	10	12	5	5	0	5	1	5	2	5	1	5	0	
4	12	5	12	10	5	0	5	1	5	5	5	3	5	4	
5	6	0	5	1	4	6	0	6	1	6	2	6	3	6	4	
5	11	9	6	13	12	6	0	6	1	6	2	6	3	6	4	
5	4	2	7	8	11	7	0	7	1	7	2	7	5	7	4	
4	14	7	0	6	0	0	0	1	0	2	0	1	6	0	
3	4	1	5	5	0	5	1	5	2	5	3	5	4	
4	8	9	6	13	6	0	6	1	6	2	6	5	6	4	
5	12	13	6	9	11	6	0	6	1	6	5	6	3	6	4	
5	2	1	5	12	10	5	0	5	1	5	2	5	3	5	4	
5	13	6	0	7	2	6	0	6	1	6	2	6	5	0	4	
4	9	6	13	12	6	0	6	1	6	2	6	1	6	0	
5	3	5	0	6	9	0	0	0	1	0	2	6	5	6	4	
2	0	6	0	0	0	1	0	5	0	3	0	4	
3	3	5	12	5	0	5	1	5	2	5	3	5	4	
4	8	7	2	4	7	0	7	1	7	2	7	3	7	4	
5	14	7	0	5	3	0	0	0	1	0	2	0	1	0	0	
3	7	2	1	7	0	7	1	7	2	7	5	7	4	
2	7	0	7	0	7	1	7	2	7	1	7	0	
4	9	6	0	5	0	0	0	1	0	2	0	1	0	0	
5	4	2	7	8	11	7	0	7	1	7	5	7	3	7	4	
4	6	0	5	3	0	0	0	1	0	2	0	5	0	4	
3	13	6	9	6	0	6	1	6	2	6	3	6	4	
3	6	9	8	6	0	6	1	6	2	6	3	6	4	
5	10	13	6	9	8	6	0	6	1	6	2	6	5	6	4	
3	1	5	12	5	0	5	1	5	2	5	5	5	4	
6	3	5	0	6	9	11	6	0	6	1	6	2	6	5	6	4	
3	7	8	9	7	0	7	1	7	2	7	1	7	0	
5	14	7	0	6	13	0	0	0	1	0	2	6	3	6	4	
3	9	6	0	0	0	0	1	0	2	0	1	0	0	
4	8	7	0	5	0	0	0	1	0	2	0	5	0	4	
3	0	5	3	0	0	0	1	0	5	0	3	0	4	
4	2	1	5	1	5	0	5	1	5	2	5	1	5	0	
4	8	7	8	11	7	0	7	1	7	2	7	5	7	4	
4	5	0	6	9	6	0	6	1	6	2	6	3	6	4	
4	10	12	5	3	5	0	5	1	5	2	5	3	5	4	
4	0	6	13	10	6	0	6	1	6	5	6	3	6	4	
3	3	5	0	0	0	0	1	0	2	0	3	0	4	
4	11	8	7	14	7	0	7	1	7	5	7	3	7	4	
4	7	0	5	12	0	0	5	1	5	2	5	1	5	0	
5	11	8	7	2	4	7	0	7	1	7	5	7	3	7	4	
3	2	7	8	7	0	7	1	7	2	7	1	7	0	
6	10	13	6	0	7	14	6	0	0	1	0	2	0	5	0	4	
5	12	5	0	7	14	0	0	0	1	0	5	0	3	0	4	
5	10	12	5	1	4	5	0	5	1	5	2	5	5	5	4	
3	5	0	6	6	0	6	1	6	5	6	3	6	4	
3	6	0	7	6	0	6	1	6	2	6	1	6	0	
3	8	9	6	6	0	6	1	6	2	6	1	6	0	
4	14	7	2	1	7	0	7	1	7	2	7	3	7	4	
2	13	6	6	0	6	1	6	2	6	5	6	4	
4	12	13	6	9	6	0	6	1	6	5	6	3	6	4	
2	7	2	7	0	7	1	7	2	7	3	7	4	
4	12	5	12	10	5	0	5	1	5	2	5	3	5	4	
5	2	7	0	6	13	0	0	0	1	0	2	0	1	0	0	
4	14	7	2	1	7	0	7	1	7	2	7	5	7	4	
3	9	6	13	6	0	6	1	6	2	6	5	6	4	
4	13	6	0	7	0	0	0	1	0	2	0	1	0	0	
4	6	0	7	14	0	0	0	1	0	2	0	1	0	0	
2	0	5	0	0	0	1	0	2	0	5	5	4	
5	8	7	0	5	3	0	0	0	1	0	2	0	1	0	0	
4	1	5	1	4	5	0	5	1	5	2	5	1	5	0	
5	4	1	5	12	10	5	0	5	1	5	2	5	3	5	4	
2	9	6	6	0	6	1	6	2	6	3	6	4	
6	14	7	0	6	13	10	0	0	0	1	0	5	0	3	6	4	
4	13	6	13	10	6	0	6	1	6	2	6	1	6	0	
3	0	5	12	0	0	0	1	0	2	0	3	0	4	
3	6	9	11	6	0	6	1	6	2	6	1	6	0	
5	10	13	6	9	11	6	0	6	1	6	5	6	3	6	4	
4	1	5	12	13	5	0	5	1	5	2	5	1	5	0	
5	3	5	0	7	8	5	0	0	1	0	5	0	3	0	4	
2	7	14	7	0	7	1	7	2	7	3	7	4	
4	8	7	2	1	7	0	7	1	7	2	7	5	7	4	
5	14	7	0	5	12	0	0	0	1	0	5	0	3	0	4	
4	2	7	0	6	0	0	0	1	0	2	0	5	6	4	
5	9	8	7	2	1	7	0	7	1	7	2	7	5	7	4	
3	2	7	0	7	0	7	1	7	2	7	5	7	4	
3	5	12	10	5	0	5	1	5	2	5	1	5	0	
3	0	6	9	6	0	6	1	6	2	6	5	6	4	
3	6	0	5	6	0	6	1	6	2	6	3	6	4	
4	1	2	7	8	7	0	7	1	7	2	7	1	7	0	
5	4	1	5	0	6	5	0	0	1	0	2	0	3	6	4	
3	8	7	14	7	0	7	1	7	2	7	5	7	4	
4	12	5	1	4	5	0	5	1	5	2	5	1	5	0	
4	2	7	8	11	7	0	7	1	7	2	7	3	7	4	
2	5	3	5	0	5	1	5	2	5	1	5	0	
5	10	13	6	0	7	6	0	0	1	0	5	0	3	0	4	
4	13	6	13	10	6	0	6	1	6	2	6	5	6	4	
2	0	7	7	0	7	1	7	2	7	1	7	0	
4	8	7	0	5	5	0	5	1	5	2	5	3	5	4	
3	3	5	1	5	0	5	1	5	2	5	5	5	4	
3	14	7	0	0	0	0	1	0	5	0	3	0	4	
4	7	0	5	3	0	0	0	1	0	5	0	3	5	4	
4	12	13	6	9	6	0	6	1	6	2	6	1	6	0	
4	2	1	5	12	5	0	5	1	5	2	5	5	5	4	
3	5	0	6	0	0	0	1	0	2	0	1	0	0	
4	9	8	7	14	7	0	7	1	7	5	7	3	7	4	
4	13	6	9	8	6	0	6	1	6	2	6	3	6	4	
3	0	7	14	0	0	0	1	0	2	0	1	0	0	
4	4	1	5	3	5	0	5	1	5	5	5	3	5	4	
2	6	9	6	0	6	1	6	2	6	3	6	4	
3	6	9	11	6	0	6	1	6	2	6	5	6	4	
3	1	5	3	5	0	5	1	5	2	5	5	5	4	
3	8	7	2	7	0	7	1	7	2	7	5	7	4	
2	1	5	5	0	5	1	5	2	5	5	5	4	
5	4	2	7	8	9	7	0	7	1	7	2	7	1	7	0	
4	5	0	7	8	0	0	0	1	0	2	0	3	0	4	
4	10	12	5	0	0	0	0	1	0	2	0	3	0	4	
4	0	6	9	11	0	0	0	1	0	2	0	1	0	0	
5	11	8	7	2	1	7	0	7	1	7	2	7	1	7	0	
4	1	2	7	14	7	0	7	1	7	2	7	3	7	4	
6	14	7	0	6	13	10	0	0	0	1	0	2	6	5	6	4	
4	4	1	5	0	5	0	5	1	5	2	0	1	0	0	
4	2	7	8	9	7	0	7	1	7	5	7	3	7	4	
4	9	8	7	2	7	0	7	1	7	5	7	3	7	4	
4	13	12	5	3	5	0	5	1	5	5	5	3	5	4	
4	2	1	5	3	5	0	5	1	5	5	5	3	5	4	
2	6	0	0	0	0	1	0	5	0	3	0	4	
4	1	5	1	2	5	0	5	1	5	2	5	5	5	4	
5	6	0	5	1	4	6	0	6	1	6	5	6	3	5	4	
5	11	9	6	13	12	6	0	6	1	6	2	6	1	6	0	
4	14	7	0	6	0	0	0	1	0	2	0	3	0	4	
3	4	1	5	5	0	5	1	5	2	5	1	5	0	
4	8	9	6	13	6	0	6	1	6	5	6	3	6	4	
5	12	13	6	9	11	6	0	6	1	6	2	6	3	6	4	
3	5	1	4	5	0	5	1	5	2	5	3	5	4	
5	13	6	0	7	14	0	0	0	1	0	2	0	5	0	4	
2	0	6	0	0	0	1	0	2	6	5	6	4	
3	3	5	12	5	0	5	1	5	2	5	1	5	0	
5	7	0	6	13	10	0	0	0	1	0	2	0	5	6	4	
5	14	7	0	5	3	0	0	0	1	0	2	0	5	5	4	
6	11	9	6	0	5	3	6	0	6	1	6	5	6	3	6	4	
5	4	2	7	8	11	7	0	7	1	7	2	7	3	7	4	
4	9	6	0	5	0	0	0	1	0	2	0	3	5	4	
3	4	2	7	7	0	7	1	7	5	7	3	7	4	
6	10	13	6	0	7	14	6	0	0	1	0	2	0	1	0	0	
3	0	6	13	0	0	0	1	0	2	0	3	0	4	
2	3	5	5	0	5	1	5	2	5	1	5	0	
3	1	5	12	5	0	5	1	5	5	5	3	5	4	
3	7	8	9	7	0	7	1	7	2	7	3	7	4	
3	12	5	0	5	0	5	1	5	5	0	3	0	4	
5	14	7	0	6	13	0	0	0	1	0	2	6	1	6	0	
4	5	0	6	9	5	0	5	1	5	5	0	3	0	4	
4	10	12	5	3	5	0	5	1	5	2	5	1	5	0	
4	14	7	0	6	7	0	7	1	7	2	7	5	6	4	
3	3	5	0	0	0	0	1	0	2	0	1	0	0	
6	4	1	5	0	6	13	5	0	5	1	0	5	0	3	6	4	
4	11	8	7	14	7	0	7	1	7	2	7	3	7	4	
4	14	7	2	4	7	0	7	1	7	2	7	1	7	0	
3	4	2	7	7	0	7	1	7	2	7	3	7	4	
3	2	7	8	7	0	7	1	7	2	7	3	7	4	
4	1	2	7	14	7	0	7	1	7	2	7	5	7	4	
5	13	12	5	1	4	5	0	5	1	5	2	5	5	5	4	
2	6	13	6	0	6	1	6	2	6	5	6	4	
5	3	5	0	7	14	5	0	0	1	0	2	0	3	0	4	
3	8	9	6	6	0	6	1	6	2	6	3	6	4	
4	14	7	2	1	7	0	7	1	7	2	7	1	7	0	
2	7	2	7	0	7	1	7	2	7	1	7	0	
4	9	6	9	11	6	0	6	1	6	2	6	1	6	0	
4	13	6	0	7	0	0	0	1	0	2	0	3	0	4	
4	6	0	7	14	0	0	7	1	7	2	7	3	7	4	
5	11	9	6	0	5	0	0	0	1	0	5	0	3	0	4	
2	0	5	0	0	0	1	0	5	0	3	0	4	
3	7	8	11	7	0	7	1	7	2	7	1	7	0	
5	4	1	5	12	10	5	0	5	1	5	5	5	3	5	4	
2	9	6	6	0	6	1	6	2	6	1	6	0	
3	12	5	1	5	0	5	1	5	2	5	5	5	4	
4	11	9	6	0	0	0	0	1	0	5	0	3	0	4	
4	10	12	5	1	5	0	5	1	5	2	5	3	5	4	
4	3	5	12	13	5	0	5	1	5	5	5	3	5	4	
4	3	5	1	2	5	0	5	1	5	2	5	3	5	4	
4	1	5	12	13	5	0	5	1	5	2	5	3	5	4	
2	7	14	7	0	7	1	7	2	7	1	7	0	
4	12	5	0	7	0	0	0	1	0	2	0	5	0	4	
5	14	7	0	5	12	0	0	0	1	0	2	5	5	5	4	
4	2	7	0	6	0	0	0	1	0	2	0	1	0	0	
2	5	0	0	0	0	1	0	2	0	5	0	4	
5	3	5	0	7	14	5	0	0	1	0	5	0	3	0	4	
3	5	12	10	5	0	5	1	5	2	5	5	5	4	
4	11	9	6	9	6	0	6	1	6	5	6	3	6	4	
3	0	6	9	6	0	6	1	6	5	6	3	6	4	
3	6	0	5	6	0	6	1	6	2	6	1	6	0	
2	14	7	7	0	7	1	7	2	7	3	7	4	
5	4	1	5	0	6	5	0	0	1	0	5	0	3	6	4	
4	1	5	12	10	5	0	5	1	5	2	5	5	5	4	
4	12	5	1	4	5	0	5	1	5	2	5	3	5	4	
4	2	7	8	11	7	0	7	1	7	2	7	1	7	0	
2	5	3	5	0	5	1	5	2	5	3	5	4	
3	13	12	5	5	0	5	1	5	2	5	1	5	0	
3	6	13	12	6	0	6	1	6	2	6	1	6	0	
4	14	7	2	4	7	0	7	1	7	2	7	5	7	4	
4	8	7	0	5	0	0	0	1	0	2	0	1	0	0	
3	14	7	0	7	0	7	1	7	2	7	5	7	4	
4	7	0	5	3	0	0	0	1	0	2	0	5	5	4	
5	9	8	7	2	4	7	0	7	1	7	2	7	3	7	4	
4	9	6	9	11	6	0	6	1	6	2	6	5	6	4	
3	5	0	6	0	0	0	1	0	2	0	5	6	4	
4	13	6	9	8	6	0	6	1	6	2	6	1	6	0	
3	0	7	14	7	0	7	1	7	2	7	3	7	4	
2	6	9	6	0	6	1	6	2	6	1	6	0	
4	11	8	7	2	7	0	7	1	7	2	7	5	7	4	
3	1	5	3	5	0	5	1	5	2	5	1	5	0	
2	7	8	7	0	7	1	7	2	7	3	7	4	
4	10	13	6	9	6	0	6	1	6	5	6	3	6	4	
2	12	5	5	0	5	1	5	2	5	5	5	4	
5	11	9	6	13	12	6	0	6	1	6	5	6	3	6	4	
5	4	2	7	8	9	7	0	7	1	7	2	7	5	7	4	
5	3	5	0	6	9	0	0	0	1	0	5	0	3	0	4	
3	10	13	6	6	0	6	1	6	5	6	3	6	4	
4	5	0	7	8	0	0	0	1	0	2	0	1	0	0	
4	10	13	6	0	0	0	0	1	0	5	0	3	0	4	
5	11	8	7	2	1	7	0	7	1	7	2	7	3	7	4	
4	1	2	7	14	7	0	7	1	7	2	7	1	7	0	
4	4	1	5	0	5	0	5	1	5	2	0	3	0	4	
3	12	13	6	6	0	6	1	6	2	6	1	6	0	
4	2	7	8	9	7	0	7	1	7	2	7	3	7	4	
2	5	1	5	0	5	1	5	2	5	1	5	0	
4	13	12	5	3	5	0	5	1	5	2	5	5	5	4	
4	6	0	7	2	6	0	6	1	6	2	6	5	6	4	
5	6	0	5	1	4	6	0	6	1	6	2	6	5	5	4	
2	8	7	7	0	7	1	7	2	7	3	7	4	
3	7	0	5	0	0	0	1	0	2	5	5	5	4	
3	4	1	5	5	0	5	1	5	2	5	5	5	4	
5	12	13	6	9	11	6	0	6	1	6	2	6	1	6	0	
3	5	1	4	5	0	5	1	5	2	5	1	5	0	
6	10	13	6	0	7	14	6	0	0	1	0	5	0	3	0	4	
2	13	6	6	0	6	1	6	2	6	3	6	4	
3	0	5	1	0	0	0	1	0	5	0	3	0	4	
4	3	5	0	6	0	0	0	1	0	2	0	5	6	4	
3	3	5	12	5	0	5	1	5	2	5	5	5	4	
5	7	0	6	13	10	0	0	0	1	0	5	0	3	0	4	
5	9	6	0	5	3	0	0	0	1	0	5	0	3	0	4	
3	9	8	7	7	0	7	1	7	2	7	5	7	4	
5	4	2	7	8	11	7	0	7	1	7	2	7	1	7	0	
4	9	6	0	5	0	0	0	1	0	5	0	3	0	4	
6	10	13	6	0	7	14	6	0	6	1	6	2	6	3	6	4	
3	0	6	13	0	0	0	1	0	2	0	1	0	0	
2	3	5	5	0	5	1	5	2	5	3	5	4	
4	12	13	6	9	6	0	6	1	6	2	6	5	6	4	
6	11	8	7	0	5	3	0	0	0	1	0	2	0	1	5	0	
4	11	8	7	8	7	0	7	1	7	5	7	3	7	4	
3	1	5	12	5	0	5	1	5	2	5	3	5	4	
2	3	5	5	0	5	1	5	5	5	3	5	4	
4	4	2	7	2	7	0	7	1	7	2	7	1	7	0	
3	12	5	0	5	0	0	1	0	2	0	5	0	4	
5	10	13	6	9	8	6	0	6	1	6	5	6	3	6	4	
4	5	0	6	9	5	0	0	1	0	2	0	5	6	4	
4	10	12	5	3	5	0	5	1	5	2	5	5	5	4	
3	3	5	0	0	0	0	1	0	2	0	5	0	4	
4	11	8	7	14	7	0	7	1	7	2	7	1	7	0	
4	14	7	2	4	7	0	7	1	7	2	7	3	7	4	
3	2	7	14	7	0	7	1	7	5	7	3	7	4	
3	4	2	7	7	0	7	1	7	2	7	1	7	0	
2	12	5	5	0	5	1	5	2	5	3	5	4	
3	2	7	8	7	0	7	1	7	5	7	3	7	4	
3	5	1	2	5	0	5	1	5	2	5	3	5	4	
5	13	12	5	1	4	5	0	5	1	5	5	5	3	5	4	
2	6	13	6	0	6	1	6	5	6	3	6	4	
3	8	7	0	0	0	0	1	0	5	0	3	0	4	
3	7	8	9	7	0	7	1	7	2	7	5	7	4	
3	1	2	7	7	0	7	1	7	5	7	3	7	4	
5	3	5	0	7	14	5	0	0	1	0	2	0	1	0	0	
3	8	9	6	6	0	6	1	6	5	6	3	6	4	
4	9	6	9	11	6	0	6	1	6	2	6	3	6	4	
4	10	12	5	12	5	0	5	1	5	2	5	1	5	0	
4	3	5	0	7	5	0	0	1	0	2	0	1	0	0	
5	14	7	0	6	13	0	0	0	1	0	5	0	3	6	4	
5	11	9	6	0	5	6	0	6	1	6	2	6	5	6	4	
3	7	8	11	7	0	7	1	7	2	7	3	7	4	
3	2	1	5	5	0	5	1	5	2	5	5	5	4	
5	4	1	5	12	10	5	0	5	1	5	2	5	5	5	4	
2	9	6	6	0	6	1	6	2	6	5	6	4	
4	10	12	5	1	5	0	5	1	5	5	5	3	5	4	
4	12	13	6	13	6	0	6	1	6	2	6	5	6	4	
4	10	12	5	1	5	0	5	1	5	2	5	1	5	0	
5	1	2	7	8	11	7	0	7	1	7	5	7	3	7	4	
4	3	5	1	2	5	0	5	1	5	2	5	1	5	0	
4	11	9	6	0	6	0	6	1	6	2	6	3	0	4	
6	14	7	0	6	13	10	0	0	0	1	0	2	6	1	6	0	
4	4	1	5	1	5	0	5	1	5	2	5	3	5	4	
4	12	5	0	7	7	0	7	1	7	5	7	3	7	4	
4	2	7	0	6	7	0	7	1	7	2	7	3	7	4	
4	4	1	5	3	5	0	5	1	5	2	5	5	5	4	
4	3	5	1	2	5	0	5	1	5	5	5	3	5	4	
4	0	5	1	4	0	0	0	1	0	5	0	3	0	4	
3	5	12	10	5	0	5	1	5	5	5	3	5	4	
4	11	9	6	9	6	0	6	1	6	2	6	5	6	4	
4	11	9	6	0	0	0	0	1	0	2	0	5	0	4	
2	14	7	7	0	7	1	7	2	7	1	7	0	
5	4	1	5	0	6	5	0	0	1	0	2	0	5	6	4	
4	3	5	0	7	5	0	0	1	0	5	0	3	0	4	
4	2	7	8	11	7	0	7	1	7	2	7	5	7	4	
3	13	12	5	5	0	5	1	5	2	5	3	5	4	
3	9	6	0	0	0	0	1	0	5	0	3	0	4	
3	6	13	12	6	0	6	1	6	2	6	3	6	4	
3	1	5	0	5	0	5	1	5	2	5	5	0	4	
3	7	0	5	5	0	5	1	5	2	5	1	5	0	
4	12	13	6	13	6	0	6	1	6	5	6	3	6	4	
5	9	8	7	2	4	7	0	7	1	7	2	7	1	7	0	
3	0	7	8	0	0	0	1	0	5	0	3	0	4	
4	14	7	8	9	7	0	7	1	7	5	7	3	7	4	
3	0	7	14	7	0	7	1	7	5	7	3	7	4	
4	3	5	1	4	5	0	5	1	5	2	5	3	5	4	
2	8	7	7	0	7	1	7	2	7	5	7	4	
4	11	8	7	2	7	0	7	1	7	5	7	3	7	4	
3	1	5	3	5	0	5	1	5	2	5	3	5	4	
2	7	8	7	0	7	1	7	2	7	1	7	0	
3	10	12	5	5	0	5	1	5	5	5	3	5	4	
4	2	7	2	4	7	0	7	1	7	2	7	1	7	0	
5	4	2	7	8	9	7	0	7	1	7	5	7	3	7	4	
3	10	13	6	6	0	6	1	6	2	6	5	6	4	
4	10	13	6	0	0	0	0	1	0	2	0	5	0	4	
4	1	5	0	6	5	0	5	1	5	2	5	5	5	4	
5	8	9	6	13	12	6	0	6	1	6	2	6	5	6	4	
5	8	9	6	13	12	6	0	6	1	6	5	6	3	6	4	
5	8	9	6	13	10	6	0	6	1	6	2	6	1	6	0	
4	14	7	0	5	5	0	5	1	5	2	5	3	5	4	
3	4	2	7	7	0	7	1	7	2	7	5	7	4	
3	12	13	6	6	0	6	1	6	2	6	3	6	4	
4	2	7	8	9	7	0	7	1	7	2	7	1	7	0	
2	5	1	5	0	5	1	5	2	5	3	5	4	
4	13	12	5	3	5	0	5	1	5	2	5	1	5	0	
3	0	5	3	5	0	5	1	5	2	5	5	5	4	
4	6	0	7	2	6	0	6	1	6	2	6	1	0	0	
2	8	7	7	0	7	1	7	2	7	1	7	0	
3	4	1	5	5	0	5	1	5	5	5	3	5	4	
4	9	6	13	10	6	0	6	1	6	2	6	3	6	4	
4	14	7	0	6	7	0	7	1	7	5	7	3	6	4	
2	13	6	6	0	6	1	6	2	6	1	6	0	
2	7	8	7	0	7	1	7	2	7	5	7	4	
4	3	5	1	4	5	0	5	1	5	5	5	3	5	4	
4	3	5	0	6	0	0	0	1	0	5	0	3	0	4	
5	8	7	0	5	3	0	0	0	1	0	2	0	5	5	4	
5	7	0	6	13	10	6	0	6	1	6	2	6	3	6	4	
5	9	6	0	5	3	6	0	6	1	0	2	0	5	5	4	
4	14	7	0	5	0	0	0	1	0	5	0	3	0	4	
4	9	6	0	5	6	0	0	1	0	2	0	5	5	4	
3	0	6	13	6	0	6	1	6	2	6	5	6	4	
6	11	8	7	0	5	3	0	0	0	1	0	2	0	3	5	4	
3	1	5	12	5	0	5	1	5	2	5	1	5	0	
4	4	2	7	2	7	0	7	1	7	2	7	3	7	4	
3	12	5	0	5	0	0	1	0	2	0	1	0	0	
2	2	7	7	0	7	1	7	2	7	3	7	4	
