15353.4	14897.6
1748
919.701	664.408
15
0	0	35
1	14	35
2	6	35
3	0	35
4	0	35
5	0	35
6	0	35
7	4	35
8	0	35
9	0	35
10	0	35
11	0	35
12	0	35
13	0	35
14	0	35
44
0	5	0.000000	384579.000000	-0.000000
0	6	65819.250000	384579.000000	1.000000
0	7	134300.250000	384579.000000	1.000000
1	2	194003.250000	384579.000000	1.000000
1	4	17256.750000	384579.000000	1.000000
1	5	128845.500000	384579.000000	1.000000
2	1	197389.500000	384579.000000	1.000000
2	4	0.000000	384579.000000	0.000000
2	7	189010.500000	384579.000000	1.000000
3	4	0.000000	384579.000000	0.000000
3	5	43727.250000	384579.000000	1.000000
4	1	18842.250000	384579.000000	1.000000
4	2	0.000000	384579.000000	0.000000
4	3	0.000000	384579.000000	0.000000
5	0	0.000000	384579.000000	-0.000000
5	1	143624.250000	384579.000000	1.000000
5	3	45354.750000	384579.000000	1.000000
5	12	58353.750000	384579.000000	1.000000
6	0	67320.750000	384579.000000	1.000000
6	9	48504.750000	384579.000000	1.000000
6	13	0.000000	384579.000000	0.000000
7	0	148149.750000	384579.000000	1.000000
7	2	192029.250000	384579.000000	1.000000
7	8	40272.750000	384579.000000	1.000000
7	14	34303.500000	384579.000000	1.000000
8	7	44079.000000	384579.000000	1.000000
8	9	0.000000	384579.000000	0.000000
8	11	29305.500000	384579.000000	1.000000
8	14	0.000000	384579.000000	0.000000
9	6	48384.000000	384579.000000	1.000000
9	8	0.000000	384579.000000	0.000000
9	11	0.000000	384579.000000	0.000000
10	12	20916.000000	384579.000000	1.000000
10	13	0.000000	384579.000000	0.000000
11	8	32508.000000	384579.000000	1.000000
11	9	0.000000	384579.000000	0.000000
12	5	68412.750000	384579.000000	1.000000
12	10	20060.250000	384579.000000	1.000000
12	13	25893.000000	384579.000000	1.000000
13	6	0.000000	384579.000000	0.000000
13	10	0.000000	384579.000000	0.000000
13	12	30712.500000	384579.000000	1.000000
14	7	41013.000000	384579.000000	1.000000
14	8	0.000000	384579.000000	0.000000
840
5	1	2	7	8	11	7	0	7	1	7	2	7	3	7	4	
6	1	2	7	0	6	9	7	0	7	1	7	2	7	5	7	4	
5	7	2	1	5	12	7	0	7	1	7	2	7	3	7	4	
2	3	5	3	0	3	1	3	2	3	5	3	4	
5	7	2	1	5	3	7	0	7	1	7	5	7	3	7	4	
7	11	8	7	2	1	5	3	7	0	7	1	7	5	7	3	7	4	
4	3	5	12	13	5	0	5	1	5	2	5	5	5	4	
8	6	0	7	2	1	5	12	13	7	0	7	1	7	5	7	3	7	4	
6	10	12	5	1	2	7	7	0	7	1	7	2	7	3	7	4	
7	3	5	1	2	7	0	6	7	0	7	1	7	5	7	3	7	4	
4	4	1	2	7	7	0	7	1	7	2	7	5	7	4	
4	1	2	7	8	7	0	7	1	7	2	7	1	7	0	
6	14	7	2	1	5	12	7	0	7	1	7	2	7	1	7	0	
4	7	2	1	4	7	0	7	1	7	2	7	3	7	4	
4	2	1	5	12	1	0	1	1	1	2	1	5	1	4	
3	0	7	2	7	0	7	1	7	2	7	5	7	4	
4	13	12	5	1	13	0	13	1	13	2	13	5	13	4	
5	7	2	1	5	3	7	0	7	1	7	2	7	1	7	0	
3	5	12	10	10	0	10	1	10	5	10	3	10	4	
2	12	5	5	0	5	1	5	2	5	1	5	0	
3	5	1	2	1	0	1	1	1	2	1	5	1	4	
4	8	7	2	1	7	0	7	1	7	2	7	1	7	0	
2	8	7	7	0	7	1	7	2	7	3	7	4	
9	10	12	5	1	2	7	0	6	9	7	0	7	1	7	2	7	3	7	4	
2	6	0	0	0	0	1	0	5	0	3	0	4	
3	14	7	0	7	0	7	1	7	5	7	3	7	4	
4	4	1	5	12	1	0	1	1	1	2	1	1	1	0	
3	2	1	5	1	0	1	1	1	5	1	3	1	4	
4	7	2	1	5	7	0	7	1	7	2	7	5	7	4	
3	0	7	14	7	0	7	1	7	5	7	3	7	4	
4	5	1	2	7	7	0	7	1	7	2	7	1	7	0	
5	8	7	0	6	9	7	0	7	1	7	5	7	3	7	4	
5	4	1	5	12	10	1	0	1	1	1	2	1	5	1	4	
3	5	12	10	10	0	10	1	10	2	10	5	10	4	
3	14	7	0	7	0	7	1	7	2	7	3	7	4	
7	3	5	1	2	7	8	11	7	0	7	1	7	5	7	3	7	4	
8	6	0	7	2	1	5	12	13	7	0	7	1	7	2	7	1	7	0	
7	8	7	2	1	5	12	10	7	0	7	1	7	2	7	1	7	0	
4	10	12	5	1	1	0	1	1	1	2	1	5	1	4	
5	0	7	2	1	5	7	0	7	1	7	2	7	3	7	4	
4	3	5	1	2	1	0	1	1	1	2	1	5	1	4	
5	7	2	1	5	12	7	0	7	1	7	2	7	1	7	0	
3	1	2	7	7	0	7	1	7	5	7	3	7	4	
7	10	12	5	1	2	7	14	7	0	7	1	7	2	7	3	7	4	
5	8	7	2	1	4	7	0	7	1	7	5	7	3	7	4	
5	2	1	5	12	10	10	0	10	1	10	5	10	3	10	4	
4	2	1	5	3	1	0	1	1	1	2	1	5	1	4	
2	4	1	1	0	1	1	1	5	1	3	1	4	
8	9	6	0	7	2	1	5	3	7	0	7	1	7	2	7	3	7	4	
5	7	2	1	5	12	7	0	7	1	7	2	7	5	7	4	
6	0	7	2	1	5	3	7	0	7	1	7	2	7	1	7	0	
8	9	6	0	7	2	1	5	3	7	0	7	1	7	2	7	5	7	4	
8	6	0	7	2	1	5	12	13	7	0	7	1	7	2	7	5	7	4	
6	12	5	1	2	7	0	7	0	7	1	7	2	7	3	7	4	
4	11	8	7	0	7	0	7	1	7	2	7	3	7	4	
5	10	12	5	1	2	10	0	10	1	10	2	10	3	10	4	
8	13	12	5	1	2	7	8	11	7	0	7	1	7	5	7	3	7	4	
4	7	2	1	4	7	0	7	1	7	2	7	1	7	0	
3	12	5	3	3	0	3	1	3	5	3	3	3	4	
5	12	5	1	2	7	7	0	7	1	7	2	7	3	7	4	
7	6	0	7	2	1	5	3	7	0	7	1	7	2	7	3	7	4	
7	9	6	0	7	2	1	5	7	0	7	1	7	5	7	3	7	4	
2	11	8	8	0	8	1	8	5	8	3	8	4	
2	12	10	12	0	12	1	12	2	12	1	12	0	
5	4	1	2	7	0	7	0	7	1	7	2	7	5	7	4	
4	0	7	8	11	7	0	7	1	7	2	7	1	7	0	
2	12	10	10	0	10	1	10	5	10	3	10	4	
9	9	6	0	7	2	1	5	12	13	7	0	7	1	7	2	7	5	7	4	
2	2	7	7	0	7	1	7	2	7	3	7	4	
4	14	7	0	6	7	0	7	1	7	2	7	1	7	0	
2	8	11	8	0	8	1	8	2	8	5	8	4	
2	5	1	1	0	1	1	1	2	1	5	1	4	
7	10	12	5	1	2	7	8	7	0	7	1	7	2	7	5	7	4	
5	3	5	1	2	7	7	0	7	1	7	2	7	1	7	0	
3	6	0	7	7	0	7	1	7	5	7	3	7	4	
5	2	1	5	12	13	1	0	1	1	1	2	1	3	1	4	
4	12	5	1	2	1	0	1	1	1	2	1	1	1	0	
4	3	5	1	4	1	0	1	1	1	2	1	1	1	0	
7	13	12	5	1	2	7	0	7	0	7	1	7	2	7	1	7	0	
5	5	1	2	7	8	7	0	7	1	7	2	7	1	7	0	
6	9	6	0	7	8	11	7	0	7	1	7	2	7	5	7	4	
5	9	6	0	7	8	7	0	7	1	7	2	7	5	7	4	
4	3	5	12	13	5	0	5	1	5	2	5	1	5	0	
4	1	2	7	0	7	0	7	1	7	5	7	3	7	4	
3	1	5	3	1	0	1	1	1	2	1	1	1	0	
5	2	1	5	12	10	10	0	10	1	10	2	10	1	10	0	
6	8	7	2	1	5	12	7	0	7	1	7	5	7	3	7	4	
7	8	7	2	1	5	12	13	7	0	7	1	7	2	7	3	7	4	
5	13	12	5	1	4	1	0	1	1	1	2	1	5	1	4	
3	1	5	3	1	0	1	1	1	2	1	3	1	4	
8	10	12	5	1	2	7	8	11	7	0	7	1	7	2	7	1	7	0	
4	4	1	2	7	7	0	7	1	7	2	7	3	7	4	
5	13	12	5	1	2	1	0	1	1	1	5	1	3	1	4	
6	9	6	0	7	8	11	7	0	7	1	7	2	7	3	7	4	
8	11	8	7	2	1	5	12	10	7	0	7	1	7	2	7	3	7	4	
4	4	1	5	12	1	0	1	1	1	5	1	3	1	4	
8	12	5	1	2	7	0	6	9	7	0	7	1	7	2	7	5	7	4	
5	14	7	2	1	5	7	0	7	1	7	2	7	5	7	4	
6	12	5	1	2	7	14	7	0	7	1	7	2	7	5	7	4	
3	3	5	12	5	0	5	1	5	2	5	3	5	4	
7	0	7	2	1	5	12	10	7	0	7	1	7	2	7	5	7	4	
7	14	7	2	1	5	12	10	7	0	7	1	7	2	7	3	7	4	
5	5	1	2	7	8	7	0	7	1	7	2	7	5	7	4	
3	8	7	2	7	0	7	1	7	2	7	5	7	4	
4	14	7	8	11	8	0	8	1	8	5	8	3	8	4	
2	14	7	7	0	7	1	7	5	7	3	7	4	
2	6	9	9	0	9	1	9	2	9	3	9	4	
5	14	7	0	6	9	0	0	0	1	0	5	0	3	0	4	
2	6	0	0	0	0	1	0	2	0	1	0	0	
5	14	7	2	1	5	1	0	1	1	1	5	1	3	1	4	
3	1	5	12	1	0	1	1	1	2	1	5	1	4	
6	5	1	2	7	0	6	7	0	7	1	7	2	7	3	7	4	
5	3	5	1	2	7	7	0	7	1	7	2	7	5	7	4	
6	0	7	2	1	5	12	7	0	7	1	7	2	7	3	7	4	
5	11	8	7	2	1	2	0	2	1	2	5	2	3	2	4	
6	9	6	0	7	2	1	7	0	7	1	7	2	7	5	7	4	
3	5	12	13	13	0	13	1	13	2	13	1	13	0	
4	11	8	7	0	0	0	0	1	0	5	0	3	0	4	
7	10	12	5	1	2	7	0	7	0	7	1	7	2	7	1	7	0	
7	10	12	5	1	2	7	14	7	0	7	1	7	2	7	5	7	4	
5	11	8	7	0	6	7	0	7	1	7	2	7	5	7	4	
3	7	2	1	7	0	7	1	7	2	7	1	7	0	
2	8	7	7	0	7	1	7	5	7	3	7	4	
4	3	5	12	10	5	0	5	1	5	2	5	5	5	4	
4	3	5	1	4	1	0	1	1	1	2	1	5	1	4	
2	9	6	9	0	9	1	9	5	9	3	9	4	
4	2	7	0	6	7	0	7	1	7	2	7	3	7	4	
5	8	7	2	1	5	7	0	7	1	7	2	7	3	7	4	
4	3	5	1	4	5	0	5	1	5	5	5	3	5	4	
5	14	7	2	1	5	7	0	7	1	7	2	7	3	7	4	
2	12	13	12	0	12	1	12	5	12	3	12	4	
3	7	0	6	7	0	7	1	7	2	7	3	7	4	
4	0	7	2	1	2	0	2	1	2	5	2	3	2	4	
3	5	12	13	13	0	13	1	13	5	13	3	13	4	
5	9	6	0	7	14	0	0	0	1	0	5	0	3	0	4	
2	10	12	12	0	12	1	12	5	12	3	12	4	
4	13	12	5	3	5	0	5	1	5	2	5	1	5	0	
5	4	1	5	12	13	13	0	13	1	13	2	13	1	13	0	
4	6	0	7	2	2	0	2	1	2	5	2	3	2	4	
5	14	7	2	1	4	7	0	7	1	7	2	7	1	7	0	
4	14	7	0	6	0	0	0	1	0	5	0	3	0	4	
2	1	2	1	0	1	1	1	2	1	1	1	0	
4	10	12	5	3	10	0	10	1	10	2	10	5	10	4	
8	10	12	5	1	2	7	0	6	2	0	2	1	2	5	2	3	2	4	
3	1	5	3	1	0	1	1	1	2	1	5	1	4	
4	1	2	7	0	7	0	7	1	7	2	7	3	7	4	
2	1	5	5	0	5	1	5	5	5	3	5	4	
6	4	1	2	7	0	6	7	0	7	1	7	2	7	3	7	4	
6	5	1	2	7	8	11	7	0	7	1	7	2	7	5	7	4	
4	8	7	0	6	0	0	0	1	0	5	0	3	0	4	
4	7	0	6	9	0	0	0	1	0	5	0	3	0	4	
2	2	1	1	0	1	1	1	2	1	5	1	4	
4	3	5	12	10	3	0	3	1	3	5	3	3	3	4	
8	6	0	7	2	1	5	12	10	7	0	7	1	7	2	7	1	7	0	
4	4	1	5	3	5	0	5	1	5	5	5	3	5	4	
5	0	7	2	1	4	7	0	7	1	7	2	7	5	7	4	
6	3	5	1	2	7	8	7	0	7	1	7	2	7	3	7	4	
4	2	7	8	11	2	0	2	1	2	5	2	3	2	4	
7	13	12	5	1	2	7	8	7	0	7	1	7	2	7	3	7	4	
2	9	6	9	0	9	1	9	2	9	5	9	4	
7	10	12	5	1	2	7	0	7	0	7	1	7	2	7	3	7	4	
6	7	2	1	5	12	13	7	0	7	1	7	2	7	5	7	4	
2	6	9	9	0	9	1	9	2	9	1	9	0	
6	14	7	2	1	5	3	7	0	7	1	7	2	7	3	7	4	
3	3	5	1	1	0	1	1	1	2	1	1	1	0	
4	1	2	7	8	7	0	7	1	7	2	7	5	7	4	
7	6	0	7	2	1	5	12	7	0	7	1	7	2	7	5	7	4	
3	3	5	1	5	0	5	1	5	5	5	3	5	4	
6	14	7	2	1	5	12	7	0	7	1	7	2	7	3	7	4	
3	4	1	2	1	0	1	1	1	2	1	1	1	0	
3	14	7	0	7	0	7	1	7	2	7	5	7	4	
3	13	12	10	12	0	12	1	12	5	12	3	12	4	
2	2	1	1	0	1	1	1	2	1	3	1	4	
3	0	7	8	7	0	7	1	7	2	7	3	7	4	
2	5	12	5	0	5	1	5	2	5	3	5	4	
4	11	8	7	2	2	0	2	1	2	5	2	3	2	4	
5	5	1	2	7	8	2	0	2	1	2	5	2	3	2	4	
7	12	5	1	2	7	8	11	7	0	7	1	7	2	7	1	7	0	
6	0	7	2	1	5	12	7	0	7	1	7	2	7	1	7	0	
4	1	2	7	14	7	0	7	1	7	2	7	1	7	0	
6	4	1	2	7	0	6	7	0	7	1	7	2	7	5	7	4	
7	4	1	2	7	0	6	9	7	0	7	1	7	2	7	3	7	4	
4	12	5	1	4	1	0	1	1	1	2	1	1	1	0	
3	0	7	8	7	0	7	1	7	2	7	1	7	0	
7	8	7	2	1	5	12	10	7	0	7	1	7	2	7	5	7	4	
8	13	12	5	1	2	7	0	6	7	0	7	1	7	2	7	3	7	4	
4	11	8	7	2	7	0	7	1	7	2	7	1	7	0	
2	7	2	7	0	7	1	7	2	7	1	7	0	
3	2	1	4	2	0	2	1	2	5	2	3	2	4	
5	5	1	2	7	8	7	0	7	1	7	2	7	3	7	4	
4	2	1	5	12	1	0	1	1	1	2	1	3	1	4	
4	8	7	0	6	7	0	7	1	7	2	7	3	7	4	
4	9	6	0	7	7	0	7	1	7	2	7	1	7	0	
8	3	5	1	2	7	0	6	9	7	0	7	1	7	2	7	5	7	4	
5	6	0	7	2	1	7	0	7	1	7	2	7	5	7	4	
8	9	6	0	7	2	1	5	12	7	0	7	1	7	2	7	5	7	4	
2	7	2	7	0	7	1	7	2	7	5	7	4	
3	3	5	12	3	0	3	1	3	2	3	1	3	0	
4	2	7	8	11	11	0	11	1	11	2	11	1	11	0	
7	8	7	2	1	5	12	13	2	0	2	1	2	5	2	3	2	4	
2	14	7	7	0	7	1	7	2	7	5	7	4	
6	8	7	2	1	5	12	7	0	7	1	7	2	7	3	7	4	
6	3	5	1	2	7	8	7	0	7	1	7	2	7	1	7	0	
2	9	6	9	0	9	1	9	2	9	3	9	4	
4	5	1	2	7	7	0	7	1	7	2	7	5	7	4	
4	8	7	0	6	7	0	7	1	7	2	7	1	7	0	
5	10	12	5	1	2	10	0	10	1	10	2	10	5	10	4	
4	11	8	7	14	8	0	8	1	8	5	8	3	8	4	
3	2	7	8	7	0	7	1	7	2	7	3	7	4	
7	14	7	2	1	5	12	13	7	0	7	1	7	2	7	3	7	4	
4	3	5	12	13	13	0	13	1	13	2	13	3	13	4	
5	4	1	2	7	0	2	0	2	1	2	5	2	3	2	4	
4	11	8	7	14	7	0	7	1	7	2	7	3	7	4	
6	11	8	7	2	1	5	7	0	7	1	7	2	7	5	7	4	
2	6	9	9	0	9	1	9	5	9	3	9	4	
4	14	7	8	11	7	0	7	1	7	2	7	1	7	0	
6	11	8	7	2	1	4	7	0	7	1	7	2	7	1	7	0	
3	2	7	14	7	0	7	1	7	2	7	5	7	4	
5	13	12	5	1	4	13	0	13	1	13	5	13	3	13	4	
7	14	7	2	1	5	12	10	7	0	7	1	7	2	7	1	7	0	
4	9	6	0	7	7	0	7	1	7	2	7	5	7	4	
4	10	12	5	3	10	0	10	1	10	2	10	3	10	4	
2	12	5	5	0	5	1	5	2	5	3	5	4	
4	1	5	12	13	13	0	13	1	13	2	13	5	13	4	
8	11	8	7	2	1	5	12	10	7	0	7	1	7	2	7	1	7	0	
4	11	8	7	0	7	0	7	1	7	2	7	1	7	0	
8	12	5	1	2	7	0	6	9	7	0	7	1	7	2	7	3	7	4	
2	0	6	0	0	0	1	0	2	0	5	0	4	
4	6	0	7	8	7	0	7	1	7	2	7	5	7	4	
5	4	1	2	7	14	7	0	7	1	7	2	7	1	7	0	
4	4	1	5	3	1	0	1	1	1	2	1	1	1	0	
2	5	12	5	0	5	1	5	2	5	1	5	0	
3	10	12	13	12	0	12	1	12	2	12	5	12	4	
2	2	1	2	0	2	1	2	5	2	3	2	4	
6	0	7	2	1	5	3	2	0	2	1	2	5	2	3	2	4	
7	3	5	1	2	7	8	11	7	0	7	1	7	2	7	5	7	4	
2	1	5	1	0	1	1	1	2	1	5	1	4	
5	14	7	2	1	4	7	0	7	1	7	2	7	5	7	4	
6	12	5	1	2	7	14	2	0	2	1	2	5	2	3	2	4	
6	6	0	7	2	1	5	7	0	7	1	7	2	7	3	7	4	
2	5	12	5	0	5	1	5	5	5	3	5	4	
5	11	8	7	0	6	7	0	7	1	7	2	7	1	7	0	
2	7	0	7	0	7	1	7	2	7	3	7	4	
4	0	7	2	1	7	0	7	1	7	2	7	3	7	4	
6	11	8	7	0	6	9	7	0	7	1	7	2	7	3	7	4	
7	10	12	5	1	2	7	8	2	0	2	1	2	5	2	3	2	4	
2	3	5	3	0	3	1	3	2	3	3	3	4	
5	4	1	2	7	8	7	0	7	1	7	2	7	1	7	0	
4	6	0	7	14	7	0	7	1	7	2	7	3	7	4	
3	1	5	3	5	0	5	1	5	5	5	3	5	4	
6	5	1	2	7	0	6	7	0	7	1	7	2	7	5	7	4	
8	9	6	0	7	2	1	5	12	7	0	7	1	7	2	7	3	7	4	
6	0	7	2	1	5	12	2	0	2	1	2	5	2	3	2	4	
6	5	1	2	7	0	6	2	0	2	1	2	5	2	3	2	4	
5	2	7	0	6	9	7	0	7	1	7	2	7	1	7	0	
5	4	1	2	7	14	2	0	2	1	2	5	2	3	2	4	
4	9	6	0	7	7	0	7	1	7	2	7	3	7	4	
3	7	2	1	7	0	7	1	7	2	7	5	7	4	
2	5	3	5	0	5	1	5	2	5	1	5	0	
5	9	6	0	7	8	0	0	0	1	0	5	0	3	0	4	
2	5	12	5	0	5	1	5	2	5	5	5	4	
5	0	7	2	1	5	2	0	2	1	2	5	2	3	2	4	
5	4	1	2	7	0	7	0	7	1	7	2	7	3	7	4	
5	6	0	7	8	11	7	0	7	1	7	2	7	1	7	0	
2	7	0	7	0	7	1	7	2	7	1	7	0	
4	2	7	0	6	7	0	7	1	7	2	7	1	7	0	
5	9	6	0	7	14	7	0	7	1	7	2	7	1	7	0	
4	6	0	7	8	0	0	0	1	0	5	0	3	0	4	
3	12	5	1	5	0	5	1	5	5	5	3	5	4	
4	1	5	12	13	13	0	13	1	13	2	13	1	13	0	
2	1	4	1	0	1	1	1	2	1	1	1	0	
5	11	8	7	2	1	11	0	11	1	11	2	11	5	11	4	
4	2	1	5	12	2	0	2	1	2	5	2	3	2	4	
8	13	12	5	1	2	7	8	11	7	0	7	1	7	2	7	1	7	0	
7	3	5	1	2	7	0	6	7	0	7	1	7	2	7	5	7	4	
4	2	1	5	3	1	0	1	1	1	2	1	3	1	4	
8	12	5	1	2	7	0	6	9	7	0	7	1	7	2	7	1	7	0	
6	7	2	1	5	12	10	7	0	7	1	7	2	7	5	7	4	
4	5	1	2	7	7	0	7	1	7	2	7	3	7	4	
5	14	7	0	6	9	7	0	7	1	7	2	7	5	7	4	
5	1	2	7	8	11	2	0	2	1	2	5	2	3	2	4	
3	4	1	5	5	0	5	1	5	5	5	3	5	4	
6	4	1	2	7	8	11	7	0	7	1	7	2	7	3	7	4	
2	0	7	7	0	7	1	7	2	7	1	7	0	
3	5	12	13	13	0	13	1	13	2	13	3	13	4	
7	12	5	1	2	7	0	6	7	0	7	1	7	2	7	1	7	0	
2	7	2	2	0	2	1	2	5	2	3	2	4	
7	13	12	5	1	2	7	0	7	0	7	1	7	2	7	5	7	4	
3	13	12	10	12	0	12	1	12	2	12	3	12	4	
7	13	12	5	1	2	7	14	7	0	7	1	7	2	7	5	7	4	
7	0	7	2	1	5	12	13	7	0	7	1	7	2	7	1	7	0	
4	0	7	2	1	1	0	1	1	1	2	1	5	1	4	
3	2	7	8	7	0	7	1	7	2	7	5	7	4	
2	6	0	0	0	0	1	0	2	0	3	0	4	
4	12	5	1	4	5	0	5	1	5	5	5	3	5	4	
3	14	7	2	7	0	7	1	7	2	7	1	7	0	
6	11	8	7	2	1	5	2	0	2	1	2	5	2	3	2	4	
4	2	7	8	11	11	0	11	1	11	2	11	3	11	4	
4	2	7	0	6	2	0	2	1	2	5	2	3	2	4	
6	11	8	7	2	1	4	7	0	7	1	7	2	7	5	7	4	
5	8	7	2	1	4	7	0	7	1	7	2	7	1	7	0	
5	10	12	5	1	4	10	0	10	1	10	2	10	5	10	4	
9	9	6	0	7	2	1	5	12	10	2	0	2	1	2	5	2	3	2	4	
7	6	0	7	2	1	5	3	2	0	2	1	2	5	2	3	2	4	
7	11	8	7	2	1	5	12	7	0	7	1	7	2	7	5	7	4	
4	8	7	0	6	7	0	7	1	7	2	7	5	7	4	
4	1	2	7	14	1	0	1	1	1	2	1	5	1	4	
7	8	7	2	1	5	12	10	2	0	2	1	2	5	2	3	2	4	
5	13	12	5	1	4	13	0	13	1	13	2	13	1	13	0	
3	5	1	4	1	0	1	1	1	2	1	1	1	0	
6	10	12	5	1	2	7	2	0	2	1	2	5	2	3	2	4	
3	4	1	2	2	0	2	1	2	5	2	3	2	4	
7	13	12	5	1	2	7	8	7	0	7	1	7	2	7	1	7	0	
7	9	6	0	7	2	1	4	7	0	7	1	7	2	7	3	7	4	
3	5	1	2	1	0	1	1	1	2	1	3	1	4	
6	7	2	1	5	12	13	2	0	2	1	2	5	2	3	2	4	
4	1	2	7	14	7	0	7	1	7	2	7	3	7	4	
4	4	1	5	3	1	0	1	1	1	2	1	3	1	4	
8	13	12	5	1	2	7	0	6	2	0	2	1	2	5	2	3	2	4	
6	3	5	1	2	7	14	7	0	7	1	7	2	7	3	7	4	
3	0	7	2	7	0	7	1	7	2	7	1	7	0	
7	9	6	0	7	2	1	5	7	0	7	1	7	2	7	5	7	4	
4	10	12	5	1	10	0	10	1	10	2	10	3	10	4	
4	11	8	7	14	7	0	7	1	7	2	7	1	7	0	
3	9	6	0	9	0	9	1	9	2	9	5	9	4	
4	7	2	1	5	7	0	7	1	7	2	7	1	7	0	
7	12	5	1	2	7	0	6	7	0	7	1	7	2	7	5	7	4	
2	4	1	1	0	1	1	1	2	1	1	1	0	
9	10	12	5	1	2	7	0	6	9	7	0	7	1	7	2	7	1	7	0	
4	14	7	0	6	7	0	7	1	7	2	7	3	7	4	
2	7	8	7	0	7	1	7	2	7	5	7	4	
7	5	1	2	7	0	6	9	2	0	2	1	2	5	2	3	2	4	
2	4	1	1	0	1	1	1	2	1	5	1	4	
2	8	11	8	0	8	1	8	2	8	1	8	0	
2	7	14	14	0	14	1	14	5	14	3	14	4	
3	0	7	14	7	0	7	1	7	2	7	3	7	4	
4	3	5	1	2	1	0	1	1	1	2	1	1	1	0	
6	5	1	2	7	8	11	7	0	7	1	7	2	7	1	7	0	
3	9	6	0	0	0	0	1	0	2	0	1	0	0	
4	14	7	8	11	7	0	7	1	7	2	7	3	7	4	
6	12	5	1	2	7	8	2	0	2	1	2	5	2	3	2	4	
3	8	7	14	8	0	8	1	8	2	8	5	8	4	
2	10	12	12	0	12	1	12	2	12	5	12	4	
2	12	5	5	0	5	1	5	5	5	3	5	4	
4	14	7	2	1	7	0	7	1	7	2	7	3	7	4	
5	10	12	5	1	4	10	0	10	1	10	2	10	1	10	0	
3	14	7	2	2	0	2	1	2	2	2	5	2	4	
6	12	5	1	2	7	14	7	0	7	1	7	2	7	3	7	4	
7	5	1	2	7	0	6	9	7	0	7	1	7	2	7	1	7	0	
6	13	12	5	1	2	7	1	0	1	1	1	2	1	5	1	4	
6	3	5	1	2	7	8	1	0	1	1	1	2	1	5	1	4	
5	0	7	2	1	5	1	0	1	1	1	2	1	5	1	4	
9	9	6	0	7	2	1	5	12	13	7	0	7	1	7	2	7	1	7	0	
3	5	1	4	5	0	5	1	5	5	5	3	5	4	
5	8	7	0	6	9	7	0	7	1	7	2	7	3	7	4	
3	10	12	5	10	0	10	1	10	5	10	3	10	4	
6	3	5	1	2	7	8	2	0	2	1	2	5	2	3	2	4	
3	10	12	5	10	0	10	1	10	2	10	3	10	4	
2	7	2	7	0	7	1	7	2	7	3	7	4	
8	6	0	7	2	1	5	12	13	7	0	7	1	7	2	7	3	7	4	
6	4	1	2	7	8	11	2	0	2	1	2	5	2	3	2	4	
7	0	7	2	1	5	12	13	2	0	2	1	2	5	2	3	2	4	
4	13	12	5	1	13	0	13	1	13	5	13	3	13	4	
5	11	8	7	0	6	7	0	7	1	7	2	7	3	7	4	
6	13	12	5	1	2	7	7	0	7	1	7	2	7	1	7	0	
6	8	7	2	1	5	12	7	0	7	1	7	2	7	1	7	0	
6	6	0	7	2	1	4	7	0	7	1	7	2	7	3	7	4	
8	10	12	5	1	2	7	8	11	7	0	7	1	7	2	7	3	7	4	
3	5	12	13	13	0	13	1	13	2	13	5	13	4	
4	0	7	2	1	7	0	7	1	7	2	7	1	7	0	
3	12	5	1	1	0	1	1	1	2	1	5	1	4	
2	12	13	13	0	13	1	13	2	13	5	13	4	
6	7	2	1	5	12	10	7	0	7	1	7	2	7	3	7	4	
7	8	7	2	1	5	12	13	7	0	7	1	7	2	7	1	7	0	
6	4	1	2	7	0	6	7	0	7	1	7	2	7	1	7	0	
3	4	1	2	1	0	1	1	1	2	1	3	1	4	
4	8	7	2	1	1	0	1	1	1	2	1	5	1	4	
2	5	1	1	0	1	1	1	2	1	3	1	4	
3	1	5	12	1	0	1	1	1	2	1	1	1	0	
4	4	1	2	7	2	0	2	1	2	5	2	3	2	4	
5	2	1	5	12	13	2	0	2	1	2	5	2	3	2	4	
8	9	6	0	7	2	1	5	3	2	0	2	1	2	5	2	3	2	4	
6	11	8	7	2	1	5	7	0	7	1	7	2	7	1	7	0	
7	14	7	2	1	5	12	13	1	0	1	1	1	2	1	5	1	4	
4	14	7	2	1	1	0	1	1	1	2	1	5	1	4	
3	7	8	11	8	0	8	1	8	2	8	5	8	4	
4	7	0	6	9	7	0	7	1	7	2	7	3	7	4	
4	1	5	12	10	10	0	10	1	10	5	10	3	10	4	
5	13	12	5	1	2	1	0	1	1	1	2	1	5	1	4	
5	4	1	5	12	10	1	0	1	1	1	2	1	3	1	4	
3	7	0	6	7	0	7	1	7	2	7	1	7	0	
6	1	2	7	0	6	9	7	0	7	1	7	2	7	1	7	0	
3	2	7	0	2	0	2	1	2	5	2	3	2	4	
2	3	5	3	0	3	1	3	2	3	1	3	0	
3	5	12	10	10	0	10	1	10	2	10	3	10	4	
6	6	0	7	2	1	5	2	0	2	1	2	5	2	3	2	4	
2	1	4	1	0	1	1	1	2	1	5	1	4	
2	3	5	3	0	3	1	3	5	3	3	3	4	
8	13	12	5	1	2	7	8	11	7	0	7	1	7	2	7	3	7	4	
2	7	0	0	0	0	1	0	5	0	3	0	4	
3	0	7	14	7	0	7	1	7	2	7	1	7	0	
3	9	6	0	0	0	0	1	0	5	0	3	0	4	
5	9	6	0	7	14	7	0	7	1	7	2	7	3	7	4	
3	8	7	2	7	0	7	1	7	2	7	1	7	0	
4	12	5	1	2	1	0	1	1	1	2	1	3	1	4	
5	11	8	7	0	6	0	0	0	1	0	5	0	3	0	4	
4	3	5	1	4	1	0	1	1	1	2	1	3	1	4	
3	4	1	5	1	0	1	1	1	2	1	3	1	4	
7	4	1	2	7	0	6	9	2	0	2	1	2	5	2	3	2	4	
2	7	14	7	0	7	1	7	2	7	3	7	4	
5	2	1	5	12	10	10	0	10	1	10	2	10	3	10	4	
4	5	1	2	7	2	0	2	1	2	5	2	3	2	4	
3	2	7	8	7	0	7	1	7	2	7	1	7	0	
4	14	7	2	1	7	0	7	1	7	2	7	1	7	0	
8	11	8	7	2	1	5	12	10	2	0	2	1	2	5	2	3	2	4	
9	9	6	0	7	2	1	5	12	13	2	0	2	1	2	5	2	3	2	4	
6	6	0	7	2	1	5	7	0	7	1	7	2	7	1	7	0	
6	3	5	1	2	7	14	7	0	7	1	7	2	7	1	7	0	
4	2	7	0	6	2	0	2	1	2	2	2	5	2	4	
2	8	11	8	0	8	1	8	5	8	3	8	4	
3	8	7	14	7	0	7	1	7	2	7	3	7	4	
5	9	6	0	7	8	7	0	7	1	7	2	7	1	7	0	
5	0	7	2	1	4	7	0	7	1	7	2	7	3	7	4	
5	7	2	1	5	12	2	0	2	1	2	5	2	3	2	4	
4	11	8	7	0	0	0	0	1	0	2	0	5	0	4	
6	11	8	7	2	1	5	7	0	7	1	7	2	7	3	7	4	
3	12	5	3	3	0	3	1	3	2	3	3	3	4	
4	4	1	2	7	7	0	7	1	7	2	7	1	7	0	
4	6	0	7	8	7	0	7	1	7	2	7	1	7	0	
2	13	12	13	0	13	1	13	2	13	3	13	4	
6	12	5	1	2	7	8	7	0	7	1	7	2	7	1	7	0	
3	2	1	5	1	0	1	1	1	2	1	1	1	0	
2	12	13	13	0	13	1	13	2	13	3	13	4	
4	10	12	5	1	10	0	10	1	10	5	10	3	10	4	
6	12	5	1	2	7	8	1	0	1	1	1	2	1	5	1	4	
2	0	7	0	0	0	1	0	5	0	3	0	4	
4	8	7	2	1	2	0	2	1	2	5	2	3	2	4	
3	5	1	4	1	0	1	1	1	2	1	3	1	4	
5	5	1	2	7	14	2	0	2	1	2	5	2	3	2	4	
6	1	2	7	0	6	9	7	0	7	1	7	2	7	3	7	4	
7	12	5	1	2	7	0	6	2	0	2	1	2	5	2	3	2	4	
7	9	6	0	7	2	1	4	2	0	2	1	2	5	2	3	2	4	
7	13	12	5	1	2	7	8	2	0	2	1	2	5	2	3	2	4	
3	12	5	3	5	0	5	1	5	2	5	5	5	4	
5	10	12	5	1	2	1	0	1	1	1	2	1	1	1	0	
9	13	12	5	1	2	7	0	6	9	7	0	7	1	7	2	7	3	7	4	
3	5	12	10	10	0	10	1	10	2	10	1	10	0	
9	10	12	5	1	2	7	0	6	9	1	0	1	1	1	2	1	5	1	4	
2	14	7	7	0	7	1	7	2	7	1	7	0	
3	3	5	1	1	0	1	1	1	2	1	3	1	4	
5	1	2	7	0	6	7	0	7	1	7	2	7	3	7	4	
8	10	12	5	1	2	7	8	11	1	0	1	1	1	2	1	5	1	4	
2	9	6	9	0	9	1	9	2	9	1	9	0	
4	13	12	5	1	13	0	13	1	13	2	13	1	13	0	
3	2	1	4	1	0	1	1	1	2	1	3	1	4	
5	9	6	0	7	2	7	0	7	1	7	2	7	1	7	0	
8	9	6	0	7	2	1	5	12	7	0	7	1	7	2	7	1	7	0	
2	13	12	12	0	12	1	12	2	12	1	12	0	
4	13	12	5	3	13	0	13	1	13	5	13	3	13	4	
8	11	8	7	2	1	5	12	10	1	0	1	1	1	2	1	5	1	4	
8	10	12	5	1	2	7	8	11	2	0	2	1	2	5	2	3	2	4	
7	6	0	7	2	1	5	12	7	0	7	1	7	2	7	3	7	4	
5	14	7	0	6	9	7	0	7	1	7	2	7	3	7	4	
4	1	2	7	0	7	0	7	1	7	2	7	1	7	0	
7	0	7	2	1	5	12	10	2	0	2	1	2	5	2	3	2	4	
5	4	1	2	7	8	1	0	1	1	1	2	1	5	1	4	
5	10	12	5	1	4	10	0	10	1	10	5	10	3	10	4	
5	4	1	2	7	14	1	0	1	1	1	2	1	5	1	4	
6	6	0	7	2	1	4	1	0	1	1	1	2	1	5	1	4	
6	8	7	2	1	5	3	1	0	1	1	1	2	1	5	1	4	
2	5	3	5	0	5	1	5	2	5	3	5	4	
3	5	1	2	2	0	2	1	2	5	2	3	2	4	
5	10	12	5	1	2	2	0	2	1	2	5	2	3	2	4	
5	5	1	2	7	14	1	0	1	1	1	2	1	5	1	4	
3	14	7	8	8	0	8	1	8	5	8	3	8	4	
7	5	1	2	7	0	6	9	1	0	1	1	1	2	1	5	1	4	
3	7	8	11	11	0	11	1	11	2	11	3	11	4	
3	8	7	14	7	0	7	1	7	2	7	1	7	0	
6	12	5	1	2	7	14	7	0	7	1	7	2	7	1	7	0	
5	1	2	7	8	11	11	0	11	1	11	2	11	1	11	0	
3	7	0	6	0	0	0	1	0	5	0	3	0	4	
7	11	8	7	2	1	5	3	7	0	7	1	7	2	7	1	7	0	
3	2	7	14	2	0	2	1	2	5	2	3	2	4	
6	14	7	2	1	5	12	1	0	1	1	1	2	1	5	1	4	
7	11	8	7	2	1	5	12	7	0	7	1	7	2	7	1	7	0	
5	0	7	2	1	4	2	0	2	1	2	5	2	3	2	4	
3	8	7	0	7	0	7	1	7	2	7	3	7	4	
4	1	5	12	13	5	0	5	1	5	5	5	3	5	4	
5	4	1	5	12	13	1	0	1	1	1	2	1	3	1	4	
3	14	7	8	7	0	7	1	7	2	7	1	7	0	
4	11	8	7	14	8	0	8	1	8	2	8	5	8	4	
6	5	1	2	7	8	11	7	0	7	1	7	2	7	3	7	4	
3	2	7	14	7	0	7	1	7	2	7	1	7	0	
3	8	7	0	7	0	7	1	7	2	7	1	7	0	
6	11	8	7	2	1	4	2	0	2	1	2	5	2	3	2	4	
8	6	0	7	2	1	5	12	10	1	0	1	1	1	2	1	5	1	4	
5	1	2	7	0	6	2	0	2	1	2	2	2	5	2	4	
4	7	2	1	4	1	0	1	1	1	2	1	5	1	4	
2	11	8	8	0	8	1	8	2	8	3	8	4	
4	14	7	2	1	2	0	2	1	2	5	2	3	2	4	
7	13	12	5	1	2	7	8	1	0	1	1	1	2	1	5	1	4	
5	9	6	0	7	8	7	0	7	1	7	2	7	3	7	4	
3	6	0	7	7	0	7	1	7	2	7	1	7	0	
3	0	7	14	0	0	0	1	0	2	0	5	0	4	
3	2	1	4	1	0	1	1	1	2	1	5	1	4	
7	3	5	1	2	7	0	6	7	0	7	1	7	2	7	3	7	4	
6	9	6	0	7	2	1	7	0	7	1	7	2	7	1	7	0	
5	7	2	1	5	3	7	0	7	1	7	2	7	3	7	4	
8	9	6	0	7	2	1	5	12	2	0	2	1	2	5	2	3	2	4	
2	14	7	7	0	7	1	7	2	7	3	7	4	
7	10	12	5	1	2	7	8	7	0	7	1	7	2	7	1	7	0	
3	11	8	7	7	0	7	1	7	2	7	3	7	4	
2	13	12	13	0	13	1	13	2	13	5	13	4	
7	10	12	5	1	2	7	0	1	0	1	1	1	2	1	5	1	4	
4	7	0	6	9	7	0	7	1	7	2	7	1	7	0	
3	4	1	5	1	0	1	1	1	2	1	1	1	0	
6	13	12	5	1	2	7	7	0	7	1	7	2	7	3	7	4	
3	6	0	7	0	0	0	1	0	2	0	5	0	4	
2	2	7	7	0	7	1	7	2	7	1	7	0	
2	0	6	0	0	0	1	0	2	0	3	0	4	
3	7	8	11	8	0	8	1	8	5	8	3	8	4	
4	10	12	5	3	10	0	10	1	10	5	10	3	10	4	
3	1	5	12	1	0	1	1	1	2	1	3	1	4	
4	1	2	7	8	2	0	2	1	2	5	2	3	2	4	
3	0	6	9	0	0	0	1	0	5	0	3	0	4	
4	11	8	7	2	2	0	2	1	2	2	2	5	2	4	
6	8	7	2	1	5	3	2	0	2	1	2	5	2	3	2	4	
8	6	0	7	2	1	5	12	10	2	0	2	1	2	5	2	3	2	4	
7	13	12	5	1	2	7	0	7	0	7	1	7	2	7	3	7	4	
3	13	12	10	12	0	12	1	12	2	12	1	12	0	
2	0	6	0	0	0	1	0	2	0	1	0	0	
4	2	7	8	11	2	0	2	1	2	2	2	5	2	4	
5	8	7	0	6	9	7	0	7	1	7	2	7	1	7	0	
7	14	7	2	1	5	12	13	7	0	7	1	7	2	7	1	7	0	
6	8	7	2	1	5	3	7	0	7	1	7	2	7	1	7	0	
5	14	7	2	1	5	7	0	7	1	7	2	7	1	7	0	
5	5	1	2	7	0	2	0	2	1	2	2	2	5	2	4	
3	14	7	2	7	0	7	1	7	2	7	3	7	4	
3	7	2	1	2	0	2	1	2	5	2	3	2	4	
5	2	7	0	6	9	2	0	2	1	2	2	2	5	2	4	
4	12	5	1	4	1	0	1	1	1	2	1	3	1	4	
5	6	0	7	2	1	7	0	7	1	7	2	7	3	7	4	
2	7	14	7	0	7	1	7	2	7	1	7	0	
5	4	1	5	12	13	5	0	5	1	5	5	5	3	5	4	
5	4	1	5	12	13	1	0	1	1	1	2	1	5	1	4	
7	3	5	1	2	7	0	6	7	0	7	1	7	2	7	1	7	0	
7	9	6	0	7	2	1	4	7	0	7	1	7	2	7	1	7	0	
6	3	5	1	2	7	14	1	0	1	1	1	2	1	5	1	4	
7	10	12	5	1	2	7	8	7	0	7	1	7	2	7	3	7	4	
6	11	8	7	0	6	9	0	0	0	1	0	5	0	3	0	4	
6	9	6	0	7	8	11	7	0	7	1	7	2	7	1	7	0	
8	3	5	1	2	7	0	6	9	7	0	7	1	7	2	7	1	7	0	
2	2	7	2	0	2	1	2	5	2	3	2	4	
5	7	2	1	5	3	2	0	2	1	2	2	2	5	2	4	
3	7	8	11	11	0	11	1	11	2	11	1	11	0	
3	10	12	13	12	0	12	1	12	2	12	3	12	4	
5	9	6	0	7	2	2	0	2	1	2	2	2	5	2	4	
4	6	0	7	14	0	0	0	1	0	5	0	3	0	4	
4	6	0	7	14	0	0	0	1	0	2	0	5	0	4	
5	2	7	0	6	9	7	0	7	1	7	2	7	3	7	4	
3	12	5	1	1	0	1	1	1	2	1	3	1	4	
2	8	7	7	0	7	1	7	2	7	1	7	0	
5	6	0	7	8	11	7	0	7	1	7	2	7	3	7	4	
5	5	1	2	7	0	2	0	2	1	2	5	2	3	2	4	
4	0	7	8	11	0	0	0	1	0	5	0	3	0	4	
3	11	8	7	8	0	8	1	8	2	8	5	8	4	
3	13	12	5	13	0	13	1	13	2	13	5	13	4	
2	0	7	7	0	7	1	7	2	7	3	7	4	
5	14	7	0	6	9	7	0	7	1	7	2	7	1	7	0	
2	10	12	12	0	12	1	12	2	12	1	12	0	
3	13	12	5	5	0	5	1	5	5	5	3	5	4	
5	9	6	0	7	14	0	0	0	1	0	2	0	5	0	4	
4	11	8	7	2	7	0	7	1	7	2	7	3	7	4	
3	10	12	13	12	0	12	1	12	5	12	3	12	4	
3	2	1	4	1	0	1	1	1	2	1	1	1	0	
4	12	5	1	4	5	0	5	1	5	2	5	5	5	4	
6	3	5	1	2	7	14	2	0	2	1	2	5	2	3	2	4	
4	6	0	7	14	7	0	7	1	7	2	7	1	7	0	
2	0	6	0	0	0	1	0	5	0	3	0	4	
6	9	6	0	7	2	1	7	0	7	1	7	2	7	3	7	4	
5	0	7	2	1	5	7	0	7	1	7	2	7	1	7	0	
4	1	5	12	10	10	0	10	1	10	2	10	1	10	0	
6	11	8	7	0	6	9	7	0	7	1	7	2	7	1	7	0	
2	6	9	9	0	9	1	9	2	9	5	9	4	
5	5	1	2	7	0	7	0	7	1	7	2	7	1	7	0	
4	1	2	7	8	7	0	7	1	7	2	7	3	7	4	
3	0	7	2	2	0	2	1	2	5	2	3	2	4	
3	11	8	7	7	0	7	1	7	2	7	1	7	0	
4	7	2	1	4	2	0	2	1	2	5	2	3	2	4	
4	14	7	8	11	8	0	8	1	8	2	8	5	8	4	
7	12	5	1	2	7	8	11	2	0	2	1	2	2	2	5	2	4	
2	8	7	8	0	8	1	8	2	8	5	8	4	
4	10	12	5	1	10	0	10	1	10	2	10	1	10	0	
4	13	12	5	3	13	0	13	1	13	2	13	3	13	4	
4	9	6	0	7	0	0	0	1	0	5	0	3	0	4	
6	4	1	2	7	0	6	2	0	2	1	2	5	2	3	2	4	
6	0	7	2	1	5	3	2	0	2	1	2	2	2	5	2	4	
3	1	5	12	5	0	5	1	5	5	5	3	5	4	
6	3	5	1	2	7	0	7	0	7	1	7	2	7	3	7	4	
4	4	1	5	12	1	0	1	1	1	2	1	3	1	4	
4	6	0	7	2	7	0	7	1	7	2	7	3	7	4	
4	7	2	1	5	7	0	7	1	7	2	7	3	7	4	
7	13	12	5	1	2	7	14	2	0	2	1	2	5	2	3	2	4	
8	13	12	5	1	2	7	0	6	2	0	2	1	2	2	2	5	2	4	
6	12	5	1	2	7	0	2	0	2	1	2	2	2	5	2	4	
7	14	7	2	1	5	12	13	2	0	2	1	2	5	2	3	2	4	
5	6	0	7	2	1	7	0	7	1	7	2	7	1	7	0	
3	0	7	8	0	0	0	1	0	2	0	5	0	4	
5	6	0	7	2	1	2	0	2	1	2	5	2	3	2	4	
4	1	2	7	0	2	0	2	1	2	2	2	5	2	4	
2	1	5	1	0	1	1	1	2	1	3	1	4	
8	3	5	1	2	7	0	6	9	2	0	2	1	2	5	2	3	2	4	
3	9	6	0	9	0	9	1	9	2	9	3	9	4	
5	13	12	5	1	2	1	0	1	1	1	2	1	1	1	0	
6	5	1	2	7	0	6	7	0	7	1	7	2	7	1	7	0	
7	0	7	2	1	5	12	13	2	0	2	1	2	2	2	5	2	4	
2	11	8	8	0	8	1	8	2	8	1	8	0	
5	14	7	2	1	4	2	0	2	1	2	5	2	3	2	4	
7	12	5	1	2	7	0	6	7	0	7	1	7	2	7	3	7	4	
6	14	7	2	1	5	12	2	0	2	1	2	5	2	3	2	4	
2	4	1	1	0	1	1	1	2	1	3	1	4	
5	8	7	0	6	9	0	0	0	1	0	2	0	5	0	4	
2	5	3	3	0	3	1	3	5	3	3	3	4	
5	1	2	7	0	6	2	0	2	1	2	5	2	3	2	4	
2	1	5	1	0	1	1	1	2	1	1	1	0	
3	14	7	0	7	0	7	1	7	2	7	1	7	0	
5	8	7	2	1	5	2	0	2	1	2	5	2	3	2	4	
5	5	1	2	7	0	7	0	7	1	7	2	7	3	7	4	
4	0	7	8	11	7	0	7	1	7	2	7	3	7	4	
3	3	5	1	5	0	5	1	5	2	5	5	5	4	
4	12	5	1	2	2	0	2	1	2	5	2	3	2	4	
6	7	2	1	5	12	10	2	0	2	1	2	5	2	3	2	4	
4	1	5	12	13	13	0	13	1	13	2	13	3	13	4	
5	12	5	1	2	7	2	0	2	1	2	2	2	5	2	4	
4	3	5	1	2	2	0	2	1	2	5	2	3	2	4	
4	4	1	5	3	5	0	5	1	5	2	5	5	5	4	
2	7	8	7	0	7	1	7	2	7	3	7	4	
6	3	5	1	2	7	0	7	0	7	1	7	2	7	1	7	0	
3	0	6	9	9	0	9	1	9	2	9	3	9	4	
5	11	8	7	2	1	7	0	7	1	7	2	7	3	7	4	
5	6	0	7	8	11	0	0	0	1	0	5	0	3	0	4	
3	14	7	8	8	0	8	1	8	2	8	5	8	4	
7	12	5	1	2	7	8	11	7	0	7	1	7	2	7	3	7	4	
4	10	12	5	3	10	0	10	1	10	2	10	1	10	0	
5	2	1	5	12	10	2	0	2	1	2	2	2	5	2	4	
3	2	7	0	7	0	7	1	7	2	7	3	7	4	
6	8	7	2	1	5	3	7	0	7	1	7	2	7	3	7	4	
6	6	0	7	2	1	4	2	0	2	1	2	5	2	3	2	4	
2	2	1	1	0	1	1	1	2	1	1	1	0	
2	11	8	8	0	8	1	8	2	8	5	8	4	
5	4	1	2	7	8	2	0	2	1	2	5	2	3	2	4	
5	4	1	2	7	8	7	0	7	1	7	2	7	3	7	4	
5	4	1	5	12	10	1	0	1	1	1	2	1	1	1	0	
8	10	12	5	1	2	7	0	6	2	0	2	1	2	2	2	5	2	4	
3	11	8	7	8	0	8	1	8	5	8	3	8	4	
2	12	10	12	0	12	1	12	2	12	5	12	4	
5	4	1	5	12	10	5	0	5	1	5	5	5	3	5	4	
4	4	1	5	12	5	0	5	1	5	2	5	5	5	4	
8	10	12	5	1	2	7	0	6	7	0	7	1	7	2	7	1	7	0	
6	11	8	7	0	6	9	0	0	0	1	0	2	0	5	0	4	
3	10	12	5	10	0	10	1	10	2	10	5	10	4	
6	14	7	2	1	5	3	7	0	7	1	7	2	7	1	7	0	
2	1	2	1	0	1	1	1	2	1	3	1	4	
2	6	0	0	0	0	1	0	2	0	5	0	4	
4	3	5	12	13	13	0	13	1	13	5	13	3	13	4	
3	12	5	1	1	0	1	1	1	2	1	1	1	0	
6	6	0	7	2	1	4	7	0	7	1	7	2	7	1	7	0	
5	8	7	2	1	5	7	0	7	1	7	2	7	1	7	0	
3	13	12	5	13	0	13	1	13	2	13	1	13	0	
9	9	6	0	7	2	1	5	12	10	7	0	7	1	7	2	7	1	7	0	
2	2	7	2	0	2	1	2	2	2	5	2	4	
6	7	2	1	5	12	10	7	0	7	1	7	2	7	1	7	0	
2	10	12	10	0	10	1	10	2	10	3	10	4	
5	2	7	0	6	9	2	0	2	1	2	5	2	3	2	4	
8	6	0	7	2	1	5	12	10	7	0	7	1	7	2	7	3	7	4	
8	11	8	7	2	1	5	12	13	7	0	7	1	7	2	7	1	7	0	
6	13	12	5	1	2	7	2	0	2	1	2	5	2	3	2	4	
2	7	8	7	0	7	1	7	2	7	1	7	0	
2	7	14	14	0	14	1	14	2	14	5	14	4	
7	9	6	0	7	2	1	4	2	0	2	1	2	2	2	5	2	4	
4	13	12	5	3	13	0	13	1	13	2	13	5	13	4	
5	6	0	7	8	11	0	0	0	1	0	2	0	5	0	4	
3	0	6	9	0	0	0	1	0	2	0	5	0	4	
3	10	12	13	12	0	12	1	12	2	12	1	12	0	
4	6	0	7	8	7	0	7	1	7	2	7	3	7	4	
7	10	12	5	1	2	7	0	2	0	2	1	2	5	2	3	2	4	
5	4	1	2	7	0	7	0	7	1	7	2	7	1	7	0	
5	11	8	7	2	1	7	0	7	1	7	2	7	1	7	0	
6	7	2	1	5	12	13	7	0	7	1	7	2	7	3	7	4	
3	8	7	0	0	0	0	1	0	5	0	3	0	4	
6	9	6	0	7	2	1	2	0	2	1	2	5	2	3	2	4	
6	12	5	1	2	7	8	7	0	7	1	7	2	7	3	7	4	
3	0	7	8	0	0	0	1	0	5	0	3	0	4	
4	7	0	6	9	0	0	0	1	0	2	0	5	0	4	
5	3	5	1	2	7	2	0	2	1	2	5	2	3	2	4	
3	13	12	5	5	0	5	1	5	2	5	3	5	4	
5	12	5	1	2	7	7	0	7	1	7	2	7	1	7	0	
8	12	5	1	2	7	0	6	9	2	0	2	1	2	5	2	3	2	4	
8	10	12	5	1	2	7	0	6	7	0	7	1	7	2	7	3	7	4	
4	6	0	7	2	7	0	7	1	7	2	7	1	7	0	
7	6	0	7	2	1	5	3	7	0	7	1	7	2	7	1	7	0	
5	8	7	2	1	4	7	0	7	1	7	2	7	3	7	4	
4	3	5	1	2	1	0	1	1	1	2	1	3	1	4	
3	1	2	7	7	0	7	1	7	2	7	3	7	4	
7	3	5	1	2	7	8	11	7	0	7	1	7	2	7	1	7	0	
7	11	8	7	2	1	5	12	2	0	2	1	2	5	2	3	2	4	
7	9	6	0	7	2	1	5	7	0	7	1	7	2	7	1	7	0	
4	2	1	5	12	1	0	1	1	1	2	1	1	1	0	
7	13	12	5	1	2	7	14	7	0	7	1	7	2	7	1	7	0	
3	8	7	14	8	0	8	1	8	5	8	3	8	4	
2	8	11	8	0	8	1	8	2	8	3	8	4	
7	13	12	5	1	2	7	14	7	0	7	1	7	2	7	3	7	4	
5	8	7	2	1	4	2	0	2	1	2	2	2	5	2	4	
6	10	12	5	1	2	7	7	0	7	1	7	2	7	1	7	0	
9	9	6	0	7	2	1	5	12	13	7	0	7	1	7	2	7	3	7	4	
7	11	8	7	2	1	5	12	7	0	7	1	7	2	7	3	7	4	
8	11	8	7	2	1	5	12	13	2	0	2	1	2	5	2	3	2	4	
8	11	8	7	2	1	5	12	13	2	0	2	1	2	2	2	5	2	4	
2	1	2	2	0	2	1	2	2	2	5	2	4	
7	4	1	2	7	0	6	9	7	0	7	1	7	2	7	1	7	0	
7	6	0	7	2	1	5	3	2	0	2	1	2	2	2	5	2	4	
4	3	5	12	10	5	0	5	1	5	2	5	3	5	4	
2	7	0	0	0	0	1	0	2	0	5	0	4	
6	0	7	2	1	5	12	2	0	2	1	2	2	2	5	2	4	
2	5	1	5	0	5	1	5	5	5	3	5	4	
3	0	7	2	7	0	7	1	7	2	7	3	7	4	
7	4	1	2	7	0	6	9	2	0	2	1	2	2	2	5	2	4	
5	14	7	2	1	4	7	0	7	1	7	2	7	3	7	4	
2	1	4	4	0	4	1	4	5	4	3	4	4	
3	1	2	7	7	0	7	1	7	2	7	1	7	0	
5	13	12	5	1	2	1	0	1	1	1	2	1	3	1	4	
3	4	1	5	5	0	5	1	5	2	5	5	5	4	
3	2	7	0	2	0	2	1	2	2	2	5	2	4	
6	12	5	1	2	7	0	2	0	2	1	2	5	2	3	2	4	
4	1	5	12	10	5	0	5	1	5	2	5	5	5	4	
3	13	12	10	12	0	12	1	12	2	12	5	12	4	
2	12	5	5	0	5	1	5	2	5	5	5	4	
8	13	12	5	1	2	7	0	6	7	0	7	1	7	2	7	1	7	0	
7	0	7	2	1	5	12	10	7	0	7	1	7	2	7	3	7	4	
7	11	8	7	2	1	5	3	7	0	7	1	7	2	7	3	7	4	
6	11	8	7	2	1	4	7	0	7	1	7	2	7	3	7	4	
4	1	5	12	10	10	0	10	1	10	2	10	3	10	4	
5	9	6	0	7	2	2	0	2	1	2	5	2	3	2	4	
4	7	2	1	5	2	0	2	1	2	5	2	3	2	4	
4	8	7	2	1	7	0	7	1	7	2	7	3	7	4	
4	2	1	5	3	1	0	1	1	1	2	1	1	1	0	
6	3	5	1	2	7	0	2	0	2	1	2	5	2	3	2	4	
3	3	5	12	5	0	5	1	5	2	5	5	5	4	
3	6	0	7	7	0	7	1	7	2	7	3	7	4	
7	6	0	7	2	1	5	12	2	0	2	1	2	5	2	3	2	4	
2	12	10	12	0	12	1	12	2	12	3	12	4	
5	2	1	5	12	13	2	0	2	1	2	2	2	5	2	4	
7	12	5	1	2	7	8	11	2	0	2	1	2	5	2	3	2	4	
6	5	1	2	7	8	11	2	0	2	1	2	5	2	3	2	4	
6	9	6	0	7	8	11	0	0	0	1	0	5	0	3	0	4	
3	14	7	2	2	0	2	1	2	5	2	3	2	4	
2	7	8	8	0	8	1	8	5	8	3	8	4	
4	2	1	5	3	2	0	2	1	2	5	2	3	2	4	
7	10	12	5	1	2	7	14	2	0	2	1	2	5	2	3	2	4	
3	0	6	9	0	0	0	1	0	2	0	1	0	0	
6	10	12	5	1	2	7	2	0	2	1	2	2	2	5	2	4	
6	4	1	2	7	8	11	7	0	7	1	7	2	7	1	7	0	
3	1	2	7	2	0	2	1	2	2	2	5	2	4	
2	1	4	1	0	1	1	1	2	1	3	1	4	
3	12	5	3	5	0	5	1	5	2	5	1	5	0	
3	5	1	4	5	0	5	1	5	2	5	5	5	4	
7	5	1	2	7	0	6	9	7	0	7	1	7	2	7	3	7	4	
6	4	1	2	7	8	11	2	0	2	1	2	2	2	5	2	4	
3	2	1	5	2	0	2	1	2	2	2	5	2	4	
4	13	12	5	1	13	0	13	1	13	2	13	3	13	4	
6	0	7	2	1	5	3	7	0	7	1	7	2	7	3	7	4	
3	3	5	12	3	0	3	1	3	5	3	3	3	4	
7	6	0	7	2	1	5	12	7	0	7	1	7	2	7	1	7	0	
5	3	5	1	2	7	7	0	7	1	7	2	7	3	7	4	
4	6	0	7	2	2	0	2	1	2	2	2	5	2	4	
6	7	2	1	5	12	13	7	0	7	1	7	2	7	1	7	0	
7	8	7	2	1	5	12	13	2	0	2	1	2	2	2	5	2	4	
7	14	7	2	1	5	12	10	2	0	2	1	2	2	2	5	2	4	
5	1	2	7	0	6	7	0	7	1	7	2	7	1	7	0	
7	9	6	0	7	2	1	5	7	0	7	1	7	2	7	3	7	4	
2	5	1	1	0	1	1	1	2	1	1	1	0	
5	13	12	5	1	4	1	0	1	1	1	2	1	3	1	4	
6	3	5	1	2	7	0	2	0	2	1	2	2	2	5	2	4	
6	1	2	7	0	6	9	2	0	2	1	2	5	2	3	2	4	
9	13	12	5	1	2	7	0	6	9	2	0	2	1	2	2	2	5	2	4	
3	8	7	2	2	0	2	1	2	5	2	3	2	4	
5	4	1	2	7	14	7	0	7	1	7	2	7	3	7	4	
7	10	12	5	1	2	7	14	7	0	7	1	7	2	7	1	7	0	
2	13	12	12	0	12	1	12	5	12	3	12	4	
2	0	7	0	0	0	1	0	2	0	5	0	4	
7	11	8	7	2	1	5	3	2	0	2	1	2	2	2	5	2	4	
3	4	1	2	2	0	2	1	2	2	2	5	2	4	
8	9	6	0	7	2	1	5	3	7	0	7	1	7	2	7	1	7	0	
2	12	13	12	0	12	1	12	2	12	1	12	0	
9	13	12	5	1	2	7	0	6	9	2	0	2	1	2	5	2	3	2	4	
7	0	7	2	1	5	12	10	7	0	7	1	7	2	7	1	7	0	
3	2	7	0	7	0	7	1	7	2	7	1	7	0	
5	10	12	5	1	4	10	0	10	1	10	2	10	3	10	4	
5	12	5	1	2	7	2	0	2	1	2	5	2	3	2	4	
6	8	7	2	1	5	12	2	0	2	1	2	2	2	5	2	4	
3	8	7	2	7	0	7	1	7	2	7	3	7	4	
3	7	0	6	0	0	0	1	0	2	0	5	0	4	
4	12	5	1	2	2	0	2	1	2	2	2	5	2	4	
3	2	1	5	1	0	1	1	1	2	1	3	1	4	
4	1	2	7	14	2	0	2	1	2	5	2	3	2	4	
6	14	7	2	1	5	3	2	0	2	1	2	5	2	3	2	4	
6	14	7	2	1	5	3	2	0	2	1	2	2	2	5	2	4	
3	10	12	5	10	0	10	1	10	2	10	1	10	0	
9	9	6	0	7	2	1	5	12	10	2	0	2	1	2	2	2	5	2	4	
2	5	3	5	0	5	1	5	2	5	5	5	4	
4	3	5	12	10	3	0	3	1	3	2	3	1	3	0	
5	5	1	2	7	14	7	0	7	1	7	2	7	3	7	4	
5	2	1	5	12	13	1	0	1	1	1	2	1	1	1	0	
7	8	7	2	1	5	12	10	7	0	7	1	7	2	7	3	7	4	
6	12	5	1	2	7	0	7	0	7	1	7	2	7	1	7	0	
3	7	2	1	7	0	7	1	7	2	7	3	7	4	
9	10	12	5	1	2	7	0	6	9	2	0	2	1	2	5	2	3	2	4	
9	9	6	0	7	2	1	5	12	10	7	0	7	1	7	2	7	3	7	4	
8	11	8	7	2	1	5	12	13	7	0	7	1	7	2	7	3	7	4	
2	1	2	2	0	2	1	2	5	2	3	2	4	
3	2	7	8	2	0	2	1	2	5	2	3	2	4	
4	14	7	0	6	0	0	0	1	0	2	0	5	0	4	
7	3	5	1	2	7	8	11	7	0	7	1	7	2	7	3	7	4	
4	0	7	8	11	0	0	0	1	0	2	0	5	0	4	
3	14	7	8	7	0	7	1	7	2	7	3	7	4	
6	6	0	7	2	1	5	2	0	2	1	2	2	2	5	2	4	
7	13	12	5	1	2	7	0	2	0	2	1	2	5	2	3	2	4	
3	2	7	14	7	0	7	1	7	2	7	3	7	4	
3	5	1	2	1	0	1	1	1	2	1	1	1	0	
7	14	7	2	1	5	12	10	2	0	2	1	2	5	2	3	2	4	
5	8	7	2	1	5	2	0	2	1	2	2	2	5	2	4	
5	9	6	0	7	2	7	0	7	1	7	2	7	3	7	4	
8	3	5	1	2	7	0	6	9	7	0	7	1	7	2	7	3	7	4	
5	1	2	7	8	11	11	0	11	1	11	2	11	5	11	4	
8	13	12	5	1	2	7	8	11	2	0	2	1	2	2	2	5	2	4	
9	13	12	5	1	2	7	0	6	9	7	0	7	1	7	2	7	1	7	0	
3	8	7	0	0	0	0	1	0	2	0	5	0	4	
5	0	7	2	1	4	7	0	7	1	7	2	7	1	7	0	
7	0	7	2	1	5	12	13	7	0	7	1	7	2	7	3	7	4	
5	5	1	2	7	14	7	0	7	1	7	2	7	1	7	0	
