55694.1	-1
840
33.519	35.3933
15
0	36	320
1	22	320
2	0	320
3	2	320
4	4	320
5	205	320
6	8	320
7	0	320
8	4	320
9	10	320
10	0	320
11	0	320
12	0	320
13	2	320
14	0	320
44
0	5	79521.750000	162195.900000	1.000000
0	6	19721.250000	110170.800000	1.000000
0	7	35930.250000	66306.500000	1.000000
1	2	14332.500000	136693.400000	1.000000
1	4	4646.250000	44884.400000	1.000000
1	5	75906.000000	216261.200000	1.000000
2	1	14724.000000	136693.400000	1.000000
2	4	1242.000000	17341.700000	1.000000
2	7	0.000000	136693.400000	0.000000
3	4	3042.000000	38763.800000	1.000000
3	5	15698.250000	51005.000000	1.000000
4	1	4783.500000	44884.400000	1.000000
4	2	1476.000000	17341.700000	1.000000
4	3	3350.250000	38763.800000	1.000000
5	0	65686.500000	162195.900000	1.000000
5	1	83841.750000	216261.200000	1.000000
5	3	16087.500000	51005.000000	1.000000
5	12	16510.500000	70386.900000	1.000000
6	0	39640.500000	110170.800000	1.000000
6	9	17376.750000	91809.000000	1.000000
6	13	10707.750000	64266.300000	1.000000
7	0	36425.250000	66306.500000	1.000000
7	2	0.000000	136693.400000	0.000000
7	8	8709.750000	38763.800000	1.000000
7	14	10525.500000	57125.600000	1.000000
8	7	4412.250000	38763.800000	1.000000
8	9	3818.250000	19381.900000	1.000000
8	11	8622.000000	31623.100000	1.000000
8	14	4176.000000	23462.300000	1.000000
9	6	24059.250000	91809.000000	1.000000
9	8	3822.750000	19381.900000	1.000000
9	11	3937.500000	32643.200000	1.000000
10	12	0.000000	25502.500000	0.000000
10	13	8964.000000	14281.400000	1.000000
11	8	3255.750000	31623.100000	1.000000
11	9	10676.250000	32643.200000	1.000000
12	5	8280.000000	70386.900000	1.000000
12	10	0.000000	25502.500000	0.000000
12	13	10109.250000	25502.500000	1.000000
13	6	23249.250000	64266.300000	1.000000
13	10	8597.250000	14281.400000	1.000000
13	12	0.000000	25502.500000	1.000000
14	7	12595.500000	57125.600000	1.000000
14	8	4981.500000	23462.300000	1.000000
840
6	1	5	0	7	8	11	5	0	5	1	5	2	5	3	5	4	
5	1	5	0	6	9	5	0	5	1	5	2	5	5	5	4	
4	7	0	5	12	5	0	5	1	5	2	5	3	5	4	
2	3	5	5	0	5	1	5	2	5	5	5	4	
4	7	0	5	3	5	0	5	1	5	5	5	3	5	4	
6	11	9	6	0	5	3	5	0	5	1	5	5	5	3	5	4	
4	3	5	12	13	5	0	5	1	5	2	5	5	5	4	
2	6	13	6	0	6	1	6	5	6	3	6	4	
5	10	13	6	0	7	0	0	0	1	0	2	0	3	0	4	
4	3	5	0	6	5	0	5	1	5	5	5	3	5	4	
5	4	1	5	0	7	5	0	5	1	5	2	5	5	5	4	
5	1	5	0	7	8	5	0	5	1	5	2	5	1	5	0	
5	14	7	0	5	12	5	0	5	1	5	2	5	1	5	0	
5	7	0	5	1	4	5	0	5	1	5	2	5	3	5	4	
4	2	1	5	12	5	0	5	1	5	2	5	5	5	4	
4	0	5	1	2	5	0	5	1	5	2	5	5	5	4	
5	13	6	0	5	1	5	0	5	1	5	2	5	5	5	4	
4	7	0	5	3	5	0	5	1	5	2	5	1	5	0	
4	5	12	13	10	5	0	5	1	5	5	5	3	5	4	
2	12	5	5	0	5	1	5	2	5	1	5	0	
3	5	1	2	5	0	5	1	5	2	5	5	5	4	
5	8	7	0	5	1	5	0	5	1	5	2	5	1	5	0	
2	8	7	7	0	7	1	7	2	7	3	7	4	
4	10	13	6	9	6	0	6	1	6	2	6	3	6	4	
2	6	0	0	0	0	1	0	5	0	3	0	4	
3	14	7	0	0	0	0	1	0	5	0	3	0	4	
4	4	1	5	12	5	0	5	1	5	2	5	1	5	0	
3	2	1	5	5	0	5	1	5	5	5	3	5	4	
3	7	0	5	5	0	5	1	5	2	5	5	5	4	
3	0	7	14	0	0	0	1	0	5	0	3	0	4	
3	5	0	7	5	0	5	1	5	2	5	1	5	0	
2	8	9	9	0	9	1	9	5	9	3	9	4	
6	4	1	5	12	13	10	5	0	5	1	5	2	5	5	5	4	
4	5	12	13	10	5	0	5	1	5	2	5	5	5	4	
3	14	7	0	0	0	0	1	0	2	0	3	0	4	
6	3	5	0	7	8	11	5	0	5	1	5	5	5	3	5	4	
2	6	13	6	0	6	1	6	2	6	1	6	0	
5	8	9	6	13	10	6	0	6	1	6	2	6	1	6	0	
6	10	13	6	0	5	1	5	0	5	1	5	2	5	5	5	4	
2	0	5	5	0	5	1	5	2	5	3	5	4	
3	3	4	2	4	0	4	1	4	2	4	5	4	4	
4	7	0	5	12	5	0	5	1	5	2	5	1	5	0	
4	1	5	0	7	5	0	5	1	5	5	5	3	5	4	
6	10	13	6	0	7	14	0	0	0	1	0	2	0	3	0	4	
6	8	7	0	5	1	4	5	0	5	1	5	5	5	3	5	4	
6	2	1	5	12	13	10	5	0	5	1	5	5	5	3	5	4	
3	2	4	3	4	0	4	1	4	2	4	5	4	4	
2	4	1	1	0	1	1	1	5	1	3	1	4	
5	9	6	0	5	3	5	0	5	1	5	2	5	3	5	4	
4	7	0	5	12	5	0	5	1	5	2	5	5	5	4	
3	0	5	3	5	0	5	1	5	2	5	1	5	0	
5	9	6	0	5	3	5	0	5	1	5	2	5	5	5	4	
2	6	13	6	0	6	1	6	2	6	5	6	4	
3	12	5	0	5	0	5	1	5	2	5	3	5	4	
4	11	9	6	0	0	0	0	1	0	2	0	3	0	4	
7	10	13	6	0	5	1	2	5	0	5	1	5	2	5	3	5	4	
4	13	6	9	11	6	0	6	1	6	5	6	3	6	4	
5	7	0	5	1	4	5	0	5	1	5	2	5	1	5	0	
3	12	5	3	5	0	5	1	5	5	5	3	5	4	
4	12	5	0	7	5	0	5	1	5	2	5	3	5	4	
4	6	0	5	3	5	0	5	1	5	2	5	3	5	4	
4	9	6	0	5	5	0	5	1	5	5	5	3	5	4	
2	11	8	8	0	8	1	8	5	8	3	8	4	
3	12	13	10	13	0	13	1	13	2	13	1	13	0	
4	4	1	5	0	5	0	5	1	5	2	5	5	5	4	
4	0	7	8	11	0	0	0	1	0	2	0	1	0	0	
3	12	13	10	13	0	13	1	13	5	13	3	13	4	
3	9	6	13	6	0	6	1	6	2	6	5	6	4	
5	2	1	5	0	7	5	0	5	1	5	2	5	3	5	4	
4	14	7	0	6	0	0	0	1	0	2	0	1	0	0	
2	8	11	8	0	8	1	8	2	8	5	8	4	
2	5	1	5	0	5	1	5	2	5	5	5	4	
5	10	13	6	9	8	6	0	6	1	6	2	6	5	6	4	
4	3	5	0	7	5	0	5	1	5	2	5	1	5	0	
3	6	0	7	0	0	0	1	0	5	0	3	0	4	
5	2	1	5	12	13	5	0	5	1	5	2	5	3	5	4	
4	12	5	1	2	5	0	5	1	5	2	5	1	5	0	
2	3	4	4	0	4	1	4	2	4	1	4	0	
3	13	6	0	0	0	0	1	0	2	0	1	0	0	
4	5	0	7	8	5	0	5	1	5	2	5	1	5	0	
2	9	11	9	0	9	1	9	2	9	5	9	4	
2	9	8	9	0	9	1	9	2	9	5	9	4	
4	3	5	12	13	5	0	5	1	5	2	5	1	5	0	
3	1	5	0	5	0	5	1	5	5	5	3	5	4	
3	1	5	3	5	0	5	1	5	2	5	1	5	0	
6	2	1	5	12	13	10	5	0	5	1	5	2	5	1	5	0	
5	8	7	0	5	12	5	0	5	1	5	5	5	3	5	4	
4	8	9	6	13	6	0	6	1	6	2	6	3	6	4	
6	13	6	0	5	1	4	5	0	5	1	5	2	5	5	5	4	
3	1	5	3	5	0	5	1	5	2	5	3	5	4	
5	10	13	6	9	11	6	0	6	1	6	2	6	1	6	0	
5	4	1	5	0	7	5	0	5	1	5	2	5	3	5	4	
6	13	6	0	5	1	2	5	0	5	1	5	5	5	3	5	4	
2	9	11	9	0	9	1	9	2	9	3	9	4	
5	11	9	6	13	10	6	0	6	1	6	2	6	3	6	4	
4	4	1	5	12	5	0	5	1	5	5	5	3	5	4	
4	12	13	6	9	6	0	6	1	6	2	6	5	6	4	
4	14	7	0	5	5	0	5	1	5	2	5	5	5	4	
5	12	5	0	7	14	5	0	5	1	5	2	5	5	5	4	
3	3	5	12	5	0	5	1	5	2	5	3	5	4	
4	0	6	13	10	0	0	0	1	0	2	0	5	0	4	
6	14	7	0	6	13	10	0	0	0	1	0	2	0	3	0	4	
4	5	0	7	8	5	0	5	1	5	2	5	5	5	4	
6	8	7	0	5	1	2	5	0	5	1	5	2	5	5	5	4	
3	14	8	11	8	0	8	1	8	5	8	3	8	4	
2	14	7	7	0	7	1	7	5	7	3	7	4	
2	6	9	6	0	6	1	6	2	6	3	6	4	
3	14	8	9	9	0	9	1	9	5	9	3	9	4	
2	6	0	0	0	0	1	0	2	0	1	0	0	
4	14	7	0	5	5	0	5	1	5	5	5	3	5	4	
3	1	5	12	5	0	5	1	5	2	5	5	5	4	
3	5	0	6	5	0	5	1	5	2	5	3	5	4	
4	3	5	0	7	5	0	5	1	5	2	5	5	5	4	
3	0	5	12	5	0	5	1	5	2	5	3	5	4	
6	11	9	6	0	5	1	5	0	5	1	5	5	5	3	5	4	
5	9	6	0	5	1	5	0	5	1	5	2	5	5	5	4	
3	5	12	13	5	0	5	1	5	2	5	1	5	0	
4	11	9	6	0	0	0	0	1	0	5	0	3	0	4	
4	10	13	6	0	0	0	0	1	0	2	0	1	0	0	
6	10	13	6	0	7	14	0	0	0	1	0	2	0	5	0	4	
3	11	9	6	6	0	6	1	6	2	6	5	6	4	
4	7	0	5	1	5	0	5	1	5	2	5	1	5	0	
2	8	7	7	0	7	1	7	5	7	3	7	4	
5	3	5	12	13	10	5	0	5	1	5	2	5	5	5	4	
2	3	4	4	0	4	1	4	2	4	5	4	4	
2	9	6	6	0	6	1	6	5	6	3	6	4	
5	2	1	5	0	6	5	0	5	1	5	2	5	3	5	4	
4	8	7	0	5	5	0	5	1	5	2	5	3	5	4	
2	3	4	4	0	4	1	4	5	4	3	4	4	
4	14	7	0	5	5	0	5	1	5	2	5	3	5	4	
2	12	13	13	0	13	1	13	5	13	3	13	4	
3	7	0	6	0	0	0	1	0	2	0	3	0	4	
3	0	5	1	5	0	5	1	5	5	5	3	5	4	
3	5	12	13	5	0	5	1	5	5	5	3	5	4	
3	9	8	14	9	0	9	1	9	5	9	3	9	4	
6	10	13	6	0	5	12	5	0	5	1	5	5	5	3	5	4	
5	13	6	0	5	3	5	0	5	1	5	2	5	1	5	0	
5	4	1	5	12	13	5	0	5	1	5	2	5	1	5	0	
5	6	0	5	1	2	5	0	5	1	5	5	5	3	5	4	
6	14	7	0	5	1	4	5	0	5	1	5	2	5	1	5	0	
4	14	7	0	6	0	0	0	1	0	5	0	3	0	4	
2	1	2	1	0	1	1	1	2	1	1	1	0	
6	10	13	6	0	5	3	5	0	5	1	5	2	5	5	5	4	
3	10	13	6	6	0	6	1	6	5	6	3	6	4	
3	1	5	3	5	0	5	1	5	2	5	5	5	4	
3	1	5	0	5	0	5	1	5	2	5	3	5	4	
2	1	5	5	0	5	1	5	5	5	3	5	4	
5	4	1	5	0	6	5	0	5	1	5	2	5	3	5	4	
5	5	0	7	8	11	5	0	5	1	5	2	5	5	5	4	
3	8	9	6	6	0	6	1	6	5	6	3	6	4	
3	7	8	9	7	0	7	1	7	5	7	3	7	4	
2	2	1	1	0	1	1	1	2	1	5	1	4	
5	3	5	12	13	10	5	0	5	1	5	5	5	3	5	4	
3	6	13	10	6	0	6	1	6	2	6	1	6	0	
2	4	3	4	0	4	1	4	5	4	3	4	4	
4	0	5	1	4	5	0	5	1	5	2	5	5	5	4	
5	3	5	0	7	8	5	0	5	1	5	2	5	3	5	4	
7	2	1	5	0	7	8	11	5	0	5	1	5	5	5	3	5	4	
4	13	6	9	8	6	0	6	1	6	2	6	3	6	4	
2	9	6	6	0	6	1	6	2	6	5	6	4	
4	10	13	6	0	0	0	0	1	0	2	0	3	0	4	
4	7	0	6	13	0	0	0	1	0	2	0	5	0	4	
2	6	9	6	0	6	1	6	2	6	1	6	0	
5	14	7	0	5	3	5	0	5	1	5	2	5	3	5	4	
3	3	5	1	5	0	5	1	5	2	5	1	5	0	
5	1	5	0	7	8	5	0	5	1	5	2	5	5	5	4	
4	6	0	5	12	5	0	5	1	5	2	5	5	5	4	
3	3	5	1	5	0	5	1	5	5	5	3	5	4	
5	14	7	0	5	12	5	0	5	1	5	2	5	3	5	4	
2	4	2	4	0	4	1	4	2	4	1	4	0	
3	14	7	0	0	0	0	1	0	2	0	5	0	4	
2	13	10	13	0	13	1	13	5	13	3	13	4	
2	2	1	1	0	1	1	1	2	1	3	1	4	
3	0	7	8	0	0	0	1	0	2	0	3	0	4	
2	5	12	5	0	5	1	5	2	5	3	5	4	
7	11	9	6	0	5	1	2	5	0	5	1	5	5	5	3	5	4	
4	5	0	7	8	5	0	5	1	5	5	5	3	5	4	
5	12	13	6	9	11	6	0	6	1	6	2	6	1	6	0	
3	0	5	12	5	0	5	1	5	2	5	1	5	0	
5	1	5	0	7	14	5	0	5	1	5	2	5	1	5	0	
5	4	1	5	0	6	5	0	5	1	5	2	5	5	5	4	
6	4	1	5	0	6	9	5	0	5	1	5	2	5	3	5	4	
4	12	5	1	4	5	0	5	1	5	2	5	1	5	0	
3	0	7	8	0	0	0	1	0	2	0	1	0	0	
5	8	9	6	13	10	6	0	6	1	6	2	6	5	6	4	
2	13	6	6	0	6	1	6	2	6	3	6	4	
7	11	9	6	0	5	1	2	5	0	5	1	5	2	5	1	5	0	
5	7	0	5	1	2	5	0	5	1	5	2	5	1	5	0	
2	2	4	4	0	4	1	4	5	4	3	4	4	
4	5	0	7	8	5	0	5	1	5	2	5	3	5	4	
4	2	1	5	12	5	0	5	1	5	2	5	3	5	4	
3	8	9	6	6	0	6	1	6	2	6	3	6	4	
3	9	8	7	7	0	7	1	7	2	7	1	7	0	
5	3	5	0	6	9	5	0	5	1	5	2	5	5	5	4	
4	6	0	5	1	5	0	5	1	5	2	5	5	5	4	
5	9	6	0	5	12	5	0	5	1	5	2	5	5	5	4	
5	7	0	5	1	2	5	0	5	1	5	2	5	5	5	4	
3	3	5	12	5	0	5	1	5	2	5	1	5	0	
7	2	1	5	0	7	8	11	5	0	5	1	5	2	5	1	5	0	
4	8	9	6	13	6	0	6	1	6	5	6	3	6	4	
2	14	7	7	0	7	1	7	2	7	5	7	4	
5	8	7	0	5	12	5	0	5	1	5	2	5	3	5	4	
5	3	5	0	7	8	5	0	5	1	5	2	5	1	5	0	
2	9	6	6	0	6	1	6	2	6	3	6	4	
3	5	0	7	5	0	5	1	5	2	5	5	5	4	
3	8	9	6	6	0	6	1	6	2	6	1	6	0	
7	10	13	6	0	5	1	2	5	0	5	1	5	2	5	5	5	4	
3	11	8	14	8	0	8	1	8	5	8	3	8	4	
6	2	1	5	0	7	8	5	0	5	1	5	2	5	3	5	4	
5	14	7	0	6	13	0	0	0	1	0	2	0	3	0	4	
4	3	5	12	13	5	0	5	1	5	2	5	3	5	4	
4	4	1	5	0	5	0	5	1	5	5	5	3	5	4	
3	11	8	14	8	0	8	1	8	2	8	3	8	4	
5	11	9	6	0	5	5	0	5	1	5	2	5	5	5	4	
2	6	9	6	0	6	1	6	5	6	3	6	4	
3	14	8	11	8	0	8	1	8	2	8	1	8	0	
7	11	9	6	0	5	1	4	5	0	5	1	5	2	5	1	5	0	
6	2	1	5	0	7	14	5	0	5	1	5	2	5	5	5	4	
6	13	6	0	5	1	4	5	0	5	1	5	5	5	3	5	4	
6	14	7	0	6	13	10	0	0	0	1	0	2	0	1	0	0	
3	9	8	7	7	0	7	1	7	2	7	5	7	4	
6	10	13	6	0	5	3	5	0	5	1	5	2	5	3	5	4	
2	12	5	5	0	5	1	5	2	5	3	5	4	
4	1	5	12	13	5	0	5	1	5	2	5	5	5	4	
5	11	9	6	13	10	6	0	6	1	6	2	6	1	6	0	
4	11	9	6	0	0	0	0	1	0	2	0	1	0	0	
4	12	13	6	9	6	0	6	1	6	2	6	3	6	4	
2	0	6	0	0	0	1	0	2	0	5	0	4	
3	6	9	8	6	0	6	1	6	2	6	5	6	4	
6	4	1	5	0	7	14	5	0	5	1	5	2	5	1	5	0	
2	4	3	4	0	4	1	4	2	4	1	4	0	
2	5	12	5	0	5	1	5	2	5	1	5	0	
2	10	13	13	0	13	1	13	2	13	5	13	4	
2	2	1	1	0	1	1	1	5	1	3	1	4	
3	0	5	3	5	0	5	1	5	5	5	3	5	4	
6	3	5	0	7	8	11	5	0	5	1	5	2	5	5	5	4	
2	1	5	5	0	5	1	5	2	5	5	5	4	
6	14	7	0	5	1	4	5	0	5	1	5	2	5	5	5	4	
5	12	5	0	7	14	5	0	5	1	5	5	5	3	5	4	
3	6	0	5	5	0	5	1	5	2	5	3	5	4	
2	5	12	5	0	5	1	5	5	5	3	5	4	
3	11	9	6	6	0	6	1	6	2	6	1	6	0	
2	7	0	0	0	0	1	0	2	0	3	0	4	
3	0	5	1	5	0	5	1	5	2	5	3	5	4	
2	11	9	9	0	9	1	9	2	9	3	9	4	
5	10	13	6	9	8	6	0	6	1	6	5	6	3	6	4	
2	3	5	5	0	5	1	5	2	5	3	5	4	
6	4	1	5	0	7	8	5	0	5	1	5	2	5	1	5	0	
4	6	0	7	14	0	0	0	1	0	2	0	3	0	4	
3	1	5	3	5	0	5	1	5	5	5	3	5	4	
3	5	0	6	5	0	5	1	5	2	5	5	5	4	
5	9	6	0	5	12	5	0	5	1	5	2	5	3	5	4	
3	0	5	12	5	0	5	1	5	5	5	3	5	4	
3	5	0	6	5	0	5	1	5	5	5	3	5	4	
6	2	1	5	0	6	9	5	0	5	1	5	2	5	1	5	0	
6	4	1	5	0	7	14	5	0	5	1	5	5	5	3	5	4	
3	9	8	7	7	0	7	1	7	2	7	3	7	4	
4	7	0	5	1	5	0	5	1	5	2	5	5	5	4	
2	5	3	5	0	5	1	5	2	5	1	5	0	
2	9	8	9	0	9	1	9	5	9	3	9	4	
2	5	12	5	0	5	1	5	2	5	5	5	4	
2	0	5	5	0	5	1	5	5	5	3	5	4	
4	4	1	5	0	5	0	5	1	5	2	5	3	5	4	
3	6	9	11	6	0	6	1	6	2	6	1	6	0	
2	7	0	0	0	0	1	0	2	0	1	0	0	
5	2	1	5	0	6	5	0	5	1	5	2	5	1	5	0	
3	9	8	14	9	0	9	1	9	2	9	1	9	0	
3	6	9	8	6	0	6	1	6	5	6	3	6	4	
3	12	5	1	5	0	5	1	5	5	5	3	5	4	
4	1	5	12	13	5	0	5	1	5	2	5	1	5	0	
2	1	4	1	0	1	1	1	2	1	1	1	0	
6	11	9	6	0	5	1	5	0	5	1	5	2	5	5	5	4	
4	2	1	5	12	5	0	5	1	5	5	5	3	5	4	
4	13	6	9	11	6	0	6	1	6	2	6	1	6	0	
4	3	5	0	6	5	0	5	1	5	2	5	5	5	4	
3	2	4	3	4	0	4	1	4	2	4	3	4	4	
4	12	13	6	9	6	0	6	1	6	2	6	1	6	0	
5	7	0	6	13	10	0	0	0	1	0	2	0	5	0	4	
3	5	0	7	5	0	5	1	5	2	5	3	5	4	
3	14	8	9	9	0	9	1	9	2	9	5	9	4	
6	1	5	0	7	8	11	5	0	5	1	5	5	5	3	5	4	
3	4	1	5	5	0	5	1	5	5	5	3	5	4	
7	4	1	5	0	7	8	11	5	0	5	1	5	2	5	3	5	4	
2	0	7	0	0	0	1	0	2	0	1	0	0	
3	5	12	13	5	0	5	1	5	2	5	3	5	4	
3	12	13	6	6	0	6	1	6	2	6	1	6	0	
5	7	0	5	1	2	5	0	5	1	5	5	5	3	5	4	
3	13	6	0	0	0	0	1	0	2	0	5	0	4	
2	13	10	13	0	13	1	13	2	13	3	13	4	
5	13	6	0	7	14	0	0	0	1	0	2	0	5	0	4	
3	0	6	13	0	0	0	1	0	2	0	1	0	0	
3	0	5	1	5	0	5	1	5	2	5	5	5	4	
6	2	1	5	0	7	8	5	0	5	1	5	2	5	5	5	4	
2	6	0	0	0	0	1	0	2	0	3	0	4	
4	12	5	1	4	5	0	5	1	5	5	5	3	5	4	
6	14	7	0	5	1	2	5	0	5	1	5	2	5	1	5	0	
5	11	9	6	0	5	5	0	5	1	5	5	5	3	5	4	
7	2	1	5	0	7	8	11	5	0	5	1	5	2	5	3	5	4	
5	2	1	5	0	6	5	0	5	1	5	5	5	3	5	4	
7	11	9	6	0	5	1	4	5	0	5	1	5	2	5	5	5	4	
6	8	7	0	5	1	4	5	0	5	1	5	2	5	1	5	0	
7	10	13	6	0	5	1	4	5	0	5	1	5	2	5	5	5	4	
4	9	6	13	10	6	0	6	1	6	5	6	3	6	4	
4	6	0	5	3	5	0	5	1	5	5	5	3	5	4	
6	11	9	6	0	5	12	5	0	5	1	5	2	5	5	5	4	
3	8	9	6	6	0	6	1	6	2	6	5	6	4	
5	1	5	0	7	14	5	0	5	1	5	2	5	5	5	4	
5	8	9	6	13	10	6	0	6	1	6	5	6	3	6	4	
6	13	6	0	5	1	4	5	0	5	1	5	2	5	1	5	0	
3	5	1	4	5	0	5	1	5	2	5	1	5	0	
5	10	13	6	0	7	0	0	0	1	0	5	0	3	0	4	
2	4	2	4	0	4	1	4	5	4	3	4	4	
4	13	6	9	8	6	0	6	1	6	2	6	1	6	0	
6	9	6	0	5	1	4	5	0	5	1	5	2	5	3	5	4	
3	5	1	2	5	0	5	1	5	2	5	3	5	4	
4	7	0	6	13	0	0	0	1	0	5	0	3	0	4	
5	1	5	0	7	14	5	0	5	1	5	2	5	3	5	4	
2	4	3	4	0	4	1	4	2	4	3	4	4	
2	13	6	6	0	6	1	6	5	6	3	6	4	
5	3	5	0	7	14	5	0	5	1	5	2	5	3	5	4	
4	0	5	1	2	5	0	5	1	5	2	5	1	5	0	
4	9	6	0	5	5	0	5	1	5	2	5	5	5	4	
6	10	13	6	0	5	1	5	0	5	1	5	2	5	3	5	4	
3	11	8	14	8	0	8	1	8	2	8	1	8	0	
3	9	6	0	0	0	0	1	0	2	0	5	0	4	
3	7	0	5	5	0	5	1	5	2	5	1	5	0	
3	12	13	6	6	0	6	1	6	2	6	5	6	4	
2	4	1	1	0	1	1	1	2	1	1	1	0	
4	10	13	6	9	6	0	6	1	6	2	6	1	6	0	
4	14	7	0	6	0	0	0	1	0	2	0	3	0	4	
2	7	8	7	0	7	1	7	2	7	5	7	4	
4	5	0	6	9	5	0	5	1	5	5	5	3	5	4	
2	4	1	1	0	1	1	1	2	1	5	1	4	
2	8	11	8	0	8	1	8	2	8	1	8	0	
2	7	14	7	0	7	1	7	5	7	3	7	4	
3	0	7	14	0	0	0	1	0	2	0	3	0	4	
3	3	4	2	4	0	4	1	4	2	4	1	4	0	
5	5	0	7	8	11	5	0	5	1	5	2	5	1	5	0	
3	9	6	0	0	0	0	1	0	2	0	1	0	0	
3	14	8	11	8	0	8	1	8	2	8	3	8	4	
5	12	13	6	9	8	6	0	6	1	6	5	6	3	6	4	
2	8	14	8	0	8	1	8	2	8	5	8	4	
6	10	13	6	0	5	12	5	0	5	1	5	2	5	5	5	4	
2	12	5	5	0	5	1	5	5	5	3	5	4	
5	14	7	0	5	1	5	0	5	1	5	2	5	3	5	4	
7	10	13	6	0	5	1	4	5	0	5	1	5	2	5	1	5	0	
6	14	7	0	5	1	2	5	0	5	1	5	2	5	5	5	4	
5	12	5	0	7	14	5	0	5	1	5	2	5	3	5	4	
4	5	0	6	9	5	0	5	1	5	2	5	1	5	0	
4	13	6	0	7	0	0	0	1	0	2	0	5	0	4	
5	3	5	0	7	8	5	0	5	1	5	2	5	5	5	4	
2	0	5	5	0	5	1	5	2	5	5	5	4	
3	9	6	13	6	0	6	1	6	2	6	1	6	0	
3	5	1	4	5	0	5	1	5	5	5	3	5	4	
2	8	9	9	0	9	1	9	2	9	3	9	4	
5	10	13	6	0	5	5	0	5	1	5	5	5	3	5	4	
5	3	5	0	7	8	5	0	5	1	5	5	5	3	5	4	
5	10	13	6	0	5	5	0	5	1	5	2	5	3	5	4	
5	7	0	5	1	2	5	0	5	1	5	2	5	3	5	4	
2	6	13	6	0	6	1	6	2	6	3	6	4	
7	4	1	5	0	7	8	11	5	0	5	1	5	5	5	3	5	4	
3	0	6	13	0	0	0	1	0	5	0	3	0	4	
5	13	6	0	5	1	5	0	5	1	5	5	5	3	5	4	
3	11	9	6	6	0	6	1	6	2	6	3	6	4	
4	13	6	0	7	0	0	0	1	0	2	0	1	0	0	
5	8	7	0	5	12	5	0	5	1	5	2	5	1	5	0	
5	6	0	5	1	4	5	0	5	1	5	2	5	3	5	4	
5	10	13	6	9	11	6	0	6	1	6	2	6	3	6	4	
3	5	12	13	5	0	5	1	5	2	5	5	5	4	
3	0	5	1	5	0	5	1	5	2	5	1	5	0	
3	12	5	1	5	0	5	1	5	2	5	5	5	4	
2	12	13	13	0	13	1	13	2	13	5	13	4	
5	7	0	6	13	10	0	0	0	1	0	2	0	3	0	4	
4	8	9	6	13	6	0	6	1	6	2	6	1	6	0	
5	4	1	5	0	6	5	0	5	1	5	2	5	1	5	0	
2	4	2	4	0	4	1	4	2	4	3	4	4	
5	8	7	0	5	1	5	0	5	1	5	2	5	5	5	4	
2	5	1	5	0	5	1	5	2	5	3	5	4	
3	1	5	12	5	0	5	1	5	2	5	1	5	0	
5	4	1	5	0	7	5	0	5	1	5	5	5	3	5	4	
5	2	1	5	12	13	5	0	5	1	5	5	5	3	5	4	
5	9	6	0	5	3	5	0	5	1	5	5	5	3	5	4	
5	11	9	6	0	5	5	0	5	1	5	2	5	1	5	0	
5	14	7	0	6	13	0	0	0	1	0	2	0	5	0	4	
5	14	7	0	5	1	5	0	5	1	5	2	5	5	5	4	
3	7	8	11	7	0	7	1	7	2	7	5	7	4	
3	7	8	9	7	0	7	1	7	2	7	3	7	4	
5	1	5	12	13	10	5	0	5	1	5	5	5	3	5	4	
6	13	6	0	5	1	2	5	0	5	1	5	2	5	5	5	4	
6	4	1	5	12	13	10	5	0	5	1	5	2	5	3	5	4	
3	7	0	6	0	0	0	1	0	2	0	1	0	0	
5	1	5	0	6	9	5	0	5	1	5	2	5	1	5	0	
4	2	1	5	0	5	0	5	1	5	5	5	3	5	4	
2	3	5	5	0	5	1	5	2	5	1	5	0	
4	5	12	13	10	5	0	5	1	5	2	5	3	5	4	
3	6	0	5	5	0	5	1	5	5	5	3	5	4	
2	1	4	1	0	1	1	1	2	1	5	1	4	
2	3	5	5	0	5	1	5	5	5	3	5	4	
4	13	6	9	11	6	0	6	1	6	2	6	3	6	4	
2	7	0	0	0	0	1	0	5	0	3	0	4	
3	0	7	14	0	0	0	1	0	2	0	1	0	0	
3	9	6	0	0	0	0	1	0	5	0	3	0	4	
3	9	8	14	9	0	9	1	9	2	9	3	9	4	
6	8	7	0	5	1	2	5	0	5	1	5	2	5	1	5	0	
4	12	5	1	2	5	0	5	1	5	2	5	3	5	4	
3	11	9	6	6	0	6	1	6	5	6	3	6	4	
2	3	4	4	0	4	1	4	2	4	3	4	4	
3	4	1	5	5	0	5	1	5	2	5	3	5	4	
6	4	1	5	0	6	9	5	0	5	1	5	5	5	3	5	4	
2	7	14	7	0	7	1	7	2	7	3	7	4	
6	2	1	5	12	13	10	5	0	5	1	5	2	5	3	5	4	
3	5	0	7	5	0	5	1	5	5	5	3	5	4	
6	2	1	5	0	7	8	5	0	5	1	5	2	5	1	5	0	
5	14	7	0	5	1	5	0	5	1	5	2	5	1	5	0	
5	11	9	6	13	10	6	0	6	1	6	5	6	3	6	4	
3	9	6	13	6	0	6	1	6	5	6	3	6	4	
3	6	0	5	5	0	5	1	5	2	5	1	5	0	
5	3	5	0	7	14	5	0	5	1	5	2	5	1	5	0	
5	2	1	5	0	6	5	0	5	1	5	2	5	5	5	4	
2	8	11	8	0	8	1	8	5	8	3	8	4	
2	8	14	8	0	8	1	8	2	8	3	8	4	
2	9	8	9	0	9	1	9	2	9	1	9	0	
4	0	5	1	4	5	0	5	1	5	2	5	3	5	4	
4	7	0	5	12	5	0	5	1	5	5	5	3	5	4	
4	11	9	6	0	0	0	0	1	0	2	0	5	0	4	
5	11	9	6	0	5	5	0	5	1	5	2	5	3	5	4	
3	12	5	3	5	0	5	1	5	2	5	3	5	4	
5	4	1	5	0	7	5	0	5	1	5	2	5	1	5	0	
3	6	9	8	6	0	6	1	6	2	6	1	6	0	
5	13	6	0	5	12	5	0	5	1	5	2	5	3	5	4	
5	12	13	6	9	8	6	0	6	1	6	2	6	1	6	0	
3	2	1	5	5	0	5	1	5	2	5	1	5	0	
2	12	13	13	0	13	1	13	2	13	3	13	4	
6	10	13	6	0	5	1	5	0	5	1	5	5	5	3	5	4	
5	12	13	6	9	8	6	0	6	1	6	2	6	5	6	4	
2	0	7	0	0	0	1	0	5	0	3	0	4	
5	8	7	0	5	1	5	0	5	1	5	5	5	3	5	4	
3	5	1	4	5	0	5	1	5	2	5	3	5	4	
4	5	0	7	14	5	0	5	1	5	5	5	3	5	4	
5	1	5	0	6	9	5	0	5	1	5	2	5	3	5	4	
3	12	13	6	6	0	6	1	6	5	6	3	6	4	
6	9	6	0	5	1	4	5	0	5	1	5	5	5	3	5	4	
4	13	6	9	8	6	0	6	1	6	5	6	3	6	4	
3	12	5	3	5	0	5	1	5	2	5	5	5	4	
7	10	13	6	0	5	1	2	5	0	5	1	5	2	5	1	5	0	
3	13	6	9	6	0	6	1	6	2	6	3	6	4	
4	5	12	13	10	5	0	5	1	5	2	5	1	5	0	
4	10	13	6	9	6	0	6	1	6	2	6	5	6	4	
2	14	7	7	0	7	1	7	2	7	1	7	0	
3	3	5	1	5	0	5	1	5	2	5	3	5	4	
4	1	5	0	6	5	0	5	1	5	2	5	3	5	4	
5	10	13	6	9	11	6	0	6	1	6	2	6	5	6	4	
2	9	6	6	0	6	1	6	2	6	1	6	0	
5	13	6	0	5	1	5	0	5	1	5	2	5	1	5	0	
2	2	4	4	0	4	1	4	2	4	3	4	4	
6	9	6	0	5	1	2	5	0	5	1	5	2	5	1	5	0	
5	9	6	0	5	12	5	0	5	1	5	2	5	1	5	0	
5	13	6	0	5	12	5	0	5	1	5	2	5	1	5	0	
5	13	6	0	5	3	5	0	5	1	5	5	5	3	5	4	
5	11	9	6	13	10	6	0	6	1	6	2	6	5	6	4	
5	10	13	6	9	11	6	0	6	1	6	5	6	3	6	4	
4	6	0	5	12	5	0	5	1	5	2	5	3	5	4	
3	14	8	9	9	0	9	1	9	2	9	3	9	4	
3	1	5	0	5	0	5	1	5	2	5	1	5	0	
4	0	6	13	10	0	0	0	1	0	5	0	3	0	4	
6	4	1	5	0	7	8	5	0	5	1	5	2	5	5	5	4	
7	10	13	6	0	5	1	4	5	0	5	1	5	5	5	3	5	4	
6	4	1	5	0	7	14	5	0	5	1	5	2	5	5	5	4	
5	6	0	5	1	4	5	0	5	1	5	2	5	5	5	4	
5	8	7	0	5	3	5	0	5	1	5	2	5	5	5	4	
2	5	3	5	0	5	1	5	2	5	3	5	4	
3	5	1	2	5	0	5	1	5	5	5	3	5	4	
7	10	13	6	0	5	1	2	5	0	5	1	5	5	5	3	5	4	
4	5	0	7	14	5	0	5	1	5	2	5	5	5	4	
2	14	8	8	0	8	1	8	5	8	3	8	4	
4	5	0	6	9	5	0	5	1	5	2	5	5	5	4	
3	7	8	11	7	0	7	1	7	2	7	3	7	4	
2	8	14	8	0	8	1	8	2	8	1	8	0	
5	12	5	0	7	14	5	0	5	1	5	2	5	1	5	0	
6	1	5	0	7	8	11	5	0	5	1	5	2	5	1	5	0	
3	7	0	6	0	0	0	1	0	5	0	3	0	4	
6	11	9	6	0	5	3	5	0	5	1	5	2	5	1	5	0	
6	2	1	5	0	7	14	5	0	5	1	5	5	5	3	5	4	
5	14	7	0	5	12	5	0	5	1	5	2	5	5	5	4	
6	11	9	6	0	5	12	5	0	5	1	5	2	5	1	5	0	
4	0	5	1	4	5	0	5	1	5	5	5	3	5	4	
3	8	7	0	0	0	0	1	0	2	0	3	0	4	
4	1	5	12	13	5	0	5	1	5	5	5	3	5	4	
5	4	1	5	12	13	5	0	5	1	5	2	5	3	5	4	
2	14	8	8	0	8	1	8	2	8	1	8	0	
3	11	8	14	8	0	8	1	8	2	8	5	8	4	
5	5	0	7	8	11	5	0	5	1	5	2	5	3	5	4	
6	2	1	5	0	7	14	5	0	5	1	5	2	5	1	5	0	
3	8	7	0	0	0	0	1	0	2	0	1	0	0	
7	11	9	6	0	5	1	4	5	0	5	1	5	5	5	3	5	4	
3	6	13	10	6	0	6	1	6	2	6	5	6	4	
4	1	5	0	6	5	0	5	1	5	2	5	5	5	4	
5	7	0	5	1	4	5	0	5	1	5	2	5	5	5	4	
2	11	8	8	0	8	1	8	2	8	3	8	4	
5	14	7	0	5	1	5	0	5	1	5	5	5	3	5	4	
4	13	6	9	8	6	0	6	1	6	2	6	5	6	4	
2	9	8	9	0	9	1	9	2	9	3	9	4	
3	6	0	7	0	0	0	1	0	2	0	1	0	0	
3	0	7	14	0	0	0	1	0	2	0	5	0	4	
2	2	4	4	0	4	1	4	2	4	5	4	4	
4	3	5	0	6	5	0	5	1	5	2	5	3	5	4	
5	9	6	0	5	1	5	0	5	1	5	2	5	1	5	0	
4	7	0	5	3	5	0	5	1	5	2	5	3	5	4	
5	9	6	0	5	12	5	0	5	1	5	5	5	3	5	4	
2	14	7	7	0	7	1	7	2	7	3	7	4	
5	10	13	6	9	8	6	0	6	1	6	2	6	1	6	0	
3	11	8	7	7	0	7	1	7	2	7	3	7	4	
5	13	6	0	5	12	5	0	5	1	5	2	5	5	5	4	
4	10	13	6	0	0	0	0	1	0	2	0	5	0	4	
3	7	8	9	7	0	7	1	7	2	7	1	7	0	
3	4	1	5	5	0	5	1	5	2	5	1	5	0	
4	13	6	0	7	0	0	0	1	0	2	0	3	0	4	
3	6	0	7	0	0	0	1	0	2	0	5	0	4	
5	2	1	5	0	7	5	0	5	1	5	2	5	1	5	0	
2	0	6	0	0	0	1	0	2	0	3	0	4	
3	7	8	11	7	0	7	1	7	5	7	3	7	4	
6	10	13	6	0	5	3	5	0	5	1	5	5	5	3	5	4	
3	1	5	12	5	0	5	1	5	2	5	3	5	4	
5	1	5	0	7	8	5	0	5	1	5	5	5	3	5	4	
3	0	6	9	0	0	0	1	0	5	0	3	0	4	
7	11	9	6	0	5	1	2	5	0	5	1	5	2	5	5	5	4	
5	8	7	0	5	3	5	0	5	1	5	5	5	3	5	4	
3	6	13	10	6	0	6	1	6	5	6	3	6	4	
3	13	6	0	0	0	0	1	0	2	0	3	0	4	
2	13	10	13	0	13	1	13	2	13	1	13	0	
2	0	6	0	0	0	1	0	2	0	1	0	0	
7	2	1	5	0	7	8	11	5	0	5	1	5	2	5	5	5	4	
2	8	9	9	0	9	1	9	2	9	1	9	0	
5	14	7	0	6	13	0	0	0	1	0	2	0	1	0	0	
5	8	7	0	5	3	5	0	5	1	5	2	5	1	5	0	
4	14	7	0	5	5	0	5	1	5	2	5	1	5	0	
2	5	0	5	0	5	1	5	2	5	5	5	4	
6	14	7	0	5	1	2	5	0	5	1	5	2	5	3	5	4	
4	7	0	5	1	5	0	5	1	5	5	5	3	5	4	
6	2	1	5	0	6	9	5	0	5	1	5	2	5	5	5	4	
4	12	5	1	4	5	0	5	1	5	2	5	3	5	4	
4	6	0	5	1	5	0	5	1	5	2	5	3	5	4	
2	7	14	7	0	7	1	7	2	7	1	7	0	
5	4	1	5	12	13	5	0	5	1	5	5	5	3	5	4	
5	4	1	5	12	13	5	0	5	1	5	2	5	5	5	4	
4	3	5	0	6	5	0	5	1	5	2	5	1	5	0	
6	9	6	0	5	1	4	5	0	5	1	5	2	5	1	5	0	
5	3	5	0	7	14	5	0	5	1	5	2	5	5	5	4	
5	10	13	6	9	8	6	0	6	1	6	2	6	3	6	4	
2	11	9	9	0	9	1	9	5	9	3	9	4	
2	9	11	9	0	9	1	9	2	9	1	9	0	
5	3	5	0	6	9	5	0	5	1	5	2	5	1	5	0	
5	2	1	5	0	7	5	0	5	1	5	5	5	3	5	4	
4	7	0	5	3	5	0	5	1	5	2	5	5	5	4	
3	7	8	11	7	0	7	1	7	2	7	1	7	0	
2	10	13	13	0	13	1	13	2	13	3	13	4	
6	9	6	0	5	1	2	5	0	5	1	5	2	5	5	5	4	
4	6	0	7	14	0	0	0	1	0	5	0	3	0	4	
4	6	0	7	14	0	0	0	1	0	2	0	5	0	4	
6	2	1	5	0	6	9	5	0	5	1	5	2	5	3	5	4	
3	12	5	1	5	0	5	1	5	2	5	3	5	4	
2	8	7	7	0	7	1	7	2	7	1	7	0	
3	6	9	11	6	0	6	1	6	2	6	3	6	4	
2	5	0	5	0	5	1	5	5	5	3	5	4	
4	0	7	8	11	0	0	0	1	0	5	0	3	0	4	
3	11	8	7	7	0	7	1	7	2	7	5	7	4	
4	13	6	0	5	5	0	5	1	5	2	5	5	5	4	
2	0	7	0	0	0	1	0	2	0	3	0	4	
3	14	8	9	9	0	9	1	9	2	9	1	9	0	
6	10	13	6	0	5	12	5	0	5	1	5	2	5	1	5	0	
4	13	6	0	5	5	0	5	1	5	5	5	3	5	4	
3	9	8	14	9	0	9	1	9	2	9	5	9	4	
7	11	9	6	0	5	1	2	5	0	5	1	5	2	5	3	5	4	
2	10	13	13	0	13	1	13	5	13	3	13	4	
2	2	4	4	0	4	1	4	2	4	1	4	0	
4	12	5	1	4	5	0	5	1	5	2	5	5	5	4	
5	3	5	0	7	14	5	0	5	1	5	5	5	3	5	4	
4	6	0	7	14	0	0	0	1	0	2	0	1	0	0	
2	0	6	0	0	0	1	0	5	0	3	0	4	
5	9	6	0	5	1	5	0	5	1	5	2	5	3	5	4	
2	0	5	5	0	5	1	5	2	5	1	5	0	
5	1	5	12	13	10	5	0	5	1	5	2	5	1	5	0	
2	11	9	9	0	9	1	9	2	9	1	9	0	
2	6	9	6	0	6	1	6	2	6	5	6	4	
2	5	0	5	0	5	1	5	2	5	1	5	0	
5	1	5	0	7	8	5	0	5	1	5	2	5	3	5	4	
4	0	5	1	2	5	0	5	1	5	5	5	3	5	4	
3	11	8	7	7	0	7	1	7	2	7	1	7	0	
5	7	0	5	1	4	5	0	5	1	5	5	5	3	5	4	
3	14	8	11	8	0	8	1	8	2	8	5	8	4	
5	12	13	6	9	11	6	0	6	1	6	2	6	5	6	4	
2	8	7	7	0	7	1	7	2	7	5	7	4	
6	10	13	6	0	5	1	5	0	5	1	5	2	5	1	5	0	
5	13	6	0	5	3	5	0	5	1	5	2	5	3	5	4	
3	9	8	7	7	0	7	1	7	5	7	3	7	4	
5	4	1	5	0	6	5	0	5	1	5	5	5	3	5	4	
3	0	5	3	5	0	5	1	5	2	5	5	5	4	
3	1	5	12	5	0	5	1	5	5	5	3	5	4	
3	3	5	0	5	0	5	1	5	2	5	3	5	4	
4	4	1	5	12	5	0	5	1	5	2	5	3	5	4	
5	6	0	5	1	2	5	0	5	1	5	2	5	3	5	4	
3	7	0	5	5	0	5	1	5	2	5	3	5	4	
5	13	6	0	7	14	0	0	0	1	0	5	0	3	0	4	
2	13	6	6	0	6	1	6	2	6	5	6	4	
3	12	5	0	5	0	5	1	5	2	5	5	5	4	
5	14	7	0	6	13	0	0	0	1	0	5	0	3	0	4	
4	6	0	5	1	5	0	5	1	5	2	5	1	5	0	
3	0	7	8	0	0	0	1	0	2	0	5	0	4	
4	6	0	5	1	5	0	5	1	5	5	5	3	5	4	
3	1	5	0	5	0	5	1	5	2	5	5	5	4	
2	1	5	5	0	5	1	5	2	5	3	5	4	
5	3	5	0	6	9	5	0	5	1	5	5	5	3	5	4	
3	9	6	0	0	0	0	1	0	2	0	3	0	4	
6	13	6	0	5	1	2	5	0	5	1	5	2	5	1	5	0	
3	5	0	6	5	0	5	1	5	2	5	1	5	0	
3	0	6	13	0	0	0	1	0	2	0	5	0	4	
2	11	8	8	0	8	1	8	2	8	1	8	0	
6	14	7	0	5	1	4	5	0	5	1	5	5	5	3	5	4	
3	12	13	6	6	0	6	1	6	2	6	3	6	4	
5	14	7	0	5	12	5	0	5	1	5	5	5	3	5	4	
2	4	1	1	0	1	1	1	2	1	3	1	4	
2	8	9	9	0	9	1	9	2	9	5	9	4	
2	5	3	5	0	5	1	5	5	5	3	5	4	
4	1	5	0	6	5	0	5	1	5	5	5	3	5	4	
2	1	5	5	0	5	1	5	2	5	1	5	0	
3	14	7	0	0	0	0	1	0	2	0	1	0	0	
4	8	7	0	5	5	0	5	1	5	5	5	3	5	4	
2	5	0	5	0	5	1	5	2	5	3	5	4	
4	0	7	8	11	0	0	0	1	0	2	0	3	0	4	
3	3	5	1	5	0	5	1	5	2	5	5	5	4	
4	12	5	1	2	5	0	5	1	5	5	5	3	5	4	
5	7	0	6	13	10	0	0	0	1	0	5	0	3	0	4	
4	1	5	12	13	5	0	5	1	5	2	5	3	5	4	
4	12	5	0	7	5	0	5	1	5	2	5	5	5	4	
3	3	4	2	4	0	4	1	4	5	4	3	4	4	
2	4	3	4	0	4	1	4	2	4	5	4	4	
2	7	8	7	0	7	1	7	2	7	3	7	4	
3	3	5	0	5	0	5	1	5	2	5	1	5	0	
3	0	6	9	0	0	0	1	0	2	0	3	0	4	
6	11	9	6	0	5	1	5	0	5	1	5	2	5	3	5	4	
3	6	9	11	6	0	6	1	6	5	6	3	6	4	
2	14	8	8	0	8	1	8	2	8	5	8	4	
5	12	13	6	9	11	6	0	6	1	6	2	6	3	6	4	
6	10	13	6	0	5	3	5	0	5	1	5	2	5	1	5	0	
6	2	1	5	12	13	10	5	0	5	1	5	2	5	5	5	4	
4	2	1	5	0	5	0	5	1	5	2	5	3	5	4	
5	8	7	0	5	3	5	0	5	1	5	2	5	3	5	4	
5	6	0	5	1	4	5	0	5	1	5	5	5	3	5	4	
2	2	1	1	0	1	1	1	2	1	1	1	0	
2	11	8	8	0	8	1	8	2	8	5	8	4	
6	4	1	5	0	7	8	5	0	5	1	5	5	5	3	5	4	
6	4	1	5	0	7	8	5	0	5	1	5	2	5	3	5	4	
6	4	1	5	12	13	10	5	0	5	1	5	2	5	1	5	0	
3	10	13	6	6	0	6	1	6	2	6	5	6	4	
3	11	8	7	7	0	7	1	7	5	7	3	7	4	
3	12	13	10	13	0	13	1	13	2	13	5	13	4	
6	4	1	5	12	13	10	5	0	5	1	5	5	5	3	5	4	
4	4	1	5	12	5	0	5	1	5	2	5	5	5	4	
3	10	13	6	6	0	6	1	6	2	6	1	6	0	
2	11	9	9	0	9	1	9	2	9	5	9	4	
5	10	13	6	0	5	5	0	5	1	5	2	5	5	5	4	
5	14	7	0	5	3	5	0	5	1	5	2	5	1	5	0	
2	1	2	1	0	1	1	1	2	1	3	1	4	
2	6	0	0	0	0	1	0	2	0	5	0	4	
4	3	5	12	13	5	0	5	1	5	5	5	3	5	4	
3	12	5	1	5	0	5	1	5	2	5	1	5	0	
5	6	0	5	1	4	5	0	5	1	5	2	5	1	5	0	
4	8	7	0	5	5	0	5	1	5	2	5	1	5	0	
4	13	6	0	5	5	0	5	1	5	2	5	1	5	0	
4	9	6	13	10	6	0	6	1	6	2	6	1	6	0	
5	2	1	5	0	7	5	0	5	1	5	2	5	5	5	4	
5	7	0	6	13	10	0	0	0	1	0	2	0	1	0	0	
6	10	13	6	0	5	12	5	0	5	1	5	2	5	3	5	4	
6	2	1	5	0	6	9	5	0	5	1	5	5	5	3	5	4	
3	6	13	10	6	0	6	1	6	2	6	3	6	4	
4	11	9	6	13	6	0	6	1	6	2	6	1	6	0	
4	13	6	0	7	0	0	0	1	0	5	0	3	0	4	
2	7	8	7	0	7	1	7	2	7	1	7	0	
2	7	14	7	0	7	1	7	2	7	5	7	4	
6	9	6	0	5	1	4	5	0	5	1	5	2	5	5	5	4	
5	13	6	0	5	3	5	0	5	1	5	2	5	5	5	4	
3	6	9	11	6	0	6	1	6	2	6	5	6	4	
3	0	6	9	0	0	0	1	0	2	0	5	0	4	
2	10	13	13	0	13	1	13	2	13	1	13	0	
3	6	9	8	6	0	6	1	6	2	6	3	6	4	
4	10	13	6	0	0	0	0	1	0	5	0	3	0	4	
4	4	1	5	0	5	0	5	1	5	2	5	1	5	0	
6	11	9	6	0	5	1	5	0	5	1	5	2	5	1	5	0	
4	7	0	6	13	0	0	0	1	0	2	0	3	0	4	
3	8	7	0	0	0	0	1	0	5	0	3	0	4	
5	9	6	0	5	1	5	0	5	1	5	5	5	3	5	4	
5	12	13	6	9	8	6	0	6	1	6	2	6	3	6	4	
3	0	7	8	0	0	0	1	0	5	0	3	0	4	
3	7	8	9	7	0	7	1	7	2	7	5	7	4	
4	3	5	0	7	5	0	5	1	5	5	5	3	5	4	
4	13	6	0	5	5	0	5	1	5	2	5	3	5	4	
4	12	5	0	7	5	0	5	1	5	2	5	1	5	0	
4	12	13	6	9	6	0	6	1	6	5	6	3	6	4	
3	10	13	6	6	0	6	1	6	2	6	3	6	4	
5	6	0	5	1	2	5	0	5	1	5	2	5	1	5	0	
4	6	0	5	3	5	0	5	1	5	2	5	1	5	0	
6	8	7	0	5	1	4	5	0	5	1	5	2	5	3	5	4	
3	3	4	2	4	0	4	1	4	2	4	3	4	4	
4	1	5	0	7	5	0	5	1	5	2	5	3	5	4	
6	3	5	0	7	8	11	5	0	5	1	5	2	5	1	5	0	
6	11	9	6	0	5	12	5	0	5	1	5	5	5	3	5	4	
4	9	6	0	5	5	0	5	1	5	2	5	1	5	0	
4	2	1	5	12	5	0	5	1	5	2	5	1	5	0	
5	13	6	0	7	14	0	0	0	1	0	2	0	1	0	0	
2	8	14	8	0	8	1	8	5	8	3	8	4	
2	8	11	8	0	8	1	8	2	8	3	8	4	
5	13	6	0	7	14	0	0	0	1	0	2	0	3	0	4	
6	8	7	0	5	1	4	5	0	5	1	5	2	5	5	5	4	
5	10	13	6	0	7	0	0	0	1	0	2	0	1	0	0	
3	9	6	13	6	0	6	1	6	2	6	3	6	4	
6	11	9	6	0	5	12	5	0	5	1	5	2	5	3	5	4	
4	11	9	6	13	6	0	6	1	6	5	6	3	6	4	
4	11	9	6	13	6	0	6	1	6	2	6	5	6	4	
2	1	2	1	0	1	1	1	2	1	5	1	4	
6	4	1	5	0	6	9	5	0	5	1	5	2	5	1	5	0	
4	6	0	5	3	5	0	5	1	5	2	5	5	5	4	
5	3	5	12	13	10	5	0	5	1	5	2	5	3	5	4	
2	7	0	0	0	0	1	0	2	0	5	0	4	
3	0	5	12	5	0	5	1	5	2	5	5	5	4	
2	5	1	5	0	5	1	5	5	5	3	5	4	
4	0	5	1	2	5	0	5	1	5	2	5	3	5	4	
6	4	1	5	0	6	9	5	0	5	1	5	2	5	5	5	4	
6	14	7	0	5	1	4	5	0	5	1	5	2	5	3	5	4	
2	1	4	1	0	1	1	1	5	1	3	1	4	
4	1	5	0	7	5	0	5	1	5	2	5	1	5	0	
6	13	6	0	5	1	2	5	0	5	1	5	2	5	3	5	4	
3	4	1	5	5	0	5	1	5	2	5	5	5	4	
4	2	1	5	0	5	0	5	1	5	2	5	5	5	4	
3	12	5	0	5	0	5	1	5	5	5	3	5	4	
5	1	5	12	13	10	5	0	5	1	5	2	5	5	5	4	
2	13	10	13	0	13	1	13	2	13	5	13	4	
2	12	5	5	0	5	1	5	2	5	5	5	4	
2	13	6	6	0	6	1	6	2	6	1	6	0	
4	0	6	13	10	0	0	0	1	0	2	0	3	0	4	
6	11	9	6	0	5	3	5	0	5	1	5	2	5	3	5	4	
7	11	9	6	0	5	1	4	5	0	5	1	5	2	5	3	5	4	
5	1	5	12	13	10	5	0	5	1	5	2	5	3	5	4	
6	9	6	0	5	1	2	5	0	5	1	5	5	5	3	5	4	
3	7	0	5	5	0	5	1	5	5	5	3	5	4	
5	8	7	0	5	1	5	0	5	1	5	2	5	3	5	4	
3	2	4	3	4	0	4	1	4	2	4	1	4	0	
3	3	5	0	5	0	5	1	5	5	5	3	5	4	
3	3	5	12	5	0	5	1	5	2	5	5	5	4	
3	6	0	7	0	0	0	1	0	2	0	3	0	4	
4	6	0	5	12	5	0	5	1	5	5	5	3	5	4	
3	12	13	10	13	0	13	1	13	2	13	3	13	4	
5	2	1	5	12	13	5	0	5	1	5	2	5	5	5	4	
5	12	13	6	9	11	6	0	6	1	6	5	6	3	6	4	
5	5	0	7	8	11	5	0	5	1	5	5	5	3	5	4	
2	9	11	9	0	9	1	9	5	9	3	9	4	
6	14	7	0	5	1	2	5	0	5	1	5	5	5	3	5	4	
2	7	8	7	0	7	1	7	5	7	3	7	4	
3	2	4	3	4	0	4	1	4	5	4	3	4	4	
6	10	13	6	0	7	14	0	0	0	1	0	5	0	3	0	4	
3	0	6	9	0	0	0	1	0	2	0	1	0	0	
5	10	13	6	0	7	0	0	0	1	0	2	0	5	0	4	
7	4	1	5	0	7	8	11	5	0	5	1	5	2	5	1	5	0	
4	1	5	0	7	0	0	0	1	0	2	0	5	0	4	
2	1	4	1	0	1	1	1	2	1	3	1	4	
3	12	5	3	5	0	5	1	5	2	5	1	5	0	
3	5	1	4	5	0	5	1	5	2	5	5	5	4	
4	5	0	6	9	5	0	5	1	5	2	5	3	5	4	
7	4	1	5	0	7	8	11	5	0	5	1	5	2	5	5	5	4	
3	2	1	5	5	0	5	1	5	2	5	5	5	4	
5	13	6	0	5	1	5	0	5	1	5	2	5	3	5	4	
3	0	5	3	5	0	5	1	5	2	5	3	5	4	
3	3	5	12	5	0	5	1	5	5	5	3	5	4	
4	6	0	5	12	5	0	5	1	5	2	5	1	5	0	
4	3	5	0	7	5	0	5	1	5	2	5	3	5	4	
5	6	0	5	1	2	5	0	5	1	5	2	5	5	5	4	
4	7	0	6	13	0	0	0	1	0	2	0	1	0	0	
4	8	9	6	13	6	0	6	1	6	2	6	5	6	4	
6	14	7	0	6	13	10	0	0	0	1	0	2	0	5	0	4	
4	1	5	0	6	5	0	5	1	5	2	5	1	5	0	
4	9	6	0	5	5	0	5	1	5	2	5	3	5	4	
2	5	1	5	0	5	1	5	2	5	1	5	0	
6	13	6	0	5	1	4	5	0	5	1	5	2	5	3	5	4	
3	3	5	0	5	0	5	1	5	2	5	5	5	4	
5	1	5	0	6	9	5	0	5	1	5	5	5	3	5	4	
3	13	6	9	6	0	6	1	6	2	6	5	6	4	
6	8	7	0	5	1	2	5	0	5	1	5	5	5	3	5	4	
6	4	1	5	0	7	14	5	0	5	1	5	2	5	3	5	4	
6	10	13	6	0	7	14	0	0	0	1	0	2	0	1	0	0	
5	13	6	0	5	12	5	0	5	1	5	5	5	3	5	4	
2	0	7	0	0	0	1	0	2	0	5	0	4	
6	11	9	6	0	5	3	5	0	5	1	5	2	5	5	5	4	
2	4	2	4	0	4	1	4	2	4	5	4	4	
5	9	6	0	5	3	5	0	5	1	5	2	5	1	5	0	
2	12	13	13	0	13	1	13	2	13	1	13	0	
3	13	6	9	6	0	6	1	6	5	6	3	6	4	
4	0	6	13	10	0	0	0	1	0	2	0	1	0	0	
4	2	1	5	0	5	0	5	1	5	2	5	1	5	0	
7	10	13	6	0	5	1	4	5	0	5	1	5	2	5	3	5	4	
4	12	5	0	7	5	0	5	1	5	5	5	3	5	4	
5	8	7	0	5	12	5	0	5	1	5	2	5	5	5	4	
6	8	7	0	5	1	2	5	0	5	1	5	2	5	3	5	4	
3	7	0	6	0	0	0	1	0	2	0	5	0	4	
4	12	5	1	2	5	0	5	1	5	2	5	5	5	4	
3	2	1	5	5	0	5	1	5	2	5	3	5	4	
5	1	5	0	7	14	5	0	5	1	5	5	5	3	5	4	
5	14	7	0	5	3	5	0	5	1	5	5	5	3	5	4	
5	14	7	0	5	3	5	0	5	1	5	2	5	5	5	4	
5	10	13	6	0	5	5	0	5	1	5	2	5	1	5	0	
4	9	6	13	10	6	0	6	1	6	2	6	5	6	4	
2	5	3	3	0	3	1	3	2	3	5	3	4	
5	3	5	12	13	10	5	0	5	1	5	2	5	1	5	0	
4	5	0	7	14	5	0	5	1	5	2	5	3	5	4	
5	2	1	5	12	13	5	0	5	1	5	2	5	1	5	0	
5	8	9	6	13	10	6	0	6	1	6	2	6	3	6	4	
3	12	5	0	5	0	5	1	5	2	5	1	5	0	
4	7	0	5	1	5	0	5	1	5	2	5	3	5	4	
4	10	13	6	9	6	0	6	1	6	5	6	3	6	4	
4	9	6	13	10	6	0	6	1	6	2	6	3	6	4	
4	11	9	6	13	6	0	6	1	6	2	6	3	6	4	
2	1	2	1	0	1	1	1	5	1	3	1	4	
6	2	1	5	0	7	8	5	0	5	1	5	5	5	3	5	4	
4	14	7	0	6	0	0	0	1	0	2	0	5	0	4	
6	3	5	0	7	8	11	5	0	5	1	5	2	5	3	5	4	
4	0	7	8	11	0	0	0	1	0	2	0	5	0	4	
2	14	8	8	0	8	1	8	2	8	3	8	4	
3	6	0	5	5	0	5	1	5	2	5	5	5	4	
3	13	6	0	0	0	0	1	0	5	0	3	0	4	
6	2	1	5	0	7	14	5	0	5	1	5	2	5	3	5	4	
3	5	1	2	5	0	5	1	5	2	5	1	5	0	
6	14	7	0	6	13	10	0	0	0	1	0	5	0	3	0	4	
4	8	7	0	5	5	0	5	1	5	2	5	5	5	4	
6	9	6	0	5	1	2	5	0	5	1	5	2	5	3	5	4	
5	3	5	0	6	9	5	0	5	1	5	2	5	3	5	4	
6	1	5	0	7	8	11	0	0	0	1	0	2	0	5	0	4	
4	13	6	9	11	6	0	6	1	6	2	6	5	6	4	
3	13	6	9	6	0	6	1	6	2	6	1	6	0	
3	8	7	0	0	0	0	1	0	2	0	5	0	4	
4	0	5	1	4	5	0	5	1	5	2	5	1	5	0	
3	0	6	13	0	0	0	1	0	2	0	3	0	4	
4	5	0	7	14	5	0	5	1	5	2	5	1	5	0	
