20345.4	-1
-1
15.072	15.0769
15
0	5	28
1	21	28
2	15	28
3	1	28
4	3	28
5	28	28
6	22	28
7	28	28
8	1	28
9	4	28
10	0	28
11	0	28
12	10	28
13	0	28
14	1	28
44
0	5	98478.037947	162195.900000	1
0	6	57429.401664	110170.800000	1
0	7	0	66306.500000	0
1	2	88063.404270	136693.400000	1
1	4	5172.000000	44884.400000	1
1	5	159434.150792	216261.200000	1
2	1	108254.665031	136693.400000	1
2	4	8884.516846	17341.700000	1
2	7	80651.402507	136693.400000	1
3	4	32227.483154	38763.800000	1
3	5	22410.000000	51005.000000	1
4	1	26322.000000	44884.400000	1
4	2	9822.000000	17341.700000	1
4	3	11952.000000	38763.800000	1
5	0	109190.150792	162195.900000	1
5	1	140664.890030	216261.200000	1
5	3	44545.483154	51005.000000	1
5	12	34602.000000	70386.900000	1
6	0	64261.288819	110170.800000	1
6	9	61501.036989	91809.000000	1
6	13	32088.000000	64266.300000	1
7	0	0	66306.500000	0
7	2	99485.180114	136693.400000	1
7	8	34828.958412	38763.800000	1
7	14	39204.000000	57125.600000	1
8	7	38734.736019	38763.800000	1
8	9	19373.063513	19381.900000	1
8	11	20392.275135	31623.100000	1
8	14	0	23462.300000	0
9	6	61807.259381	91809.000000	1
9	8	19381.073326	19381.900000	1
9	11	27886.124267	32643.200000	1
10	12	23904.000000	25502.500000	1
10	13	0	14281.400000	0
11	8	23600.042930	31623.100000	1
11	9	28338.356472	32643.200000	1
12	5	41426.335237	70386.900000	1
12	10	22926.000000	25502.500000	1
12	13	23122.890797	25502.500000	1
13	6	36759.664763	64266.300000	1
13	10	0	14281.400000	0
13	12	23959.226034	25502.500000	1
14	7	46872.000000	57125.600000	1
14	8	0	23462.300000	0
840
5	1	2	7	8	11	7	0	7	1	7	2	7	3	7	4	
5	1	5	0	6	9	5	0	5	1	5	2	5	5	5	4	
5	7	2	1	5	12	5	0	5	1	5	2	5	3	5	4	
2	3	5	5	0	5	1	5	2	5	5	5	4	
4	7	2	4	3	7	0	7	1	7	5	7	3	7	4	
6	11	9	6	0	5	3	5	0	5	1	5	5	5	3	5	4	
4	3	5	12	13	5	0	5	1	5	2	5	5	5	4	
2	6	13	6	0	6	1	6	5	6	3	6	4	
6	10	12	5	1	2	7	5	0	5	1	5	2	5	3	5	4	
4	3	5	0	6	5	0	5	1	5	5	5	3	5	4	
3	4	2	7	7	0	7	1	7	2	7	5	7	4	
4	1	2	7	8	7	0	7	1	7	2	7	1	7	0	
6	14	7	2	1	5	12	5	0	5	1	5	2	5	1	5	0	
3	7	2	4	7	0	7	1	7	2	7	3	7	4	
4	2	1	5	12	5	0	5	1	5	2	5	5	5	4	
4	0	5	1	2	5	0	5	1	5	2	5	5	5	4	
4	13	12	5	1	5	0	5	1	5	2	5	5	5	4	
4	7	2	4	3	7	0	7	1	7	2	7	1	7	0	
3	5	12	10	5	0	5	1	5	5	5	3	5	4	
2	12	5	5	0	5	1	5	2	5	1	5	0	
3	5	1	2	5	0	5	1	5	2	5	5	5	4	
4	8	7	2	1	7	0	7	1	7	2	7	1	7	0	
2	8	7	7	0	7	1	7	2	7	3	7	4	
5	10	12	13	6	9	6	0	6	1	6	2	6	3	6	4	
2	6	0	6	0	6	1	6	5	6	3	6	4	
6	14	7	8	9	6	0	7	0	7	1	7	5	7	3	7	4	
4	4	1	5	12	5	0	5	1	5	2	5	1	5	0	
3	2	1	5	5	0	5	1	5	5	5	3	5	4	
4	7	2	1	5	5	0	5	1	5	2	5	5	5	4	
6	0	5	1	2	7	14	5	0	5	1	5	5	5	3	5	4	
4	5	1	2	7	5	0	5	1	5	2	5	1	5	0	
2	8	9	9	0	9	1	9	5	9	3	9	4	
5	4	1	5	12	10	5	0	5	1	5	2	5	5	5	4	
3	5	12	10	5	0	5	1	5	2	5	5	5	4	
6	14	7	8	9	6	0	6	0	6	1	6	2	6	3	6	4	
6	3	4	2	7	8	11	7	0	7	1	7	5	7	3	7	4	
2	6	13	6	0	6	1	6	2	6	1	6	0	
6	8	9	6	13	12	10	6	0	6	1	6	2	6	1	6	0	
4	10	12	5	1	5	0	5	1	5	2	5	5	5	4	
2	0	5	5	0	5	1	5	2	5	3	5	4	
3	3	4	2	2	0	2	1	2	2	2	5	2	4	
5	7	2	1	5	12	5	0	5	1	5	2	5	1	5	0	
3	1	2	7	2	0	2	1	2	5	2	3	2	4	
7	10	12	5	1	2	7	14	5	0	5	1	5	2	5	3	5	4	
4	8	7	2	4	7	0	7	1	7	5	7	3	7	4	
5	2	1	5	12	10	5	0	5	1	5	5	5	3	5	4	
3	2	4	3	2	0	2	1	2	2	2	5	2	4	
2	4	1	1	0	1	1	1	5	1	3	1	4	
5	9	6	0	5	3	5	0	5	1	5	2	5	3	5	4	
5	7	2	1	5	12	5	0	5	1	5	2	5	5	5	4	
3	0	5	3	5	0	5	1	5	2	5	1	5	0	
5	9	6	0	5	3	5	0	5	1	5	2	5	5	5	4	
2	6	13	6	0	6	1	6	2	6	5	6	4	
3	12	5	0	5	0	5	1	5	2	5	3	5	4	
4	11	9	6	0	6	0	6	1	6	2	6	3	6	4	
5	10	12	5	1	2	5	0	5	1	5	2	5	3	5	4	
4	13	6	9	11	6	0	6	1	6	5	6	3	6	4	
3	7	2	4	7	0	7	1	7	2	7	1	7	0	
3	12	5	3	5	0	5	1	5	5	5	3	5	4	
5	12	5	1	2	7	5	0	5	1	5	2	5	3	5	4	
4	6	0	5	3	5	0	5	1	5	2	5	3	5	4	
4	9	6	0	5	5	0	5	1	5	5	5	3	5	4	
2	11	8	8	0	8	1	8	5	8	3	8	4	
2	12	10	12	0	12	1	12	2	12	1	12	0	
4	4	1	5	0	5	0	5	1	5	2	5	5	5	4	
4	0	6	9	11	6	0	6	1	6	2	6	1	6	0	
2	12	10	12	0	12	1	12	5	12	3	12	4	
3	9	6	13	6	0	6	1	6	2	6	5	6	4	
2	2	7	7	0	7	1	7	2	7	3	7	4	
5	14	7	8	9	6	7	0	7	1	7	2	7	1	7	0	
2	8	11	8	0	8	1	8	2	8	5	8	4	
2	5	1	5	0	5	1	5	2	5	5	5	4	
6	10	12	13	6	9	8	6	0	6	1	6	2	6	5	6	4	
4	3	4	2	7	7	0	7	1	7	2	7	1	7	0	
4	6	9	8	7	7	0	7	1	7	5	7	3	7	4	
5	2	1	5	12	13	5	0	5	1	5	2	5	3	5	4	
4	12	5	1	2	5	0	5	1	5	2	5	1	5	0	
2	3	4	4	0	4	1	4	2	4	1	4	0	
3	13	6	0	6	0	6	1	6	2	6	1	6	0	
5	5	0	6	9	8	5	0	5	1	5	2	5	1	5	0	
2	9	11	9	0	9	1	9	2	9	5	9	4	
2	9	8	9	0	9	1	9	2	9	5	9	4	
4	3	5	12	13	5	0	5	1	5	2	5	1	5	0	
3	1	5	0	1	0	1	1	1	5	1	3	1	4	
3	1	5	3	5	0	5	1	5	2	5	1	5	0	
5	2	1	5	12	10	5	0	5	1	5	2	5	1	5	0	
5	8	9	6	13	12	6	0	6	1	6	5	6	3	6	4	
4	8	9	6	13	6	0	6	1	6	2	6	3	6	4	
5	13	12	5	3	4	5	0	5	1	5	2	5	5	5	4	
3	1	5	3	5	0	5	1	5	2	5	3	5	4	
6	10	12	13	6	9	11	6	0	6	1	6	2	6	1	6	0	
3	4	2	7	7	0	7	1	7	2	7	3	7	4	
5	13	12	5	1	2	5	0	5	1	5	5	5	3	5	4	
2	9	11	9	0	9	1	9	2	9	3	9	4	
6	11	9	6	13	12	10	6	0	6	1	6	2	6	3	6	4	
4	4	1	5	12	5	0	5	1	5	5	5	3	5	4	
4	12	13	6	9	6	0	6	1	6	2	6	5	6	4	
5	14	7	2	1	5	5	0	5	1	5	2	5	5	5	4	
6	12	5	1	2	7	14	5	0	5	1	5	2	5	5	5	4	
3	3	5	12	5	0	5	1	5	2	5	3	5	4	
4	0	5	12	10	5	0	5	1	5	2	5	5	5	4	
7	14	7	2	1	5	12	10	5	0	5	1	5	2	5	3	5	4	
5	5	0	6	9	8	5	0	5	1	5	2	5	5	5	4	
3	8	7	2	7	0	7	1	7	2	7	5	7	4	
4	14	7	8	11	7	0	7	1	7	5	7	3	7	4	
2	14	7	7	0	7	1	7	5	7	3	7	4	
2	6	9	6	0	6	1	6	2	6	3	6	4	
4	14	7	8	9	7	0	7	1	7	5	7	3	7	4	
2	6	0	6	0	6	1	6	2	6	1	6	0	
5	14	7	2	1	5	7	0	7	1	7	5	7	3	7	4	
3	1	5	12	5	0	5	1	5	2	5	5	5	4	
3	5	0	6	5	0	5	1	5	2	5	3	5	4	
4	3	4	2	7	7	0	7	1	7	2	7	5	7	4	
3	0	5	12	5	0	5	1	5	2	5	3	5	4	
5	11	8	7	2	1	2	0	2	1	2	5	2	3	2	4	
5	9	8	7	2	1	7	0	7	1	7	2	7	5	7	4	
3	5	12	13	5	0	5	1	5	2	5	1	5	0	
4	11	9	6	0	6	0	6	1	6	5	6	3	6	4	
4	10	12	5	0	5	0	5	1	5	2	5	1	5	0	
7	10	12	5	1	2	7	14	5	0	5	1	5	2	5	5	5	4	
3	11	9	6	6	0	6	1	6	2	6	5	6	4	
3	7	2	1	7	0	7	1	7	2	7	1	7	0	
2	8	7	7	0	7	1	7	5	7	3	7	4	
4	3	5	12	10	5	0	5	1	5	2	5	5	5	4	
2	3	4	4	0	4	1	4	2	4	5	4	4	
2	9	6	6	0	6	1	6	5	6	3	6	4	
5	2	1	5	0	6	5	0	5	1	5	2	5	3	5	4	
5	8	9	6	0	5	5	0	5	1	5	2	5	3	5	4	
2	3	4	4	0	4	1	4	5	4	3	4	4	
5	14	7	2	1	5	5	0	5	1	5	2	5	3	5	4	
2	12	13	12	0	12	1	12	5	12	3	12	4	
4	7	8	9	6	6	0	6	1	6	2	6	3	6	4	
3	0	5	1	1	0	1	1	1	5	1	3	1	4	
3	5	12	13	5	0	5	1	5	5	5	3	5	4	
4	9	8	7	14	9	0	9	1	9	5	9	3	9	4	
2	10	12	12	0	12	1	12	5	12	3	12	4	
4	13	12	5	3	5	0	5	1	5	2	5	1	5	0	
5	4	1	5	12	13	5	0	5	1	5	2	5	1	5	0	
5	6	9	8	7	2	7	0	7	1	7	5	7	3	7	4	
4	14	7	2	4	7	0	7	1	7	2	7	1	7	0	
5	14	7	8	9	6	7	0	7	1	7	5	7	3	7	4	
2	1	2	2	0	2	1	2	2	2	1	2	0	
4	10	12	5	3	5	0	5	1	5	2	5	5	5	4	
4	10	12	13	6	6	0	6	1	6	5	6	3	6	4	
3	1	5	3	5	0	5	1	5	2	5	5	5	4	
3	1	5	0	5	0	5	1	5	2	5	3	5	4	
2	1	5	1	0	1	1	1	5	1	3	1	4	
5	4	1	5	0	6	5	0	5	1	5	2	5	3	5	4	
5	5	0	6	9	11	5	0	5	1	5	2	5	5	5	4	
3	8	9	6	6	0	6	1	6	5	6	3	6	4	
3	7	8	9	9	0	9	1	9	5	9	3	9	4	
2	2	1	2	0	2	1	2	2	2	5	2	4	
4	3	5	12	10	12	0	12	1	12	5	12	3	12	4	
4	6	13	12	10	6	0	6	1	6	2	6	1	6	0	
2	4	3	4	0	4	1	4	5	4	3	4	4	
4	0	5	3	4	5	0	5	1	5	2	5	5	5	4	
5	3	4	2	7	8	7	0	7	1	7	2	7	3	7	4	
4	2	7	8	11	2	0	2	1	2	5	2	3	2	4	
4	13	6	9	8	6	0	6	1	6	2	6	3	6	4	
2	9	6	6	0	6	1	6	2	6	5	6	4	
4	10	12	5	0	5	0	5	1	5	2	5	3	5	4	
5	7	8	9	6	13	7	0	7	1	7	2	7	5	7	4	
2	6	9	6	0	6	1	6	2	6	1	6	0	
5	14	7	2	4	3	7	0	7	1	7	2	7	3	7	4	
3	3	4	1	1	0	1	1	1	2	1	1	1	0	
4	1	2	7	8	7	0	7	1	7	2	7	5	7	4	
3	6	13	12	6	0	6	1	6	2	6	5	6	4	
3	3	4	1	1	0	1	1	1	5	1	3	1	4	
6	14	7	2	1	5	12	5	0	5	1	5	2	5	3	5	4	
2	4	2	2	0	2	1	2	2	2	1	2	0	
6	14	7	8	9	6	0	7	0	7	1	7	2	7	5	7	4	
3	13	12	10	12	0	12	1	12	5	12	3	12	4	
2	2	1	2	0	2	1	2	2	2	3	2	4	
4	0	6	9	8	6	0	6	1	6	2	6	3	6	4	
2	5	12	5	0	5	1	5	2	5	3	5	4	
4	11	8	7	2	2	0	2	1	2	5	2	3	2	4	
5	5	0	6	9	8	6	0	6	1	6	5	6	3	6	4	
5	12	13	6	9	11	6	0	6	1	6	2	6	1	6	0	
3	0	5	12	5	0	5	1	5	2	5	1	5	0	
4	1	2	7	14	7	0	7	1	7	2	7	1	7	0	
5	4	1	5	0	6	5	0	5	1	5	2	5	5	5	4	
5	4	2	7	8	9	7	0	7	1	7	2	7	3	7	4	
4	12	5	1	4	5	0	5	1	5	2	5	1	5	0	
4	0	6	9	8	6	0	6	1	6	2	6	1	6	0	
6	8	9	6	13	12	10	6	0	6	1	6	2	6	5	6	4	
2	13	6	6	0	6	1	6	2	6	3	6	4	
4	11	8	7	2	7	0	7	1	7	2	7	1	7	0	
2	7	2	7	0	7	1	7	2	7	1	7	0	
2	2	4	2	0	2	1	2	5	2	3	2	4	
5	5	0	6	9	8	5	0	5	1	5	2	5	3	5	4	
4	2	1	5	12	5	0	5	1	5	2	5	3	5	4	
3	8	9	6	6	0	6	1	6	2	6	3	6	4	
3	9	8	7	7	0	7	1	7	2	7	1	7	0	
5	3	5	0	6	9	5	0	5	1	5	2	5	5	5	4	
4	6	0	5	1	5	0	5	1	5	2	5	5	5	4	
4	9	6	13	12	6	0	6	1	6	2	6	5	6	4	
2	7	2	7	0	7	1	7	2	7	5	7	4	
3	3	5	12	5	0	5	1	5	2	5	1	5	0	
4	2	7	8	11	7	0	7	1	7	2	7	1	7	0	
4	8	9	6	13	6	0	6	1	6	5	6	3	6	4	
2	14	7	7	0	7	1	7	2	7	5	7	4	
5	8	9	6	13	12	6	0	6	1	6	2	6	3	6	4	
5	3	4	2	7	8	7	0	7	1	7	2	7	1	7	0	
2	9	6	6	0	6	1	6	2	6	3	6	4	
4	5	1	2	7	7	0	7	1	7	2	7	5	7	4	
3	8	9	6	6	0	6	1	6	2	6	1	6	0	
5	10	12	5	1	2	5	0	5	1	5	2	5	5	5	4	
4	11	8	7	14	8	0	8	1	8	5	8	3	8	4	
3	2	7	8	7	0	7	1	7	2	7	3	7	4	
6	14	7	8	9	6	13	6	0	6	1	6	2	6	3	6	4	
4	3	5	12	13	5	0	5	1	5	2	5	3	5	4	
4	4	1	5	0	1	0	1	1	1	5	1	3	1	4	
4	11	8	7	14	7	0	7	1	7	2	7	3	7	4	
5	11	9	6	0	5	6	0	6	1	6	2	6	5	6	4	
2	6	9	6	0	6	1	6	5	6	3	6	4	
4	14	7	8	11	7	0	7	1	7	2	7	1	7	0	
5	11	8	7	2	4	7	0	7	1	7	2	7	1	7	0	
3	2	7	14	7	0	7	1	7	2	7	5	7	4	
5	13	12	5	3	4	12	0	12	1	12	5	12	3	12	4	
7	14	7	2	1	5	12	10	5	0	5	1	5	2	5	1	5	0	
3	9	8	7	7	0	7	1	7	2	7	5	7	4	
4	10	12	5	3	5	0	5	1	5	2	5	3	5	4	
2	12	5	5	0	5	1	5	2	5	3	5	4	
4	1	5	12	13	12	0	12	1	12	2	12	5	12	4	
6	11	9	6	13	12	10	6	0	6	1	6	2	6	1	6	0	
4	11	9	6	0	6	0	6	1	6	2	6	1	6	0	
4	12	13	6	9	6	0	6	1	6	2	6	3	6	4	
2	0	6	6	0	6	1	6	2	6	5	6	4	
3	6	9	8	6	0	6	1	6	2	6	5	6	4	
4	4	2	7	14	7	0	7	1	7	2	7	1	7	0	
2	4	3	4	0	4	1	4	2	4	1	4	0	
2	5	12	5	0	5	1	5	2	5	1	5	0	
3	10	12	13	12	0	12	1	12	2	12	5	12	4	
2	2	1	2	0	2	1	2	5	2	3	2	4	
3	0	5	3	0	0	0	1	0	5	0	3	0	4	
6	3	4	2	7	8	11	7	0	7	1	7	2	7	5	7	4	
2	1	5	1	0	1	1	1	2	1	5	1	4	
4	14	7	2	4	7	0	7	1	7	2	7	5	7	4	
6	12	5	1	2	7	14	2	0	2	1	2	5	2	3	2	4	
3	6	0	5	5	0	5	1	5	2	5	3	5	4	
2	5	12	12	0	12	1	12	5	12	3	12	4	
3	11	9	6	6	0	6	1	6	2	6	1	6	0	
5	7	8	9	6	0	6	0	6	1	6	2	6	3	6	4	
3	0	5	1	5	0	5	1	5	2	5	3	5	4	
2	11	9	9	0	9	1	9	2	9	3	9	4	
6	10	12	13	6	9	8	6	0	6	1	6	5	6	3	6	4	
2	3	5	5	0	5	1	5	2	5	3	5	4	
4	4	2	7	8	7	0	7	1	7	2	7	1	7	0	
5	6	9	8	7	14	6	0	6	1	6	2	6	3	6	4	
3	1	5	3	1	0	1	1	1	5	1	3	1	4	
3	5	0	6	5	0	5	1	5	2	5	5	5	4	
4	9	6	13	12	6	0	6	1	6	2	6	3	6	4	
3	0	5	12	12	0	12	1	12	5	12	3	12	4	
3	5	0	6	6	0	6	1	6	5	6	3	6	4	
4	2	7	8	9	7	0	7	1	7	2	7	1	7	0	
4	4	2	7	14	7	0	7	1	7	5	7	3	7	4	
3	9	8	7	7	0	7	1	7	2	7	3	7	4	
3	7	2	1	7	0	7	1	7	2	7	5	7	4	
2	5	3	5	0	5	1	5	2	5	1	5	0	
2	9	8	9	0	9	1	9	5	9	3	9	4	
2	5	12	12	0	12	1	12	2	12	5	12	4	
2	0	5	0	0	0	1	0	5	0	3	0	4	
4	4	1	5	0	5	0	5	1	5	2	5	3	5	4	
3	6	9	11	6	0	6	1	6	2	6	1	6	0	
5	7	8	9	6	0	7	0	7	1	7	2	7	1	7	0	
5	2	1	5	0	6	5	0	5	1	5	2	5	1	5	0	
4	9	8	7	14	7	0	7	1	7	2	7	1	7	0	
3	6	9	8	6	0	6	1	6	5	6	3	6	4	
3	12	5	1	12	0	12	1	12	5	12	3	12	4	
4	1	5	12	13	5	0	5	1	5	2	5	1	5	0	
2	1	4	1	0	1	1	1	2	1	1	1	0	
5	11	8	7	2	1	7	0	7	1	7	2	7	5	7	4	
4	2	1	5	12	2	0	2	1	2	5	2	3	2	4	
4	13	6	9	11	6	0	6	1	6	2	6	1	6	0	
4	3	5	0	6	6	0	6	1	6	2	6	5	6	4	
3	2	4	3	2	0	2	1	2	2	2	3	2	4	
4	12	13	6	9	6	0	6	1	6	2	6	1	6	0	
6	7	2	1	5	12	10	7	0	7	1	7	2	7	5	7	4	
4	5	1	2	7	5	0	5	1	5	2	5	3	5	4	
4	14	7	8	9	7	0	7	1	7	2	7	5	7	4	
5	1	2	7	8	11	2	0	2	1	2	5	2	3	2	4	
3	4	1	5	1	0	1	1	1	5	1	3	1	4	
5	4	2	7	8	11	7	0	7	1	7	2	7	3	7	4	
5	0	5	1	2	7	5	0	5	1	5	2	5	1	5	0	
3	5	12	13	5	0	5	1	5	2	5	3	5	4	
3	12	13	6	6	0	6	1	6	2	6	1	6	0	
2	7	2	2	0	2	1	2	5	2	3	2	4	
3	13	6	0	6	0	6	1	6	2	6	5	6	4	
3	13	12	10	12	0	12	1	12	2	12	3	12	4	
6	13	6	9	8	7	14	7	0	7	1	7	2	7	5	7	4	
3	0	6	13	6	0	6	1	6	2	6	1	6	0	
3	0	5	1	1	0	1	1	1	2	1	5	1	4	
3	2	7	8	7	0	7	1	7	2	7	5	7	4	
2	6	0	6	0	6	1	6	2	6	3	6	4	
4	12	5	1	4	12	0	12	1	12	5	12	3	12	4	
3	14	7	2	7	0	7	1	7	2	7	1	7	0	
5	11	9	6	0	5	6	0	6	1	6	5	6	3	6	4	
4	2	7	8	11	7	0	7	1	7	2	7	3	7	4	
5	2	1	5	0	6	5	0	5	1	5	5	5	3	5	4	
5	11	8	7	2	4	7	0	7	1	7	2	7	5	7	4	
4	8	7	2	4	7	0	7	1	7	2	7	1	7	0	
5	10	12	5	3	4	5	0	5	1	5	2	5	5	5	4	
5	9	6	13	12	10	6	0	6	1	6	5	6	3	6	4	
4	6	0	5	3	6	0	6	1	6	5	6	3	6	4	
5	11	9	6	13	12	6	0	6	1	6	2	6	5	6	4	
3	8	9	6	6	0	6	1	6	2	6	5	6	4	
4	1	2	7	14	7	0	7	1	7	2	7	5	7	4	
6	8	9	6	13	12	10	6	0	6	1	6	5	6	3	6	4	
5	13	12	5	3	4	5	0	5	1	5	2	5	1	5	0	
3	5	3	4	5	0	5	1	5	2	5	1	5	0	
6	10	12	5	1	2	7	2	0	2	1	2	5	2	3	2	4	
2	4	2	2	0	2	1	2	5	2	3	2	4	
4	13	6	9	8	6	0	6	1	6	2	6	1	6	0	
5	9	8	7	2	4	7	0	7	1	7	2	7	3	7	4	
3	5	1	2	5	0	5	1	5	2	5	3	5	4	
5	7	8	9	6	13	6	0	6	1	6	5	6	3	6	4	
4	1	2	7	14	7	0	7	1	7	2	7	3	7	4	
2	4	3	4	0	4	1	4	2	4	3	4	4	
2	13	6	6	0	6	1	6	5	6	3	6	4	
5	3	4	2	7	14	7	0	7	1	7	2	7	3	7	4	
4	0	5	1	2	5	0	5	1	5	2	5	1	5	0	
4	9	6	0	5	6	0	6	1	6	2	6	5	6	4	
4	10	12	5	1	5	0	5	1	5	2	5	3	5	4	
4	11	8	7	14	7	0	7	1	7	2	7	1	7	0	
3	9	6	0	6	0	6	1	6	2	6	5	6	4	
4	7	2	1	5	5	0	5	1	5	2	5	1	5	0	
3	12	13	6	6	0	6	1	6	2	6	5	6	4	
2	4	1	1	0	1	1	1	2	1	1	1	0	
5	10	12	13	6	9	6	0	6	1	6	2	6	1	6	0	
5	14	7	8	9	6	6	0	6	1	6	2	6	3	6	4	
2	7	8	7	0	7	1	7	2	7	5	7	4	
4	5	0	6	9	6	0	6	1	6	5	6	3	6	4	
2	4	1	1	0	1	1	1	2	1	5	1	4	
2	8	11	8	0	8	1	8	2	8	1	8	0	
2	7	14	14	0	14	1	14	5	14	3	14	4	
6	0	5	1	2	7	14	5	0	5	1	5	2	5	3	5	4	
3	3	4	2	2	0	2	1	2	2	2	1	2	0	
5	5	0	6	9	11	5	0	5	1	5	2	5	1	5	0	
3	9	6	0	6	0	6	1	6	2	6	1	6	0	
4	14	7	8	11	7	0	7	1	7	2	7	3	7	4	
5	12	13	6	9	8	6	0	6	1	6	5	6	3	6	4	
3	8	7	14	7	0	7	1	7	2	7	5	7	4	
2	10	12	12	0	12	1	12	2	12	5	12	4	
2	12	5	12	0	12	1	12	5	12	3	12	4	
4	14	7	2	1	7	0	7	1	7	2	7	3	7	4	
5	10	12	5	3	4	5	0	5	1	5	2	5	1	5	0	
3	14	7	2	7	0	7	1	7	2	7	5	7	4	
6	12	5	1	2	7	14	5	0	5	1	5	2	5	3	5	4	
4	5	0	6	9	5	0	5	1	5	2	5	1	5	0	
5	13	6	9	8	7	7	0	7	1	7	2	7	5	7	4	
5	3	4	2	7	8	7	0	7	1	7	2	7	5	7	4	
2	0	5	0	0	0	1	0	2	0	5	0	4	
3	9	6	13	6	0	6	1	6	2	6	1	6	0	
3	5	3	4	4	0	4	1	4	5	4	3	4	4	
2	8	9	9	0	9	1	9	2	9	3	9	4	
3	10	12	5	12	0	12	1	12	5	12	3	12	4	
5	3	4	2	7	8	2	0	2	1	2	5	2	3	2	4	
3	10	12	5	5	0	5	1	5	2	5	3	5	4	
2	7	2	7	0	7	1	7	2	7	3	7	4	
2	6	13	6	0	6	1	6	2	6	3	6	4	
5	4	2	7	8	11	2	0	2	1	2	5	2	3	2	4	
3	0	6	13	6	0	6	1	6	5	6	3	6	4	
4	13	12	5	1	12	0	12	1	12	5	12	3	12	4	
3	11	9	6	6	0	6	1	6	2	6	3	6	4	
5	13	6	9	8	7	7	0	7	1	7	2	7	1	7	0	
5	8	9	6	13	12	6	0	6	1	6	2	6	1	6	0	
5	6	0	5	3	4	5	0	5	1	5	2	5	3	5	4	
6	10	12	13	6	9	11	6	0	6	1	6	2	6	3	6	4	
3	5	12	13	12	0	12	1	12	2	12	5	12	4	
3	0	5	1	5	0	5	1	5	2	5	1	5	0	
3	12	5	1	12	0	12	1	12	2	12	5	12	4	
2	12	13	12	0	12	1	12	2	12	5	12	4	
6	7	2	1	5	12	10	5	0	5	1	5	2	5	3	5	4	
4	8	9	6	13	6	0	6	1	6	2	6	1	6	0	
5	4	1	5	0	6	5	0	5	1	5	2	5	1	5	0	
2	4	2	2	0	2	1	2	2	2	3	2	4	
4	8	7	2	1	7	0	7	1	7	2	7	5	7	4	
2	5	1	5	0	5	1	5	2	5	3	5	4	
3	1	5	12	5	0	5	1	5	2	5	1	5	0	
3	4	2	7	2	0	2	1	2	5	2	3	2	4	
5	2	1	5	12	13	2	0	2	1	2	5	2	3	2	4	
5	9	6	0	5	3	6	0	6	1	6	5	6	3	6	4	
5	11	9	6	0	5	5	0	5	1	5	2	5	1	5	0	
6	14	7	8	9	6	13	7	0	7	1	7	2	7	5	7	4	
4	14	7	2	1	7	0	7	1	7	2	7	5	7	4	
3	7	8	11	7	0	7	1	7	2	7	5	7	4	
3	7	8	9	7	0	7	1	7	2	7	3	7	4	
4	1	5	12	10	12	0	12	1	12	5	12	3	12	4	
5	13	12	5	1	2	2	0	2	1	2	2	2	5	2	4	
5	4	1	5	12	10	5	0	5	1	5	2	5	3	5	4	
4	7	8	9	6	7	0	7	1	7	2	7	1	7	0	
5	1	5	0	6	9	5	0	5	1	5	2	5	1	5	0	
4	2	1	5	0	2	0	2	1	2	5	2	3	2	4	
2	3	5	5	0	5	1	5	2	5	1	5	0	
3	5	12	10	5	0	5	1	5	2	5	3	5	4	
3	6	0	5	6	0	6	1	6	5	6	3	6	4	
2	1	4	1	0	1	1	1	2	1	5	1	4	
2	3	5	3	0	3	1	3	5	3	3	3	4	
4	13	6	9	11	6	0	6	1	6	2	6	3	6	4	
5	7	8	9	6	0	6	0	6	1	6	5	6	3	6	4	
6	0	5	1	2	7	14	5	0	5	1	5	2	5	1	5	0	
3	9	6	0	6	0	6	1	6	5	6	3	6	4	
4	9	8	7	14	7	0	7	1	7	2	7	3	7	4	
3	8	7	2	7	0	7	1	7	2	7	1	7	0	
4	12	5	1	2	5	0	5	1	5	2	5	3	5	4	
3	11	9	6	6	0	6	1	6	5	6	3	6	4	
2	3	4	4	0	4	1	4	2	4	3	4	4	
3	4	1	5	5	0	5	1	5	2	5	3	5	4	
5	4	2	7	8	9	2	0	2	1	2	5	2	3	2	4	
2	7	14	7	0	7	1	7	2	7	3	7	4	
5	2	1	5	12	10	5	0	5	1	5	2	5	3	5	4	
4	5	1	2	7	2	0	2	1	2	5	2	3	2	4	
3	2	7	8	7	0	7	1	7	2	7	1	7	0	
4	14	7	2	1	7	0	7	1	7	2	7	1	7	0	
6	11	9	6	13	12	10	6	0	6	1	6	5	6	3	6	4	
3	9	6	13	6	0	6	1	6	5	6	3	6	4	
3	6	0	5	5	0	5	1	5	2	5	1	5	0	
5	3	4	2	7	14	7	0	7	1	7	2	7	1	7	0	
5	2	1	5	0	6	6	0	6	1	6	2	6	5	6	4	
2	8	11	8	0	8	1	8	5	8	3	8	4	
3	8	7	14	7	0	7	1	7	2	7	3	7	4	
2	9	8	9	0	9	1	9	2	9	1	9	0	
4	0	5	3	4	5	0	5	1	5	2	5	3	5	4	
5	7	2	1	5	12	2	0	2	1	2	5	2	3	2	4	
4	11	9	6	0	6	0	6	1	6	2	6	5	6	4	
5	11	9	6	0	5	5	0	5	1	5	2	5	3	5	4	
3	12	5	3	5	0	5	1	5	2	5	3	5	4	
3	4	2	7	7	0	7	1	7	2	7	1	7	0	
3	6	9	8	6	0	6	1	6	2	6	1	6	0	
2	13	12	12	0	12	1	12	2	12	3	12	4	
5	12	13	6	9	8	6	0	6	1	6	2	6	1	6	0	
3	2	1	5	5	0	5	1	5	2	5	1	5	0	
2	12	13	12	0	12	1	12	2	12	3	12	4	
4	10	12	5	1	12	0	12	1	12	5	12	3	12	4	
5	12	13	6	9	8	6	0	6	1	6	2	6	5	6	4	
5	0	5	1	2	7	2	0	2	1	2	5	2	3	2	4	
4	8	7	2	1	2	0	2	1	2	5	2	3	2	4	
3	5	3	4	5	0	5	1	5	2	5	3	5	4	
5	5	1	2	7	14	2	0	2	1	2	5	2	3	2	4	
5	1	5	0	6	9	5	0	5	1	5	2	5	3	5	4	
3	12	13	6	6	0	6	1	6	5	6	3	6	4	
5	9	8	7	2	4	2	0	2	1	2	5	2	3	2	4	
4	13	6	9	8	6	0	6	1	6	5	6	3	6	4	
3	12	5	3	12	0	12	1	12	2	12	5	12	4	
5	10	12	5	1	2	5	0	5	1	5	2	5	1	5	0	
3	13	6	9	6	0	6	1	6	2	6	3	6	4	
3	5	12	10	5	0	5	1	5	2	5	1	5	0	
5	10	12	13	6	9	6	0	6	1	6	2	6	5	6	4	
2	14	7	7	0	7	1	7	2	7	1	7	0	
3	3	4	1	1	0	1	1	1	2	1	3	1	4	
4	1	5	0	6	5	0	5	1	5	2	5	3	5	4	
6	10	12	13	6	9	11	6	0	6	1	6	2	6	5	6	4	
2	9	6	6	0	6	1	6	2	6	1	6	0	
4	13	12	5	1	5	0	5	1	5	2	5	1	5	0	
2	2	4	2	0	2	1	2	2	2	3	2	4	
4	9	8	7	2	7	0	7	1	7	2	7	1	7	0	
4	9	6	13	12	6	0	6	1	6	2	6	1	6	0	
2	13	12	12	0	12	1	12	2	12	1	12	0	
4	13	12	5	3	12	0	12	1	12	5	12	3	12	4	
6	11	9	6	13	12	10	6	0	6	1	6	2	6	5	6	4	
6	10	12	13	6	9	11	6	0	6	1	6	5	6	3	6	4	
3	6	13	12	6	0	6	1	6	2	6	3	6	4	
4	14	7	8	9	7	0	7	1	7	2	7	3	7	4	
3	1	5	0	5	0	5	1	5	2	5	1	5	0	
4	0	5	12	10	12	0	12	1	12	5	12	3	12	4	
4	4	2	7	8	7	0	7	1	7	2	7	5	7	4	
5	10	12	5	3	4	12	0	12	1	12	5	12	3	12	4	
4	4	2	7	14	7	0	7	1	7	2	7	5	7	4	
5	6	0	5	3	4	6	0	6	1	6	2	6	5	6	4	
5	8	7	2	4	3	7	0	7	1	7	2	7	5	7	4	
2	5	3	5	0	5	1	5	2	5	3	5	4	
3	5	1	2	2	0	2	1	2	5	2	3	2	4	
5	10	12	5	1	2	2	0	2	1	2	5	2	3	2	4	
5	5	1	2	7	14	7	0	7	1	7	2	7	5	7	4	
3	14	7	8	8	0	8	1	8	5	8	3	8	4	
4	5	0	6	9	6	0	6	1	6	2	6	5	6	4	
3	7	8	11	7	0	7	1	7	2	7	3	7	4	
3	8	7	14	7	0	7	1	7	2	7	1	7	0	
6	12	5	1	2	7	14	5	0	5	1	5	2	5	1	5	0	
5	1	2	7	8	11	7	0	7	1	7	2	7	1	7	0	
4	7	8	9	6	6	0	6	1	6	5	6	3	6	4	
6	11	9	6	0	5	3	5	0	5	1	5	2	5	1	5	0	
3	2	7	14	2	0	2	1	2	5	2	3	2	4	
6	14	7	2	1	5	12	7	0	7	1	7	2	7	5	7	4	
5	11	9	6	13	12	6	0	6	1	6	2	6	1	6	0	
4	0	5	3	4	0	0	0	1	0	5	0	3	0	4	
4	8	9	6	0	6	0	6	1	6	2	6	3	6	4	
4	1	5	12	13	12	0	12	1	12	5	12	3	12	4	
5	4	1	5	12	13	5	0	5	1	5	2	5	3	5	4	
3	14	7	8	7	0	7	1	7	2	7	1	7	0	
4	11	8	7	14	7	0	7	1	7	2	7	5	7	4	
5	5	0	6	9	11	5	0	5	1	5	2	5	3	5	4	
3	2	7	14	7	0	7	1	7	2	7	1	7	0	
4	8	9	6	0	6	0	6	1	6	2	6	1	6	0	
5	11	8	7	2	4	2	0	2	1	2	5	2	3	2	4	
4	6	13	12	10	6	0	6	1	6	2	6	5	6	4	
4	1	5	0	6	6	0	6	1	6	2	6	5	6	4	
3	7	2	4	7	0	7	1	7	2	7	5	7	4	
2	11	8	8	0	8	1	8	2	8	3	8	4	
4	14	7	2	1	2	0	2	1	2	5	2	3	2	4	
5	13	6	9	11	8	6	0	6	1	6	2	6	5	6	4	
3	9	11	8	9	0	9	1	9	2	9	3	9	4	
5	6	9	11	8	7	7	0	7	1	7	2	7	1	7	0	
6	0	5	1	2	7	14	7	0	7	1	7	2	7	5	7	4	
2	2	4	2	0	2	1	2	2	2	5	2	4	
4	3	5	0	6	5	0	5	1	5	2	5	3	5	4	
5	9	6	0	5	1	5	0	5	1	5	2	5	1	5	0	
4	7	2	4	3	7	0	7	1	7	2	7	3	7	4	
4	9	6	13	12	6	0	6	1	6	5	6	3	6	4	
2	14	7	7	0	7	1	7	2	7	3	7	4	
7	10	12	5	1	2	7	8	5	0	5	1	5	2	5	1	5	0	
3	11	8	7	7	0	7	1	7	2	7	3	7	4	
2	13	12	12	0	12	1	12	2	12	5	12	4	
4	10	12	5	0	12	0	12	1	12	2	12	5	12	4	
3	7	8	9	7	0	7	1	7	2	7	1	7	0	
3	4	1	5	5	0	5	1	5	2	5	1	5	0	
6	13	12	5	1	2	7	5	0	5	1	5	2	5	3	5	4	
5	6	9	11	8	7	7	0	7	1	7	2	7	5	7	4	
2	2	7	7	0	7	1	7	2	7	1	7	0	
2	0	6	6	0	6	1	6	2	6	3	6	4	
3	7	8	11	8	0	8	1	8	5	8	3	8	4	
4	10	12	5	3	12	0	12	1	12	5	12	3	12	4	
3	1	5	12	5	0	5	1	5	2	5	3	5	4	
4	1	2	7	8	2	0	2	1	2	5	2	3	2	4	
3	0	6	9	6	0	6	1	6	5	6	3	6	4	
4	11	8	7	2	7	0	7	1	7	2	7	5	7	4	
5	8	7	2	4	3	2	0	2	1	2	5	2	3	2	4	
4	6	13	12	10	6	0	6	1	6	5	6	3	6	4	
3	13	6	0	6	0	6	1	6	2	6	3	6	4	
3	13	12	10	12	0	12	1	12	2	12	1	12	0	
2	0	6	6	0	6	1	6	2	6	1	6	0	
4	2	7	8	11	7	0	7	1	7	2	7	5	7	4	
2	8	9	9	0	9	1	9	2	9	1	9	0	
6	14	7	8	9	6	13	7	0	7	1	7	2	7	1	7	0	
5	8	7	2	4	3	7	0	7	1	7	2	7	1	7	0	
5	14	7	2	1	5	5	0	5	1	5	2	5	1	5	0	
2	5	0	0	0	0	1	0	2	0	5	0	4	
3	14	7	2	7	0	7	1	7	2	7	3	7	4	
3	7	2	1	2	0	2	1	2	5	2	3	2	4	
4	2	7	8	9	7	0	7	1	7	2	7	5	7	4	
4	12	5	1	4	5	0	5	1	5	2	5	3	5	4	
4	6	0	5	1	5	0	5	1	5	2	5	3	5	4	
2	7	14	7	0	7	1	7	2	7	1	7	0	
5	4	1	5	12	13	12	0	12	1	12	5	12	3	12	4	
5	4	1	5	12	13	12	0	12	1	12	2	12	5	12	4	
4	3	5	0	6	5	0	5	1	5	2	5	1	5	0	
6	9	6	0	5	3	4	5	0	5	1	5	2	5	1	5	0	
5	3	4	2	7	14	7	0	7	1	7	2	7	5	7	4	
7	10	12	5	1	2	7	8	5	0	5	1	5	2	5	3	5	4	
2	11	9	9	0	9	1	9	5	9	3	9	4	
2	9	11	9	0	9	1	9	2	9	1	9	0	
5	3	5	0	6	9	5	0	5	1	5	2	5	1	5	0	
2	2	7	2	0	2	1	2	5	2	3	2	4	
4	7	2	4	3	7	0	7	1	7	2	7	5	7	4	
3	7	8	11	7	0	7	1	7	2	7	1	7	0	
3	10	12	13	12	0	12	1	12	2	12	3	12	4	
5	9	11	8	7	2	7	0	7	1	7	2	7	5	7	4	
5	6	9	8	7	14	6	0	6	1	6	5	6	3	6	4	
6	6	9	11	8	7	14	7	0	7	1	7	2	7	5	7	4	
4	2	7	8	9	7	0	7	1	7	2	7	3	7	4	
3	12	5	1	5	0	5	1	5	2	5	3	5	4	
2	8	7	7	0	7	1	7	2	7	1	7	0	
3	6	9	11	6	0	6	1	6	2	6	3	6	4	
2	5	0	0	0	0	1	0	5	0	3	0	4	
4	0	6	9	11	6	0	6	1	6	5	6	3	6	4	
3	11	8	7	7	0	7	1	7	2	7	5	7	4	
3	13	12	5	12	0	12	1	12	2	12	5	12	4	
5	0	5	1	2	7	5	0	5	1	5	2	5	3	5	4	
4	14	7	8	9	7	0	7	1	7	2	7	1	7	0	
2	10	12	12	0	12	1	12	2	12	1	12	0	
3	13	12	5	12	0	12	1	12	5	12	3	12	4	
5	9	11	8	7	14	7	0	7	1	7	2	7	5	7	4	
4	11	8	7	2	7	0	7	1	7	2	7	3	7	4	
3	10	12	13	12	0	12	1	12	5	12	3	12	4	
2	2	4	2	0	2	1	2	2	2	1	2	0	
4	12	5	1	4	12	0	12	1	12	2	12	5	12	4	
5	3	4	2	7	14	2	0	2	1	2	5	2	3	2	4	
6	6	9	11	8	7	14	7	0	7	1	7	2	7	1	7	0	
2	0	6	6	0	6	1	6	5	6	3	6	4	
5	9	6	0	5	1	5	0	5	1	5	2	5	3	5	4	
2	0	5	5	0	5	1	5	2	5	1	5	0	
4	1	5	12	10	5	0	5	1	5	2	5	1	5	0	
2	11	9	9	0	9	1	9	2	9	1	9	0	
2	6	9	6	0	6	1	6	2	6	5	6	4	
2	5	0	5	0	5	1	5	2	5	1	5	0	
4	1	2	7	8	7	0	7	1	7	2	7	3	7	4	
4	0	5	1	2	2	0	2	1	2	5	2	3	2	4	
3	11	8	7	7	0	7	1	7	2	7	1	7	0	
3	7	2	4	2	0	2	1	2	5	2	3	2	4	
4	14	7	8	11	7	0	7	1	7	2	7	5	7	4	
5	12	13	6	9	11	6	0	6	1	6	2	6	5	6	4	
2	8	7	7	0	7	1	7	2	7	5	7	4	
4	10	12	5	1	5	0	5	1	5	2	5	1	5	0	
4	13	12	5	3	5	0	5	1	5	2	5	3	5	4	
3	9	8	7	9	0	9	1	9	5	9	3	9	4	
5	4	1	5	0	6	6	0	6	1	6	5	6	3	6	4	
3	0	5	3	0	0	0	1	0	2	0	5	0	4	
3	1	5	12	12	0	12	1	12	5	12	3	12	4	
3	3	5	0	5	0	5	1	5	2	5	3	5	4	
4	4	1	5	12	5	0	5	1	5	2	5	3	5	4	
5	6	0	5	1	2	5	0	5	1	5	2	5	3	5	4	
4	7	2	1	5	5	0	5	1	5	2	5	3	5	4	
6	13	6	9	8	7	14	6	0	6	1	6	5	6	3	6	4	
2	13	6	6	0	6	1	6	2	6	5	6	4	
3	12	5	0	12	0	12	1	12	2	12	5	12	4	
6	14	7	8	9	6	13	6	0	6	1	6	5	6	3	6	4	
4	6	0	5	1	5	0	5	1	5	2	5	1	5	0	
5	0	6	9	11	8	6	0	6	1	6	2	6	5	6	4	
4	6	0	5	1	6	0	6	1	6	5	6	3	6	4	
3	1	5	0	1	0	1	1	1	2	1	5	1	4	
2	1	5	5	0	5	1	5	2	5	3	5	4	
5	3	5	0	6	9	6	0	6	1	6	5	6	3	6	4	
3	9	6	0	6	0	6	1	6	2	6	3	6	4	
5	13	12	5	1	2	5	0	5	1	5	2	5	1	5	0	
3	5	0	6	5	0	5	1	5	2	5	1	5	0	
3	0	6	13	6	0	6	1	6	2	6	5	6	4	
2	11	8	8	0	8	1	8	2	8	1	8	0	
4	14	7	2	4	2	0	2	1	2	5	2	3	2	4	
3	12	13	6	6	0	6	1	6	2	6	3	6	4	
6	14	7	2	1	5	12	2	0	2	1	2	5	2	3	2	4	
2	4	1	1	0	1	1	1	2	1	3	1	4	
2	8	9	9	0	9	1	9	2	9	5	9	4	
2	5	3	3	0	3	1	3	5	3	3	3	4	
4	1	5	0	6	6	0	6	1	6	5	6	3	6	4	
2	1	5	5	0	5	1	5	2	5	1	5	0	
6	14	7	8	9	6	0	7	0	7	1	7	2	7	1	7	0	
5	8	9	6	0	5	6	0	6	1	6	5	6	3	6	4	
2	5	0	5	0	5	1	5	2	5	3	5	4	
4	0	6	9	11	6	0	6	1	6	2	6	3	6	4	
3	3	4	1	1	0	1	1	1	2	1	5	1	4	
4	12	5	1	2	2	0	2	1	2	5	2	3	2	4	
6	7	2	1	5	12	10	2	0	2	1	2	5	2	3	2	4	
4	1	5	12	13	5	0	5	1	5	2	5	3	5	4	
5	12	5	1	2	7	7	0	7	1	7	2	7	5	7	4	
3	3	4	2	2	0	2	1	2	5	2	3	2	4	
2	4	3	4	0	4	1	4	2	4	5	4	4	
2	7	8	7	0	7	1	7	2	7	3	7	4	
3	3	5	0	5	0	5	1	5	2	5	1	5	0	
3	0	6	9	6	0	6	1	6	2	6	3	6	4	
6	11	9	6	0	5	1	5	0	5	1	5	2	5	3	5	4	
3	6	9	11	6	0	6	1	6	5	6	3	6	4	
3	14	7	8	7	0	7	1	7	2	7	5	7	4	
5	12	13	6	9	11	6	0	6	1	6	2	6	3	6	4	
4	10	12	5	3	5	0	5	1	5	2	5	1	5	0	
5	2	1	5	12	10	2	0	2	1	2	2	2	5	2	4	
4	2	1	5	0	5	0	5	1	5	2	5	3	5	4	
5	8	7	2	4	3	7	0	7	1	7	2	7	3	7	4	
5	6	0	5	3	4	6	0	6	1	6	5	6	3	6	4	
2	2	1	2	0	2	1	2	2	2	1	2	0	
2	11	8	8	0	8	1	8	2	8	5	8	4	
4	4	2	7	8	2	0	2	1	2	5	2	3	2	4	
4	4	2	7	8	7	0	7	1	7	2	7	3	7	4	
5	4	1	5	12	10	5	0	5	1	5	2	5	1	5	0	
4	10	12	13	6	6	0	6	1	6	2	6	5	6	4	
3	11	8	7	8	0	8	1	8	5	8	3	8	4	
2	12	10	12	0	12	1	12	2	12	5	12	4	
5	4	1	5	12	10	12	0	12	1	12	5	12	3	12	4	
4	4	1	5	12	12	0	12	1	12	2	12	5	12	4	
4	10	12	13	6	6	0	6	1	6	2	6	1	6	0	
2	11	9	9	0	9	1	9	2	9	5	9	4	
3	10	12	5	12	0	12	1	12	2	12	5	12	4	
5	14	7	2	4	3	7	0	7	1	7	2	7	1	7	0	
2	1	2	2	0	2	1	2	2	2	3	2	4	
2	6	0	6	0	6	1	6	2	6	5	6	4	
4	3	5	12	13	12	0	12	1	12	5	12	3	12	4	
3	12	5	1	5	0	5	1	5	2	5	1	5	0	
5	6	0	5	3	4	5	0	5	1	5	2	5	1	5	0	
5	8	9	6	0	5	5	0	5	1	5	2	5	1	5	0	
3	13	12	5	5	0	5	1	5	2	5	1	5	0	
5	9	6	13	12	10	6	0	6	1	6	2	6	1	6	0	
2	2	7	2	0	2	1	2	2	2	5	2	4	
6	7	2	1	5	12	10	5	0	5	1	5	2	5	1	5	0	
2	10	12	12	0	12	1	12	2	12	3	12	4	
4	2	7	8	9	2	0	2	1	2	5	2	3	2	4	
4	6	13	12	10	6	0	6	1	6	2	6	3	6	4	
4	11	9	6	13	6	0	6	1	6	2	6	1	6	0	
5	13	6	9	8	7	6	0	6	1	6	5	6	3	6	4	
2	7	8	7	0	7	1	7	2	7	1	7	0	
2	7	14	14	0	14	1	14	2	14	5	14	4	
6	9	6	0	5	3	4	6	0	6	1	6	2	6	5	6	4	
4	13	12	5	3	12	0	12	1	12	2	12	5	12	4	
3	6	9	11	6	0	6	1	6	2	6	5	6	4	
3	0	6	9	6	0	6	1	6	2	6	5	6	4	
3	10	12	13	12	0	12	1	12	2	12	1	12	0	
4	6	9	11	8	6	0	6	1	6	2	6	3	6	4	
4	10	12	5	0	12	0	12	1	12	5	12	3	12	4	
4	4	1	5	0	5	0	5	1	5	2	5	1	5	0	
6	11	9	6	0	5	1	5	0	5	1	5	2	5	1	5	0	
6	7	8	11	9	6	13	6	0	6	1	6	2	6	3	6	4	
4	8	9	6	0	6	0	6	1	6	5	6	3	6	4	
5	9	8	7	2	1	2	0	2	1	2	5	2	3	2	4	
6	12	13	6	9	11	8	6	0	6	1	6	2	6	3	6	4	
5	0	6	9	11	8	6	0	6	1	6	5	6	3	6	4	
4	7	8	11	9	9	0	9	1	9	2	9	5	9	4	
4	3	4	2	7	2	0	2	1	2	5	2	3	2	4	
3	13	12	5	5	0	5	1	5	2	5	3	5	4	
5	12	5	1	2	7	5	0	5	1	5	2	5	1	5	0	
4	12	13	6	9	6	0	6	1	6	5	6	3	6	4	
4	10	12	13	6	6	0	6	1	6	2	6	3	6	4	
5	6	0	5	1	2	5	0	5	1	5	2	5	1	5	0	
4	6	0	5	3	5	0	5	1	5	2	5	1	5	0	
4	8	7	2	4	7	0	7	1	7	2	7	3	7	4	
3	3	4	2	2	0	2	1	2	2	2	3	2	4	
3	1	2	7	7	0	7	1	7	2	7	3	7	4	
6	3	4	2	7	8	11	7	0	7	1	7	2	7	1	7	0	
5	11	9	6	13	12	6	0	6	1	6	5	6	3	6	4	
4	9	6	0	5	5	0	5	1	5	2	5	1	5	0	
4	2	1	5	12	5	0	5	1	5	2	5	1	5	0	
7	13	12	5	1	2	7	14	5	0	5	1	5	2	5	1	5	0	
3	8	7	14	8	0	8	1	8	5	8	3	8	4	
2	8	11	8	0	8	1	8	2	8	3	8	4	
7	13	12	5	1	2	7	14	5	0	5	1	5	2	5	3	5	4	
4	8	7	2	4	7	0	7	1	7	2	7	5	7	4	
6	10	12	5	1	2	7	5	0	5	1	5	2	5	1	5	0	
3	9	6	13	6	0	6	1	6	2	6	3	6	4	
5	11	9	6	13	12	6	0	6	1	6	2	6	3	6	4	
4	11	9	6	13	6	0	6	1	6	5	6	3	6	4	
4	11	9	6	13	6	0	6	1	6	2	6	5	6	4	
2	1	2	2	0	2	1	2	2	2	5	2	4	
6	4	2	7	8	11	9	7	0	7	1	7	2	7	1	7	0	
4	6	0	5	3	6	0	6	1	6	2	6	5	6	4	
4	3	5	12	10	5	0	5	1	5	2	5	3	5	4	
5	7	2	1	5	0	2	0	2	1	2	2	2	5	2	4	
3	0	5	12	12	0	12	1	12	2	12	5	12	4	
2	5	1	1	0	1	1	1	5	1	3	1	4	
4	0	5	1	2	5	0	5	1	5	2	5	3	5	4	
6	4	2	7	8	11	9	7	0	7	1	7	2	7	5	7	4	
4	14	7	2	4	7	0	7	1	7	2	7	3	7	4	
2	1	4	1	0	1	1	1	5	1	3	1	4	
3	1	2	7	7	0	7	1	7	2	7	1	7	0	
5	13	12	5	1	2	5	0	5	1	5	2	5	3	5	4	
3	4	1	5	1	0	1	1	1	2	1	5	1	4	
4	2	1	5	0	2	0	2	1	2	2	2	5	2	4	
3	12	5	0	12	0	12	1	12	5	12	3	12	4	
4	1	5	12	10	12	0	12	1	12	2	12	5	12	4	
3	13	12	10	12	0	12	1	12	2	12	5	12	4	
2	12	5	12	0	12	1	12	2	12	5	12	4	
2	13	6	6	0	6	1	6	2	6	1	6	0	
4	0	5	12	10	5	0	5	1	5	2	5	3	5	4	
6	11	9	6	0	5	3	5	0	5	1	5	2	5	3	5	4	
7	11	9	6	0	5	3	4	5	0	5	1	5	2	5	3	5	4	
4	1	5	12	10	5	0	5	1	5	2	5	3	5	4	
5	9	11	8	7	2	2	0	2	1	2	5	2	3	2	4	
4	7	2	1	5	2	0	2	1	2	5	2	3	2	4	
7	8	11	9	6	0	5	1	5	0	5	1	5	2	5	3	5	4	
3	2	4	3	2	0	2	1	2	2	2	1	2	0	
3	3	5	0	0	0	0	1	0	5	0	3	0	4	
3	3	5	12	12	0	12	1	12	2	12	5	12	4	
6	6	0	5	1	2	7	5	0	5	1	5	2	5	3	5	4	
3	6	13	12	6	0	6	1	6	5	6	3	6	4	
2	12	10	12	0	12	1	12	2	12	3	12	4	
5	2	1	5	12	13	2	0	2	1	2	2	2	5	2	4	
5	12	13	6	9	11	6	0	6	1	6	5	6	3	6	4	
5	5	0	6	9	11	6	0	6	1	6	5	6	3	6	4	
2	9	11	9	0	9	1	9	5	9	3	9	4	
3	14	7	2	2	0	2	1	2	5	2	3	2	4	
2	7	8	8	0	8	1	8	5	8	3	8	4	
3	2	4	3	2	0	2	1	2	5	2	3	2	4	
7	10	12	5	1	2	7	14	2	0	2	1	2	5	2	3	2	4	
3	0	6	9	6	0	6	1	6	2	6	1	6	0	
6	10	12	5	1	2	7	2	0	2	1	2	2	2	5	2	4	
5	4	2	7	8	11	7	0	7	1	7	2	7	1	7	0	
3	1	2	7	2	0	2	1	2	2	2	5	2	4	
2	1	4	1	0	1	1	1	2	1	3	1	4	
3	12	5	3	5	0	5	1	5	2	5	1	5	0	
3	5	3	4	4	0	4	1	4	2	4	5	4	4	
4	5	0	6	9	5	0	5	1	5	2	5	3	5	4	
5	4	2	7	8	11	2	0	2	1	2	2	2	5	2	4	
3	2	1	5	2	0	2	1	2	2	2	5	2	4	
4	13	12	5	1	5	0	5	1	5	2	5	3	5	4	
3	0	5	3	5	0	5	1	5	2	5	3	5	4	
3	3	5	12	12	0	12	1	12	5	12	3	12	4	
3	6	13	12	6	0	6	1	6	2	6	1	6	0	
4	3	4	2	7	7	0	7	1	7	2	7	3	7	4	
5	6	0	5	1	2	6	0	6	1	6	2	6	5	6	4	
6	7	8	11	9	6	13	7	0	7	1	7	2	7	1	7	0	
5	8	11	9	6	13	6	0	6	1	6	2	6	5	6	4	
7	14	7	2	1	5	12	10	2	0	2	1	2	2	2	5	2	4	
4	1	5	0	6	5	0	5	1	5	2	5	1	5	0	
4	9	6	0	5	5	0	5	1	5	2	5	3	5	4	
2	5	1	5	0	5	1	5	2	5	1	5	0	
5	13	12	5	3	4	5	0	5	1	5	2	5	3	5	4	
3	3	5	0	0	0	0	1	0	2	0	5	0	4	
5	1	5	0	6	9	6	0	6	1	6	5	6	3	6	4	
3	13	6	9	6	0	6	1	6	2	6	5	6	4	
3	8	7	2	2	0	2	1	2	5	2	3	2	4	
4	4	2	7	14	7	0	7	1	7	2	7	3	7	4	
7	10	12	5	1	2	7	14	5	0	5	1	5	2	5	1	5	0	
2	13	12	12	0	12	1	12	5	12	3	12	4	
5	0	5	1	2	7	2	0	2	1	2	2	2	5	2	4	
6	11	9	6	0	5	3	6	0	6	1	6	2	6	5	6	4	
2	4	2	2	0	2	1	2	2	2	5	2	4	
5	9	6	0	5	3	5	0	5	1	5	2	5	1	5	0	
2	12	13	12	0	12	1	12	2	12	1	12	0	
3	13	6	9	6	0	6	1	6	5	6	3	6	4	
4	0	5	12	10	5	0	5	1	5	2	5	1	5	0	
4	2	1	5	0	5	0	5	1	5	2	5	1	5	0	
5	10	12	5	3	4	5	0	5	1	5	2	5	3	5	4	
5	12	5	1	2	7	2	0	2	1	2	5	2	3	2	4	
6	8	11	9	6	13	12	6	0	6	1	6	2	6	5	6	4	
8	8	11	9	6	0	5	1	2	5	0	5	1	5	2	5	3	5	4	
5	7	8	11	9	6	6	0	6	1	6	2	6	5	6	4	
4	12	5	1	2	2	0	2	1	2	2	2	5	2	4	
3	2	1	5	5	0	5	1	5	2	5	3	5	4	
4	1	2	7	14	2	0	2	1	2	5	2	3	2	4	
5	14	7	2	4	3	2	0	2	1	2	5	2	3	2	4	
5	14	7	2	4	3	2	0	2	1	2	2	2	5	2	4	
3	10	12	5	5	0	5	1	5	2	5	1	5	0	
5	9	6	13	12	10	6	0	6	1	6	2	6	5	6	4	
2	5	3	3	0	3	1	3	2	3	5	3	4	
4	3	5	12	10	5	0	5	1	5	2	5	1	5	0	
5	5	1	2	7	14	5	0	5	1	5	2	5	3	5	4	
5	2	1	5	12	13	5	0	5	1	5	2	5	1	5	0	
7	8	11	9	6	13	12	10	6	0	6	1	6	2	6	3	6	4	
3	12	5	0	5	0	5	1	5	2	5	1	5	0	
3	7	2	1	7	0	7	1	7	2	7	3	7	4	
5	10	12	13	6	9	6	0	6	1	6	5	6	3	6	4	
5	9	6	13	12	10	6	0	6	1	6	2	6	3	6	4	
4	11	9	6	13	6	0	6	1	6	2	6	3	6	4	
2	1	2	2	0	2	1	2	5	2	3	2	4	
3	2	7	8	2	0	2	1	2	5	2	3	2	4	
6	14	7	8	11	9	6	6	0	6	1	6	2	6	5	6	4	
6	3	4	2	7	8	11	7	0	7	1	7	2	7	3	7	4	
4	0	6	9	11	6	0	6	1	6	2	6	5	6	4	
3	14	7	8	7	0	7	1	7	2	7	3	7	4	
3	6	0	5	6	0	6	1	6	2	6	5	6	4	
3	13	6	0	6	0	6	1	6	5	6	3	6	4	
3	2	7	14	7	0	7	1	7	2	7	3	7	4	
3	5	1	2	5	0	5	1	5	2	5	1	5	0	
7	14	7	2	1	5	12	10	2	0	2	1	2	5	2	3	2	4	
6	8	11	9	6	0	5	6	0	6	1	6	2	6	5	6	4	
6	9	6	0	5	1	2	5	0	5	1	5	2	5	3	5	4	
5	3	5	0	6	9	5	0	5	1	5	2	5	3	5	4	
6	1	5	0	6	9	11	6	0	6	1	6	2	6	5	6	4	
4	13	6	9	11	6	0	6	1	6	2	6	5	6	4	
3	13	6	9	6	0	6	1	6	2	6	1	6	0	
5	8	11	9	6	0	6	0	6	1	6	2	6	5	6	4	
4	0	5	3	4	5	0	5	1	5	2	5	1	5	0	
3	0	6	13	6	0	6	1	6	2	6	3	6	4	
5	5	1	2	7	14	5	0	5	1	5	2	5	1	5	0	
