8905.12	8622.93
1640
5633.86	911.971
15
0	0	28
1	0	28
2	0	28
3	0	28
4	0	28
5	4	28
6	0	28
7	0	28
8	0	28
9	0	28
10	0	28
11	0	28
12	0	28
13	0	28
14	0	28
44
0	5	57082.500000	162195.900000	1.000000
0	6	33342.750000	110170.800000	1.000000
0	7	0.000000	66306.500000	0.000000
1	2	50548.500000	136693.400000	1.000000
1	4	7395.750000	44884.400000	1.000000
1	5	79362.000000	216261.200000	1.000000
2	1	57935.250000	136693.400000	1.000000
2	4	0.000000	17341.700000	0.000000
2	7	43690.500000	136693.400000	1.000000
3	4	0.000000	38763.800000	0.000000
3	5	18740.250000	51005.000000	1.000000
4	1	8075.250000	44884.400000	1.000000
4	2	0.000000	17341.700000	0.000000
4	3	0.000000	38763.800000	0.000000
5	0	60952.500000	162195.900000	1.000000
5	1	79760.250000	216261.200000	1.000000
5	3	19437.750000	51005.000000	1.000000
5	12	17356.500000	70386.900000	1.000000
6	0	36051.750000	110170.800000	1.000000
6	9	20787.750000	91809.000000	1.000000
6	13	11097.000000	64266.300000	1.000000
7	0	0.000000	66306.500000	0.000000
7	2	50919.750000	136693.400000	1.000000
7	8	17259.750000	38763.800000	1.000000
7	14	14701.500000	57125.600000	1.000000
8	7	18891.000000	38763.800000	1.000000
8	9	0.000000	19381.900000	0.000000
8	11	12559.500000	31623.100000	1.000000
8	14	0.000000	23462.300000	0.000000
9	6	20736.000000	91809.000000	1.000000
9	8	0.000000	19381.900000	0.000000
9	11	0.000000	32643.200000	0.000000
10	12	8964.000000	25502.500000	1.000000
10	13	0.000000	14281.400000	0.000000
11	8	13932.000000	31623.100000	1.000000
11	9	0.000000	32643.200000	0.000000
12	5	19602.000000	70386.900000	1.000000
12	10	8597.250000	25502.500000	1.000000
12	13	0.000000	25502.500000	0.000000
13	6	13162.500000	64266.300000	1.000000
13	10	0.000000	14281.400000	0.000000
13	12	0.000000	25502.500000	0.000000
14	7	17577.000000	57125.600000	1.000000
14	8	0.000000	23462.300000	0.000000
840
5	1	2	7	8	11	1	0	1	1	1	2	1	3	1	4	
5	1	5	0	6	9	9	0	9	1	9	2	9	5	9	4	
5	7	2	1	5	12	5	0	5	1	5	2	5	3	5	4	
2	3	5	5	0	5	1	5	2	5	5	5	4	
5	7	2	1	5	3	5	0	5	1	5	5	5	3	5	4	
7	11	8	7	2	1	5	3	5	0	5	1	5	5	5	3	5	4	
5	3	5	0	6	13	5	0	5	1	5	2	5	5	5	4	
2	6	13	6	0	6	1	6	5	6	3	6	4	
6	10	12	5	1	2	7	10	0	10	1	10	2	10	3	10	4	
4	3	5	0	6	5	0	5	1	5	5	5	3	5	4	
4	4	1	2	7	4	0	4	1	4	2	4	5	4	4	
4	1	2	7	8	1	0	1	1	1	2	1	1	1	0	
6	14	7	2	1	5	12	5	0	5	1	5	2	5	1	5	0	
4	7	2	1	4	1	0	1	1	1	2	1	3	1	4	
4	2	1	5	12	5	0	5	1	5	2	5	5	5	4	
4	0	5	1	2	5	0	5	1	5	2	5	5	5	4	
5	13	6	0	5	1	13	0	13	1	13	2	13	5	13	4	
5	7	2	1	5	3	5	0	5	1	5	2	5	1	5	0	
3	5	12	10	5	0	5	1	5	5	5	3	5	4	
2	12	5	5	0	5	1	5	2	5	1	5	0	
3	5	1	2	5	0	5	1	5	2	5	5	5	4	
4	8	7	2	1	1	0	1	1	1	2	1	1	1	0	
2	8	7	7	0	7	1	7	2	7	3	7	4	
6	10	12	5	0	6	9	5	0	5	1	5	2	5	3	5	4	
2	6	0	0	0	0	1	0	5	0	3	0	4	
6	14	7	2	1	5	0	5	0	5	1	5	5	5	3	5	4	
4	4	1	5	12	4	0	4	1	4	2	4	1	4	0	
3	2	1	5	5	0	5	1	5	5	5	3	5	4	
4	7	2	1	5	5	0	5	1	5	2	5	5	5	4	
6	0	5	1	2	7	14	5	0	5	1	5	5	5	3	5	4	
4	5	1	2	7	5	0	5	1	5	2	5	1	5	0	
8	8	7	2	1	5	0	6	9	5	0	5	1	5	5	5	3	5	4	
5	4	1	5	12	10	5	0	5	1	5	2	5	5	5	4	
3	5	12	10	5	0	5	1	5	2	5	5	5	4	
6	14	7	2	1	5	0	5	0	5	1	5	2	5	3	5	4	
7	3	5	1	2	7	8	11	5	0	5	1	5	5	5	3	5	4	
2	6	13	6	0	6	1	6	2	6	1	6	0	
7	8	7	2	1	5	12	10	5	0	5	1	5	2	5	1	5	0	
4	10	12	5	1	10	0	10	1	10	2	10	5	10	4	
2	0	5	5	0	5	1	5	2	5	3	5	4	
4	3	5	1	2	5	0	5	1	5	2	5	5	5	4	
5	7	2	1	5	12	5	0	5	1	5	2	5	1	5	0	
3	1	2	7	1	0	1	1	1	5	1	3	1	4	
7	10	12	5	1	2	7	14	14	0	14	1	14	2	14	3	14	4	
5	8	7	2	1	4	1	0	1	1	1	5	1	3	1	4	
5	2	1	5	12	10	10	0	10	1	10	5	10	3	10	4	
4	2	1	5	3	5	0	5	1	5	2	5	5	5	4	
2	4	1	4	0	4	1	4	5	4	3	4	4	
5	9	6	0	5	3	9	0	9	1	9	2	9	3	9	4	
5	7	2	1	5	12	5	0	5	1	5	2	5	5	5	4	
3	0	5	3	5	0	5	1	5	2	5	1	5	0	
5	9	6	0	5	3	5	0	5	1	5	2	5	5	5	4	
2	6	13	13	0	13	1	13	2	13	5	13	4	
3	12	5	0	5	0	5	1	5	2	5	3	5	4	
7	11	8	7	2	1	5	0	5	0	5	1	5	2	5	3	5	4	
5	10	12	5	1	2	10	0	10	1	10	2	10	3	10	4	
9	13	6	0	5	1	2	7	8	11	5	0	5	1	5	5	5	3	5	4	
4	7	2	1	4	1	0	1	1	1	2	1	1	1	0	
3	12	5	3	5	0	5	1	5	5	5	3	5	4	
5	12	5	1	2	7	5	0	5	1	5	2	5	3	5	4	
4	6	0	5	3	5	0	5	1	5	2	5	3	5	4	
4	9	6	0	5	0	0	0	1	0	5	0	3	0	4	
2	11	8	11	0	11	1	11	5	11	3	11	4	
2	12	10	10	0	10	1	10	2	10	1	10	0	
4	4	1	5	0	4	0	4	1	4	2	4	5	4	4	
7	0	5	1	2	7	8	11	5	0	5	1	5	2	5	1	5	0	
2	12	10	10	0	10	1	10	5	10	3	10	4	
3	9	6	13	6	0	6	1	6	2	6	5	6	4	
2	2	7	2	0	2	1	2	2	2	3	2	4	
7	14	7	2	1	5	0	6	5	0	5	1	5	2	5	1	5	0	
2	8	11	11	0	11	1	11	2	11	5	11	4	
2	5	1	5	0	5	1	5	2	5	5	5	4	
7	10	12	5	1	2	7	8	10	0	10	1	10	2	10	5	10	4	
5	3	5	1	2	7	5	0	5	1	5	2	5	1	5	0	
6	6	0	5	1	2	7	5	0	5	1	5	5	5	3	5	4	
6	2	1	5	0	6	13	5	0	5	1	5	2	5	3	5	4	
4	12	5	1	2	5	0	5	1	5	2	5	1	5	0	
4	3	5	1	4	5	0	5	1	5	2	5	1	5	0	
3	13	6	0	0	0	0	1	0	2	0	1	0	0	
5	5	1	2	7	8	5	0	5	1	5	2	5	1	5	0	
9	9	6	0	5	1	2	7	8	11	5	0	5	1	5	2	5	5	5	4	
8	9	6	0	5	1	2	7	8	5	0	5	1	5	2	5	5	5	4	
5	3	5	0	6	13	5	0	5	1	5	2	5	1	5	0	
3	1	5	0	1	0	1	1	1	5	1	3	1	4	
3	1	5	3	5	0	5	1	5	2	5	1	5	0	
5	2	1	5	12	10	10	0	10	1	10	2	10	1	10	0	
6	8	7	2	1	5	12	5	0	5	1	5	5	5	3	5	4	
8	8	7	2	1	5	0	6	13	5	0	5	1	5	2	5	3	5	4	
6	13	6	0	5	1	4	4	0	4	1	4	2	4	5	4	4	
3	1	5	3	5	0	5	1	5	2	5	3	5	4	
8	10	12	5	1	2	7	8	11	5	0	5	1	5	2	5	1	5	0	
4	4	1	2	7	1	0	1	1	1	2	1	3	1	4	
6	13	6	0	5	1	2	13	0	13	1	13	5	13	3	13	4	
9	9	6	0	5	1	2	7	8	11	5	0	5	1	5	2	5	3	5	4	
8	11	8	7	2	1	5	12	10	5	0	5	1	5	2	5	3	5	4	
4	4	1	5	12	1	0	1	1	1	5	1	3	1	4	
5	12	5	0	6	9	9	0	9	1	9	2	9	5	9	4	
5	14	7	2	1	5	14	0	14	1	14	2	14	5	14	4	
6	12	5	1	2	7	14	14	0	14	1	14	2	14	5	14	4	
3	3	5	12	5	0	5	1	5	2	5	3	5	4	
4	0	5	12	10	10	0	10	1	10	2	10	5	10	4	
7	14	7	2	1	5	12	10	14	0	14	1	14	2	14	3	14	4	
5	5	1	2	7	8	5	0	5	1	5	2	5	5	5	4	
3	8	7	2	2	0	2	1	2	2	2	5	2	4	
4	14	7	8	11	7	0	7	1	7	5	7	3	7	4	
2	14	7	7	0	7	1	7	5	7	3	7	4	
2	6	9	6	0	6	1	6	2	6	3	6	4	
8	14	7	2	1	5	0	6	9	1	0	1	1	1	5	1	3	1	4	
2	6	0	0	0	0	1	0	2	0	1	0	0	
5	14	7	2	1	5	14	0	14	1	14	5	14	3	14	4	
3	1	5	12	5	0	5	1	5	2	5	5	5	4	
3	5	0	6	5	0	5	1	5	2	5	3	5	4	
5	3	5	1	2	7	5	0	5	1	5	2	5	5	5	4	
3	0	5	12	5	0	5	1	5	2	5	3	5	4	
5	11	8	7	2	1	1	0	1	1	1	5	1	3	1	4	
5	9	6	0	5	1	9	0	9	1	9	2	9	5	9	4	
4	5	0	6	13	5	0	5	1	5	2	5	1	5	0	
7	11	8	7	2	1	5	0	1	0	1	1	1	5	1	3	1	4	
4	10	12	5	0	5	0	5	1	5	2	5	1	5	0	
7	10	12	5	1	2	7	14	14	0	14	1	14	2	14	5	14	4	
8	11	8	7	2	1	5	0	6	5	0	5	1	5	2	5	5	5	4	
3	7	2	1	1	0	1	1	1	2	1	1	1	0	
2	8	7	7	0	7	1	7	5	7	3	7	4	
4	3	5	12	10	10	0	10	1	10	2	10	5	10	4	
4	3	5	1	4	5	0	5	1	5	2	5	5	5	4	
2	9	6	6	0	6	1	6	5	6	3	6	4	
5	2	1	5	0	6	5	0	5	1	5	2	5	3	5	4	
5	8	7	2	1	5	5	0	5	1	5	2	5	3	5	4	
4	3	5	1	4	1	0	1	1	1	5	1	3	1	4	
5	14	7	2	1	5	5	0	5	1	5	2	5	3	5	4	
5	12	5	0	6	13	0	0	0	1	0	5	0	3	0	4	
6	7	2	1	5	0	6	5	0	5	1	5	2	5	3	5	4	
3	0	5	1	1	0	1	1	1	5	1	3	1	4	
4	5	0	6	13	0	0	0	1	0	5	0	3	0	4	
8	9	6	0	5	1	2	7	14	1	0	1	1	1	5	1	3	1	4	
2	10	12	12	0	12	1	12	5	12	3	12	4	
5	13	6	0	5	3	13	0	13	1	13	2	13	1	13	0	
6	4	1	5	0	6	13	5	0	5	1	5	2	5	1	5	0	
5	6	0	5	1	2	1	0	1	1	1	5	1	3	1	4	
5	14	7	2	1	4	4	0	4	1	4	2	4	1	4	0	
7	14	7	2	1	5	0	6	1	0	1	1	1	5	1	3	1	4	
2	1	2	1	0	1	1	1	2	1	1	1	0	
4	10	12	5	3	5	0	5	1	5	2	5	5	5	4	
5	10	12	5	0	6	0	0	0	1	0	5	0	3	0	4	
3	1	5	3	5	0	5	1	5	2	5	5	5	4	
3	1	5	0	5	0	5	1	5	2	5	3	5	4	
2	1	5	1	0	1	1	1	5	1	3	1	4	
5	4	1	5	0	6	4	0	4	1	4	2	4	3	4	4	
6	5	1	2	7	8	11	5	0	5	1	5	2	5	5	5	4	
7	8	7	2	1	5	0	6	1	0	1	1	1	5	1	3	1	4	
7	7	2	1	5	0	6	9	1	0	1	1	1	5	1	3	1	4	
2	2	1	1	0	1	1	1	2	1	5	1	4	
4	3	5	12	10	12	0	12	1	12	5	12	3	12	4	
5	6	0	5	12	10	10	0	10	1	10	2	10	1	10	0	
4	4	1	5	3	1	0	1	1	1	5	1	3	1	4	
4	0	5	1	4	4	0	4	1	4	2	4	5	4	4	
6	3	5	1	2	7	8	5	0	5	1	5	2	5	3	5	4	
4	2	7	8	11	11	0	11	1	11	5	11	3	11	4	
8	13	6	0	5	1	2	7	8	5	0	5	1	5	2	5	3	5	4	
2	9	6	6	0	6	1	6	2	6	5	6	4	
4	10	12	5	0	10	0	10	1	10	2	10	3	10	4	
7	7	2	1	5	0	6	13	5	0	5	1	5	2	5	5	5	4	
2	6	9	6	0	6	1	6	2	6	1	6	0	
6	14	7	2	1	5	3	14	0	14	1	14	2	14	3	14	4	
3	3	5	1	5	0	5	1	5	2	5	1	5	0	
4	1	2	7	8	1	0	1	1	1	2	1	5	1	4	
4	6	0	5	12	5	0	5	1	5	2	5	5	5	4	
3	3	5	1	1	0	1	1	1	5	1	3	1	4	
6	14	7	2	1	5	12	14	0	14	1	14	2	14	3	14	4	
3	4	1	2	1	0	1	1	1	2	1	1	1	0	
6	14	7	2	1	5	0	5	0	5	1	5	2	5	5	5	4	
6	13	6	0	5	12	10	0	0	0	1	0	5	0	3	0	4	
2	2	1	1	0	1	1	1	2	1	3	1	4	
6	0	5	1	2	7	8	5	0	5	1	5	2	5	3	5	4	
2	5	12	5	0	5	1	5	2	5	3	5	4	
4	11	8	7	2	11	0	11	1	11	5	11	3	11	4	
5	5	1	2	7	8	1	0	1	1	1	5	1	3	1	4	
7	12	5	1	2	7	8	11	5	0	5	1	5	2	5	1	5	0	
3	0	5	12	5	0	5	1	5	2	5	1	5	0	
4	1	2	7	14	14	0	14	1	14	2	14	1	14	0	
5	4	1	5	0	6	4	0	4	1	4	2	4	5	4	4	
6	4	1	5	0	6	9	5	0	5	1	5	2	5	3	5	4	
4	12	5	1	4	4	0	4	1	4	2	4	1	4	0	
6	0	5	1	2	7	8	5	0	5	1	5	2	5	1	5	0	
7	8	7	2	1	5	12	10	10	0	10	1	10	2	10	5	10	4	
2	13	6	6	0	6	1	6	2	6	3	6	4	
4	11	8	7	2	11	0	11	1	11	2	11	1	11	0	
2	7	2	2	0	2	1	2	2	2	1	2	0	
3	2	1	4	1	0	1	1	1	5	1	3	1	4	
5	5	1	2	7	8	5	0	5	1	5	2	5	3	5	4	
4	2	1	5	12	5	0	5	1	5	2	5	3	5	4	
7	8	7	2	1	5	0	6	5	0	5	1	5	2	5	3	5	4	
7	9	6	0	5	1	2	7	5	0	5	1	5	2	5	1	5	0	
5	3	5	0	6	9	5	0	5	1	5	2	5	5	5	4	
4	6	0	5	1	5	0	5	1	5	2	5	5	5	4	
5	9	6	0	5	12	5	0	5	1	5	2	5	5	5	4	
2	7	2	2	0	2	1	2	2	2	5	2	4	
3	3	5	12	5	0	5	1	5	2	5	1	5	0	
4	2	7	8	11	11	0	11	1	11	2	11	1	11	0	
8	8	7	2	1	5	0	6	13	1	0	1	1	1	5	1	3	1	4	
2	14	7	7	0	7	1	7	2	7	5	7	4	
6	8	7	2	1	5	12	5	0	5	1	5	2	5	3	5	4	
6	3	5	1	2	7	8	5	0	5	1	5	2	5	1	5	0	
2	9	6	6	0	6	1	6	2	6	3	6	4	
4	5	1	2	7	5	0	5	1	5	2	5	5	5	4	
7	8	7	2	1	5	0	6	5	0	5	1	5	2	5	1	5	0	
5	10	12	5	1	2	10	0	10	1	10	2	10	5	10	4	
4	11	8	7	14	7	0	7	1	7	5	7	3	7	4	
3	2	7	8	2	0	2	1	2	2	2	3	2	4	
8	14	7	2	1	5	0	6	13	5	0	5	1	5	2	5	3	5	4	
5	3	5	0	6	13	5	0	5	1	5	2	5	3	5	4	
4	4	1	5	0	1	0	1	1	1	5	1	3	1	4	
4	11	8	7	14	7	0	7	1	7	2	7	3	7	4	
6	11	8	7	2	1	5	5	0	5	1	5	2	5	5	5	4	
2	6	9	6	0	6	1	6	5	6	3	6	4	
4	14	7	8	11	7	0	7	1	7	2	7	1	7	0	
6	11	8	7	2	1	4	1	0	1	1	1	2	1	1	1	0	
3	2	7	14	14	0	14	1	14	2	14	5	14	4	
6	13	6	0	5	1	4	1	0	1	1	1	5	1	3	1	4	
7	14	7	2	1	5	12	10	5	0	5	1	5	2	5	1	5	0	
7	9	6	0	5	1	2	7	5	0	5	1	5	2	5	5	5	4	
4	10	12	5	3	10	0	10	1	10	2	10	3	10	4	
2	12	5	5	0	5	1	5	2	5	3	5	4	
5	1	5	0	6	13	5	0	5	1	5	2	5	5	5	4	
8	11	8	7	2	1	5	12	10	5	0	5	1	5	2	5	1	5	0	
7	11	8	7	2	1	5	0	5	0	5	1	5	2	5	1	5	0	
5	12	5	0	6	9	5	0	5	1	5	2	5	3	5	4	
2	0	6	0	0	0	1	0	2	0	5	0	4	
7	6	0	5	1	2	7	8	5	0	5	1	5	2	5	5	5	4	
5	4	1	2	7	14	14	0	14	1	14	2	14	1	14	0	
4	4	1	5	3	5	0	5	1	5	2	5	1	5	0	
2	5	12	5	0	5	1	5	2	5	1	5	0	
6	10	12	5	0	6	13	5	0	5	1	5	2	5	5	5	4	
2	2	1	1	0	1	1	1	5	1	3	1	4	
3	0	5	3	0	0	0	1	0	5	0	3	0	4	
7	3	5	1	2	7	8	11	5	0	5	1	5	2	5	5	5	4	
2	1	5	5	0	5	1	5	2	5	5	5	4	
5	14	7	2	1	4	1	0	1	1	1	2	1	5	1	4	
6	12	5	1	2	7	14	14	0	14	1	14	5	14	3	14	4	
3	6	0	5	5	0	5	1	5	2	5	3	5	4	
2	5	12	12	0	12	1	12	5	12	3	12	4	
8	11	8	7	2	1	5	0	6	5	0	5	1	5	2	5	1	5	0	
5	7	2	1	5	0	5	0	5	1	5	2	5	3	5	4	
3	0	5	1	5	0	5	1	5	2	5	3	5	4	
9	11	8	7	2	1	5	0	6	9	5	0	5	1	5	2	5	3	5	4	
7	10	12	5	1	2	7	8	1	0	1	1	1	5	1	3	1	4	
2	3	5	5	0	5	1	5	2	5	3	5	4	
5	4	1	2	7	8	4	0	4	1	4	2	4	1	4	0	
7	6	0	5	1	2	7	14	5	0	5	1	5	2	5	3	5	4	
3	1	5	3	1	0	1	1	1	5	1	3	1	4	
3	5	0	6	5	0	5	1	5	2	5	5	5	4	
5	9	6	0	5	12	5	0	5	1	5	2	5	3	5	4	
3	0	5	12	0	0	0	1	0	5	0	3	0	4	
3	5	0	6	0	0	0	1	0	5	0	3	0	4	
6	2	1	5	0	6	9	5	0	5	1	5	2	5	1	5	0	
5	4	1	2	7	14	14	0	14	1	14	5	14	3	14	4	
7	9	6	0	5	1	2	7	5	0	5	1	5	2	5	3	5	4	
3	7	2	1	1	0	1	1	1	2	1	5	1	4	
2	5	3	5	0	5	1	5	2	5	1	5	0	
8	9	6	0	5	1	2	7	8	1	0	1	1	1	5	1	3	1	4	
2	5	12	5	0	5	1	5	2	5	5	5	4	
2	0	5	0	0	0	1	0	5	0	3	0	4	
4	4	1	5	0	4	0	4	1	4	2	4	3	4	4	
8	6	0	5	1	2	7	8	11	5	0	5	1	5	2	5	1	5	0	
5	7	2	1	5	0	5	0	5	1	5	2	5	1	5	0	
5	2	1	5	0	6	5	0	5	1	5	2	5	1	5	0	
8	9	6	0	5	1	2	7	14	5	0	5	1	5	2	5	1	5	0	
7	6	0	5	1	2	7	8	1	0	1	1	1	5	1	3	1	4	
3	12	5	1	1	0	1	1	1	5	1	3	1	4	
5	1	5	0	6	13	13	0	13	1	13	2	13	1	13	0	
2	1	4	1	0	1	1	1	2	1	1	1	0	
5	11	8	7	2	1	1	0	1	1	1	2	1	5	1	4	
4	2	1	5	12	1	0	1	1	1	5	1	3	1	4	
9	13	6	0	5	1	2	7	8	11	5	0	5	1	5	2	5	1	5	0	
4	3	5	0	6	5	0	5	1	5	2	5	5	5	4	
4	2	1	5	3	5	0	5	1	5	2	5	3	5	4	
5	12	5	0	6	9	5	0	5	1	5	2	5	1	5	0	
6	7	2	1	5	12	10	10	0	10	1	10	2	10	5	10	4	
4	5	1	2	7	5	0	5	1	5	2	5	3	5	4	
8	14	7	2	1	5	0	6	9	5	0	5	1	5	2	5	5	5	4	
5	1	2	7	8	11	1	0	1	1	1	5	1	3	1	4	
3	4	1	5	1	0	1	1	1	5	1	3	1	4	
6	4	1	2	7	8	11	1	0	1	1	1	2	1	3	1	4	
5	0	5	1	2	7	5	0	5	1	5	2	5	1	5	0	
4	5	0	6	13	5	0	5	1	5	2	5	3	5	4	
4	12	5	0	6	5	0	5	1	5	2	5	1	5	0	
2	7	2	2	0	2	1	2	5	2	3	2	4	
3	13	6	0	0	0	0	1	0	2	0	5	0	4	
6	13	6	0	5	12	10	5	0	5	1	5	2	5	3	5	4	
8	13	6	0	5	1	2	7	14	5	0	5	1	5	2	5	5	5	4	
3	0	6	13	0	0	0	1	0	2	0	1	0	0	
3	0	5	1	5	0	5	1	5	2	5	5	5	4	
3	2	7	8	2	0	2	1	2	2	2	5	2	4	
2	6	0	0	0	0	1	0	2	0	3	0	4	
4	12	5	1	4	1	0	1	1	1	5	1	3	1	4	
3	14	7	2	2	0	2	1	2	2	2	1	2	0	
6	11	8	7	2	1	5	1	0	1	1	1	5	1	3	1	4	
4	2	7	8	11	11	0	11	1	11	2	11	3	11	4	
5	2	1	5	0	6	1	0	1	1	1	5	1	3	1	4	
6	11	8	7	2	1	4	1	0	1	1	1	2	1	5	1	4	
5	8	7	2	1	4	1	0	1	1	1	2	1	1	1	0	
5	10	12	5	1	4	4	0	4	1	4	2	4	5	4	4	
6	9	6	0	5	12	10	0	0	0	1	0	5	0	3	0	4	
4	6	0	5	3	0	0	0	1	0	5	0	3	0	4	
7	11	8	7	2	1	5	12	5	0	5	1	5	2	5	5	5	4	
7	8	7	2	1	5	0	6	5	0	5	1	5	2	5	5	5	4	
4	1	2	7	14	1	0	1	1	1	2	1	5	1	4	
7	8	7	2	1	5	12	10	1	0	1	1	1	5	1	3	1	4	
6	13	6	0	5	1	4	4	0	4	1	4	2	4	1	4	0	
3	5	1	4	4	0	4	1	4	2	4	1	4	0	
6	10	12	5	1	2	7	10	0	10	1	10	5	10	3	10	4	
3	4	1	2	1	0	1	1	1	5	1	3	1	4	
8	13	6	0	5	1	2	7	8	5	0	5	1	5	2	5	1	5	0	
6	9	6	0	5	1	4	5	0	5	1	5	2	5	3	5	4	
3	5	1	2	5	0	5	1	5	2	5	3	5	4	
7	7	2	1	5	0	6	13	1	0	1	1	1	5	1	3	1	4	
4	1	2	7	14	1	0	1	1	1	2	1	3	1	4	
4	4	1	5	3	5	0	5	1	5	2	5	3	5	4	
2	13	6	13	0	13	1	13	5	13	3	13	4	
6	3	5	1	2	7	14	14	0	14	1	14	2	14	3	14	4	
4	0	5	1	2	5	0	5	1	5	2	5	1	5	0	
4	9	6	0	5	5	0	5	1	5	2	5	5	5	4	
4	10	12	5	1	10	0	10	1	10	2	10	3	10	4	
4	11	8	7	14	7	0	7	1	7	2	7	1	7	0	
3	9	6	0	0	0	0	1	0	2	0	5	0	4	
4	7	2	1	5	5	0	5	1	5	2	5	1	5	0	
4	12	5	0	6	5	0	5	1	5	2	5	5	5	4	
2	4	1	4	0	4	1	4	2	4	1	4	0	
6	10	12	5	0	6	9	5	0	5	1	5	2	5	1	5	0	
7	14	7	2	1	5	0	6	5	0	5	1	5	2	5	3	5	4	
2	7	8	7	0	7	1	7	2	7	5	7	4	
4	5	0	6	9	0	0	0	1	0	5	0	3	0	4	
2	4	1	4	0	4	1	4	2	4	5	4	4	
2	8	11	11	0	11	1	11	2	11	1	11	0	
2	7	14	7	0	7	1	7	5	7	3	7	4	
6	0	5	1	2	7	14	5	0	5	1	5	2	5	3	5	4	
4	3	5	1	2	5	0	5	1	5	2	5	1	5	0	
6	5	1	2	7	8	11	5	0	5	1	5	2	5	1	5	0	
3	9	6	0	0	0	0	1	0	2	0	1	0	0	
4	14	7	8	11	7	0	7	1	7	2	7	3	7	4	
6	12	5	1	2	7	8	1	0	1	1	1	5	1	3	1	4	
3	8	7	14	7	0	7	1	7	2	7	5	7	4	
2	10	12	12	0	12	1	12	2	12	5	12	4	
2	12	5	12	0	12	1	12	5	12	3	12	4	
4	14	7	2	1	14	0	14	1	14	2	14	3	14	4	
5	10	12	5	1	4	4	0	4	1	4	2	4	1	4	0	
3	14	7	2	14	0	14	1	14	2	14	5	14	4	
6	12	5	1	2	7	14	14	0	14	1	14	2	14	3	14	4	
4	5	0	6	9	5	0	5	1	5	2	5	1	5	0	
7	13	6	0	5	1	2	7	5	0	5	1	5	2	5	5	5	4	
6	3	5	1	2	7	8	5	0	5	1	5	2	5	5	5	4	
2	0	5	5	0	5	1	5	2	5	5	5	4	
3	9	6	13	6	0	6	1	6	2	6	1	6	0	
3	5	1	4	1	0	1	1	1	5	1	3	1	4	
8	8	7	2	1	5	0	6	9	5	0	5	1	5	2	5	3	5	4	
3	10	12	5	10	0	10	1	10	5	10	3	10	4	
6	3	5	1	2	7	8	1	0	1	1	1	5	1	3	1	4	
3	10	12	5	10	0	10	1	10	2	10	3	10	4	
2	7	2	2	0	2	1	2	2	2	3	2	4	
2	6	13	6	0	6	1	6	2	6	3	6	4	
6	4	1	2	7	8	11	1	0	1	1	1	5	1	3	1	4	
3	0	6	13	0	0	0	1	0	5	0	3	0	4	
5	13	6	0	5	1	1	0	1	1	1	5	1	3	1	4	
8	11	8	7	2	1	5	0	6	5	0	5	1	5	2	5	3	5	4	
7	13	6	0	5	1	2	7	5	0	5	1	5	2	5	1	5	0	
6	8	7	2	1	5	12	5	0	5	1	5	2	5	1	5	0	
5	6	0	5	1	4	4	0	4	1	4	2	4	3	4	4	
8	10	12	5	1	2	7	8	11	5	0	5	1	5	2	5	3	5	4	
4	5	0	6	13	13	0	13	1	13	2	13	5	13	4	
3	0	5	1	5	0	5	1	5	2	5	1	5	0	
3	12	5	1	5	0	5	1	5	2	5	5	5	4	
5	12	5	0	6	13	5	0	5	1	5	2	5	5	5	4	
6	7	2	1	5	12	10	10	0	10	1	10	2	10	3	10	4	
8	8	7	2	1	5	0	6	13	5	0	5	1	5	2	5	1	5	0	
5	4	1	5	0	6	5	0	5	1	5	2	5	1	5	0	
3	4	1	2	1	0	1	1	1	2	1	3	1	4	
4	8	7	2	1	1	0	1	1	1	2	1	5	1	4	
2	5	1	5	0	5	1	5	2	5	3	5	4	
3	1	5	12	5	0	5	1	5	2	5	1	5	0	
4	4	1	2	7	1	0	1	1	1	5	1	3	1	4	
6	2	1	5	0	6	13	1	0	1	1	1	5	1	3	1	4	
5	9	6	0	5	3	0	0	0	1	0	5	0	3	0	4	
6	11	8	7	2	1	5	5	0	5	1	5	2	5	1	5	0	
8	14	7	2	1	5	0	6	13	5	0	5	1	5	2	5	5	5	4	
4	14	7	2	1	1	0	1	1	1	2	1	5	1	4	
3	7	8	11	11	0	11	1	11	2	11	5	11	4	
7	7	2	1	5	0	6	9	5	0	5	1	5	2	5	3	5	4	
4	1	5	12	10	1	0	1	1	1	5	1	3	1	4	
6	13	6	0	5	1	2	5	0	5	1	5	2	5	5	5	4	
5	4	1	5	12	10	4	0	4	1	4	2	4	3	4	4	
6	7	2	1	5	0	6	5	0	5	1	5	2	5	1	5	0	
5	1	5	0	6	9	5	0	5	1	5	2	5	1	5	0	
4	2	1	5	0	1	0	1	1	1	5	1	3	1	4	
2	3	5	5	0	5	1	5	2	5	1	5	0	
3	5	12	10	5	0	5	1	5	2	5	3	5	4	
3	6	0	5	0	0	0	1	0	5	0	3	0	4	
2	1	4	1	0	1	1	1	2	1	5	1	4	
2	3	5	3	0	3	1	3	5	3	3	3	4	
9	13	6	0	5	1	2	7	8	11	5	0	5	1	5	2	5	3	5	4	
5	7	2	1	5	0	1	0	1	1	1	5	1	3	1	4	
6	0	5	1	2	7	14	5	0	5	1	5	2	5	1	5	0	
3	9	6	0	0	0	0	1	0	5	0	3	0	4	
8	9	6	0	5	1	2	7	14	5	0	5	1	5	2	5	3	5	4	
3	8	7	2	2	0	2	1	2	2	2	1	2	0	
4	12	5	1	2	5	0	5	1	5	2	5	3	5	4	
8	11	8	7	2	1	5	0	6	1	0	1	1	1	5	1	3	1	4	
4	3	5	1	4	5	0	5	1	5	2	5	3	5	4	
3	4	1	5	4	0	4	1	4	2	4	3	4	4	
6	4	1	5	0	6	9	1	0	1	1	1	5	1	3	1	4	
2	7	14	7	0	7	1	7	2	7	3	7	4	
5	2	1	5	12	10	10	0	10	1	10	2	10	3	10	4	
4	5	1	2	7	1	0	1	1	1	5	1	3	1	4	
3	2	7	8	2	0	2	1	2	2	2	1	2	0	
4	14	7	2	1	1	0	1	1	1	2	1	1	1	0	
8	11	8	7	2	1	5	12	10	1	0	1	1	1	5	1	3	1	4	
3	9	6	13	6	0	6	1	6	5	6	3	6	4	
3	6	0	5	5	0	5	1	5	2	5	1	5	0	
6	3	5	1	2	7	14	14	0	14	1	14	2	14	1	14	0	
5	2	1	5	0	6	5	0	5	1	5	2	5	5	5	4	
2	8	11	11	0	11	1	11	5	11	3	11	4	
3	8	7	14	7	0	7	1	7	2	7	3	7	4	
8	9	6	0	5	1	2	7	8	5	0	5	1	5	2	5	1	5	0	
4	0	5	1	4	4	0	4	1	4	2	4	3	4	4	
5	7	2	1	5	12	1	0	1	1	1	5	1	3	1	4	
7	11	8	7	2	1	5	0	5	0	5	1	5	2	5	5	5	4	
6	11	8	7	2	1	5	5	0	5	1	5	2	5	3	5	4	
3	12	5	3	5	0	5	1	5	2	5	3	5	4	
4	4	1	2	7	4	0	4	1	4	2	4	1	4	0	
7	6	0	5	1	2	7	8	5	0	5	1	5	2	5	1	5	0	
5	13	6	0	5	12	5	0	5	1	5	2	5	3	5	4	
6	12	5	1	2	7	8	5	0	5	1	5	2	5	1	5	0	
3	2	1	5	5	0	5	1	5	2	5	1	5	0	
5	12	5	0	6	13	5	0	5	1	5	2	5	3	5	4	
4	10	12	5	1	10	0	10	1	10	5	10	3	10	4	
6	12	5	1	2	7	8	5	0	5	1	5	2	5	5	5	4	
5	0	5	1	2	7	1	0	1	1	1	5	1	3	1	4	
4	8	7	2	1	1	0	1	1	1	5	1	3	1	4	
3	5	1	4	4	0	4	1	4	2	4	3	4	4	
5	5	1	2	7	14	1	0	1	1	1	5	1	3	1	4	
5	1	5	0	6	9	5	0	5	1	5	2	5	3	5	4	
4	12	5	0	6	0	0	0	1	0	5	0	3	0	4	
6	9	6	0	5	1	4	1	0	1	1	1	5	1	3	1	4	
8	13	6	0	5	1	2	7	8	1	0	1	1	1	5	1	3	1	4	
3	12	5	3	5	0	5	1	5	2	5	5	5	4	
5	10	12	5	1	2	10	0	10	1	10	2	10	1	10	0	
3	13	6	9	9	0	9	1	9	2	9	3	9	4	
3	5	12	10	5	0	5	1	5	2	5	1	5	0	
6	10	12	5	0	6	9	5	0	5	1	5	2	5	5	5	4	
2	14	7	7	0	7	1	7	2	7	1	7	0	
3	3	5	1	5	0	5	1	5	2	5	3	5	4	
4	1	5	0	6	5	0	5	1	5	2	5	3	5	4	
8	10	12	5	1	2	7	8	11	5	0	5	1	5	2	5	5	5	4	
2	9	6	6	0	6	1	6	2	6	1	6	0	
5	13	6	0	5	1	5	0	5	1	5	2	5	1	5	0	
3	2	1	4	1	0	1	1	1	2	1	3	1	4	
6	9	6	0	5	1	2	5	0	5	1	5	2	5	1	5	0	
5	9	6	0	5	12	5	0	5	1	5	2	5	1	5	0	
5	13	6	0	5	12	5	0	5	1	5	2	5	1	5	0	
5	13	6	0	5	3	0	0	0	1	0	5	0	3	0	4	
8	11	8	7	2	1	5	12	10	5	0	5	1	5	2	5	5	5	4	
8	10	12	5	1	2	7	8	11	1	0	1	1	1	5	1	3	1	4	
4	6	0	5	12	5	0	5	1	5	2	5	3	5	4	
8	14	7	2	1	5	0	6	9	5	0	5	1	5	2	5	3	5	4	
3	1	5	0	5	0	5	1	5	2	5	1	5	0	
4	0	5	12	10	0	0	0	1	0	5	0	3	0	4	
5	4	1	2	7	8	4	0	4	1	4	2	4	5	4	4	
5	10	12	5	1	4	1	0	1	1	1	5	1	3	1	4	
5	4	1	2	7	14	14	0	14	1	14	2	14	5	14	4	
5	6	0	5	1	4	4	0	4	1	4	2	4	5	4	4	
6	8	7	2	1	5	3	5	0	5	1	5	2	5	5	5	4	
2	5	3	5	0	5	1	5	2	5	3	5	4	
3	5	1	2	1	0	1	1	1	5	1	3	1	4	
5	10	12	5	1	2	10	0	10	1	10	5	10	3	10	4	
5	5	1	2	7	14	14	0	14	1	14	2	14	5	14	4	
3	14	7	8	7	0	7	1	7	5	7	3	7	4	
4	5	0	6	9	5	0	5	1	5	2	5	5	5	4	
3	7	8	11	11	0	11	1	11	2	11	3	11	4	
3	8	7	14	7	0	7	1	7	2	7	1	7	0	
6	12	5	1	2	7	14	5	0	5	1	5	2	5	1	5	0	
5	1	2	7	8	11	1	0	1	1	1	2	1	1	1	0	
6	7	2	1	5	0	6	1	0	1	1	1	5	1	3	1	4	
7	11	8	7	2	1	5	3	5	0	5	1	5	2	5	1	5	0	
3	2	7	14	2	0	2	1	2	5	2	3	2	4	
6	14	7	2	1	5	12	14	0	14	1	14	2	14	5	14	4	
7	11	8	7	2	1	5	12	5	0	5	1	5	2	5	1	5	0	
4	0	5	1	4	4	0	4	1	4	5	4	3	4	4	
6	8	7	2	1	5	0	5	0	5	1	5	2	5	3	5	4	
5	1	5	0	6	13	1	0	1	1	1	5	1	3	1	4	
6	4	1	5	0	6	13	5	0	5	1	5	2	5	3	5	4	
3	14	7	8	7	0	7	1	7	2	7	1	7	0	
4	11	8	7	14	7	0	7	1	7	2	7	5	7	4	
6	5	1	2	7	8	11	5	0	5	1	5	2	5	3	5	4	
3	2	7	14	2	0	2	1	2	2	2	1	2	0	
6	8	7	2	1	5	0	5	0	5	1	5	2	5	1	5	0	
6	11	8	7	2	1	4	1	0	1	1	1	5	1	3	1	4	
5	6	0	5	12	10	10	0	10	1	10	2	10	5	10	4	
4	1	5	0	6	5	0	5	1	5	2	5	5	5	4	
4	7	2	1	4	1	0	1	1	1	2	1	5	1	4	
2	11	8	11	0	11	1	11	2	11	3	11	4	
4	14	7	2	1	14	0	14	1	14	5	14	3	14	4	
8	13	6	0	5	1	2	7	8	5	0	5	1	5	2	5	5	5	4	
8	9	6	0	5	1	2	7	8	5	0	5	1	5	2	5	3	5	4	
6	6	0	5	1	2	7	5	0	5	1	5	2	5	1	5	0	
6	0	5	1	2	7	14	5	0	5	1	5	2	5	5	5	4	
3	2	1	4	4	0	4	1	4	2	4	5	4	4	
4	3	5	0	6	5	0	5	1	5	2	5	3	5	4	
5	9	6	0	5	1	5	0	5	1	5	2	5	1	5	0	
5	7	2	1	5	3	5	0	5	1	5	2	5	3	5	4	
5	9	6	0	5	12	0	0	0	1	0	5	0	3	0	4	
2	14	7	7	0	7	1	7	2	7	3	7	4	
7	10	12	5	1	2	7	8	10	0	10	1	10	2	10	1	10	0	
3	11	8	7	11	0	11	1	11	2	11	3	11	4	
5	13	6	0	5	12	5	0	5	1	5	2	5	5	5	4	
4	10	12	5	0	10	0	10	1	10	2	10	5	10	4	
7	7	2	1	5	0	6	9	5	0	5	1	5	2	5	1	5	0	
3	4	1	5	4	0	4	1	4	2	4	1	4	0	
7	13	6	0	5	1	2	7	5	0	5	1	5	2	5	3	5	4	
6	6	0	5	1	2	7	5	0	5	1	5	2	5	5	5	4	
2	2	7	2	0	2	1	2	2	2	1	2	0	
2	0	6	0	0	0	1	0	2	0	3	0	4	
3	7	8	11	11	0	11	1	11	5	11	3	11	4	
4	10	12	5	3	10	0	10	1	10	5	10	3	10	4	
3	1	5	12	5	0	5	1	5	2	5	3	5	4	
4	1	2	7	8	1	0	1	1	1	5	1	3	1	4	
3	0	6	9	0	0	0	1	0	5	0	3	0	4	
4	11	8	7	2	11	0	11	1	11	2	11	5	11	4	
6	8	7	2	1	5	3	1	0	1	1	1	5	1	3	1	4	
5	6	0	5	12	10	0	0	0	1	0	5	0	3	0	4	
3	13	6	0	0	0	0	1	0	2	0	3	0	4	
6	13	6	0	5	12	10	5	0	5	1	5	2	5	1	5	0	
2	0	6	0	0	0	1	0	2	0	1	0	0	
4	2	7	8	11	11	0	11	1	11	2	11	5	11	4	
8	8	7	2	1	5	0	6	9	5	0	5	1	5	2	5	1	5	0	
8	14	7	2	1	5	0	6	13	5	0	5	1	5	2	5	1	5	0	
6	8	7	2	1	5	3	5	0	5	1	5	2	5	1	5	0	
5	14	7	2	1	5	14	0	14	1	14	2	14	1	14	0	
2	5	0	5	0	5	1	5	2	5	5	5	4	
3	14	7	2	14	0	14	1	14	2	14	3	14	4	
3	7	2	1	1	0	1	1	1	5	1	3	1	4	
6	2	1	5	0	6	9	5	0	5	1	5	2	5	5	5	4	
4	12	5	1	4	4	0	4	1	4	2	4	3	4	4	
4	6	0	5	1	5	0	5	1	5	2	5	3	5	4	
2	7	14	7	0	7	1	7	2	7	1	7	0	
6	4	1	5	0	6	13	1	0	1	1	1	5	1	3	1	4	
6	4	1	5	0	6	13	5	0	5	1	5	2	5	5	5	4	
4	3	5	0	6	5	0	5	1	5	2	5	1	5	0	
6	9	6	0	5	1	4	5	0	5	1	5	2	5	1	5	0	
6	3	5	1	2	7	14	14	0	14	1	14	2	14	5	14	4	
7	10	12	5	1	2	7	8	10	0	10	1	10	2	10	3	10	4	
9	11	8	7	2	1	5	0	6	9	1	0	1	1	1	5	1	3	1	4	
9	9	6	0	5	1	2	7	8	11	5	0	5	1	5	2	5	1	5	0	
5	3	5	0	6	9	9	0	9	1	9	2	9	1	9	0	
2	2	7	2	0	2	1	2	5	2	3	2	4	
5	7	2	1	5	3	5	0	5	1	5	2	5	5	5	4	
3	7	8	11	11	0	11	1	11	2	11	1	11	0	
6	10	12	5	0	6	13	5	0	5	1	5	2	5	3	5	4	
6	9	6	0	5	1	2	5	0	5	1	5	2	5	5	5	4	
7	6	0	5	1	2	7	14	1	0	1	1	1	5	1	3	1	4	
7	6	0	5	1	2	7	14	5	0	5	1	5	2	5	5	5	4	
6	2	1	5	0	6	9	5	0	5	1	5	2	5	3	5	4	
3	12	5	1	5	0	5	1	5	2	5	3	5	4	
2	8	7	7	0	7	1	7	2	7	1	7	0	
8	6	0	5	1	2	7	8	11	5	0	5	1	5	2	5	3	5	4	
2	5	0	0	0	0	1	0	5	0	3	0	4	
7	0	5	1	2	7	8	11	1	0	1	1	1	5	1	3	1	4	
3	11	8	7	11	0	11	1	11	2	11	5	11	4	
4	13	6	0	5	13	0	13	1	13	2	13	5	13	4	
5	0	5	1	2	7	5	0	5	1	5	2	5	3	5	4	
8	14	7	2	1	5	0	6	9	5	0	5	1	5	2	5	1	5	0	
2	10	12	12	0	12	1	12	2	12	1	12	0	
4	13	6	0	5	0	0	0	1	0	5	0	3	0	4	
8	9	6	0	5	1	2	7	14	5	0	5	1	5	2	5	5	5	4	
4	11	8	7	2	11	0	11	1	11	2	11	3	11	4	
6	10	12	5	0	6	13	0	0	0	1	0	5	0	3	0	4	
3	2	1	4	4	0	4	1	4	2	4	1	4	0	
4	12	5	1	4	4	0	4	1	4	2	4	5	4	4	
6	3	5	1	2	7	14	14	0	14	1	14	5	14	3	14	4	
7	6	0	5	1	2	7	14	5	0	5	1	5	2	5	1	5	0	
2	0	6	0	0	0	1	0	5	0	3	0	4	
5	9	6	0	5	1	5	0	5	1	5	2	5	3	5	4	
2	0	5	5	0	5	1	5	2	5	1	5	0	
4	1	5	12	10	10	0	10	1	10	2	10	1	10	0	
9	11	8	7	2	1	5	0	6	9	5	0	5	1	5	2	5	1	5	0	
2	6	9	6	0	6	1	6	2	6	5	6	4	
2	5	0	5	0	5	1	5	2	5	1	5	0	
4	1	2	7	8	1	0	1	1	1	2	1	3	1	4	
4	0	5	1	2	1	0	1	1	1	5	1	3	1	4	
3	11	8	7	11	0	11	1	11	2	11	1	11	0	
4	7	2	1	4	1	0	1	1	1	5	1	3	1	4	
4	14	7	8	11	7	0	7	1	7	2	7	5	7	4	
7	12	5	1	2	7	8	11	5	0	5	1	5	2	5	5	5	4	
2	8	7	7	0	7	1	7	2	7	5	7	4	
4	10	12	5	1	10	0	10	1	10	2	10	1	10	0	
5	13	6	0	5	3	5	0	5	1	5	2	5	3	5	4	
7	9	6	0	5	1	2	7	1	0	1	1	1	5	1	3	1	4	
5	4	1	5	0	6	1	0	1	1	1	5	1	3	1	4	
3	0	5	3	5	0	5	1	5	2	5	5	5	4	
3	1	5	12	1	0	1	1	1	5	1	3	1	4	
3	3	5	0	5	0	5	1	5	2	5	3	5	4	
4	4	1	5	12	4	0	4	1	4	2	4	3	4	4	
5	6	0	5	1	2	5	0	5	1	5	2	5	3	5	4	
4	7	2	1	5	5	0	5	1	5	2	5	3	5	4	
8	13	6	0	5	1	2	7	14	1	0	1	1	1	5	1	3	1	4	
2	13	6	13	0	13	1	13	2	13	5	13	4	
3	12	5	0	5	0	5	1	5	2	5	5	5	4	
8	14	7	2	1	5	0	6	13	1	0	1	1	1	5	1	3	1	4	
4	6	0	5	1	5	0	5	1	5	2	5	1	5	0	
6	0	5	1	2	7	8	5	0	5	1	5	2	5	5	5	4	
4	6	0	5	1	1	0	1	1	1	5	1	3	1	4	
3	1	5	0	5	0	5	1	5	2	5	5	5	4	
2	1	5	5	0	5	1	5	2	5	3	5	4	
5	3	5	0	6	9	0	0	0	1	0	5	0	3	0	4	
3	9	6	0	0	0	0	1	0	2	0	3	0	4	
6	13	6	0	5	1	2	13	0	13	1	13	2	13	1	13	0	
3	5	0	6	5	0	5	1	5	2	5	1	5	0	
3	0	6	13	13	0	13	1	13	2	13	5	13	4	
2	11	8	11	0	11	1	11	2	11	1	11	0	
5	14	7	2	1	4	4	0	4	1	4	5	4	3	4	4	
4	12	5	0	6	5	0	5	1	5	2	5	3	5	4	
6	14	7	2	1	5	12	1	0	1	1	1	5	1	3	1	4	
2	4	1	4	0	4	1	4	2	4	3	4	4	
8	8	7	2	1	5	0	6	9	5	0	5	1	5	2	5	5	5	4	
2	5	3	3	0	3	1	3	5	3	3	3	4	
4	1	5	0	6	1	0	1	1	1	5	1	3	1	4	
2	1	5	5	0	5	1	5	2	5	1	5	0	
6	14	7	2	1	5	0	5	0	5	1	5	2	5	1	5	0	
5	8	7	2	1	5	1	0	1	1	1	5	1	3	1	4	
2	5	0	5	0	5	1	5	2	5	3	5	4	
7	0	5	1	2	7	8	11	5	0	5	1	5	2	5	3	5	4	
3	3	5	1	1	0	1	1	1	2	1	5	1	4	
4	12	5	1	2	1	0	1	1	1	5	1	3	1	4	
6	7	2	1	5	12	10	1	0	1	1	1	5	1	3	1	4	
5	1	5	0	6	13	5	0	5	1	5	2	5	3	5	4	
5	12	5	1	2	7	5	0	5	1	5	2	5	5	5	4	
4	3	5	1	2	1	0	1	1	1	5	1	3	1	4	
4	4	1	5	3	1	0	1	1	1	2	1	5	1	4	
2	7	8	7	0	7	1	7	2	7	3	7	4	
3	3	5	0	5	0	5	1	5	2	5	1	5	0	
3	0	6	9	0	0	0	1	0	2	0	3	0	4	
5	11	8	7	2	1	1	0	1	1	1	2	1	3	1	4	
8	6	0	5	1	2	7	8	11	1	0	1	1	1	5	1	3	1	4	
3	14	7	8	7	0	7	1	7	2	7	5	7	4	
7	12	5	1	2	7	8	11	5	0	5	1	5	2	5	3	5	4	
4	10	12	5	3	5	0	5	1	5	2	5	1	5	0	
5	2	1	5	12	10	10	0	10	1	10	2	10	5	10	4	
4	2	1	5	0	5	0	5	1	5	2	5	3	5	4	
6	8	7	2	1	5	3	5	0	5	1	5	2	5	3	5	4	
5	6	0	5	1	4	1	0	1	1	1	5	1	3	1	4	
2	2	1	1	0	1	1	1	2	1	1	1	0	
2	11	8	11	0	11	1	11	2	11	5	11	4	
5	4	1	2	7	8	1	0	1	1	1	5	1	3	1	4	
5	4	1	2	7	8	1	0	1	1	1	2	1	3	1	4	
5	4	1	5	12	10	5	0	5	1	5	2	5	1	5	0	
5	10	12	5	0	6	10	0	10	1	10	2	10	5	10	4	
3	11	8	7	11	0	11	1	11	5	11	3	11	4	
2	12	10	12	0	12	1	12	2	12	5	12	4	
5	4	1	5	12	10	1	0	1	1	1	5	1	3	1	4	
4	4	1	5	12	4	0	4	1	4	2	4	5	4	4	
5	10	12	5	0	6	10	0	10	1	10	2	10	1	10	0	
9	11	8	7	2	1	5	0	6	9	1	0	1	1	1	2	1	5	1	4	
3	10	12	5	10	0	10	1	10	2	10	5	10	4	
6	14	7	2	1	5	3	5	0	5	1	5	2	5	1	5	0	
2	1	2	1	0	1	1	1	2	1	3	1	4	
2	6	0	0	0	0	1	0	2	0	5	0	4	
5	3	5	0	6	13	0	0	0	1	0	5	0	3	0	4	
3	12	5	1	5	0	5	1	5	2	5	1	5	0	
5	6	0	5	1	4	4	0	4	1	4	2	4	1	4	0	
5	8	7	2	1	5	5	0	5	1	5	2	5	1	5	0	
4	13	6	0	5	5	0	5	1	5	2	5	1	5	0	
6	9	6	0	5	12	10	5	0	5	1	5	2	5	1	5	0	
2	2	7	2	0	2	1	2	2	2	5	2	4	
6	7	2	1	5	12	10	10	0	10	1	10	2	10	1	10	0	
2	10	12	10	0	10	1	10	2	10	3	10	4	
6	2	1	5	0	6	9	1	0	1	1	1	5	1	3	1	4	
5	6	0	5	12	10	10	0	10	1	10	2	10	3	10	4	
9	11	8	7	2	1	5	0	6	13	5	0	5	1	5	2	5	1	5	0	
7	13	6	0	5	1	2	7	1	0	1	1	1	5	1	3	1	4	
2	7	8	7	0	7	1	7	2	7	1	7	0	
2	7	14	7	0	7	1	7	2	7	5	7	4	
6	9	6	0	5	1	4	4	0	4	1	4	2	4	5	4	4	
5	13	6	0	5	3	5	0	5	1	5	2	5	5	5	4	
8	6	0	5	1	2	7	8	11	5	0	5	1	5	2	5	5	5	4	
3	0	6	9	9	0	9	1	9	2	9	5	9	4	
6	10	12	5	0	6	13	5	0	5	1	5	2	5	1	5	0	
7	6	0	5	1	2	7	8	5	0	5	1	5	2	5	3	5	4	
4	10	12	5	0	0	0	0	1	0	5	0	3	0	4	
4	4	1	5	0	4	0	4	1	4	2	4	1	4	0	
5	11	8	7	2	1	1	0	1	1	1	2	1	1	1	0	
7	7	2	1	5	0	6	13	5	0	5	1	5	2	5	3	5	4	
6	8	7	2	1	5	0	1	0	1	1	1	5	1	3	1	4	
5	9	6	0	5	1	1	0	1	1	1	5	1	3	1	4	
6	12	5	1	2	7	8	5	0	5	1	5	2	5	3	5	4	
6	0	5	1	2	7	8	1	0	1	1	1	5	1	3	1	4	
7	7	2	1	5	0	6	9	1	0	1	1	1	2	1	5	1	4	
5	3	5	1	2	7	1	0	1	1	1	5	1	3	1	4	
4	13	6	0	5	5	0	5	1	5	2	5	3	5	4	
5	12	5	1	2	7	5	0	5	1	5	2	5	1	5	0	
5	12	5	0	6	9	0	0	0	1	0	5	0	3	0	4	
5	10	12	5	0	6	10	0	10	1	10	2	10	3	10	4	
5	6	0	5	1	2	5	0	5	1	5	2	5	1	5	0	
4	6	0	5	3	5	0	5	1	5	2	5	1	5	0	
5	8	7	2	1	4	1	0	1	1	1	2	1	3	1	4	
4	3	5	1	2	5	0	5	1	5	2	5	3	5	4	
3	1	2	7	1	0	1	1	1	2	1	3	1	4	
7	3	5	1	2	7	8	11	5	0	5	1	5	2	5	1	5	0	
7	11	8	7	2	1	5	12	1	0	1	1	1	5	1	3	1	4	
4	9	6	0	5	5	0	5	1	5	2	5	1	5	0	
4	2	1	5	12	5	0	5	1	5	2	5	1	5	0	
8	13	6	0	5	1	2	7	14	5	0	5	1	5	2	5	1	5	0	
3	8	7	14	7	0	7	1	7	5	7	3	7	4	
2	8	11	11	0	11	1	11	2	11	3	11	4	
8	13	6	0	5	1	2	7	14	5	0	5	1	5	2	5	3	5	4	
5	8	7	2	1	4	1	0	1	1	1	2	1	5	1	4	
6	10	12	5	1	2	7	10	0	10	1	10	2	10	1	10	0	
3	9	6	13	13	0	13	1	13	2	13	3	13	4	
7	11	8	7	2	1	5	12	5	0	5	1	5	2	5	3	5	4	
9	11	8	7	2	1	5	0	6	13	1	0	1	1	1	5	1	3	1	4	
9	11	8	7	2	1	5	0	6	13	5	0	5	1	5	2	5	5	5	4	
2	1	2	1	0	1	1	1	2	1	5	1	4	
6	4	1	5	0	6	9	5	0	5	1	5	2	5	1	5	0	
4	6	0	5	3	0	0	0	1	0	2	0	5	0	4	
4	3	5	12	10	5	0	5	1	5	2	5	3	5	4	
5	7	2	1	5	0	1	0	1	1	1	2	1	5	1	4	
3	0	5	12	0	0	0	1	0	2	0	5	0	4	
2	5	1	1	0	1	1	1	5	1	3	1	4	
4	0	5	1	2	5	0	5	1	5	2	5	3	5	4	
6	4	1	5	0	6	9	1	0	1	1	1	2	1	5	1	4	
5	14	7	2	1	4	4	0	4	1	4	2	4	3	4	4	
2	1	4	1	0	1	1	1	5	1	3	1	4	
3	1	2	7	1	0	1	1	1	2	1	1	1	0	
6	13	6	0	5	1	2	5	0	5	1	5	2	5	3	5	4	
3	4	1	5	1	0	1	1	1	2	1	5	1	4	
4	2	1	5	0	1	0	1	1	1	2	1	5	1	4	
3	12	5	0	0	0	0	1	0	5	0	3	0	4	
4	1	5	12	10	1	0	1	1	1	2	1	5	1	4	
6	13	6	0	5	12	10	0	0	0	1	0	2	0	5	0	4	
2	12	5	12	0	12	1	12	2	12	5	12	4	
2	13	6	13	0	13	1	13	2	13	1	13	0	
4	0	5	12	10	10	0	10	1	10	2	10	3	10	4	
7	11	8	7	2	1	5	3	5	0	5	1	5	2	5	3	5	4	
6	11	8	7	2	1	4	1	0	1	1	1	2	1	3	1	4	
4	1	5	12	10	5	0	5	1	5	2	5	3	5	4	
6	9	6	0	5	1	2	1	0	1	1	1	5	1	3	1	4	
4	7	2	1	5	1	0	1	1	1	5	1	3	1	4	
4	8	7	2	1	1	0	1	1	1	2	1	3	1	4	
4	2	1	5	3	5	0	5	1	5	2	5	1	5	0	
3	3	5	0	0	0	0	1	0	5	0	3	0	4	
3	3	5	12	12	0	12	1	12	2	12	5	12	4	
6	6	0	5	1	2	7	5	0	5	1	5	2	5	3	5	4	
4	6	0	5	12	0	0	0	1	0	5	0	3	0	4	
2	12	10	10	0	10	1	10	2	10	3	10	4	
6	2	1	5	0	6	13	1	0	1	1	1	2	1	5	1	4	
7	12	5	1	2	7	8	11	1	0	1	1	1	5	1	3	1	4	
6	5	1	2	7	8	11	1	0	1	1	1	5	1	3	1	4	
9	9	6	0	5	1	2	7	8	11	1	0	1	1	1	5	1	3	1	4	
3	14	7	2	2	0	2	1	2	5	2	3	2	4	
2	7	8	7	0	7	1	7	5	7	3	7	4	
4	2	1	5	3	1	0	1	1	1	5	1	3	1	4	
7	10	12	5	1	2	7	14	14	0	14	1	14	5	14	3	14	4	
3	0	6	9	0	0	0	1	0	2	0	1	0	0	
6	10	12	5	1	2	7	1	0	1	1	1	2	1	5	1	4	
6	4	1	2	7	8	11	1	0	1	1	1	2	1	1	1	0	
3	1	2	7	1	0	1	1	1	2	1	5	1	4	
2	1	4	1	0	1	1	1	2	1	3	1	4	
3	12	5	3	5	0	5	1	5	2	5	1	5	0	
3	5	1	4	1	0	1	1	1	2	1	5	1	4	
4	5	0	6	9	9	0	9	1	9	2	9	3	9	4	
6	4	1	2	7	8	11	1	0	1	1	1	2	1	5	1	4	
3	2	1	5	1	0	1	1	1	2	1	5	1	4	
5	13	6	0	5	1	5	0	5	1	5	2	5	3	5	4	
3	0	5	3	5	0	5	1	5	2	5	3	5	4	
3	3	5	12	12	0	12	1	12	5	12	3	12	4	
4	6	0	5	12	5	0	5	1	5	2	5	1	5	0	
5	3	5	1	2	7	5	0	5	1	5	2	5	3	5	4	
5	6	0	5	1	2	1	0	1	1	1	2	1	5	1	4	
7	7	2	1	5	0	6	13	5	0	5	1	5	2	5	1	5	0	
8	8	7	2	1	5	0	6	13	1	0	1	1	1	2	1	5	1	4	
7	14	7	2	1	5	12	10	1	0	1	1	1	2	1	5	1	4	
4	1	5	0	6	5	0	5	1	5	2	5	1	5	0	
4	9	6	0	5	5	0	5	1	5	2	5	3	5	4	
2	5	1	5	0	5	1	5	2	5	1	5	0	
6	13	6	0	5	1	4	4	0	4	1	4	2	4	3	4	4	
3	3	5	0	0	0	0	1	0	2	0	5	0	4	
5	1	5	0	6	9	1	0	1	1	1	5	1	3	1	4	
3	13	6	9	6	0	6	1	6	2	6	5	6	4	
3	8	7	2	2	0	2	1	2	5	2	3	2	4	
5	4	1	2	7	14	14	0	14	1	14	2	14	3	14	4	
7	10	12	5	1	2	7	14	14	0	14	1	14	2	14	1	14	0	
5	13	6	0	5	12	0	0	0	1	0	5	0	3	0	4	
5	0	5	1	2	7	1	0	1	1	1	2	1	5	1	4	
7	11	8	7	2	1	5	3	1	0	1	1	1	2	1	5	1	4	
3	4	1	2	1	0	1	1	1	2	1	5	1	4	
5	9	6	0	5	3	5	0	5	1	5	2	5	1	5	0	
5	12	5	0	6	13	5	0	5	1	5	2	5	1	5	0	
3	13	6	9	9	0	9	1	9	5	9	3	9	4	
4	0	5	12	10	10	0	10	1	10	2	10	1	10	0	
4	2	1	5	0	5	0	5	1	5	2	5	1	5	0	
5	10	12	5	1	4	4	0	4	1	4	2	4	3	4	4	
5	12	5	1	2	7	1	0	1	1	1	5	1	3	1	4	
6	8	7	2	1	5	12	1	0	1	1	1	2	1	5	1	4	
3	8	7	2	2	0	2	1	2	2	2	3	2	4	
6	7	2	1	5	0	6	1	0	1	1	1	2	1	5	1	4	
4	12	5	1	2	1	0	1	1	1	2	1	5	1	4	
3	2	1	5	5	0	5	1	5	2	5	3	5	4	
4	1	2	7	14	14	0	14	1	14	5	14	3	14	4	
6	14	7	2	1	5	3	14	0	14	1	14	5	14	3	14	4	
6	14	7	2	1	5	3	1	0	1	1	1	2	1	5	1	4	
3	10	12	5	10	0	10	1	10	2	10	1	10	0	
6	9	6	0	5	12	10	0	0	0	1	0	2	0	5	0	4	
2	5	3	3	0	3	1	3	2	3	5	3	4	
4	3	5	12	10	5	0	5	1	5	2	5	1	5	0	
5	5	1	2	7	14	14	0	14	1	14	2	14	3	14	4	
6	2	1	5	0	6	13	5	0	5	1	5	2	5	1	5	0	
7	8	7	2	1	5	12	10	10	0	10	1	10	2	10	3	10	4	
3	12	5	0	5	0	5	1	5	2	5	1	5	0	
3	7	2	1	1	0	1	1	1	2	1	3	1	4	
6	10	12	5	0	6	9	0	0	0	1	0	5	0	3	0	4	
6	9	6	0	5	12	10	5	0	5	1	5	2	5	3	5	4	
9	11	8	7	2	1	5	0	6	13	5	0	5	1	5	2	5	3	5	4	
2	1	2	1	0	1	1	1	5	1	3	1	4	
3	2	7	8	2	0	2	1	2	5	2	3	2	4	
7	14	7	2	1	5	0	6	1	0	1	1	1	2	1	5	1	4	
7	3	5	1	2	7	8	11	5	0	5	1	5	2	5	3	5	4	
7	0	5	1	2	7	8	11	1	0	1	1	1	2	1	5	1	4	
3	14	7	8	7	0	7	1	7	2	7	3	7	4	
3	6	0	5	0	0	0	1	0	2	0	5	0	4	
3	13	6	0	0	0	0	1	0	5	0	3	0	4	
3	2	7	14	14	0	14	1	14	2	14	3	14	4	
3	5	1	2	5	0	5	1	5	2	5	1	5	0	
7	14	7	2	1	5	12	10	14	0	14	1	14	5	14	3	14	4	
5	8	7	2	1	5	1	0	1	1	1	2	1	5	1	4	
6	9	6	0	5	1	2	5	0	5	1	5	2	5	3	5	4	
5	3	5	0	6	9	5	0	5	1	5	2	5	3	5	4	
5	1	2	7	8	11	1	0	1	1	1	2	1	5	1	4	
9	13	6	0	5	1	2	7	8	11	1	0	1	1	1	2	1	5	1	4	
3	13	6	9	9	0	9	1	9	2	9	1	9	0	
6	8	7	2	1	5	0	1	0	1	1	1	2	1	5	1	4	
4	0	5	1	4	4	0	4	1	4	2	4	1	4	0	
3	0	6	13	13	0	13	1	13	2	13	3	13	4	
5	5	1	2	7	14	14	0	14	1	14	2	14	1	14	0	
