140835	-1
-1
244.486	244.653
15
0	320	320
1	174	320
2	0	320
3	27	320
4	0	320
5	320	320
6	89	320
7	289	320
8	18	320
9	37	320
10	0	320
11	0	320
12	60	320
13	9	320
14	0	320
39
0	5	105612.000000	162195.900000	1
0	6	55902.000000	110170.800000	1
0	7	36300.000000	66306.500000	1
1	2	73836.000000	136693.400000	1
1	4	19722.000000	44884.400000	1
1	5	135870.000000	216261.200000	1
2	1	85794.000000	136693.400000	1
2	7	68418.000000	136693.400000	1
3	5	49974.000000	51005.000000	1
4	1	14472.000000	44884.400000	1
4	3	7062.000000	38763.800000	1
5	0	111132.000000	162195.900000	1
5	1	151734.000000	216261.200000	1
5	3	44772.000000	51005.000000	1
5	12	32508.000000	70386.900000	1
6	0	65610.000000	110170.800000	1
6	9	49002.000000	91809.000000	1
6	13	34182.000000	64266.300000	1
7	0	38616.000000	66306.500000	1
7	2	79956.000000	136693.400000	1
7	8	33846.000000	38763.800000	1
7	14	28068.000000	57125.600000	1
8	7	21636.000000	38763.800000	1
8	9	11130.000000	19381.900000	1
8	11	17952.000000	31623.100000	1
8	14	11136.000000	23462.300000	1
9	6	54288.000000	91809.000000	1
9	11	24660.000000	32643.200000	1
10	12	16440.000000	25502.500000	1
10	13	7464.000000	14281.400000	1
11	8	27318.000000	31623.100000	1
11	9	18954.000000	32643.200000	1
12	5	41436.000000	70386.900000	1
12	10	12798.000000	25502.500000	1
12	13	14874.000000	25502.500000	1
13	6	36750.000000	64266.300000	1
13	10	10128.000000	14281.400000	1
13	12	15150.000000	25502.500000	1
14	7	46872.000000	57125.600000	1
840
5	1	2	7	8	11	7	0	7	1	7	2	7	3	7	4	
5	1	5	0	6	9	5	0	5	1	5	2	5	5	5	4	
4	7	0	5	12	5	0	5	1	5	2	5	3	5	4	
2	3	5	5	0	5	1	5	2	5	5	5	4	
4	7	0	5	3	5	0	5	1	5	5	5	3	5	4	
6	11	9	6	0	5	3	0	0	0	1	0	5	0	3	0	4	
4	3	5	12	13	5	0	5	1	5	2	5	5	5	4	
2	6	13	6	0	6	1	6	5	6	3	6	4	
5	10	12	5	0	7	5	0	5	1	5	2	5	3	5	4	
4	3	5	0	6	5	0	5	1	5	5	5	3	5	4	
4	4	1	2	7	7	0	7	1	7	2	7	5	7	4	
4	1	2	7	8	7	0	7	1	7	2	7	1	7	0	
5	14	7	0	5	12	5	0	5	1	5	2	5	1	5	0	
4	7	2	1	4	7	0	7	1	7	2	7	3	7	4	
4	2	1	5	12	5	0	5	1	5	2	5	5	5	4	
3	0	7	2	0	0	0	1	0	2	0	5	0	4	
4	13	12	5	1	5	0	5	1	5	2	5	5	5	4	
4	7	0	5	3	5	0	5	1	5	2	5	1	5	0	
3	5	12	10	12	0	12	1	12	5	12	3	12	4	
2	12	5	5	0	5	1	5	2	5	1	5	0	
3	5	1	2	5	0	5	1	5	2	5	5	5	4	
4	8	7	2	1	7	0	7	1	7	2	7	1	7	0	
2	8	7	7	0	7	1	7	2	7	3	7	4	
4	10	13	6	9	6	0	6	1	6	2	6	3	6	4	
2	6	0	0	0	0	1	0	5	0	3	0	4	
3	14	7	0	0	0	0	1	0	5	0	3	0	4	
4	4	1	5	12	5	0	5	1	5	2	5	1	5	0	
3	2	1	5	1	0	1	1	1	5	1	3	1	4	
3	7	0	5	5	0	5	1	5	2	5	5	5	4	
3	0	7	14	0	0	0	1	0	5	0	3	0	4	
3	5	0	7	5	0	5	1	5	2	5	1	5	0	
2	8	9	9	0	9	1	9	5	9	3	9	4	
5	4	1	5	12	10	5	0	5	1	5	2	5	5	5	4	
3	5	12	10	5	0	5	1	5	2	5	5	5	4	
3	14	7	0	0	0	0	1	0	2	0	3	0	4	
6	3	5	0	6	9	11	0	0	0	1	0	5	0	3	0	4	
2	6	13	6	0	6	1	6	2	6	1	6	0	
5	8	9	6	13	10	6	0	6	1	6	2	6	1	6	0	
4	10	12	5	1	5	0	5	1	5	2	5	5	5	4	
2	0	5	5	0	5	1	5	2	5	3	5	4	
4	3	5	1	2	5	0	5	1	5	2	5	5	5	4	
4	7	0	5	12	5	0	5	1	5	2	5	1	5	0	
3	1	2	7	7	0	7	1	7	5	7	3	7	4	
6	10	12	5	0	7	14	5	0	5	1	5	2	5	3	5	4	
5	8	7	2	1	4	7	0	7	1	7	5	7	3	7	4	
5	2	1	5	12	10	1	0	1	1	1	5	1	3	1	4	
4	2	1	5	3	5	0	5	1	5	2	5	5	5	4	
2	4	1	1	0	1	1	1	5	1	3	1	4	
5	9	6	0	5	3	5	0	5	1	5	2	5	3	5	4	
4	7	0	5	12	5	0	5	1	5	2	5	5	5	4	
3	0	5	3	5	0	5	1	5	2	5	1	5	0	
5	9	6	0	5	3	5	0	5	1	5	2	5	5	5	4	
2	6	13	6	0	6	1	6	2	6	5	6	4	
3	12	5	0	5	0	5	1	5	2	5	3	5	4	
4	11	9	6	0	0	0	0	1	0	2	0	3	0	4	
5	10	12	5	1	2	5	0	5	1	5	2	5	3	5	4	
4	13	6	9	11	6	0	6	1	6	5	6	3	6	4	
4	7	2	1	4	7	0	7	1	7	2	7	1	7	0	
3	12	5	3	12	0	12	1	12	5	12	3	12	4	
4	12	5	0	7	5	0	5	1	5	2	5	3	5	4	
4	6	0	5	3	5	0	5	1	5	2	5	3	5	4	
4	9	6	0	5	0	0	0	1	0	5	0	3	0	4	
2	11	8	8	0	8	1	8	5	8	3	8	4	
2	12	10	12	0	12	1	12	2	12	1	12	0	
4	4	1	5	0	5	0	5	1	5	2	5	5	5	4	
4	0	6	9	11	0	0	0	1	0	2	0	1	0	0	
2	12	10	12	0	12	1	12	5	12	3	12	4	
3	9	6	13	6	0	6	1	6	2	6	5	6	4	
2	2	7	7	0	7	1	7	2	7	3	7	4	
4	14	7	0	6	0	0	0	1	0	2	0	1	0	0	
2	8	11	8	0	8	1	8	2	8	5	8	4	
2	5	1	5	0	5	1	5	2	5	5	5	4	
6	10	12	5	0	7	8	5	0	5	1	5	2	5	5	5	4	
4	3	5	0	7	5	0	5	1	5	2	5	1	5	0	
3	6	0	7	0	0	0	1	0	5	0	3	0	4	
5	2	1	5	12	13	5	0	5	1	5	2	5	3	5	4	
4	12	5	1	2	5	0	5	1	5	2	5	1	5	0	
4	3	5	1	4	5	0	5	1	5	2	5	1	5	0	
3	13	6	0	0	0	0	1	0	2	0	1	0	0	
4	5	0	7	8	5	0	5	1	5	2	5	1	5	0	
2	9	11	9	0	9	1	9	2	9	5	9	4	
3	9	11	8	9	0	9	1	9	2	9	5	9	4	
4	3	5	12	13	5	0	5	1	5	2	5	1	5	0	
3	1	5	0	0	0	0	1	0	5	0	3	0	4	
3	1	5	3	5	0	5	1	5	2	5	1	5	0	
5	2	1	5	12	10	5	0	5	1	5	2	5	1	5	0	
5	8	9	6	13	12	6	0	6	1	6	5	6	3	6	4	
4	8	9	6	13	6	0	6	1	6	2	6	3	6	4	
5	13	12	5	1	4	5	0	5	1	5	2	5	5	5	4	
3	1	5	3	5	0	5	1	5	2	5	3	5	4	
5	10	13	6	9	11	6	0	6	1	6	2	6	1	6	0	
4	4	1	2	7	7	0	7	1	7	2	7	3	7	4	
5	13	6	0	7	2	0	0	0	1	0	5	0	3	0	4	
2	9	11	9	0	9	1	9	2	9	3	9	4	
5	11	9	6	13	10	6	0	6	1	6	2	6	3	6	4	
4	4	1	5	12	1	0	1	1	1	5	1	3	1	4	
4	12	13	6	9	6	0	6	1	6	2	6	5	6	4	
4	14	7	0	5	5	0	5	1	5	2	5	5	5	4	
5	12	5	0	7	14	5	0	5	1	5	2	5	5	5	4	
3	3	5	12	5	0	5	1	5	2	5	3	5	4	
4	0	6	13	10	0	0	0	1	0	2	0	5	0	4	
6	14	7	0	5	12	10	5	0	5	1	5	2	5	3	5	4	
4	5	0	7	8	5	0	5	1	5	2	5	5	5	4	
3	8	7	2	7	0	7	1	7	2	7	5	7	4	
4	14	7	8	11	7	0	7	1	7	5	7	3	7	4	
2	14	7	7	0	7	1	7	5	7	3	7	4	
2	6	9	6	0	6	1	6	2	6	3	6	4	
4	14	7	8	9	7	0	7	1	7	5	7	3	7	4	
2	6	0	0	0	0	1	0	2	0	1	0	0	
4	14	7	0	5	0	0	0	1	0	5	0	3	0	4	
3	1	5	12	5	0	5	1	5	2	5	5	5	4	
3	5	0	6	5	0	5	1	5	2	5	3	5	4	
4	3	5	0	7	5	0	5	1	5	2	5	5	5	4	
3	0	5	12	5	0	5	1	5	2	5	3	5	4	
5	11	8	7	2	1	7	0	7	1	7	5	7	3	7	4	
5	9	6	0	5	1	5	0	5	1	5	2	5	5	5	4	
3	5	12	13	5	0	5	1	5	2	5	1	5	0	
4	11	9	6	0	0	0	0	1	0	5	0	3	0	4	
4	10	12	5	0	5	0	5	1	5	2	5	1	5	0	
6	10	12	5	0	7	14	5	0	5	1	5	2	5	5	5	4	
3	11	9	6	6	0	6	1	6	2	6	5	6	4	
3	7	2	1	7	0	7	1	7	2	7	1	7	0	
2	8	7	7	0	7	1	7	5	7	3	7	4	
4	3	5	12	10	5	0	5	1	5	2	5	5	5	4	
4	3	5	1	4	5	0	5	1	5	2	5	5	5	4	
2	9	6	6	0	6	1	6	5	6	3	6	4	
4	2	7	0	6	0	0	0	1	0	2	0	3	0	4	
4	8	7	0	5	5	0	5	1	5	2	5	3	5	4	
4	3	5	1	4	1	0	1	1	1	5	1	3	1	4	
4	14	7	0	5	5	0	5	1	5	2	5	3	5	4	
2	12	13	12	0	12	1	12	5	12	3	12	4	
3	7	0	6	0	0	0	1	0	2	0	3	0	4	
3	0	5	1	0	0	0	1	0	5	0	3	0	4	
3	5	12	13	12	0	12	1	12	5	12	3	12	4	
4	9	11	8	14	9	0	9	1	9	5	9	3	9	4	
2	10	12	12	0	12	1	12	5	12	3	12	4	
4	13	12	5	3	5	0	5	1	5	2	5	1	5	0	
5	4	1	5	12	13	5	0	5	1	5	2	5	1	5	0	
4	6	0	7	2	0	0	0	1	0	5	0	3	0	4	
5	14	7	2	1	4	7	0	7	1	7	2	7	1	7	0	
4	14	7	0	6	0	0	0	1	0	5	0	3	0	4	
2	1	2	1	0	1	1	1	2	1	1	1	0	
4	10	12	5	3	5	0	5	1	5	2	5	5	5	4	
3	10	13	6	6	0	6	1	6	5	6	3	6	4	
3	1	5	3	5	0	5	1	5	2	5	5	5	4	
3	1	5	0	5	0	5	1	5	2	5	3	5	4	
2	1	5	1	0	1	1	1	5	1	3	1	4	
5	4	1	5	0	6	5	0	5	1	5	2	5	3	5	4	
5	5	0	7	8	11	5	0	5	1	5	2	5	5	5	4	
3	8	9	6	6	0	6	1	6	5	6	3	6	4	
3	7	8	9	7	0	7	1	7	5	7	3	7	4	
2	2	1	1	0	1	1	1	2	1	5	1	4	
4	3	5	12	10	12	0	12	1	12	5	12	3	12	4	
3	6	13	10	6	0	6	1	6	2	6	1	6	0	
2	4	3	3	0	3	1	3	5	3	3	3	4	
4	0	5	1	4	5	0	5	1	5	2	5	5	5	4	
5	3	5	0	7	8	5	0	5	1	5	2	5	3	5	4	
4	2	7	8	11	7	0	7	1	7	5	7	3	7	4	
5	13	6	0	7	8	0	0	0	1	0	2	0	3	0	4	
2	9	6	6	0	6	1	6	2	6	5	6	4	
4	10	12	5	0	5	0	5	1	5	2	5	3	5	4	
4	7	0	6	13	0	0	0	1	0	2	0	5	0	4	
2	6	9	6	0	6	1	6	2	6	1	6	0	
5	14	7	0	5	3	5	0	5	1	5	2	5	3	5	4	
3	3	5	1	5	0	5	1	5	2	5	1	5	0	
4	1	2	7	8	7	0	7	1	7	2	7	5	7	4	
3	6	13	12	6	0	6	1	6	2	6	5	6	4	
3	3	5	1	1	0	1	1	1	5	1	3	1	4	
5	14	7	0	5	12	5	0	5	1	5	2	5	3	5	4	
3	4	1	2	1	0	1	1	1	2	1	1	1	0	
3	14	7	0	0	0	0	1	0	2	0	5	0	4	
2	13	10	13	0	13	1	13	5	13	3	13	4	
2	2	1	1	0	1	1	1	2	1	3	1	4	
3	0	7	8	0	0	0	1	0	2	0	3	0	4	
2	5	12	5	0	5	1	5	2	5	3	5	4	
4	11	8	7	2	7	0	7	1	7	5	7	3	7	4	
4	5	0	7	8	0	0	0	1	0	5	0	3	0	4	
5	12	13	6	9	11	6	0	6	1	6	2	6	1	6	0	
3	0	5	12	5	0	5	1	5	2	5	1	5	0	
4	1	2	7	14	7	0	7	1	7	2	7	1	7	0	
5	4	1	5	0	6	5	0	5	1	5	2	5	5	5	4	
6	4	1	5	0	6	9	5	0	5	1	5	2	5	3	5	4	
4	12	5	1	4	5	0	5	1	5	2	5	1	5	0	
3	0	7	8	0	0	0	1	0	2	0	1	0	0	
5	8	9	6	13	10	6	0	6	1	6	2	6	5	6	4	
2	13	6	6	0	6	1	6	2	6	3	6	4	
4	11	8	7	2	7	0	7	1	7	2	7	1	7	0	
2	7	2	7	0	7	1	7	2	7	1	7	0	
3	2	1	4	1	0	1	1	1	5	1	3	1	4	
4	5	0	7	8	5	0	5	1	5	2	5	3	5	4	
4	2	1	5	12	5	0	5	1	5	2	5	3	5	4	
3	8	9	6	6	0	6	1	6	2	6	3	6	4	
4	9	11	8	7	7	0	7	1	7	2	7	1	7	0	
5	3	5	0	6	9	5	0	5	1	5	2	5	5	5	4	
4	6	0	5	1	5	0	5	1	5	2	5	5	5	4	
4	9	6	13	12	6	0	6	1	6	2	6	5	6	4	
2	7	2	7	0	7	1	7	2	7	5	7	4	
3	3	5	12	5	0	5	1	5	2	5	1	5	0	
4	2	7	8	11	7	0	7	1	7	2	7	1	7	0	
4	8	9	6	13	6	0	6	1	6	5	6	3	6	4	
2	14	7	7	0	7	1	7	2	7	5	7	4	
5	8	9	6	13	12	6	0	6	1	6	2	6	3	6	4	
5	3	5	0	7	8	5	0	5	1	5	2	5	1	5	0	
2	9	6	6	0	6	1	6	2	6	3	6	4	
3	5	0	7	5	0	5	1	5	2	5	5	5	4	
3	8	9	6	6	0	6	1	6	2	6	1	6	0	
5	10	12	5	1	2	5	0	5	1	5	2	5	5	5	4	
3	11	8	14	8	0	8	1	8	5	8	3	8	4	
3	2	7	8	7	0	7	1	7	2	7	3	7	4	
5	14	7	0	6	13	0	0	0	1	0	2	0	3	0	4	
4	3	5	12	13	5	0	5	1	5	2	5	3	5	4	
4	4	1	5	0	0	0	0	1	0	5	0	3	0	4	
3	11	8	14	8	0	8	1	8	2	8	3	8	4	
5	11	9	6	0	5	5	0	5	1	5	2	5	5	5	4	
2	6	9	6	0	6	1	6	5	6	3	6	4	
4	14	7	8	11	7	0	7	1	7	2	7	1	7	0	
6	11	8	7	2	1	4	7	0	7	1	7	2	7	1	7	0	
3	2	7	14	7	0	7	1	7	2	7	5	7	4	
5	13	12	5	1	4	1	0	1	1	1	5	1	3	1	4	
6	14	7	0	5	12	10	5	0	5	1	5	2	5	1	5	0	
4	9	11	8	7	7	0	7	1	7	2	7	5	7	4	
4	10	12	5	3	5	0	5	1	5	2	5	3	5	4	
2	12	5	5	0	5	1	5	2	5	3	5	4	
4	1	5	12	13	5	0	5	1	5	2	5	5	5	4	
5	11	9	6	13	10	6	0	6	1	6	2	6	1	6	0	
4	11	9	6	0	0	0	0	1	0	2	0	1	0	0	
4	12	13	6	9	6	0	6	1	6	2	6	3	6	4	
2	0	6	0	0	0	1	0	2	0	5	0	4	
4	6	9	11	8	6	0	6	1	6	2	6	5	6	4	
5	4	1	2	7	14	7	0	7	1	7	2	7	1	7	0	
2	4	3	3	0	3	1	3	2	3	1	3	0	
2	5	12	5	0	5	1	5	2	5	1	5	0	
2	10	13	13	0	13	1	13	2	13	5	13	4	
2	2	1	1	0	1	1	1	5	1	3	1	4	
3	0	5	3	0	0	0	1	0	5	0	3	0	4	
6	3	5	0	6	9	11	5	0	5	1	5	2	5	5	5	4	
2	1	5	1	0	1	1	1	2	1	5	1	4	
5	14	7	2	1	4	7	0	7	1	7	2	7	5	7	4	
5	12	5	0	7	14	0	0	0	1	0	5	0	3	0	4	
3	6	0	5	5	0	5	1	5	2	5	3	5	4	
2	5	12	12	0	12	1	12	5	12	3	12	4	
3	11	9	6	6	0	6	1	6	2	6	1	6	0	
2	7	0	0	0	0	1	0	2	0	3	0	4	
3	0	5	1	5	0	5	1	5	2	5	3	5	4	
2	11	9	9	0	9	1	9	2	9	3	9	4	
6	10	12	5	0	7	8	0	0	0	1	0	5	0	3	0	4	
2	3	5	5	0	5	1	5	2	5	3	5	4	
5	4	1	2	7	8	7	0	7	1	7	2	7	1	7	0	
4	6	0	7	14	0	0	0	1	0	2	0	3	0	4	
3	1	5	3	1	0	1	1	1	5	1	3	1	4	
3	5	0	6	5	0	5	1	5	2	5	5	5	4	
4	9	6	13	12	6	0	6	1	6	2	6	3	6	4	
3	0	5	12	0	0	0	1	0	5	0	3	0	4	
3	5	0	6	0	0	0	1	0	5	0	3	0	4	
4	2	7	8	9	7	0	7	1	7	2	7	1	7	0	
5	4	1	2	7	14	7	0	7	1	7	5	7	3	7	4	
4	9	11	8	7	7	0	7	1	7	2	7	3	7	4	
3	7	2	1	7	0	7	1	7	2	7	5	7	4	
2	5	3	5	0	5	1	5	2	5	1	5	0	
3	9	11	8	9	0	9	1	9	5	9	3	9	4	
2	5	12	12	0	12	1	12	2	12	5	12	4	
2	0	5	0	0	0	1	0	5	0	3	0	4	
4	4	1	5	0	5	0	5	1	5	2	5	3	5	4	
3	6	9	11	6	0	6	1	6	2	6	1	6	0	
2	7	0	0	0	0	1	0	2	0	1	0	0	
4	2	7	0	6	0	0	0	1	0	2	0	1	0	0	
4	9	11	8	14	9	0	9	1	9	2	9	1	9	0	
4	6	9	11	8	6	0	6	1	6	5	6	3	6	4	
3	12	5	1	1	0	1	1	1	5	1	3	1	4	
4	1	5	12	13	5	0	5	1	5	2	5	1	5	0	
2	1	4	1	0	1	1	1	2	1	1	1	0	
5	11	8	7	2	1	7	0	7	1	7	2	7	5	7	4	
4	2	1	5	12	1	0	1	1	1	5	1	3	1	4	
4	13	6	9	11	6	0	6	1	6	2	6	1	6	0	
4	3	5	0	6	0	0	0	1	0	2	0	5	0	4	
4	2	1	5	3	5	0	5	1	5	2	5	3	5	4	
4	12	13	6	9	6	0	6	1	6	2	6	1	6	0	
5	7	0	6	13	10	0	0	0	1	0	2	0	5	0	4	
3	5	0	7	5	0	5	1	5	2	5	3	5	4	
4	14	7	8	9	7	0	7	1	7	2	7	5	7	4	
5	1	2	7	8	11	7	0	7	1	7	5	7	3	7	4	
3	4	1	5	1	0	1	1	1	5	1	3	1	4	
6	4	1	2	7	8	11	7	0	7	1	7	2	7	3	7	4	
2	0	7	0	0	0	1	0	2	0	1	0	0	
3	5	12	13	5	0	5	1	5	2	5	3	5	4	
3	12	13	6	6	0	6	1	6	2	6	1	6	0	
2	7	2	7	0	7	1	7	5	7	3	7	4	
3	13	6	0	0	0	0	1	0	2	0	5	0	4	
2	13	10	13	0	13	1	13	2	13	3	13	4	
5	13	6	0	7	14	0	0	0	1	0	2	0	5	0	4	
3	0	6	13	0	0	0	1	0	2	0	1	0	0	
3	0	5	1	0	0	0	1	0	2	0	5	0	4	
3	2	7	8	7	0	7	1	7	2	7	5	7	4	
2	6	0	0	0	0	1	0	2	0	3	0	4	
4	12	5	1	4	1	0	1	1	1	5	1	3	1	4	
3	14	7	2	7	0	7	1	7	2	7	1	7	0	
5	11	9	6	0	5	0	0	0	1	0	5	0	3	0	4	
4	2	7	8	11	7	0	7	1	7	2	7	3	7	4	
4	2	7	0	6	0	0	0	1	0	5	0	3	0	4	
6	11	8	7	2	1	4	7	0	7	1	7	2	7	5	7	4	
5	8	7	2	1	4	7	0	7	1	7	2	7	1	7	0	
5	10	12	5	1	4	1	0	1	1	1	2	1	5	1	4	
4	9	6	13	10	6	0	6	1	6	5	6	3	6	4	
4	6	0	5	3	0	0	0	1	0	5	0	3	0	4	
5	11	9	6	13	12	6	0	6	1	6	2	6	5	6	4	
3	8	9	6	6	0	6	1	6	2	6	5	6	4	
4	1	2	7	14	7	0	7	1	7	2	7	5	7	4	
5	8	9	6	13	10	6	0	6	1	6	5	6	3	6	4	
5	13	12	5	1	4	5	0	5	1	5	2	5	1	5	0	
3	5	1	4	5	0	5	1	5	2	5	1	5	0	
5	10	12	5	0	7	0	0	0	1	0	5	0	3	0	4	
3	4	1	2	1	0	1	1	1	5	1	3	1	4	
5	13	6	0	7	8	0	0	0	1	0	2	0	1	0	0	
6	9	6	0	5	1	4	5	0	5	1	5	2	5	3	5	4	
3	5	1	2	5	0	5	1	5	2	5	3	5	4	
4	7	0	6	13	0	0	0	1	0	5	0	3	0	4	
4	1	2	7	14	7	0	7	1	7	2	7	3	7	4	
2	4	3	3	0	3	1	3	2	3	3	3	4	
2	13	6	6	0	6	1	6	5	6	3	6	4	
5	3	5	0	7	14	5	0	5	1	5	2	5	3	5	4	
3	0	7	2	0	0	0	1	0	2	0	1	0	0	
4	9	6	0	5	0	0	0	1	0	2	0	5	0	4	
4	10	12	5	1	5	0	5	1	5	2	5	3	5	4	
3	11	8	14	8	0	8	1	8	2	8	1	8	0	
3	9	6	0	0	0	0	1	0	2	0	5	0	4	
3	7	0	5	5	0	5	1	5	2	5	1	5	0	
3	12	13	6	6	0	6	1	6	2	6	5	6	4	
2	4	1	1	0	1	1	1	2	1	1	1	0	
4	10	13	6	9	6	0	6	1	6	2	6	1	6	0	
4	14	7	0	6	0	0	0	1	0	2	0	3	0	4	
2	7	8	7	0	7	1	7	2	7	5	7	4	
4	5	0	6	9	0	0	0	1	0	5	0	3	0	4	
2	4	1	1	0	1	1	1	2	1	5	1	4	
2	8	11	8	0	8	1	8	2	8	1	8	0	
2	7	14	7	0	7	1	7	5	7	3	7	4	
3	0	7	14	0	0	0	1	0	2	0	3	0	4	
4	3	5	1	2	5	0	5	1	5	2	5	1	5	0	
5	5	0	7	8	11	5	0	5	1	5	2	5	1	5	0	
3	9	6	0	0	0	0	1	0	2	0	1	0	0	
4	14	7	8	11	7	0	7	1	7	2	7	3	7	4	
5	12	5	0	7	8	0	0	0	1	0	5	0	3	0	4	
2	8	14	8	0	8	1	8	2	8	5	8	4	
2	10	12	12	0	12	1	12	2	12	5	12	4	
2	12	5	12	0	12	1	12	5	12	3	12	4	
4	14	7	2	1	7	0	7	1	7	2	7	3	7	4	
5	10	12	5	1	4	5	0	5	1	5	2	5	1	5	0	
3	14	7	2	7	0	7	1	7	2	7	5	7	4	
5	12	5	0	7	14	5	0	5	1	5	2	5	3	5	4	
4	5	0	6	9	5	0	5	1	5	2	5	1	5	0	
4	13	6	0	7	0	0	0	1	0	2	0	5	0	4	
5	3	5	0	7	8	0	0	0	1	0	2	0	5	0	4	
2	0	5	0	0	0	1	0	2	0	5	0	4	
3	9	6	13	6	0	6	1	6	2	6	1	6	0	
3	5	1	4	1	0	1	1	1	5	1	3	1	4	
2	8	9	9	0	9	1	9	2	9	3	9	4	
3	10	12	5	12	0	12	1	12	5	12	3	12	4	
5	3	5	0	7	8	0	0	0	1	0	5	0	3	0	4	
3	10	12	5	5	0	5	1	5	2	5	3	5	4	
2	7	2	7	0	7	1	7	2	7	3	7	4	
2	6	13	6	0	6	1	6	2	6	3	6	4	
6	4	1	2	7	8	11	7	0	7	1	7	5	7	3	7	4	
3	0	6	13	0	0	0	1	0	5	0	3	0	4	
4	13	12	5	1	1	0	1	1	1	5	1	3	1	4	
3	11	9	6	6	0	6	1	6	2	6	3	6	4	
4	13	6	0	7	0	0	0	1	0	2	0	1	0	0	
5	8	9	6	13	12	6	0	6	1	6	2	6	1	6	0	
5	6	0	5	1	4	5	0	5	1	5	2	5	3	5	4	
5	10	13	6	9	11	6	0	6	1	6	2	6	3	6	4	
3	5	12	13	12	0	12	1	12	2	12	5	12	4	
3	0	5	1	5	0	5	1	5	2	5	1	5	0	
3	12	5	1	1	0	1	1	1	2	1	5	1	4	
2	12	13	12	0	12	1	12	2	12	5	12	4	
5	7	0	6	13	10	0	0	0	1	0	2	0	3	0	4	
4	8	9	6	13	6	0	6	1	6	2	6	1	6	0	
5	4	1	5	0	6	5	0	5	1	5	2	5	1	5	0	
3	4	1	2	1	0	1	1	1	2	1	3	1	4	
4	8	7	2	1	7	0	7	1	7	2	7	5	7	4	
2	5	1	5	0	5	1	5	2	5	3	5	4	
3	1	5	12	5	0	5	1	5	2	5	1	5	0	
4	4	1	2	7	7	0	7	1	7	5	7	3	7	4	
5	2	1	5	12	13	5	0	5	1	5	5	5	3	5	4	
5	9	6	0	5	3	0	0	0	1	0	5	0	3	0	4	
5	11	9	6	0	5	5	0	5	1	5	2	5	1	5	0	
5	14	7	0	6	13	0	0	0	1	0	2	0	5	0	4	
4	14	7	2	1	7	0	7	1	7	2	7	5	7	4	
3	7	8	11	7	0	7	1	7	2	7	5	7	4	
3	7	8	9	7	0	7	1	7	2	7	3	7	4	
4	1	5	12	10	1	0	1	1	1	5	1	3	1	4	
5	13	6	0	7	2	0	0	0	1	0	2	0	5	0	4	
5	4	1	5	12	10	5	0	5	1	5	2	5	3	5	4	
3	7	0	6	0	0	0	1	0	2	0	1	0	0	
5	1	5	0	6	9	5	0	5	1	5	2	5	1	5	0	
3	2	7	0	0	0	0	1	0	5	0	3	0	4	
2	3	5	5	0	5	1	5	2	5	1	5	0	
3	5	12	10	5	0	5	1	5	2	5	3	5	4	
3	6	0	5	0	0	0	1	0	5	0	3	0	4	
2	1	4	1	0	1	1	1	2	1	5	1	4	
2	3	5	3	0	3	1	3	5	3	3	3	4	
4	13	6	9	11	6	0	6	1	6	2	6	3	6	4	
2	7	0	0	0	0	1	0	5	0	3	0	4	
3	0	7	14	0	0	0	1	0	2	0	1	0	0	
3	9	6	0	0	0	0	1	0	5	0	3	0	4	
4	9	11	8	14	9	0	9	1	9	2	9	3	9	4	
3	8	7	2	7	0	7	1	7	2	7	1	7	0	
4	12	5	1	2	5	0	5	1	5	2	5	3	5	4	
3	11	9	6	6	0	6	1	6	5	6	3	6	4	
4	3	5	1	4	5	0	5	1	5	2	5	3	5	4	
3	4	1	5	5	0	5	1	5	2	5	3	5	4	
6	4	1	5	0	6	9	0	0	0	1	0	5	0	3	0	4	
2	7	14	7	0	7	1	7	2	7	3	7	4	
5	2	1	5	12	10	5	0	5	1	5	2	5	3	5	4	
3	5	0	7	0	0	0	1	0	5	0	3	0	4	
3	2	7	8	7	0	7	1	7	2	7	1	7	0	
4	14	7	2	1	7	0	7	1	7	2	7	1	7	0	
5	11	9	6	13	10	6	0	6	1	6	5	6	3	6	4	
3	9	6	13	6	0	6	1	6	5	6	3	6	4	
3	6	0	5	5	0	5	1	5	2	5	1	5	0	
5	3	5	0	7	14	5	0	5	1	5	2	5	1	5	0	
4	2	7	0	6	0	0	0	1	0	2	0	5	0	4	
2	8	11	8	0	8	1	8	5	8	3	8	4	
2	8	14	8	0	8	1	8	2	8	3	8	4	
3	9	11	8	9	0	9	1	9	2	9	1	9	0	
4	0	5	1	4	5	0	5	1	5	2	5	3	5	4	
4	7	0	5	12	0	0	0	1	0	5	0	3	0	4	
4	11	9	6	0	0	0	0	1	0	2	0	5	0	4	
5	11	9	6	0	5	5	0	5	1	5	2	5	3	5	4	
3	12	5	3	5	0	5	1	5	2	5	3	5	4	
4	4	1	2	7	7	0	7	1	7	2	7	1	7	0	
4	6	9	11	8	6	0	6	1	6	2	6	1	6	0	
2	13	12	12	0	12	1	12	2	12	3	12	4	
5	12	5	0	7	8	5	0	5	1	5	2	5	1	5	0	
3	2	1	5	5	0	5	1	5	2	5	1	5	0	
2	12	13	12	0	12	1	12	2	12	3	12	4	
4	10	12	5	1	1	0	1	1	1	5	1	3	1	4	
5	12	5	0	7	8	0	0	0	1	0	2	0	5	0	4	
2	0	7	0	0	0	1	0	5	0	3	0	4	
4	8	7	2	1	7	0	7	1	7	5	7	3	7	4	
3	5	1	4	5	0	5	1	5	2	5	3	5	4	
4	5	0	7	14	0	0	0	1	0	5	0	3	0	4	
5	1	5	0	6	9	5	0	5	1	5	2	5	3	5	4	
3	12	13	6	6	0	6	1	6	5	6	3	6	4	
6	9	6	0	5	1	4	0	0	0	1	0	5	0	3	0	4	
5	13	6	0	7	8	0	0	0	1	0	5	0	3	0	4	
3	12	5	3	12	0	12	1	12	2	12	5	12	4	
5	10	12	5	1	2	5	0	5	1	5	2	5	1	5	0	
3	13	6	9	6	0	6	1	6	2	6	3	6	4	
3	5	12	10	5	0	5	1	5	2	5	1	5	0	
4	10	13	6	9	6	0	6	1	6	2	6	5	6	4	
2	14	7	7	0	7	1	7	2	7	1	7	0	
3	3	5	1	5	0	5	1	5	2	5	3	5	4	
4	1	5	0	6	5	0	5	1	5	2	5	3	5	4	
5	10	13	6	9	11	6	0	6	1	6	2	6	5	6	4	
2	9	6	6	0	6	1	6	2	6	1	6	0	
4	13	12	5	1	5	0	5	1	5	2	5	1	5	0	
3	2	1	4	1	0	1	1	1	2	1	3	1	4	
5	9	11	8	7	2	7	0	7	1	7	2	7	1	7	0	
4	9	6	13	12	6	0	6	1	6	2	6	1	6	0	
2	13	12	12	0	12	1	12	2	12	1	12	0	
4	13	12	5	3	12	0	12	1	12	5	12	3	12	4	
5	11	9	6	13	10	6	0	6	1	6	2	6	5	6	4	
5	10	13	6	9	11	6	0	6	1	6	5	6	3	6	4	
3	6	13	12	6	0	6	1	6	2	6	3	6	4	
4	14	7	8	9	7	0	7	1	7	2	7	3	7	4	
3	1	5	0	5	0	5	1	5	2	5	1	5	0	
4	0	6	13	10	0	0	0	1	0	5	0	3	0	4	
5	4	1	2	7	8	7	0	7	1	7	2	7	5	7	4	
5	10	12	5	1	4	1	0	1	1	1	5	1	3	1	4	
5	4	1	2	7	14	7	0	7	1	7	2	7	5	7	4	
5	6	0	5	1	4	0	0	0	1	0	2	0	5	0	4	
5	8	7	0	5	3	0	0	0	1	0	2	0	5	0	4	
2	5	3	5	0	5	1	5	2	5	3	5	4	
3	5	1	2	1	0	1	1	1	5	1	3	1	4	
5	10	12	5	1	2	1	0	1	1	1	5	1	3	1	4	
4	5	0	7	14	0	0	0	1	0	2	0	5	0	4	
3	14	7	8	7	0	7	1	7	5	7	3	7	4	
4	5	0	6	9	0	0	0	1	0	2	0	5	0	4	
3	7	8	11	7	0	7	1	7	2	7	3	7	4	
2	8	14	8	0	8	1	8	2	8	1	8	0	
5	12	5	0	7	14	5	0	5	1	5	2	5	1	5	0	
5	1	2	7	8	11	7	0	7	1	7	2	7	1	7	0	
3	7	0	6	0	0	0	1	0	5	0	3	0	4	
6	11	9	6	0	5	3	5	0	5	1	5	2	5	1	5	0	
3	2	7	14	7	0	7	1	7	5	7	3	7	4	
5	14	7	0	5	12	0	0	0	1	0	2	0	5	0	4	
5	11	9	6	13	12	6	0	6	1	6	2	6	1	6	0	
4	0	5	1	4	0	0	0	1	0	5	0	3	0	4	
3	8	7	0	0	0	0	1	0	2	0	3	0	4	
4	1	5	12	13	1	0	1	1	1	5	1	3	1	4	
5	4	1	5	12	13	5	0	5	1	5	2	5	3	5	4	
3	14	7	8	7	0	7	1	7	2	7	1	7	0	
3	11	8	14	8	0	8	1	8	2	8	5	8	4	
5	5	0	7	8	11	5	0	5	1	5	2	5	3	5	4	
3	2	7	14	7	0	7	1	7	2	7	1	7	0	
3	8	7	0	0	0	0	1	0	2	0	1	0	0	
6	11	8	7	2	1	4	7	0	7	1	7	5	7	3	7	4	
3	6	13	10	6	0	6	1	6	2	6	5	6	4	
4	1	5	0	6	0	0	0	1	0	2	0	5	0	4	
4	7	2	1	4	7	0	7	1	7	2	7	5	7	4	
2	11	8	8	0	8	1	8	2	8	3	8	4	
4	14	7	2	1	7	0	7	1	7	5	7	3	7	4	
5	13	6	0	7	8	0	0	0	1	0	2	0	5	0	4	
3	9	11	8	9	0	9	1	9	2	9	3	9	4	
3	6	0	7	0	0	0	1	0	2	0	1	0	0	
3	0	7	14	0	0	0	1	0	2	0	5	0	4	
3	2	1	4	1	0	1	1	1	2	1	5	1	4	
4	3	5	0	6	5	0	5	1	5	2	5	3	5	4	
5	9	6	0	5	1	5	0	5	1	5	2	5	1	5	0	
4	7	0	5	3	5	0	5	1	5	2	5	3	5	4	
4	9	6	13	12	6	0	6	1	6	5	6	3	6	4	
2	14	7	7	0	7	1	7	2	7	3	7	4	
6	10	12	5	0	7	8	5	0	5	1	5	2	5	1	5	0	
3	11	8	7	7	0	7	1	7	2	7	3	7	4	
2	13	12	12	0	12	1	12	2	12	5	12	4	
4	10	12	5	0	0	0	0	1	0	2	0	5	0	4	
3	7	8	9	7	0	7	1	7	2	7	1	7	0	
3	4	1	5	5	0	5	1	5	2	5	1	5	0	
4	13	6	0	7	0	0	0	1	0	2	0	3	0	4	
3	6	0	7	0	0	0	1	0	2	0	5	0	4	
2	2	7	7	0	7	1	7	2	7	1	7	0	
2	0	6	0	0	0	1	0	2	0	3	0	4	
3	7	8	11	7	0	7	1	7	5	7	3	7	4	
4	10	12	5	3	12	0	12	1	12	5	12	3	12	4	
3	1	5	12	5	0	5	1	5	2	5	3	5	4	
4	1	2	7	8	7	0	7	1	7	5	7	3	7	4	
3	0	6	9	0	0	0	1	0	5	0	3	0	4	
4	11	8	7	2	7	0	7	1	7	2	7	5	7	4	
5	8	7	0	5	3	0	0	0	1	0	5	0	3	0	4	
3	6	13	10	6	0	6	1	6	5	6	3	6	4	
3	13	6	0	0	0	0	1	0	2	0	3	0	4	
2	13	10	13	0	13	1	13	2	13	1	13	0	
2	0	6	0	0	0	1	0	2	0	1	0	0	
4	2	7	8	11	7	0	7	1	7	2	7	5	7	4	
2	8	9	9	0	9	1	9	2	9	1	9	0	
5	14	7	0	6	13	0	0	0	1	0	2	0	1	0	0	
5	8	7	0	5	3	5	0	5	1	5	2	5	1	5	0	
4	14	7	0	5	5	0	5	1	5	2	5	1	5	0	
2	5	0	0	0	0	1	0	2	0	5	0	4	
3	14	7	2	7	0	7	1	7	2	7	3	7	4	
3	7	2	1	7	0	7	1	7	5	7	3	7	4	
4	2	7	8	9	7	0	7	1	7	2	7	5	7	4	
4	12	5	1	4	5	0	5	1	5	2	5	3	5	4	
4	6	0	5	1	5	0	5	1	5	2	5	3	5	4	
2	7	14	7	0	7	1	7	2	7	1	7	0	
5	4	1	5	12	13	1	0	1	1	1	5	1	3	1	4	
5	4	1	5	12	13	5	0	5	1	5	2	5	5	5	4	
4	3	5	0	6	5	0	5	1	5	2	5	1	5	0	
6	9	6	0	5	1	4	5	0	5	1	5	2	5	1	5	0	
5	3	5	0	7	14	0	0	0	1	0	2	0	5	0	4	
6	10	12	5	0	7	8	5	0	5	1	5	2	5	3	5	4	
2	11	9	9	0	9	1	9	5	9	3	9	4	
2	9	11	9	0	9	1	9	2	9	1	9	0	
5	3	5	0	6	9	5	0	5	1	5	2	5	1	5	0	
2	2	7	7	0	7	1	7	5	7	3	7	4	
4	7	0	5	3	0	0	0	1	0	2	0	5	0	4	
3	7	8	11	7	0	7	1	7	2	7	1	7	0	
2	10	13	13	0	13	1	13	2	13	3	13	4	
5	9	11	8	7	2	7	0	7	1	7	2	7	5	7	4	
4	6	0	7	14	0	0	0	1	0	5	0	3	0	4	
4	6	0	7	14	0	0	0	1	0	2	0	5	0	4	
4	2	7	8	9	7	0	7	1	7	2	7	3	7	4	
3	12	5	1	5	0	5	1	5	2	5	3	5	4	
2	8	7	7	0	7	1	7	2	7	1	7	0	
3	6	9	11	6	0	6	1	6	2	6	3	6	4	
2	5	0	0	0	0	1	0	5	0	3	0	4	
4	0	6	9	11	0	0	0	1	0	5	0	3	0	4	
3	11	8	7	7	0	7	1	7	2	7	5	7	4	
3	13	12	5	12	0	12	1	12	2	12	5	12	4	
2	0	7	0	0	0	1	0	2	0	3	0	4	
4	14	7	8	9	7	0	7	1	7	2	7	1	7	0	
2	10	12	12	0	12	1	12	2	12	1	12	0	
3	13	12	5	12	0	12	1	12	5	12	3	12	4	
4	9	11	8	14	9	0	9	1	9	2	9	5	9	4	
4	11	8	7	2	7	0	7	1	7	2	7	3	7	4	
2	10	13	13	0	13	1	13	5	13	3	13	4	
3	2	1	4	1	0	1	1	1	2	1	1	1	0	
4	12	5	1	4	1	0	1	1	1	2	1	5	1	4	
5	3	5	0	7	14	0	0	0	1	0	5	0	3	0	4	
4	6	0	7	14	0	0	0	1	0	2	0	1	0	0	
2	0	6	0	0	0	1	0	5	0	3	0	4	
5	9	6	0	5	1	5	0	5	1	5	2	5	3	5	4	
2	0	5	5	0	5	1	5	2	5	1	5	0	
4	1	5	12	10	5	0	5	1	5	2	5	1	5	0	
2	11	9	9	0	9	1	9	2	9	1	9	0	
2	6	9	6	0	6	1	6	2	6	5	6	4	
2	5	0	5	0	5	1	5	2	5	1	5	0	
4	1	2	7	8	7	0	7	1	7	2	7	3	7	4	
3	0	7	2	0	0	0	1	0	5	0	3	0	4	
3	11	8	7	7	0	7	1	7	2	7	1	7	0	
4	7	2	1	4	7	0	7	1	7	5	7	3	7	4	
4	14	7	8	11	7	0	7	1	7	2	7	5	7	4	
5	12	13	6	9	11	6	0	6	1	6	2	6	5	6	4	
2	8	7	7	0	7	1	7	2	7	5	7	4	
4	10	12	5	1	5	0	5	1	5	2	5	1	5	0	
4	13	12	5	3	5	0	5	1	5	2	5	3	5	4	
4	9	11	8	7	7	0	7	1	7	5	7	3	7	4	
5	4	1	5	0	6	0	0	0	1	0	5	0	3	0	4	
3	0	5	3	0	0	0	1	0	2	0	5	0	4	
3	1	5	12	1	0	1	1	1	5	1	3	1	4	
3	3	5	0	5	0	5	1	5	2	5	3	5	4	
4	4	1	5	12	5	0	5	1	5	2	5	3	5	4	
4	6	0	7	2	0	0	0	1	0	2	0	3	0	4	
3	7	0	5	5	0	5	1	5	2	5	3	5	4	
5	13	6	0	7	14	0	0	0	1	0	5	0	3	0	4	
2	13	6	6	0	6	1	6	2	6	5	6	4	
3	12	5	0	0	0	0	1	0	2	0	5	0	4	
5	14	7	0	6	13	0	0	0	1	0	5	0	3	0	4	
4	6	0	5	1	5	0	5	1	5	2	5	1	5	0	
3	0	7	8	0	0	0	1	0	2	0	5	0	4	
4	6	0	5	1	0	0	0	1	0	5	0	3	0	4	
3	1	5	0	0	0	0	1	0	2	0	5	0	4	
2	1	5	5	0	5	1	5	2	5	3	5	4	
5	3	5	0	6	9	0	0	0	1	0	5	0	3	0	4	
3	9	6	0	0	0	0	1	0	2	0	3	0	4	
5	13	6	0	7	2	0	0	0	1	0	2	0	1	0	0	
3	5	0	6	5	0	5	1	5	2	5	1	5	0	
3	0	6	13	0	0	0	1	0	2	0	5	0	4	
2	11	8	8	0	8	1	8	2	8	1	8	0	
5	14	7	2	1	4	7	0	7	1	7	5	7	3	7	4	
3	12	13	6	6	0	6	1	6	2	6	3	6	4	
5	14	7	0	5	12	0	0	0	1	0	5	0	3	0	4	
2	4	1	1	0	1	1	1	2	1	3	1	4	
2	8	9	9	0	9	1	9	2	9	5	9	4	
2	5	3	3	0	3	1	3	5	3	3	3	4	
4	1	5	0	6	6	0	6	1	6	5	6	3	6	4	
2	1	5	5	0	5	1	5	2	5	1	5	0	
3	14	7	0	0	0	0	1	0	2	0	1	0	0	
4	8	7	0	5	0	0	0	1	0	5	0	3	0	4	
2	5	0	5	0	5	1	5	2	5	3	5	4	
4	0	6	9	11	0	0	0	1	0	2	0	3	0	4	
3	3	5	1	1	0	1	1	1	2	1	5	1	4	
4	12	5	1	2	1	0	1	1	1	5	1	3	1	4	
5	7	0	6	13	10	0	0	0	1	0	5	0	3	0	4	
4	1	5	12	13	5	0	5	1	5	2	5	3	5	4	
4	12	5	0	7	0	0	0	1	0	2	0	5	0	4	
4	3	5	1	2	1	0	1	1	1	5	1	3	1	4	
2	4	3	3	0	3	1	3	2	3	5	3	4	
2	7	8	7	0	7	1	7	2	7	3	7	4	
3	3	5	0	5	0	5	1	5	2	5	1	5	0	
3	0	6	9	0	0	0	1	0	2	0	3	0	4	
5	11	8	7	2	1	7	0	7	1	7	2	7	3	7	4	
3	6	9	11	6	0	6	1	6	5	6	3	6	4	
3	14	7	8	7	0	7	1	7	2	7	5	7	4	
5	12	13	6	9	11	6	0	6	1	6	2	6	3	6	4	
4	10	12	5	3	5	0	5	1	5	2	5	1	5	0	
5	2	1	5	12	10	1	0	1	1	1	2	1	5	1	4	
3	2	7	0	0	0	0	1	0	2	0	3	0	4	
5	8	7	0	5	3	5	0	5	1	5	2	5	3	5	4	
5	6	0	5	1	4	0	0	0	1	0	5	0	3	0	4	
2	2	1	1	0	1	1	1	2	1	1	1	0	
2	11	8	8	0	8	1	8	2	8	5	8	4	
5	4	1	2	7	8	7	0	7	1	7	5	7	3	7	4	
5	4	1	2	7	8	7	0	7	1	7	2	7	3	7	4	
5	4	1	5	12	10	5	0	5	1	5	2	5	1	5	0	
3	10	13	6	6	0	6	1	6	2	6	5	6	4	
3	11	8	7	7	0	7	1	7	5	7	3	7	4	
2	12	10	12	0	12	1	12	2	12	5	12	4	
5	4	1	5	12	10	1	0	1	1	1	5	1	3	1	4	
4	4	1	5	12	1	0	1	1	1	2	1	5	1	4	
3	10	13	6	6	0	6	1	6	2	6	1	6	0	
2	11	9	9	0	9	1	9	2	9	5	9	4	
3	10	12	5	12	0	12	1	12	2	12	5	12	4	
5	14	7	0	5	3	5	0	5	1	5	2	5	1	5	0	
2	1	2	1	0	1	1	1	2	1	3	1	4	
2	6	0	0	0	0	1	0	2	0	5	0	4	
4	3	5	12	13	12	0	12	1	12	5	12	3	12	4	
3	12	5	1	5	0	5	1	5	2	5	1	5	0	
5	6	0	5	1	4	5	0	5	1	5	2	5	1	5	0	
4	8	7	0	5	5	0	5	1	5	2	5	1	5	0	
3	13	12	5	5	0	5	1	5	2	5	1	5	0	
4	9	6	13	10	6	0	6	1	6	2	6	1	6	0	
2	2	7	7	0	7	1	7	2	7	5	7	4	
5	7	0	6	13	10	0	0	0	1	0	2	0	1	0	0	
2	10	12	12	0	12	1	12	2	12	3	12	4	
4	2	7	8	9	7	0	7	1	7	5	7	3	7	4	
3	6	13	10	6	0	6	1	6	2	6	3	6	4	
4	11	9	6	13	6	0	6	1	6	2	6	1	6	0	
4	13	6	0	7	0	0	0	1	0	5	0	3	0	4	
2	7	8	7	0	7	1	7	2	7	1	7	0	
2	7	14	7	0	7	1	7	2	7	5	7	4	
6	9	6	0	5	1	4	0	0	0	1	0	2	0	5	0	4	
4	13	12	5	3	12	0	12	1	12	2	12	5	12	4	
3	6	9	11	6	0	6	1	6	2	6	5	6	4	
3	0	6	9	0	0	0	1	0	2	0	5	0	4	
2	10	13	13	0	13	1	13	2	13	1	13	0	
4	6	9	11	8	6	0	6	1	6	2	6	3	6	4	
4	10	12	5	0	12	0	12	1	12	5	12	3	12	4	
4	4	1	5	0	5	0	5	1	5	2	5	1	5	0	
5	11	8	7	2	1	7	0	7	1	7	2	7	1	7	0	
4	7	0	6	13	0	0	0	1	0	2	0	3	0	4	
3	8	7	0	7	0	7	1	7	5	7	3	7	4	
5	9	6	0	5	1	6	0	6	1	6	5	6	3	6	4	
5	12	5	0	7	8	5	0	5	1	5	2	5	3	5	4	
3	0	7	8	7	0	7	1	7	5	7	3	7	4	
3	7	8	9	7	0	7	1	7	2	7	5	7	4	
4	3	5	0	7	0	0	0	1	0	5	0	3	0	4	
3	13	12	5	5	0	5	1	5	2	5	3	5	4	
4	12	5	0	7	5	0	5	1	5	2	5	1	5	0	
4	12	13	6	9	6	0	6	1	6	5	6	3	6	4	
3	10	13	6	6	0	6	1	6	2	6	3	6	4	
4	6	0	7	2	0	0	0	1	0	2	0	1	0	0	
4	6	0	5	3	5	0	5	1	5	2	5	1	5	0	
5	8	7	2	1	4	7	0	7	1	7	2	7	3	7	4	
4	3	5	1	2	5	0	5	1	5	2	5	3	5	4	
3	1	2	7	7	0	7	1	7	2	7	3	7	4	
6	3	5	0	6	9	11	5	0	5	1	5	2	5	1	5	0	
5	11	9	6	13	12	6	0	6	1	6	5	6	3	6	4	
4	9	6	0	5	5	0	5	1	5	2	5	1	5	0	
4	2	1	5	12	5	0	5	1	5	2	5	1	5	0	
5	13	6	0	7	14	0	0	0	1	0	2	0	1	0	0	
2	8	14	8	0	8	1	8	5	8	3	8	4	
2	8	11	8	0	8	1	8	2	8	3	8	4	
5	13	6	0	7	14	0	0	0	1	0	2	0	3	0	4	
5	8	7	2	1	4	7	0	7	1	7	2	7	5	7	4	
5	10	12	5	0	7	5	0	5	1	5	2	5	1	5	0	
3	9	6	13	6	0	6	1	6	2	6	3	6	4	
5	11	9	6	13	12	6	0	6	1	6	2	6	3	6	4	
4	11	9	6	13	6	0	6	1	6	5	6	3	6	4	
4	11	9	6	13	6	0	6	1	6	2	6	5	6	4	
2	1	2	1	0	1	1	1	2	1	5	1	4	
6	4	1	5	0	6	9	5	0	5	1	5	2	5	1	5	0	
4	6	0	5	3	0	0	0	1	0	2	0	5	0	4	
4	3	5	12	10	5	0	5	1	5	2	5	3	5	4	
2	7	0	0	0	0	1	0	2	0	5	0	4	
3	0	5	12	0	0	0	1	0	2	0	5	0	4	
2	5	1	1	0	1	1	1	5	1	3	1	4	
3	0	7	2	0	0	0	1	0	2	0	3	0	4	
6	4	1	5	0	6	9	0	0	0	1	0	2	0	5	0	4	
5	14	7	2	1	4	7	0	7	1	7	2	7	3	7	4	
2	1	4	1	0	1	1	1	5	1	3	1	4	
3	1	2	7	7	0	7	1	7	2	7	1	7	0	
5	13	6	0	7	2	0	0	0	1	0	2	0	3	0	4	
3	4	1	5	1	0	1	1	1	2	1	5	1	4	
3	2	7	0	7	0	7	1	7	2	7	5	7	4	
3	12	5	0	12	0	12	1	12	5	12	3	12	4	
4	1	5	12	10	1	0	1	1	1	2	1	5	1	4	
2	13	10	13	0	13	1	13	2	13	5	13	4	
2	12	5	12	0	12	1	12	2	12	5	12	4	
2	13	6	6	0	6	1	6	2	6	1	6	0	
4	0	6	13	10	0	0	0	1	0	2	0	3	0	4	
6	11	9	6	0	5	3	5	0	5	1	5	2	5	3	5	4	
6	11	8	7	2	1	4	7	0	7	1	7	2	7	3	7	4	
4	1	5	12	10	5	0	5	1	5	2	5	3	5	4	
5	9	11	8	7	2	7	0	7	1	7	5	7	3	7	4	
3	7	0	5	7	0	7	1	7	5	7	3	7	4	
4	8	7	2	1	7	0	7	1	7	2	7	3	7	4	
4	2	1	5	3	5	0	5	1	5	2	5	1	5	0	
3	3	5	0	3	0	3	1	3	5	3	3	3	4	
3	3	5	12	12	0	12	1	12	2	12	5	12	4	
3	6	0	7	0	0	0	1	0	2	0	3	0	4	
3	6	13	12	6	0	6	1	6	5	6	3	6	4	
2	12	10	12	0	12	1	12	2	12	3	12	4	
5	2	1	5	12	13	1	0	1	1	1	2	1	5	1	4	
5	12	13	6	9	11	6	0	6	1	6	5	6	3	6	4	
5	5	0	7	8	11	7	0	7	1	7	5	7	3	7	4	
2	9	11	9	0	9	1	9	5	9	3	9	4	
3	14	7	2	7	0	7	1	7	5	7	3	7	4	
2	7	8	7	0	7	1	7	5	7	3	7	4	
4	2	1	5	3	1	0	1	1	1	5	1	3	1	4	
6	10	12	5	0	7	14	7	0	7	1	7	5	7	3	7	4	
3	0	6	9	0	0	0	1	0	2	0	1	0	0	
5	10	12	5	0	7	0	0	0	1	0	2	0	5	0	4	
6	4	1	2	7	8	11	7	0	7	1	7	2	7	1	7	0	
3	1	2	7	7	0	7	1	7	2	7	5	7	4	
2	1	4	1	0	1	1	1	2	1	3	1	4	
3	12	5	3	5	0	5	1	5	2	5	1	5	0	
3	5	1	4	1	0	1	1	1	2	1	5	1	4	
4	5	0	6	9	5	0	5	1	5	2	5	3	5	4	
6	4	1	2	7	8	11	7	0	7	1	7	2	7	5	7	4	
3	2	1	5	1	0	1	1	1	2	1	5	1	4	
4	13	12	5	1	5	0	5	1	5	2	5	3	5	4	
3	0	5	3	5	0	5	1	5	2	5	3	5	4	
3	3	5	12	12	0	12	1	12	5	12	3	12	4	
3	6	13	12	6	0	6	1	6	2	6	1	6	0	
4	3	5	0	7	5	0	5	1	5	2	5	3	5	4	
4	6	0	7	2	0	0	0	1	0	2	0	5	0	4	
4	7	0	6	13	0	0	0	1	0	2	0	1	0	0	
4	8	9	6	13	6	0	6	1	6	2	6	5	6	4	
6	14	7	0	5	12	10	0	0	0	1	0	2	0	5	0	4	
4	1	5	0	6	5	0	5	1	5	2	5	1	5	0	
4	9	6	0	5	5	0	5	1	5	2	5	3	5	4	
2	5	1	5	0	5	1	5	2	5	1	5	0	
5	13	12	5	1	4	5	0	5	1	5	2	5	3	5	4	
3	3	5	0	3	0	3	1	3	2	3	5	3	4	
5	1	5	0	6	9	6	0	6	1	6	5	6	3	6	4	
3	13	6	9	6	0	6	1	6	2	6	5	6	4	
3	8	7	2	7	0	7	1	7	5	7	3	7	4	
5	4	1	2	7	14	7	0	7	1	7	2	7	3	7	4	
6	10	12	5	0	7	14	5	0	5	1	5	2	5	1	5	0	
2	13	12	12	0	12	1	12	5	12	3	12	4	
2	0	7	7	0	7	1	7	2	7	5	7	4	
6	11	9	6	0	5	3	0	0	0	1	0	2	0	5	0	4	
3	4	1	2	1	0	1	1	1	2	1	5	1	4	
5	9	6	0	5	3	5	0	5	1	5	2	5	1	5	0	
2	12	13	12	0	12	1	12	2	12	1	12	0	
3	13	6	9	6	0	6	1	6	5	6	3	6	4	
4	0	6	13	10	0	0	0	1	0	2	0	1	0	0	
3	2	7	0	0	0	0	1	0	2	0	1	0	0	
5	10	12	5	1	4	5	0	5	1	5	2	5	3	5	4	
4	12	5	0	7	7	0	7	1	7	5	7	3	7	4	
5	8	9	6	13	12	6	0	6	1	6	2	6	5	6	4	
3	8	7	2	7	0	7	1	7	2	7	3	7	4	
3	7	0	6	0	0	0	1	0	2	0	5	0	4	
4	12	5	1	2	1	0	1	1	1	2	1	5	1	4	
3	2	1	5	5	0	5	1	5	2	5	3	5	4	
4	1	2	7	14	7	0	7	1	7	5	7	3	7	4	
5	14	7	0	5	3	7	0	7	1	7	5	7	3	7	4	
5	14	7	0	5	3	0	0	0	1	0	2	0	5	0	4	
3	10	12	5	5	0	5	1	5	2	5	1	5	0	
4	9	6	13	10	6	0	6	1	6	2	6	5	6	4	
2	5	3	3	0	3	1	3	2	3	5	3	4	
4	3	5	12	10	5	0	5	1	5	2	5	1	5	0	
4	5	0	7	14	5	0	5	1	5	2	5	3	5	4	
5	2	1	5	12	13	5	0	5	1	5	2	5	1	5	0	
5	8	9	6	13	10	6	0	6	1	6	2	6	3	6	4	
3	12	5	0	5	0	5	1	5	2	5	1	5	0	
3	7	2	1	7	0	7	1	7	2	7	3	7	4	
4	10	13	6	9	6	0	6	1	6	5	6	3	6	4	
4	9	6	13	10	6	0	6	1	6	2	6	3	6	4	
4	11	9	6	13	6	0	6	1	6	2	6	3	6	4	
2	1	2	1	0	1	1	1	5	1	3	1	4	
3	2	7	8	7	0	7	1	7	5	7	3	7	4	
4	14	7	0	6	7	0	7	1	7	2	7	5	7	4	
6	3	5	0	6	9	11	5	0	5	1	5	2	5	3	5	4	
4	0	6	9	11	6	0	6	1	6	2	6	5	6	4	
3	14	7	8	7	0	7	1	7	2	7	3	7	4	
3	6	0	5	6	0	6	1	6	2	6	5	6	4	
3	13	6	0	6	0	6	1	6	5	6	3	6	4	
3	2	7	14	7	0	7	1	7	2	7	3	7	4	
3	5	1	2	5	0	5	1	5	2	5	1	5	0	
6	14	7	0	5	12	10	7	0	7	1	7	5	7	3	7	4	
4	8	7	0	5	7	0	7	1	7	2	7	5	7	4	
5	9	11	8	7	2	7	0	7	1	7	2	7	3	7	4	
5	3	5	0	6	9	5	0	5	1	5	2	5	3	5	4	
5	1	2	7	8	11	7	0	7	1	7	2	7	5	7	4	
4	13	6	9	11	6	0	6	1	6	2	6	5	6	4	
3	13	6	9	6	0	6	1	6	2	6	1	6	0	
3	8	7	0	7	0	7	1	7	2	7	5	7	4	
4	0	5	1	4	5	0	5	1	5	2	5	1	5	0	
3	0	6	13	0	0	0	1	0	2	0	3	0	4	
4	5	0	7	14	5	0	5	1	5	2	5	1	5	0	
