4779.77	3981.72
1523
58131.5	40468.1
15
0	2055	2135
1	1360	1371
2	994	1079
3	1032	1035
4	1373	1373
5	1372	1393
6	1631	1632
7	1204	1224
8	1570	1571
9	1652	1654
10	0	-1
11	1024	1025
12	1844	2006
13	1508	1510
14	1025	1025
44
0	5	95.163464	95.731104	1.000000
0	6	98.515046	98.518932	1.000000
0	7	94.244506	108.743163	1.000000
1	2	42.362710	106.884297	1.000000
1	4	36.724006	105.025431	1.000000
1	5	71.388344	106.884297	1.000000
2	1	42.913158	106.884297	1.000000
2	4	41.261508	98.518932	1.000000
2	7	90.877710	94.801201	1.000000
3	4	18.377528	92.013185	1.000000
3	5	48.488778	84.577817	1.000000
4	1	36.158892	105.025431	1.000000
4	2	38.346700	98.518932	1.000000
4	3	21.392848	92.013185	1.000000
5	0	95.378612	95.731104	1.000000
5	1	71.207520	106.884297	1.000000
5	3	46.144432	84.577817	1.000000
5	12	85.490782	85.507249	1.000000
6	0	96.765410	98.518932	1.000000
6	9	82.999154	90.154319	1.000000
6	13	86.822010	102.236663	1.000000
7	0	95.677998	108.743163	1.000000
7	2	93.309866	94.801201	1.000000
7	8	74.641922	101.307700	1.000000
7	14	52.101894	105.025431	1.000000
8	7	78.355394	101.307700	1.000000
8	9	44.130758	98.518932	1.000000
8	11	29.895326	83.648384	1.000000
8	14	14.305572	89.224886	1.000000
9	6	78.713100	90.154319	1.000000
9	8	46.168394	98.518932	1.000000
9	11	37.125898	104.095528	1.000000
10	12	28.499850	98.518932	1.000000
10	13	38.144628	93.872050	1.000000
11	8	32.510988	83.648384	1.000000
11	9	34.937248	104.095528	1.000000
12	5	82.268202	85.507249	1.000000
12	10	28.889268	98.518932	1.000000
12	13	42.307990	91.083752	1.000000
13	6	90.106098	102.236663	1.000000
13	10	38.248972	93.872050	1.000000
13	12	38.813804	91.083752	1.000000
14	7	52.264542	105.025431	1.000000
14	8	14.129284	89.224886	1.000000
840
4	10	12	5	3	12	0	5	1	3	5	3	3	3	4	
3	14	7	2	7	0	2	1	2	5	2	3	2	4	
3	3	5	0	0	0	0	1	0	5	0	3	0	4	
2	8	9	9	0	9	1	9	2	9	3	9	4	
4	14	7	2	4	4	0	4	1	4	5	4	3	4	4	
3	2	7	14	2	0	7	1	7	2	7	5	7	4	
4	9	6	13	12	6	0	13	1	12	5	12	3	12	4	
2	12	5	5	0	5	1	5	2	5	1	5	0	
3	2	7	8	8	0	8	1	8	2	8	5	8	4	
3	5	1	2	1	0	1	1	1	2	1	1	1	0	
5	13	12	5	1	4	13	0	1	1	1	2	4	3	4	4	
3	0	7	2	7	0	7	1	7	2	7	1	7	0	
4	4	1	5	12	4	0	1	1	5	5	5	3	5	4	
2	6	13	6	0	6	1	6	2	13	3	13	4	
3	8	7	0	0	0	0	1	0	2	0	5	0	4	
3	1	2	7	1	0	1	1	1	2	1	5	2	4	
3	8	9	6	6	0	6	1	6	2	6	5	6	4	
5	3	5	0	7	14	3	0	3	1	3	2	5	5	5	4	
2	8	7	7	0	7	1	7	5	7	3	7	4	
2	10	12	12	0	12	1	12	2	12	3	12	4	
4	3	4	2	7	4	0	2	1	2	2	2	3	7	4	
4	7	0	6	13	13	0	13	1	13	5	13	3	13	4	
4	14	7	2	1	1	0	1	1	1	5	1	3	1	4	
5	11	9	6	0	5	11	0	11	1	11	2	11	1	11	0	
2	1	2	1	0	1	1	1	2	1	3	1	4	
4	4	1	5	12	4	0	4	1	4	2	4	1	4	0	
3	7	2	1	1	0	1	1	1	5	1	3	1	4	
3	2	1	5	2	0	2	1	2	5	2	3	2	4	
2	9	6	9	0	9	1	9	5	9	3	9	4	
5	1	2	7	8	11	11	0	11	1	11	2	11	5	11	4	
4	11	9	6	0	9	0	9	1	9	2	9	1	9	0	
6	14	7	0	6	13	10	13	0	13	1	13	2	13	3	13	4	
2	4	1	4	0	4	1	4	2	4	1	4	0	
4	12	5	0	7	12	0	12	1	12	2	12	3	12	4	
2	5	0	0	0	0	1	0	2	0	3	0	4	
4	0	5	1	4	4	0	4	1	4	2	4	5	4	4	
2	11	9	9	0	9	1	9	2	9	1	9	0	
4	10	13	6	9	9	0	9	1	9	2	9	5	9	4	
2	9	8	8	0	8	1	8	5	8	3	8	4	
5	11	9	6	13	12	12	0	12	1	12	2	12	5	12	4	
3	7	0	6	6	0	6	1	6	2	6	5	6	4	
2	14	7	14	0	14	1	14	2	14	5	14	4	
4	13	6	9	11	13	0	13	1	13	5	13	3	13	4	
4	2	7	8	11	2	0	2	1	2	5	2	3	2	4	
3	6	13	10	13	0	13	1	13	5	13	3	13	4	
3	13	12	5	13	0	13	1	13	5	13	3	13	4	
3	0	5	1	1	0	1	1	1	2	1	3	1	4	
5	3	5	0	6	9	3	0	3	1	3	2	3	1	3	0	
4	3	5	12	10	3	0	3	1	3	2	3	5	12	4	
3	1	5	0	5	0	5	1	5	5	5	3	5	4	
3	7	0	5	5	0	5	1	5	2	5	3	5	4	
5	5	0	6	9	11	9	0	9	1	9	5	9	3	9	4	
3	0	7	8	8	0	8	1	8	2	8	5	8	4	
3	0	7	14	14	0	14	1	14	2	14	5	14	4	
2	3	4	3	0	3	1	3	2	3	1	3	0	
4	11	8	7	2	2	0	2	1	2	2	2	3	2	4	
2	14	8	8	0	8	1	8	2	8	1	8	0	
2	4	3	3	0	3	1	3	2	3	3	3	4	
2	2	4	2	0	2	1	2	2	2	3	4	4	
3	10	13	6	13	0	13	1	13	2	13	1	13	0	
3	13	6	0	13	0	13	1	13	2	13	5	0	4	
4	0	6	13	10	13	0	13	1	13	2	13	5	13	4	
4	6	0	5	1	1	0	1	1	1	2	1	5	1	4	
3	9	8	7	9	0	9	1	9	5	9	3	9	4	
5	8	9	6	13	10	9	0	9	1	9	2	9	3	9	4	
5	12	5	0	7	8	5	0	5	1	5	5	5	3	8	4	
4	14	7	0	5	5	0	5	1	5	2	5	1	5	0	
3	5	0	7	5	0	5	1	5	5	5	3	5	4	
3	12	13	6	13	0	13	1	13	5	13	3	13	4	
2	6	0	6	0	6	1	6	2	0	5	0	4	
2	5	1	5	0	5	1	5	5	5	3	5	4	
2	10	13	13	0	13	1	13	2	13	5	13	4	
4	13	12	5	3	12	0	12	1	12	2	12	3	12	4	
2	11	8	11	0	11	1	11	2	11	5	8	4	
4	6	0	7	2	6	0	6	1	6	2	6	3	6	4	
4	4	2	7	8	4	0	4	1	4	5	4	3	4	4	
4	9	6	13	10	9	0	9	1	9	2	9	1	9	0	
2	13	12	12	0	12	1	12	2	12	5	12	4	
2	10	13	13	0	13	1	13	2	13	3	13	4	
4	3	5	0	6	5	0	5	1	5	2	6	3	6	4	
5	7	0	6	13	10	13	0	13	1	13	2	13	1	13	0	
5	9	6	0	5	3	9	0	9	1	9	2	9	1	3	0	
3	12	5	3	5	0	5	1	5	2	5	5	3	4	
2	5	12	5	0	5	1	5	2	12	5	12	4	
3	7	8	9	9	0	9	1	9	5	9	3	9	4	
4	11	9	6	13	9	0	13	1	13	5	13	3	13	4	
3	0	6	13	6	0	6	1	6	5	6	3	6	4	
5	8	9	6	13	12	9	0	9	1	9	2	9	1	9	0	
3	14	8	11	11	0	11	1	11	2	11	3	11	4	
2	4	2	4	0	4	1	2	5	2	3	2	4	
3	12	5	0	5	0	5	1	0	2	0	3	0	4	
2	2	7	7	0	7	1	7	2	7	1	7	0	
5	14	7	0	6	13	14	0	14	1	14	2	14	5	13	4	
4	13	12	5	1	1	0	1	1	1	2	1	1	1	0	
2	6	0	6	0	6	1	6	2	6	1	6	0	
5	14	7	0	5	3	14	0	14	1	14	5	7	3	3	4	
3	14	7	2	14	0	14	1	14	2	14	5	14	4	
2	8	9	9	0	9	1	9	2	9	1	9	0	
3	6	13	12	6	0	6	1	6	2	6	5	6	4	
3	2	7	14	14	0	14	1	14	2	14	1	14	0	
4	10	12	5	1	1	0	1	1	1	2	1	5	1	4	
4	3	5	12	10	5	0	5	1	5	5	5	3	5	4	
2	9	8	9	0	9	1	9	2	9	3	9	4	
2	3	5	3	0	3	1	3	2	5	5	5	4	
3	5	1	2	2	0	2	1	2	2	2	5	2	4	
5	13	12	5	1	4	13	0	1	1	1	2	4	1	4	0	
3	0	7	2	7	0	7	1	7	2	7	3	7	4	
2	6	13	6	0	6	1	6	2	6	1	6	0	
3	8	7	0	8	0	8	1	8	2	8	1	8	0	
3	11	9	6	9	0	9	1	9	2	9	5	9	4	
3	1	2	7	7	0	7	1	7	2	7	1	7	0	
3	7	2	4	4	0	4	1	4	2	4	3	4	4	
3	3	4	2	4	0	4	1	4	2	4	5	4	4	
5	10	12	5	1	2	12	0	12	1	12	5	12	3	12	4	
3	3	4	1	3	0	3	1	3	5	3	3	3	4	
2	10	12	12	0	12	1	12	5	12	3	12	4	
3	13	6	9	6	0	6	1	6	5	6	3	6	4	
4	7	0	6	13	0	0	0	1	0	2	0	5	0	4	
5	11	9	6	0	5	9	0	6	1	6	2	6	3	5	4	
2	1	2	1	0	1	1	1	2	1	1	1	0	
4	4	1	5	12	4	0	4	1	4	2	4	3	4	4	
4	12	5	1	2	12	0	12	1	12	2	12	1	12	0	
3	2	1	5	5	0	5	1	5	2	5	3	5	4	
3	5	12	13	12	0	12	1	12	2	12	1	12	0	
4	5	0	7	14	0	0	0	1	0	5	0	3	7	4	
5	11	9	6	13	10	11	0	11	1	11	2	11	5	6	4	
3	13	6	9	13	0	9	1	9	2	9	5	9	4	
5	1	2	7	8	11	8	0	8	1	8	2	8	1	8	0	
2	8	11	8	0	8	1	8	2	8	3	8	4	
2	4	1	4	0	4	1	4	2	4	5	1	4	
3	14	8	9	8	0	9	1	9	2	9	5	9	4	
4	12	5	0	7	12	0	5	1	5	2	5	1	5	0	
2	5	0	0	0	0	1	0	2	0	1	0	0	
5	13	6	0	7	2	13	0	13	1	13	2	13	3	13	4	
4	0	5	1	4	0	0	1	1	1	2	4	1	4	0	
3	7	8	11	7	0	7	1	7	5	7	3	7	4	
4	6	0	5	3	3	0	3	1	3	2	3	3	3	4	
2	11	9	11	0	11	1	11	2	9	3	9	4	
3	10	12	5	12	0	12	1	12	2	12	5	12	4	
3	7	0	6	6	0	6	1	6	5	6	3	6	4	
5	12	5	0	7	14	14	0	14	1	14	2	14	1	14	0	
2	14	7	14	0	14	1	14	5	14	3	14	4	
4	13	6	9	11	9	0	9	1	9	2	9	5	9	4	
3	6	13	10	13	0	13	1	13	2	13	5	13	4	
3	13	12	5	5	0	5	1	5	2	5	5	5	4	
3	0	5	1	0	0	0	1	0	2	0	1	0	0	
5	3	5	0	6	9	3	0	3	1	3	2	3	3	3	4	
3	11	8	7	8	0	8	1	8	2	8	1	8	0	
3	1	5	0	0	0	0	1	0	2	0	3	0	4	
4	4	2	7	14	7	0	7	1	7	2	7	1	7	0	
5	5	0	6	9	11	0	0	0	1	0	2	0	5	0	4	
5	13	6	0	7	14	13	0	0	1	0	2	0	3	14	4	
3	0	7	8	8	0	8	1	8	2	8	1	8	0	
2	3	4	3	0	3	1	3	2	3	5	4	4	
4	11	8	7	2	7	0	7	1	7	2	7	1	7	0	
2	14	8	8	0	8	1	8	2	8	3	8	4	
5	2	1	5	12	10	1	0	1	1	1	5	1	3	1	4	
2	4	3	3	0	3	1	3	2	3	1	3	0	
3	12	5	1	12	0	12	1	12	2	12	3	12	4	
2	2	4	4	0	4	1	4	5	4	3	4	4	
4	5	0	7	14	7	0	7	1	7	2	7	3	7	4	
3	10	13	6	6	0	6	1	6	2	6	3	6	4	
3	13	6	0	0	0	0	1	0	5	0	3	0	4	
4	6	0	5	1	1	0	1	1	1	5	1	3	1	4	
4	8	7	2	4	8	0	8	1	8	5	8	3	8	4	
4	14	7	0	5	14	0	14	1	14	2	7	5	0	4	
5	8	9	6	13	10	8	0	8	1	8	5	8	3	8	4	
5	12	13	6	9	8	8	0	8	1	8	2	8	5	8	4	
3	5	0	7	7	0	7	1	7	2	7	5	7	4	
3	12	13	6	12	0	12	1	12	2	12	5	6	4	
2	5	1	1	0	1	1	1	2	1	5	1	4	
5	10	13	6	9	8	9	0	9	1	9	2	9	1	9	0	
3	0	5	3	3	0	3	1	3	2	3	3	3	4	
6	3	4	2	7	8	11	11	0	11	1	11	2	11	1	11	0	
4	4	2	7	8	4	0	4	1	4	2	4	5	8	4	
2	12	13	12	0	12	1	12	2	12	3	12	4	
2	7	8	8	0	8	1	8	5	8	3	8	4	
2	2	1	2	0	2	1	2	2	2	5	1	4	
4	9	6	13	10	9	0	9	1	9	2	9	5	6	4	
2	13	12	12	0	12	1	12	5	12	3	12	4	
2	10	13	13	0	13	1	13	2	13	1	13	0	
4	3	5	0	6	3	0	3	1	3	2	3	1	3	0	
4	9	6	13	12	12	0	12	1	12	2	12	5	12	4	
5	11	8	7	2	4	11	0	11	1	11	2	11	3	11	4	
2	8	11	11	0	11	1	11	5	11	3	11	4	
5	4	3	5	12	13	3	0	3	1	3	2	3	3	3	4	
5	9	6	0	5	3	0	0	0	1	0	2	0	3	0	4	
3	12	5	3	3	0	3	1	3	5	3	3	3	4	
2	5	12	5	0	5	1	5	5	5	3	5	4	
5	10	12	5	1	4	5	0	1	1	1	2	4	1	4	0	
4	1	5	12	13	5	0	5	1	5	2	5	5	12	4	
4	11	9	6	13	11	0	11	1	11	2	11	5	11	4	
5	8	9	6	13	12	8	0	12	1	12	2	12	3	12	4	
3	14	8	11	14	0	14	1	14	2	14	1	14	0	
5	2	7	0	6	13	13	0	13	1	13	2	13	5	13	4	
2	4	2	4	0	4	1	4	2	4	5	2	4	
3	9	6	13	9	0	9	1	9	2	9	1	9	0	
2	2	7	7	0	7	1	7	2	7	5	7	4	
4	13	12	5	1	5	0	5	1	5	2	5	3	5	4	
2	6	0	0	0	0	1	0	2	0	3	0	4	
2	11	8	8	0	8	1	8	2	8	3	8	4	
3	14	7	2	7	0	2	1	2	2	2	1	2	0	
4	6	0	7	2	6	0	6	1	6	5	6	3	6	4	
2	1	4	4	0	4	1	4	2	4	5	4	4	
3	7	2	1	1	0	1	1	1	2	1	1	1	0	
3	2	7	14	2	0	7	1	7	2	7	3	7	4	
2	9	8	9	0	9	1	9	2	9	1	9	0	
3	0	5	12	0	0	0	1	0	5	0	3	0	4	
3	5	1	2	5	0	5	1	5	5	5	3	5	4	
5	10	13	6	9	11	9	0	9	1	9	2	9	3	9	4	
3	0	7	2	0	0	0	1	0	5	0	3	0	4	
5	3	4	2	7	8	3	0	3	1	3	2	3	3	3	4	
3	8	7	0	0	0	0	1	0	2	0	3	0	4	
3	11	9	6	6	0	6	1	6	5	6	3	6	4	
3	3	5	12	3	0	3	1	3	5	3	3	3	4	
3	1	2	7	1	0	1	1	1	2	1	3	1	4	
3	7	2	4	2	0	2	1	2	2	2	1	2	0	
5	9	8	7	2	1	9	0	9	1	9	2	9	1	9	0	
3	2	7	0	0	0	0	1	0	2	0	1	0	0	
2	12	5	5	0	5	1	5	5	5	3	5	4	
5	10	12	5	1	2	5	0	5	1	5	2	5	5	1	4	
2	9	8	9	0	9	1	9	2	9	5	8	4	
2	10	12	12	0	12	1	12	2	12	5	12	4	
4	1	2	7	8	8	0	8	1	8	2	8	5	8	4	
4	3	5	0	7	3	0	0	1	0	2	0	5	0	4	
4	7	0	6	13	13	0	13	1	13	2	13	1	13	0	
2	8	14	14	0	14	1	14	2	14	1	14	0	
3	14	8	9	14	0	14	1	14	2	14	3	14	4	
5	1	2	7	8	9	1	0	1	1	1	2	2	5	9	4	
4	12	5	1	2	2	0	2	1	2	2	2	3	2	4	
3	2	1	5	2	0	2	1	2	2	2	1	5	0	
3	5	12	13	13	0	13	1	13	2	13	3	13	4	
5	10	13	6	0	7	0	0	0	1	0	2	0	3	0	4	
2	0	7	0	0	0	1	0	2	0	5	0	4	
5	11	9	6	13	10	11	0	11	1	11	5	11	3	11	4	
5	1	2	7	8	11	11	0	11	1	11	2	11	3	11	4	
2	8	11	11	0	11	1	11	2	11	1	11	0	
4	2	1	5	12	2	0	5	1	5	2	5	1	5	0	
2	4	1	1	0	1	1	1	5	1	3	1	4	
3	9	8	14	14	0	14	1	14	2	14	3	14	4	
5	9	8	7	2	4	9	0	9	1	9	5	9	3	9	4	
5	13	6	0	7	2	6	0	6	1	6	2	6	1	6	0	
4	0	5	1	4	0	0	1	1	1	2	4	3	4	4	
4	6	0	5	3	3	0	3	1	3	2	3	1	3	0	
3	8	7	2	2	0	2	1	2	2	2	1	2	0	
2	1	5	5	0	5	1	5	2	5	1	5	0	
3	7	0	6	6	0	6	1	6	2	6	3	6	4	
5	12	5	0	7	14	14	0	14	1	14	2	14	3	14	4	
4	13	6	9	11	11	0	11	1	11	2	11	1	11	0	
4	0	6	9	11	9	0	9	1	9	2	9	5	11	4	
3	6	13	10	13	0	13	1	13	2	13	1	13	0	
3	0	5	1	5	0	5	1	5	2	5	5	1	4	
2	7	0	0	0	0	1	0	2	0	5	0	4	
3	11	8	7	11	0	11	1	11	2	11	3	11	4	
3	1	5	0	5	0	5	1	5	2	5	1	5	0	
4	4	2	7	14	14	0	14	1	14	2	14	3	14	4	
4	9	8	7	2	2	0	2	1	2	2	2	3	2	4	
5	9	8	7	2	4	4	0	4	1	4	2	4	5	4	4	
3	2	4	3	3	0	3	1	3	2	3	3	3	4	
5	8	7	2	4	3	3	0	3	1	3	5	3	3	3	4	
5	5	0	6	9	11	5	0	5	1	5	2	5	1	11	0	
5	13	6	0	7	14	13	0	0	1	0	2	0	1	14	0	
3	0	7	8	7	0	7	1	7	2	7	3	8	4	
4	2	1	5	12	12	0	12	1	12	5	12	3	12	4	
5	1	2	7	8	9	2	0	2	1	2	2	2	1	2	0	
3	6	0	7	6	0	6	1	6	5	6	3	6	4	
4	8	9	6	13	13	0	13	1	13	2	13	3	13	4	
2	14	8	14	0	14	1	14	5	14	3	14	4	
5	2	1	5	12	10	12	0	12	1	12	2	12	5	12	4	
3	12	5	1	5	0	5	1	1	2	1	1	1	0	
2	2	4	2	0	2	1	2	2	2	5	4	4	
4	5	0	7	14	5	0	0	1	0	2	0	1	7	0	
3	13	6	0	13	0	13	1	13	2	13	3	13	4	
2	0	6	6	0	6	1	6	2	6	1	6	0	
6	11	9	6	0	5	3	9	0	6	1	6	2	6	5	3	4	
4	6	0	5	1	6	0	6	1	6	2	6	3	6	4	
4	8	7	2	4	7	0	7	1	7	2	7	5	7	4	
2	8	9	9	0	9	1	9	5	9	3	9	4	
5	8	9	6	13	10	13	0	13	1	13	2	13	5	13	4	
5	12	5	0	7	8	5	0	5	1	5	2	5	1	8	0	
3	5	0	7	5	0	5	1	5	2	5	1	5	0	
5	10	13	6	9	8	6	0	9	1	8	2	8	3	8	4	
3	0	5	3	5	0	5	1	5	2	5	1	5	0	
6	3	5	0	6	9	11	3	0	3	1	3	2	3	3	11	4	
4	8	7	2	1	8	0	8	1	8	2	8	3	8	4	
2	12	10	12	0	12	1	12	2	12	5	12	4	
4	1	5	0	6	1	0	1	1	1	2	5	3	5	4	
2	6	9	9	0	9	1	9	5	9	3	9	4	
4	4	2	7	8	8	0	8	1	8	2	8	1	8	0	
2	12	13	13	0	13	1	13	2	13	1	13	0	
2	2	1	1	0	1	1	1	5	1	3	1	4	
4	9	6	13	10	9	0	9	1	9	5	9	3	9	4	
2	13	12	13	0	13	1	13	2	13	3	13	4	
4	0	6	13	10	0	0	0	1	0	2	0	1	13	0	
5	13	6	0	7	2	6	0	6	1	6	5	6	3	6	4	
3	6	13	12	13	0	13	1	13	5	13	3	13	4	
5	11	8	7	2	4	11	0	11	1	11	2	11	1	11	0	
5	4	1	5	12	13	1	0	1	1	1	2	1	1	1	0	
3	12	5	3	5	0	5	1	5	2	5	3	5	4	
2	5	12	5	0	5	1	5	2	5	3	5	4	
5	10	12	5	1	4	5	0	1	1	1	2	4	3	4	4	
4	6	0	5	3	6	0	6	1	6	5	6	3	6	4	
4	11	9	6	13	11	0	11	1	11	2	11	1	11	0	
4	1	5	12	10	1	0	1	1	1	2	1	3	1	4	
2	7	2	7	0	7	1	7	2	7	5	7	4	
3	14	8	11	14	0	14	1	14	2	14	5	14	4	
5	2	7	0	6	13	13	0	13	1	13	5	13	3	13	4	
3	9	6	13	9	0	9	1	9	2	9	3	9	4	
4	13	6	0	7	6	0	6	1	6	5	6	3	6	4	
2	2	7	7	0	7	1	7	5	7	3	7	4	
4	7	0	5	12	0	0	0	1	0	5	0	3	0	4	
4	6	0	7	14	0	0	7	1	7	5	14	3	14	4	
4	8	7	0	5	8	0	8	1	8	5	8	3	8	4	
4	13	12	5	1	1	0	1	1	1	5	1	3	1	4	
2	0	5	0	0	0	1	0	2	0	3	0	4	
4	3	5	12	13	3	0	3	1	3	2	3	1	5	0	
2	11	8	11	0	11	1	11	2	11	1	11	0	
3	14	7	2	7	0	2	1	2	2	2	3	2	4	
2	1	4	1	0	1	1	1	5	1	3	1	4	
3	7	2	1	1	0	1	1	1	2	1	3	1	4	
2	7	0	0	0	0	1	0	5	0	3	0	4	
3	0	5	12	0	0	0	1	0	2	0	5	5	4	
3	7	8	11	11	0	11	1	11	2	11	5	11	4	
5	12	5	0	7	14	14	0	14	1	14	2	14	5	14	4	
5	10	13	6	9	11	9	0	9	1	9	2	9	1	9	0	
3	0	7	2	7	0	7	1	7	2	7	5	7	4	
5	3	4	2	7	8	8	0	8	1	8	2	8	1	8	0	
2	7	14	7	0	7	1	7	2	7	5	7	4	
3	11	9	6	9	0	9	1	9	2	9	3	9	4	
5	14	7	0	5	12	12	0	12	1	12	2	12	1	12	0	
3	7	2	4	4	0	4	1	4	2	4	5	4	4	
5	9	8	7	2	1	8	0	8	1	8	2	8	3	8	4	
2	13	6	13	0	13	1	13	5	13	3	13	4	
3	2	7	0	0	0	0	1	0	2	0	3	0	4	
4	4	1	5	12	1	0	1	1	1	2	1	5	12	4	
5	10	12	5	1	2	5	0	5	1	5	2	5	1	5	0	
3	6	9	8	6	0	6	1	6	5	6	3	9	4	
3	0	6	9	9	0	9	1	9	2	9	3	9	4	
3	3	4	1	3	0	3	1	3	2	3	1	3	0	
3	6	0	5	6	0	6	1	6	2	6	5	6	4	
3	7	0	5	5	0	5	1	5	5	5	3	5	4	
4	7	0	6	13	13	0	13	1	13	2	13	3	13	4	
2	8	14	8	0	8	1	8	2	8	3	8	4	
4	12	5	3	4	3	0	3	1	3	5	3	3	3	4	
3	14	8	9	9	0	9	1	9	2	9	1	9	0	
2	5	3	3	0	3	1	3	5	3	3	3	4	
4	12	5	1	2	5	0	5	1	5	5	5	3	5	4	
3	5	12	13	13	0	13	1	13	5	13	3	13	4	
5	10	13	6	0	7	13	0	13	1	13	2	13	1	13	0	
2	0	7	0	0	0	1	0	5	0	3	0	4	
5	11	9	6	13	10	9	0	9	1	9	2	9	3	9	4	
3	14	7	0	0	0	0	1	0	2	0	1	0	0	
4	7	0	5	3	7	0	7	1	7	2	7	1	3	0	
4	2	1	5	12	5	0	5	1	5	2	5	3	12	4	
4	8	7	2	1	8	0	8	1	8	5	8	3	8	4	
3	9	8	14	9	0	8	1	8	2	8	1	8	0	
4	13	6	9	8	9	0	9	1	9	2	9	5	8	4	
2	5	0	5	0	5	1	5	5	0	3	0	4	
2	6	9	9	0	9	1	9	2	9	5	9	4	
4	10	13	6	9	13	0	13	1	13	2	13	3	13	4	
4	3	5	12	10	3	0	3	1	3	2	3	3	3	4	
3	8	7	2	8	0	8	1	8	2	8	3	8	4	
2	1	5	1	0	1	1	1	2	1	3	1	4	
3	7	0	6	6	0	6	1	6	2	6	1	6	0	
3	9	8	7	8	0	8	1	8	2	8	1	8	0	
4	1	5	0	6	1	0	1	1	1	5	5	3	5	4	
4	5	0	7	8	5	0	8	1	8	2	8	5	8	4	
4	13	6	9	11	13	0	13	1	13	2	13	3	13	4	
4	0	6	9	11	11	0	11	1	11	5	11	3	11	4	
3	6	13	10	6	0	6	1	13	2	13	3	13	4	
5	11	8	7	2	1	11	0	11	1	11	5	11	3	11	4	
3	6	9	8	6	0	6	1	6	2	6	5	6	4	
4	4	2	7	0	2	0	2	1	2	5	2	3	0	4	
2	13	10	13	0	13	1	13	5	13	3	13	4	
3	11	8	7	11	0	11	1	11	5	11	3	11	4	
4	4	2	7	14	2	0	2	1	2	5	2	3	2	4	
4	9	8	7	2	2	0	2	1	2	2	2	1	2	0	
3	2	4	3	3	0	3	1	3	2	3	1	3	0	
5	5	0	6	9	11	5	0	5	1	5	2	5	3	5	4	
3	10	12	5	12	0	12	1	12	2	12	3	12	4	
5	6	0	5	1	4	6	0	6	1	6	2	6	1	4	0	
5	1	2	7	8	9	1	0	1	1	1	2	1	3	1	4	
3	6	9	11	11	0	11	1	11	5	11	3	11	4	
4	8	9	6	13	13	0	13	1	13	2	13	1	13	0	
5	12	13	6	9	11	12	0	12	1	12	2	12	5	13	4	
2	14	8	8	0	8	1	8	2	8	5	8	4	
5	2	1	5	12	10	5	0	5	1	5	2	5	1	5	0	
3	5	1	4	5	0	1	1	1	2	4	5	4	4	
4	9	6	13	12	12	0	12	1	12	2	12	3	12	4	
4	1	2	7	8	1	0	1	1	1	5	1	3	1	4	
4	5	0	7	14	5	0	5	1	5	2	0	5	0	4	
3	13	6	0	13	0	13	1	13	2	13	1	13	0	
2	0	6	6	0	6	1	6	2	6	3	6	4	
4	6	0	5	1	5	0	5	1	5	2	5	1	5	0	
4	8	7	2	4	2	0	2	1	2	2	2	1	2	0	
5	14	7	0	5	3	14	0	14	1	14	2	7	3	3	4	
2	7	0	7	0	7	1	7	2	7	3	7	4	
5	12	5	0	7	8	12	0	12	1	5	2	5	3	8	4	
4	1	5	12	13	1	0	5	1	5	5	5	3	5	4	
3	5	0	7	5	0	5	1	5	2	5	3	5	4	
3	13	6	9	13	0	13	1	13	2	13	1	13	0	
3	6	9	8	9	0	9	1	9	2	9	1	9	0	
4	3	5	12	13	5	0	5	1	5	2	12	5	13	4	
6	3	4	2	7	8	11	11	0	11	1	11	5	11	3	11	4	
4	8	7	2	1	1	0	1	1	1	2	1	1	1	0	
2	1	2	1	0	1	1	1	5	1	3	1	4	
4	1	5	0	6	1	0	1	1	1	2	1	1	1	0	
4	4	2	7	8	2	0	2	1	2	2	2	3	2	4	
3	9	6	0	9	0	9	1	9	2	9	3	9	4	
2	2	1	1	0	1	1	1	2	1	3	1	4	
4	5	0	6	9	5	0	5	1	5	2	5	1	5	0	
2	13	12	12	0	12	1	12	2	12	1	12	0	
4	0	6	13	10	0	0	0	1	0	2	0	3	13	4	
5	13	6	0	7	14	13	0	0	1	0	5	0	3	14	4	
3	11	8	14	11	0	11	1	11	2	11	5	14	4	
4	7	0	5	12	7	0	7	1	7	2	7	3	7	4	
5	11	8	7	2	4	11	0	8	1	4	2	4	5	4	4	
5	4	1	5	12	13	1	0	1	1	1	2	1	5	5	4	
3	12	5	3	3	0	3	1	3	2	3	1	3	0	
2	5	12	12	0	12	1	12	2	12	1	12	0	
5	10	12	5	1	4	12	0	12	1	12	5	12	3	12	4	
4	7	0	5	12	0	0	0	1	0	2	0	5	12	4	
3	6	0	7	6	0	6	1	6	2	6	3	6	4	
4	11	9	6	13	9	0	9	1	9	2	9	3	9	4	
4	1	5	12	10	1	0	1	1	1	2	1	1	1	0	
2	7	2	7	0	7	1	7	5	7	3	7	4	
2	12	10	12	0	12	1	12	2	12	1	12	0	
3	14	8	11	11	0	11	1	11	5	11	3	11	4	
5	2	7	0	6	13	13	0	13	1	13	2	13	3	13	4	
3	9	6	13	6	0	6	1	6	5	6	3	6	4	
4	13	6	0	7	6	0	6	1	6	2	6	5	0	4	
4	6	0	7	14	0	0	7	1	7	2	14	5	14	4	
4	13	12	5	1	13	0	13	1	13	2	13	5	1	4	
2	0	5	5	0	5	1	5	2	5	1	5	0	
4	3	5	12	13	3	0	3	1	3	2	3	3	3	4	
5	8	7	2	4	3	7	0	7	1	7	2	7	3	7	4	
5	1	2	7	8	9	2	0	2	1	2	5	2	3	2	4	
2	1	4	1	0	1	1	1	2	1	3	1	4	
5	4	1	5	12	10	4	0	4	1	4	2	4	1	4	0	
2	13	10	13	0	13	1	13	2	13	3	13	4	
3	0	5	12	5	0	5	1	5	2	5	1	5	0	
3	6	9	11	11	0	11	1	11	2	11	3	11	4	
4	1	2	7	14	7	0	7	1	7	5	7	3	7	4	
5	10	13	6	9	11	11	0	11	1	11	2	11	5	11	4	
5	3	5	0	7	8	3	0	3	1	3	2	3	5	8	4	
2	7	14	14	0	14	1	14	5	14	3	14	4	
3	11	9	6	11	0	11	1	11	2	11	1	9	0	
5	14	7	0	5	12	5	0	5	1	5	2	12	3	12	4	
4	2	7	0	6	2	0	2	1	2	5	2	3	2	4	
3	7	2	4	2	0	2	1	2	5	2	3	2	4	
5	9	8	7	2	1	2	0	2	1	2	5	2	3	2	4	
3	2	7	0	2	0	2	1	2	5	2	3	0	4	
3	5	12	10	5	0	5	1	5	2	5	3	12	4	
5	10	12	5	1	2	5	0	5	1	5	2	5	3	5	4	
3	0	6	9	9	0	9	1	9	2	9	1	9	0	
3	3	4	1	3	0	3	1	3	2	3	3	3	4	
3	6	0	5	6	0	6	1	6	5	0	3	0	4	
4	1	2	7	8	2	0	2	1	2	2	2	3	2	4	
5	4	1	5	0	6	4	0	4	1	4	2	4	1	5	0	
2	8	14	14	0	14	1	14	5	14	3	14	4	
4	12	5	1	4	12	0	12	1	12	2	12	5	5	4	
3	5	3	4	3	0	3	1	3	5	3	3	3	4	
2	5	3	3	0	3	1	3	2	3	5	3	4	
4	12	5	1	2	2	0	2	1	2	2	2	5	2	4	
3	5	12	13	13	0	13	1	13	2	13	5	13	4	
5	10	13	6	0	7	6	0	6	1	0	2	0	5	0	4	
3	12	5	1	1	0	1	1	1	5	1	3	1	4	
2	0	7	7	0	7	1	7	2	7	3	7	4	
5	11	9	6	13	10	11	0	11	1	13	2	13	1	13	0	
3	14	7	0	7	0	0	1	0	2	0	3	0	4	
4	7	0	5	3	7	0	7	1	7	2	7	3	3	4	
4	12	13	6	9	9	0	9	1	9	2	9	3	9	4	
3	9	6	0	6	0	6	1	6	2	6	5	6	4	
3	5	0	6	5	0	5	1	5	2	5	3	0	4	
3	9	8	14	9	0	9	1	9	2	9	5	8	4	
5	13	6	0	7	8	13	0	0	1	0	5	0	3	8	4	
3	6	0	7	7	0	7	1	7	2	7	5	7	4	
4	10	13	6	9	9	0	9	1	9	2	9	1	9	0	
3	1	4	3	1	0	1	1	1	5	1	3	1	4	
4	3	5	12	10	12	0	12	1	12	2	12	1	12	0	
3	8	7	2	8	0	8	1	8	5	8	3	8	4	
2	1	5	1	0	1	1	1	5	1	3	1	4	
5	4	2	7	8	9	4	0	4	1	4	2	4	3	4	4	
3	9	8	7	9	0	9	1	9	2	9	3	9	4	
2	9	11	9	0	9	1	9	5	9	3	9	4	
4	1	5	12	10	12	0	12	1	12	5	12	3	12	4	
4	5	0	7	8	5	0	5	1	5	5	5	3	5	4	
4	10	13	6	0	13	0	13	1	13	2	13	1	13	0	
4	0	7	8	11	0	0	0	1	0	2	0	3	0	4	
2	8	9	9	0	9	1	9	2	9	5	9	4	
5	11	8	7	2	1	1	0	1	1	1	2	1	5	1	4	
4	4	1	5	0	5	0	5	1	5	2	0	5	0	4	
2	10	13	13	0	13	1	13	5	13	3	13	4	
3	11	8	7	8	0	8	1	8	2	8	5	8	4	
4	2	7	8	9	2	0	7	1	7	2	7	5	9	4	
4	4	2	7	14	14	0	14	1	14	2	14	5	14	4	
4	9	8	7	2	2	0	2	1	2	2	2	5	2	4	
3	2	4	3	4	0	4	1	4	2	4	5	4	4	
3	10	12	5	12	0	12	1	12	2	12	1	12	0	
2	12	10	12	0	12	1	12	5	12	3	12	4	
5	6	0	5	1	4	5	0	5	1	5	2	5	3	5	4	
5	11	9	6	13	12	12	0	12	1	12	2	12	3	12	4	
5	4	2	7	8	11	11	0	11	1	11	2	11	5	11	4	
4	14	7	0	6	14	0	14	1	14	2	14	1	14	0	
3	4	1	5	4	0	4	1	4	2	4	3	4	4	
4	8	9	6	13	6	0	6	1	6	2	6	5	13	4	
5	12	13	6	9	11	12	0	12	1	12	5	12	3	12	4	
5	2	1	5	12	10	12	0	12	1	12	2	12	3	12	4	
5	13	6	0	7	2	13	0	6	1	6	2	6	5	2	4	
4	9	6	13	12	12	0	12	1	12	2	12	1	12	0	
5	3	5	0	6	9	3	0	9	1	9	2	9	5	9	4	
2	0	6	0	0	0	1	0	5	0	3	0	4	
3	3	5	12	12	0	12	1	12	2	12	3	12	4	
4	8	7	2	4	4	0	4	1	4	2	4	3	4	4	
5	14	7	0	5	3	3	0	3	1	3	2	3	1	3	0	
3	7	2	1	1	0	1	1	1	2	1	5	1	4	
2	7	0	0	0	0	1	0	2	0	1	0	0	
4	9	6	0	5	0	0	0	1	0	2	0	1	0	0	
5	4	2	7	8	11	4	0	4	1	4	5	4	3	4	4	
4	6	0	5	3	5	0	3	1	3	2	3	5	3	4	
3	13	6	9	13	0	13	1	13	2	13	3	13	4	
3	6	9	8	8	0	8	1	8	2	8	3	8	4	
5	10	13	6	9	8	13	0	13	1	13	2	13	5	8	4	
3	1	5	12	12	0	12	1	12	2	12	5	12	4	
6	3	5	0	6	9	11	3	0	3	1	3	2	3	5	11	4	
3	7	8	9	7	0	7	1	7	2	7	1	7	0	
5	14	7	0	6	13	14	0	14	1	14	2	14	3	14	4	
3	9	6	0	0	0	0	1	0	2	0	1	0	0	
4	8	7	0	5	0	0	0	1	0	2	0	5	5	4	
3	0	5	3	3	0	3	1	3	5	3	3	3	4	
2	2	1	1	0	1	1	1	2	1	1	1	0	
2	8	11	8	0	8	1	8	2	8	5	8	4	
4	5	0	6	9	9	0	9	1	9	2	9	3	9	4	
4	10	12	5	3	12	0	12	1	12	2	12	3	12	4	
4	0	6	13	10	6	0	6	1	6	5	6	3	6	4	
3	3	5	0	0	0	0	1	0	2	0	3	0	4	
3	11	8	14	14	0	14	1	14	5	14	3	14	4	
4	7	0	5	12	7	0	7	1	7	2	7	1	7	0	
5	11	8	7	2	4	7	0	7	1	7	5	7	3	7	4	
3	2	7	8	7	0	7	1	7	2	7	1	7	0	
6	10	13	6	0	7	14	6	0	6	1	6	2	6	5	0	4	
5	12	5	0	7	14	14	0	14	1	14	5	14	3	14	4	
5	10	12	5	1	4	12	0	12	1	12	2	12	5	4	4	
3	5	0	6	5	0	5	1	5	5	5	3	5	4	
3	6	0	7	7	0	7	1	7	2	7	1	7	0	
3	8	9	6	9	0	9	1	9	2	9	1	9	0	
4	14	7	2	1	14	0	14	1	14	2	14	3	14	4	
2	13	6	13	0	13	1	13	2	13	5	6	4	
4	12	13	6	9	9	0	9	1	9	5	9	3	9	4	
2	7	2	7	0	7	1	7	2	7	3	7	4	
2	12	10	12	0	12	1	12	2	12	3	12	4	
5	2	7	0	6	13	13	0	13	1	13	2	13	1	13	0	
4	14	7	2	1	7	0	2	1	1	2	1	5	1	4	
3	9	6	13	9	0	9	1	9	2	9	5	9	4	
4	13	6	0	7	7	0	7	1	7	2	7	1	7	0	
4	6	0	7	14	14	0	14	1	14	2	14	1	14	0	
2	0	5	0	0	0	1	0	2	0	5	0	4	
5	8	7	2	4	3	3	0	3	1	3	2	3	1	3	0	
2	1	4	4	0	4	1	4	2	4	1	4	0	
5	4	1	5	12	10	4	0	4	1	4	2	4	3	4	4	
2	9	6	6	0	6	1	6	2	6	3	6	4	
6	14	7	0	6	13	10	14	0	14	1	14	5	14	3	13	4	
2	13	10	13	0	13	1	13	2	13	1	13	0	
3	0	5	12	5	0	5	1	5	2	5	3	5	4	
3	6	9	11	11	0	11	1	11	2	11	1	11	0	
5	10	13	6	9	11	11	0	11	1	11	5	11	3	11	4	
4	1	5	12	13	12	0	12	1	12	2	12	1	12	0	
5	3	4	2	7	8	3	0	3	1	2	5	2	3	2	4	
2	7	14	7	0	7	1	7	2	7	3	7	4	
4	8	7	2	1	2	0	2	1	2	2	2	5	1	4	
5	14	7	0	5	12	12	0	12	1	12	5	12	3	12	4	
4	2	7	0	6	7	0	7	1	7	2	7	5	6	4	
5	9	8	7	2	1	9	0	9	1	9	2	9	5	8	4	
3	2	7	0	0	0	0	1	0	2	0	5	0	4	
3	5	12	10	5	0	5	1	12	2	12	1	12	0	
3	0	6	9	6	0	6	1	6	2	6	5	9	4	
3	6	0	5	5	0	5	1	5	2	5	3	5	4	
4	1	2	7	8	2	0	2	1	2	2	2	1	2	0	
5	4	1	5	0	6	4	0	4	1	4	2	4	3	4	4	
2	8	14	14	0	14	1	14	2	14	5	14	4	
4	12	5	1	4	12	0	1	1	1	2	4	1	4	0	
4	2	7	8	11	11	0	11	1	11	2	11	3	11	4	
2	5	3	3	0	3	1	3	2	3	1	3	0	
5	10	13	6	0	7	13	0	13	1	13	5	13	3	13	4	
2	13	10	13	0	13	1	13	2	13	5	13	4	
2	0	7	7	0	7	1	7	2	7	1	7	0	
4	8	7	0	5	5	0	5	1	5	2	5	3	5	4	
3	3	4	1	4	0	4	1	4	2	4	5	4	4	
3	14	7	0	14	0	14	1	14	5	14	3	14	4	
4	7	0	5	3	7	0	7	1	7	5	7	3	3	4	
4	12	13	6	9	12	0	12	1	12	2	12	1	12	0	
4	2	1	5	12	12	0	12	1	12	2	12	5	12	4	
3	5	0	6	5	0	5	1	5	2	5	1	5	0	
3	9	8	14	8	0	8	1	8	5	8	3	8	4	
4	13	6	9	8	13	0	13	1	13	2	13	3	13	4	
3	0	7	14	14	0	14	1	14	2	14	1	14	0	
2	4	3	3	0	3	1	3	5	3	3	3	4	
2	6	9	6	0	6	1	6	2	6	3	9	4	
3	6	9	11	11	0	11	1	11	2	11	5	11	4	
3	1	4	3	3	0	3	1	3	2	3	5	3	4	
3	8	7	2	2	0	2	1	2	2	2	5	2	4	
2	1	5	5	0	5	1	5	2	5	5	5	4	
5	4	2	7	8	9	8	0	8	1	8	2	8	1	8	0	
4	5	0	7	8	5	0	8	1	8	2	8	3	8	4	
4	10	13	6	0	13	0	13	1	13	2	13	3	13	4	
4	0	6	9	11	9	0	9	1	9	2	9	1	11	0	
5	11	8	7	2	1	1	0	1	1	1	2	1	1	1	0	
4	1	2	7	14	1	0	1	1	1	2	1	3	1	4	
6	14	7	0	6	13	10	7	0	7	1	0	2	0	5	6	4	
4	4	1	5	0	1	0	1	1	1	2	1	1	1	0	
4	2	7	8	9	8	0	8	1	8	5	8	3	8	4	
4	9	8	7	2	7	0	7	1	7	5	7	3	7	4	
4	13	12	5	3	12	0	12	1	12	5	12	3	12	4	
3	2	4	3	4	0	4	1	4	5	4	3	4	4	
2	6	0	0	0	0	1	0	5	0	3	0	4	
2	1	2	1	0	1	1	1	2	1	5	1	4	
5	6	0	5	1	4	4	0	4	1	4	5	4	3	4	4	
5	11	9	6	13	12	12	0	12	1	12	2	12	1	12	0	
4	14	7	0	6	14	0	14	1	14	2	14	3	14	4	
3	4	1	5	4	0	4	1	4	2	4	1	5	0	
4	8	9	6	13	13	0	13	1	13	5	13	3	13	4	
5	12	13	6	9	11	12	0	12	1	12	2	12	3	12	4	
3	5	1	4	4	0	4	1	4	2	4	3	4	4	
5	13	6	0	7	14	13	0	13	1	13	2	13	5	14	4	
2	0	6	0	0	0	1	0	2	0	5	6	4	
3	3	5	12	12	0	12	1	12	2	12	1	12	0	
5	7	0	6	13	10	13	0	13	1	13	2	13	5	13	4	
5	14	7	2	4	3	7	0	2	1	2	2	2	5	2	4	
6	11	9	6	0	5	3	11	0	9	1	9	5	9	3	9	4	
5	4	2	7	8	11	8	0	8	1	8	2	8	3	11	4	
4	9	6	0	5	9	0	9	1	9	2	9	3	9	4	
3	4	2	7	7	0	7	1	7	5	7	3	7	4	
6	10	13	6	0	7	14	13	0	0	1	0	2	0	1	14	0	
3	0	6	13	0	0	0	1	0	2	0	3	0	4	
2	3	5	5	0	5	1	5	2	5	1	5	0	
3	1	5	12	12	0	12	1	12	5	12	3	12	4	
3	7	8	9	8	0	8	1	8	2	8	3	8	4	
3	12	5	0	12	0	12	1	12	5	12	3	12	4	
5	14	7	0	6	13	7	0	0	1	0	2	0	1	13	0	
4	5	0	6	9	5	0	5	1	5	5	5	3	5	4	
4	10	12	5	3	12	0	12	1	12	2	12	1	12	0	
4	14	7	0	6	14	0	14	1	14	2	14	5	14	4	
3	3	5	0	5	0	5	1	5	2	5	1	5	0	
5	4	1	5	12	13	12	0	12	1	12	5	12	3	12	4	
3	11	8	14	11	0	11	1	11	2	11	3	8	4	
4	14	7	2	4	7	0	2	1	2	2	2	1	2	0	
3	4	2	7	7	0	7	1	7	2	7	3	7	4	
3	2	7	8	8	0	8	1	8	2	8	3	8	4	
4	1	2	7	14	1	0	1	1	1	2	2	5	7	4	
5	13	12	5	1	4	12	0	12	1	12	2	12	5	5	4	
2	6	13	6	0	6	1	6	2	6	5	6	4	
5	3	4	2	7	14	2	0	2	1	2	2	2	3	2	4	
3	8	9	6	8	0	8	1	8	2	8	3	8	4	
4	14	7	2	1	14	0	1	1	1	2	1	1	1	0	
2	7	2	7	0	7	1	7	2	7	1	7	0	
2	9	11	11	0	11	1	11	2	11	1	11	0	
4	13	6	0	7	0	0	0	1	0	2	0	3	0	4	
4	6	0	7	14	0	0	7	1	7	2	14	3	14	4	
5	11	9	6	0	5	9	0	6	1	6	5	6	3	5	4	
2	0	5	0	0	0	1	5	5	5	3	5	4	
3	7	8	11	11	0	11	1	11	2	11	1	11	0	
5	4	1	5	12	10	12	0	12	1	12	5	12	3	12	4	
2	9	6	9	0	9	1	9	2	9	1	9	0	
3	12	5	1	12	0	12	1	12	2	12	5	1	4	
4	11	9	6	0	11	0	11	1	11	5	11	3	6	4	
4	10	12	5	1	5	0	5	1	5	2	5	3	5	4	
4	3	5	12	13	3	0	12	1	12	5	12	3	12	4	
3	3	4	2	4	0	4	1	4	2	4	3	4	4	
4	1	5	12	13	5	0	12	1	12	2	12	3	12	4	
2	7	14	14	0	14	1	14	2	14	1	14	0	
4	12	5	0	7	0	0	0	1	0	2	0	5	7	4	
5	14	7	0	5	12	5	0	5	1	5	2	12	5	12	4	
4	2	7	0	6	6	0	6	1	6	2	6	1	6	0	
2	5	0	5	0	5	1	5	2	0	5	0	4	
5	3	5	0	7	14	3	0	0	1	0	5	0	3	7	4	
3	5	12	10	5	0	5	1	5	2	5	5	12	4	
2	11	9	11	0	11	1	11	5	11	3	11	4	
3	0	6	9	9	0	9	1	9	5	9	3	9	4	
3	6	0	5	5	0	5	1	5	2	5	1	5	0	
2	14	7	14	0	14	1	14	2	14	3	14	4	
6	4	2	7	8	9	6	2	0	9	1	9	5	9	3	9	4	
4	1	5	12	10	1	0	1	1	1	2	1	5	5	4	
4	12	5	1	4	12	0	1	1	1	2	4	3	4	4	
4	2	7	8	11	11	0	11	1	11	2	11	1	11	0	
2	5	3	3	0	3	1	3	2	3	3	3	4	
3	13	12	5	13	0	13	1	13	2	13	1	13	0	
3	6	13	12	13	0	13	1	13	2	13	1	13	0	
4	14	7	2	4	2	0	2	1	2	2	2	5	4	4	
4	8	7	0	5	8	0	8	1	8	2	8	1	8	0	
3	14	7	0	7	0	0	1	0	2	0	5	0	4	
4	7	2	4	3	3	0	3	1	3	2	3	5	3	4	
5	9	8	7	2	4	8	0	8	1	8	2	8	3	8	4	
2	9	11	11	0	11	1	11	2	11	5	11	4	
3	5	0	6	6	0	6	1	6	2	6	5	6	4	
4	13	6	9	8	8	0	8	1	8	2	8	1	8	0	
3	0	7	14	14	0	14	1	14	2	14	3	14	4	
2	6	9	9	0	9	1	9	2	9	1	9	0	
4	11	8	7	2	8	0	8	1	8	2	8	5	8	4	
3	1	5	3	5	0	3	1	3	2	3	1	3	0	
2	7	8	7	0	7	1	7	2	7	3	7	4	
4	10	13	6	9	9	0	9	1	9	5	9	3	9	4	
2	12	5	12	0	12	1	12	2	12	5	5	4	
5	11	9	6	13	12	9	0	13	1	13	5	13	3	13	4	
5	4	2	7	8	9	9	0	9	1	9	2	9	5	9	4	
5	3	5	0	6	9	9	0	9	1	9	5	9	3	9	4	
3	10	13	6	13	0	13	1	13	5	13	3	13	4	
4	5	0	7	8	7	0	7	1	7	2	7	1	7	0	
4	10	13	6	0	13	0	13	1	13	5	13	3	13	4	
5	11	8	7	2	1	2	0	2	1	2	2	2	3	2	4	
4	1	2	7	14	1	0	1	1	1	2	2	1	7	0	
4	4	2	7	0	2	0	2	1	2	2	2	3	0	4	
3	12	13	6	13	0	13	1	13	2	13	1	13	0	
4	2	7	8	9	2	0	2	1	2	2	2	3	2	4	
2	5	1	1	0	1	1	1	2	1	1	1	0	
4	13	12	5	3	13	0	13	1	13	2	13	5	13	4	
4	6	0	7	2	6	0	6	1	6	2	6	5	6	4	
5	6	0	5	1	4	6	0	6	1	6	2	6	5	4	4	
2	8	7	8	0	8	1	8	2	8	3	8	4	
3	7	0	5	0	0	0	1	0	2	0	5	0	4	
3	4	1	5	1	0	1	1	1	2	1	5	1	4	
5	12	13	6	9	11	9	0	9	1	9	2	9	1	9	0	
3	5	1	4	5	0	5	1	5	2	5	1	5	0	
6	10	13	6	0	7	14	13	0	0	1	0	5	0	3	14	4	
2	13	6	6	0	6	1	6	2	6	3	6	4	
3	0	5	1	5	0	5	1	5	5	5	3	5	4	
4	3	5	0	6	3	0	3	1	6	2	6	5	6	4	
3	3	5	12	12	0	12	1	12	2	12	5	12	4	
5	7	0	6	13	10	13	0	13	1	13	5	13	3	13	4	
5	9	6	0	5	3	9	0	9	1	9	5	9	3	9	4	
3	9	8	7	8	0	8	1	8	2	8	5	8	4	
5	4	2	7	8	11	11	0	11	1	11	2	11	1	11	0	
4	9	6	0	5	9	0	9	1	9	5	9	3	9	4	
6	10	13	6	0	7	14	13	0	0	1	0	2	0	3	14	4	
3	0	6	13	13	0	13	1	13	2	13	1	13	0	
2	3	5	3	0	3	1	3	2	3	3	3	4	
4	12	13	6	9	9	0	9	1	9	2	9	5	9	4	
6	11	9	6	0	5	3	11	0	11	1	11	2	11	1	11	0	
2	11	8	11	0	11	1	11	5	11	3	11	4	
3	1	5	12	1	0	12	1	12	2	12	3	12	4	
2	3	5	5	0	5	1	5	5	5	3	5	4	
2	4	2	2	0	2	1	2	2	2	1	2	0	
3	12	5	0	5	0	5	1	5	2	5	5	0	4	
5	10	13	6	9	8	13	0	13	1	13	5	13	3	13	4	
4	5	0	6	9	5	0	5	1	5	2	0	5	6	4	
4	10	12	5	3	3	0	3	1	3	2	3	5	3	4	
3	3	5	0	3	0	3	1	3	2	3	5	5	4	
3	11	8	14	14	0	14	1	14	2	14	1	14	0	
4	14	7	2	4	7	0	2	1	2	2	2	3	2	4	
3	2	7	14	2	0	7	1	7	5	7	3	7	4	
3	4	2	7	7	0	7	1	7	2	7	1	7	0	
2	12	5	12	0	12	1	12	2	12	3	12	4	
3	2	7	8	7	0	7	1	7	5	7	3	7	4	
3	5	1	2	2	0	2	1	2	2	2	3	2	4	
5	13	12	5	1	4	13	0	13	1	4	5	4	3	4	4	
2	6	13	13	0	13	1	13	5	13	3	13	4	
3	8	7	0	8	0	8	1	8	5	8	3	8	4	
3	7	8	9	7	0	7	1	7	2	7	5	8	4	
3	1	2	7	1	0	1	1	1	5	1	3	1	4	
5	3	4	2	7	14	14	0	14	1	14	2	14	1	14	0	
3	8	9	6	9	0	9	1	9	5	9	3	9	4	
2	9	11	11	0	11	1	11	2	11	3	11	4	
2	10	12	12	0	12	1	12	2	12	1	12	0	
4	3	5	0	7	3	0	3	1	3	2	3	1	5	0	
5	14	8	9	6	13	14	0	14	1	14	5	14	3	14	4	
5	11	9	6	0	5	11	0	11	1	11	2	11	5	9	4	
3	7	8	11	11	0	11	1	11	2	11	3	11	4	
3	2	1	5	1	0	1	1	1	2	1	5	1	4	
5	4	1	5	12	10	4	0	4	1	4	2	4	5	4	4	
2	9	6	9	0	9	1	9	2	9	5	6	4	
4	10	12	5	1	12	0	12	1	12	5	12	3	12	4	
2	12	13	12	0	12	1	12	2	12	5	12	4	
4	10	12	5	1	5	0	5	1	5	2	5	1	5	0	
5	1	2	7	8	11	2	0	2	1	2	5	2	3	2	4	
3	3	4	2	4	0	4	1	4	2	4	1	4	0	
4	11	9	6	0	11	0	11	1	11	2	11	3	6	4	
6	14	7	0	6	13	10	7	0	13	1	13	2	13	1	13	0	
2	4	1	4	0	4	1	4	2	4	3	4	4	
4	12	5	0	7	5	0	5	1	5	5	5	3	5	4	
4	2	7	0	6	6	0	6	1	6	2	6	3	6	4	
2	4	3	4	0	4	1	4	2	4	5	4	4	
3	3	4	2	2	0	2	1	2	5	2	3	2	4	
4	0	5	1	4	5	0	5	1	5	5	5	3	5	4	
3	5	12	10	5	0	5	1	5	5	5	3	5	4	
2	11	9	11	0	11	1	11	2	11	5	9	4	
4	11	8	7	0	8	0	8	1	8	2	8	5	0	4	
2	14	7	14	0	14	1	14	2	14	1	14	0	
5	4	1	5	0	6	1	0	1	1	1	2	1	5	5	4	
4	3	5	0	7	3	0	3	1	3	5	3	3	5	4	
4	2	7	8	11	2	0	2	1	2	2	2	5	7	4	
3	13	12	5	13	0	13	1	13	2	13	3	13	4	
3	9	6	0	6	0	6	1	6	5	6	3	6	4	
3	6	13	12	12	0	12	1	12	2	12	3	12	4	
3	1	5	0	0	0	0	1	0	2	0	5	0	4	
3	7	0	5	7	0	7	1	7	2	7	1	7	0	
2	12	13	13	0	13	1	13	5	13	3	13	4	
5	9	8	7	2	4	9	0	4	1	4	2	4	1	4	0	
3	0	7	8	8	0	8	1	8	5	8	3	8	4	
3	14	8	9	14	0	14	1	14	5	14	3	14	4	
3	0	7	14	14	0	14	1	14	5	14	3	14	4	
2	3	4	3	0	3	1	3	2	3	3	3	4	
2	8	7	8	0	8	1	8	2	8	5	7	4	
4	11	8	7	2	2	0	2	1	2	5	2	3	2	4	
3	1	5	3	5	0	3	1	3	2	3	3	3	4	
2	7	8	8	0	8	1	8	2	8	1	8	0	
3	10	12	5	12	0	12	1	12	5	12	3	12	4	
2	2	4	2	0	2	1	2	2	2	1	2	0	
5	4	2	7	8	9	2	0	2	1	2	5	2	3	2	4	
3	10	13	6	13	0	13	1	13	2	13	5	6	4	
4	10	13	6	0	13	0	6	1	6	2	6	5	0	4	
4	1	5	0	6	1	0	1	1	1	2	5	5	5	4	
5	8	7	0	5	12	8	0	8	1	8	2	8	5	12	4	
5	8	7	0	5	12	8	0	8	1	8	5	8	3	12	4	
5	8	9	6	13	10	8	0	8	1	9	2	9	1	9	0	
4	14	7	0	5	14	0	14	1	14	2	14	3	14	4	
3	4	2	7	4	0	4	1	4	2	4	5	4	4	
3	12	13	6	13	0	13	1	13	2	13	3	13	4	
4	2	7	8	9	8	0	8	1	8	2	9	1	9	0	
2	5	1	5	0	5	1	5	2	5	3	5	4	
4	13	12	5	3	13	0	12	1	12	2	12	1	3	0	
3	0	5	3	0	0	0	1	0	2	0	5	3	4	
4	6	0	7	2	6	0	6	1	6	2	6	1	6	0	
2	8	7	8	0	8	1	8	2	8	1	8	0	
3	4	3	5	3	0	3	1	3	5	3	3	3	4	
4	9	6	13	10	9	0	9	1	9	2	9	3	9	4	
4	14	7	0	6	14	0	14	1	14	5	14	3	14	4	
2	13	6	13	0	13	1	13	2	13	1	13	0	
2	7	8	8	0	8	1	8	2	8	5	8	4	
2	3	4	3	0	3	1	3	5	3	3	3	4	
4	3	5	0	6	3	0	3	1	3	5	3	3	3	4	
5	8	7	0	5	3	7	0	7	1	7	2	7	5	0	4	
5	7	0	6	13	10	13	0	13	1	13	2	13	3	13	4	
5	9	6	0	5	3	9	0	9	1	9	2	9	5	3	4	
4	14	7	0	5	14	0	14	1	14	5	14	3	14	4	
4	9	6	0	5	6	0	6	1	6	2	6	5	5	4	
3	0	6	13	0	0	0	1	0	2	0	5	13	4	
6	11	9	6	0	5	3	9	0	6	1	6	2	6	3	3	4	
3	1	5	12	1	0	1	1	1	2	1	1	1	0	
2	4	2	2	0	2	1	2	2	2	3	2	4	
3	12	5	0	12	0	12	1	5	2	5	1	5	0	
2	2	7	7	0	7	1	7	2	7	3	7	4	
