2938.04	2137.93
609
20716.6	14386.6
10
0	2391	2392
1	2379	2613
2	0	-1
3	2600	3330
4	2299	2853
5	3951	4064
6	0	-1
7	0	-1
8	0	-1
9	4026	4103
34
0	1	66.571588	168.879090	1.000000
0	2	44.418026	173.797908	1.000000
0	5	121.970642	191.833905	1.000000
1	0	66.537402	168.879090	1.000000
1	2	11.099572	188.554363	1.000000
1	3	43.926766	185.275811	1.000000
1	4	22.129186	188.554363	1.000000
2	0	44.217164	173.797908	1.000000
2	1	11.186086	188.554363	1.000000
2	3	32.507396	173.797908	1.000000
2	4	11.276678	167.239814	1.000000
3	1	44.200572	185.275811	1.000000
3	2	33.878758	173.797908	1.000000
3	4	11.041938	162.320996	1.000000
3	9	99.127092	149.203818	1.000000
4	1	22.468118	188.554363	1.000000
4	2	11.091458	167.239814	1.000000
4	3	11.266978	162.320996	1.000000
4	5	55.678424	150.844084	1.000000
5	0	122.315628	191.833905	1.000000
5	4	55.576782	150.844084	1.000000
5	6	158.278624	159.041454	1.000000
5	9	53.793626	180.356992	1.000000
6	5	158.719458	159.041454	1.000000
6	7	66.608684	178.716727	1.000000
6	8	56.757574	185.275811	1.000000
7	6	66.847556	178.716727	1.000000
7	8	33.062130	173.797908	1.000000
8	6	58.007636	185.275811	1.000000
8	7	33.132806	173.797908	1.000000
8	9	140.934610	147.564542	1.000000
9	3	100.220512	149.203818	1.000000
9	5	54.354402	180.356992	1.000000
9	8	141.180494	147.564542	1.000000
360
3	3	1	0	3	0	3	1	3	5	3	3	1	4	
2	8	9	9	0	9	1	9	2	9	3	9	4	
2	8	9	9	0	9	1	9	2	9	1	9	0	
2	9	8	9	0	9	1	9	5	9	3	9	4	
4	2	3	9	8	3	0	3	1	3	2	3	5	9	4	
3	5	0	2	5	0	5	1	5	2	5	1	5	0	
2	0	2	0	0	0	1	0	2	0	1	0	0	
4	8	6	5	0	5	0	5	1	5	2	5	5	0	4	
5	1	0	5	6	7	1	0	1	1	1	2	1	5	5	4	
4	8	9	8	6	9	0	9	1	9	2	9	5	9	4	
4	3	9	8	7	3	0	3	1	3	2	3	3	3	4	
2	1	2	1	0	1	1	1	2	1	3	1	4	
5	7	6	5	0	1	5	0	5	1	5	5	5	3	1	4	
3	2	0	5	0	0	0	1	0	5	0	3	0	4	
3	9	5	6	9	0	9	1	5	5	5	3	5	4	
2	4	1	4	0	4	1	4	2	4	1	4	0	
2	5	0	5	0	5	1	5	2	5	3	5	4	
3	0	1	4	4	0	4	1	4	2	4	5	4	4	
4	7	6	5	6	5	0	5	1	5	2	5	5	5	4	
2	0	1	1	0	1	1	1	2	1	3	1	4	
2	3	9	3	0	3	1	3	2	3	1	3	0	
2	1	0	0	0	0	1	0	5	0	3	0	4	
3	7	6	5	5	0	5	1	5	2	5	3	5	4	
4	0	5	9	8	9	0	9	1	9	2	9	5	9	4	
2	3	4	3	0	3	1	3	2	3	1	3	0	
2	4	3	3	0	3	1	3	2	3	3	3	4	
2	2	4	4	0	4	1	4	2	4	3	4	4	
4	6	5	0	1	5	0	5	1	5	2	5	5	1	4	
3	5	6	7	5	0	5	1	5	5	5	3	5	4	
3	5	0	1	0	0	0	1	0	5	0	3	0	4	
3	0	1	3	3	0	3	1	3	5	3	3	3	4	
4	6	5	0	2	5	0	5	1	5	2	5	3	5	4	
4	4	5	6	8	5	0	5	1	5	5	5	3	5	4	
4	3	9	8	6	3	0	9	1	9	2	9	3	9	4	
2	9	3	3	0	3	1	3	2	3	1	3	0	
3	7	8	9	9	0	9	1	9	5	9	3	9	4	
2	4	2	4	0	4	1	4	5	4	3	4	4	
5	2	0	5	6	7	5	0	5	1	5	2	5	1	5	0	
3	6	5	0	5	0	5	1	5	2	5	1	5	0	
5	7	6	5	0	1	5	0	5	1	5	2	5	5	1	4	
2	9	8	9	0	9	1	9	2	9	3	9	4	
3	5	0	2	0	0	0	1	0	2	0	5	0	4	
2	0	2	0	0	0	1	0	2	0	3	0	4	
4	8	6	5	0	0	0	0	1	0	2	0	1	0	0	
5	1	0	5	6	7	1	0	1	1	1	2	1	1	5	0	
4	7	6	5	4	5	0	5	1	5	2	5	3	5	4	
2	3	1	3	0	3	1	3	5	3	3	3	4	
4	3	9	8	7	9	0	9	1	9	5	9	3	9	4	
2	1	2	1	0	1	1	1	2	1	1	1	0	
3	2	0	5	5	0	5	1	5	2	5	3	5	4	
2	4	1	1	0	1	1	1	2	1	5	1	4	
2	5	0	5	0	5	1	5	2	5	1	5	0	
3	0	1	4	1	0	1	1	1	2	1	1	4	0	
4	6	8	9	3	9	0	9	1	9	2	9	3	9	4	
4	6	8	9	8	9	0	9	1	9	2	9	5	9	4	
4	7	6	5	6	5	0	5	1	5	5	5	3	5	4	
3	9	8	7	9	0	9	1	9	5	9	3	9	4	
2	0	1	0	0	0	1	0	2	0	1	0	0	
2	3	9	3	0	3	1	3	2	3	3	3	4	
2	1	0	0	0	0	1	0	2	0	3	0	4	
4	0	5	6	8	5	0	5	1	5	2	5	1	5	0	
2	3	4	3	0	3	1	3	2	3	5	4	4	
2	4	3	3	0	3	1	3	2	3	1	3	0	
2	2	4	4	0	4	1	4	5	4	3	4	4	
4	6	5	0	1	0	0	0	1	0	5	0	3	0	4	
4	8	6	5	4	5	0	5	1	5	5	5	3	5	4	
3	5	6	7	5	0	5	1	5	2	5	5	5	4	
3	5	0	1	0	0	0	1	0	2	0	5	0	4	
3	0	1	3	0	0	0	1	0	2	0	3	3	4	
4	4	5	6	8	5	0	5	1	5	2	5	5	5	4	
3	9	5	0	5	0	5	1	5	2	5	5	5	4	
4	7	8	9	8	9	0	9	1	9	5	9	3	9	4	
2	2	1	1	0	1	1	1	2	1	5	1	4	
4	3	9	8	6	3	0	9	1	9	2	9	1	9	0	
2	9	3	3	0	3	1	3	2	3	3	3	4	
2	4	2	4	0	4	1	4	2	4	5	4	4	
5	2	0	5	6	7	0	0	0	1	0	2	0	5	0	4	
3	6	5	0	5	0	5	1	5	2	5	3	5	4	
3	8	9	3	3	0	3	1	3	2	3	5	3	4	
2	1	4	4	0	4	1	4	2	4	5	4	4	
5	7	6	5	0	1	5	0	5	1	5	2	5	1	1	0	
2	9	8	9	0	9	1	9	2	9	1	9	0	
3	5	0	2	0	0	0	1	0	5	0	3	0	4	
2	0	2	0	0	0	1	0	5	0	3	0	4	
3	3	9	8	9	0	9	1	9	2	9	3	9	4	
4	8	6	5	0	5	0	5	1	5	2	5	3	5	4	
5	1	0	5	6	7	1	0	1	1	1	2	1	3	5	4	
4	7	6	5	4	5	0	5	1	5	2	5	1	5	0	
3	9	3	1	9	0	9	1	9	2	9	1	9	0	
2	2	0	0	0	0	1	0	2	0	1	0	0	
2	3	1	3	0	3	1	3	2	3	5	1	4	
4	1	3	9	8	9	0	9	1	9	2	9	5	9	4	
4	3	9	8	7	9	0	9	1	9	2	9	5	9	4	
2	1	2	1	0	1	1	1	2	1	5	1	4	
3	2	0	5	0	0	0	1	0	2	0	1	0	0	
4	0	5	6	7	5	0	5	1	5	2	5	5	5	4	
2	4	1	4	0	4	1	4	5	4	3	4	4	
3	0	1	4	0	0	0	1	0	2	0	3	4	4	
4	6	8	9	3	9	0	3	1	3	2	3	1	3	0	
4	8	9	3	2	3	0	3	1	3	2	3	1	3	0	
3	1	0	5	0	0	0	1	0	2	0	1	0	0	
4	7	6	5	6	5	0	5	1	5	2	5	3	5	4	
3	9	8	7	9	0	9	1	9	2	9	5	9	4	
2	0	1	0	0	0	1	0	2	0	5	0	4	
2	1	0	0	0	0	1	0	2	0	1	0	0	
3	9	3	2	3	0	3	1	3	2	3	3	3	4	
2	2	3	3	0	3	1	3	2	3	3	3	4	
4	0	5	9	8	0	0	9	1	9	2	9	3	9	4	
3	1	3	9	3	0	3	1	3	2	3	1	3	0	
2	3	4	4	0	4	1	4	5	4	3	4	4	
2	2	4	4	0	4	1	4	2	4	5	4	4	
3	0	5	6	5	0	5	1	5	2	5	1	5	0	
4	6	5	0	1	5	0	5	1	5	2	5	3	1	4	
4	8	6	5	4	4	0	4	1	4	2	4	5	4	4	
2	8	9	9	0	9	1	9	5	9	3	9	4	
3	5	6	7	5	0	5	1	5	2	5	1	5	0	
3	0	1	3	0	0	0	1	0	2	0	1	3	0	
4	8	9	3	1	3	0	3	1	3	2	3	3	3	4	
4	1	0	5	6	0	0	0	1	0	2	0	3	0	4	
4	4	5	6	8	5	0	5	1	5	2	5	1	5	0	
3	9	5	0	0	0	0	1	0	5	0	3	0	4	
2	2	1	1	0	1	1	1	5	1	3	1	4	
5	7	6	5	0	2	0	0	0	1	0	2	0	5	0	4	
5	2	0	5	6	7	5	0	5	1	5	5	5	3	5	4	
3	8	6	5	5	0	5	1	5	5	5	3	5	4	
2	0	5	5	0	5	1	5	2	5	3	5	4	
3	6	5	0	5	0	5	1	5	5	5	3	5	4	
3	8	9	3	9	0	9	1	9	5	9	3	9	4	
2	1	4	1	0	1	1	4	5	4	3	4	4	
5	7	6	5	0	1	5	0	5	1	5	2	5	3	1	4	
2	0	2	0	0	0	1	0	2	0	5	0	4	
3	3	9	8	9	0	9	1	9	2	9	1	9	0	
4	7	6	5	4	4	0	4	1	4	2	4	5	4	4	
3	9	3	1	9	0	9	1	9	2	9	3	9	4	
2	2	0	0	0	0	1	0	2	0	3	0	4	
4	6	5	6	8	5	0	5	1	5	5	5	3	5	4	
3	0	5	9	9	0	9	1	9	2	9	3	9	4	
2	3	1	3	0	3	1	3	2	1	1	1	0	
2	6	5	5	0	5	1	5	2	5	5	5	4	
4	1	3	9	8	3	0	3	1	3	5	3	3	3	4	
2	1	2	1	0	1	1	1	5	1	3	1	4	
3	5	9	3	5	0	3	1	3	5	3	3	3	4	
4	0	5	6	7	5	0	5	1	5	5	5	3	5	4	
4	7	8	9	3	3	0	3	1	3	2	3	1	3	0	
4	8	9	3	1	1	0	1	1	1	5	1	3	1	4	
3	6	8	9	9	0	9	1	9	2	9	5	9	4	
4	6	8	9	3	9	0	3	1	3	2	3	5	3	4	
4	8	9	3	2	3	0	3	1	3	2	3	3	3	4	
3	1	0	5	1	0	1	1	1	2	1	3	5	4	
4	7	6	5	6	5	0	5	1	5	2	5	1	5	0	
3	9	8	7	9	0	9	1	9	2	9	1	9	0	
3	5	6	8	5	0	5	1	5	2	5	5	5	4	
2	0	1	1	0	1	1	1	5	1	3	1	4	
3	4	1	0	4	0	4	1	4	5	4	3	0	4	
3	9	3	2	9	0	9	1	9	2	9	1	9	0	
2	2	3	3	0	3	1	3	2	3	1	3	0	
3	6	5	4	4	0	4	1	4	2	4	1	4	0	
3	1	3	9	1	0	1	1	1	2	1	3	1	4	
2	5	4	4	0	4	1	4	2	4	5	4	4	
3	0	5	6	5	0	5	1	5	2	5	3	5	4	
4	6	5	0	1	1	0	1	1	1	2	1	1	1	0	
4	8	6	5	4	4	0	4	1	4	2	4	1	4	0	
4	7	6	5	0	5	0	5	1	5	2	5	3	5	4	
3	5	6	7	5	0	5	1	5	2	5	3	5	4	
3	3	9	5	3	0	5	1	5	5	5	3	5	4	
3	7	8	9	9	0	9	1	9	2	9	5	9	4	
4	1	0	5	6	1	0	1	1	1	2	1	1	5	0	
4	4	5	6	8	5	0	5	1	5	2	5	3	5	4	
3	9	5	0	0	0	0	1	0	2	0	3	0	4	
2	2	1	1	0	1	1	1	2	1	3	1	4	
2	5	9	9	0	9	1	9	2	9	1	9	0	
4	4	5	6	7	4	0	4	1	4	2	4	5	4	4	
2	5	0	5	0	5	1	5	5	5	3	5	4	
4	6	5	6	7	5	0	5	1	5	2	5	3	5	4	
5	7	6	5	0	2	0	0	0	1	0	5	0	3	0	4	
2	0	5	5	0	5	1	5	2	5	1	5	0	
3	6	5	0	5	0	5	1	5	2	5	5	5	4	
3	8	9	3	3	0	3	1	3	2	3	3	3	4	
2	1	4	1	0	1	1	1	2	1	3	1	4	
2	3	2	3	0	3	1	3	2	3	5	3	4	
3	3	9	8	9	0	9	1	9	2	9	5	9	4	
4	2	0	5	6	0	0	0	1	0	5	0	3	0	4	
4	7	6	5	4	4	0	4	1	4	5	4	3	4	4	
3	9	3	1	1	0	1	1	1	5	1	3	1	4	
2	2	0	0	0	0	1	0	5	0	3	0	4	
3	0	5	9	9	0	9	1	9	2	9	1	9	0	
2	3	1	1	0	1	1	1	2	1	3	1	4	
2	6	5	5	0	5	1	5	5	5	3	5	4	
4	1	3	9	8	1	0	1	1	1	2	1	3	1	4	
3	4	5	6	4	0	4	1	4	2	4	1	4	0	
3	5	9	3	3	0	3	1	3	2	3	5	3	4	
4	0	5	6	7	5	0	5	1	5	2	5	3	5	4	
4	7	8	9	3	9	0	9	1	9	2	9	3	9	4	
3	9	5	4	9	0	4	1	4	2	4	5	4	4	
2	5	6	5	0	5	1	5	2	5	3	5	4	
3	6	5	9	5	0	5	1	9	5	9	3	9	4	
2	1	3	1	0	1	1	1	5	1	3	1	4	
4	6	5	9	3	5	0	3	1	3	5	3	3	3	4	
4	8	9	3	2	9	0	9	1	9	5	9	3	9	4	
3	1	0	5	1	0	1	1	1	5	1	3	5	4	
3	4	5	9	9	0	9	1	9	2	9	3	9	4	
3	9	8	7	9	0	9	1	9	2	9	3	9	4	
3	5	6	8	5	0	5	1	5	5	5	3	5	4	
2	8	9	9	0	9	1	9	2	9	5	9	4	
3	4	1	0	1	0	1	1	1	2	1	5	1	4	
3	2	3	9	3	0	3	1	3	2	3	5	3	4	
3	9	3	2	9	0	9	1	9	2	9	5	9	4	
2	2	3	3	0	3	1	3	2	3	5	3	4	
3	6	5	4	5	0	5	1	5	2	5	3	5	4	
4	8	9	8	7	9	0	9	1	9	2	9	5	9	4	
3	1	3	9	1	0	1	1	1	5	1	3	1	4	
2	4	5	5	0	5	1	5	2	5	3	5	4	
2	5	4	5	0	5	1	5	5	5	3	5	4	
3	0	5	6	0	0	0	1	0	5	0	3	0	4	
4	8	6	5	4	5	0	5	1	5	2	5	3	5	4	
4	7	6	5	0	5	0	5	1	5	2	5	1	5	0	
2	9	5	5	0	5	1	5	2	5	1	5	0	
4	6	8	9	8	9	0	9	1	9	2	9	3	9	4	
3	7	8	9	9	0	9	1	9	2	9	1	9	0	
4	1	0	5	6	1	0	1	1	1	2	1	5	5	4	
3	9	5	0	0	0	0	1	0	2	0	1	0	0	
3	7	6	5	5	0	5	1	5	2	5	1	5	0	
2	2	1	1	0	1	1	1	2	1	1	1	0	
2	5	9	5	0	5	1	5	2	5	3	5	4	
3	3	1	0	3	0	3	1	3	2	3	3	0	4	
4	4	5	6	7	4	0	4	1	4	5	4	3	4	4	
4	2	3	9	8	3	0	3	1	3	2	3	1	3	0	
4	6	5	6	7	5	0	5	1	5	2	5	1	5	0	
4	8	9	8	6	9	0	9	1	9	2	9	1	9	0	
5	7	6	5	0	2	5	0	5	1	5	2	5	3	5	4	
3	3	9	5	3	0	5	1	5	2	5	5	5	4	
2	0	5	0	0	0	1	0	2	0	5	0	4	
3	8	9	3	3	0	3	1	3	2	3	1	3	0	
2	1	4	1	0	1	1	1	2	1	1	1	0	
3	9	8	6	9	0	9	1	9	2	9	3	9	4	
2	3	2	3	0	3	1	3	5	3	3	3	4	
3	3	9	8	3	0	3	1	3	5	3	3	3	4	
4	8	9	3	1	1	0	1	1	1	2	1	5	1	4	
4	2	0	5	6	0	0	0	1	0	2	0	5	0	4	
3	9	3	1	1	0	1	1	1	2	1	5	1	4	
2	2	0	0	0	0	1	0	2	0	5	0	4	
3	0	5	9	5	0	5	1	5	2	5	5	5	4	
2	6	5	5	0	5	1	5	2	5	3	5	4	
4	1	3	9	8	3	0	3	1	3	2	3	1	3	0	
3	4	5	6	4	0	4	1	4	2	4	3	4	4	
3	5	9	3	5	0	3	1	3	2	3	1	3	0	
4	0	5	6	7	5	0	5	1	5	2	5	1	5	0	
3	8	6	5	5	0	5	1	5	2	5	3	5	4	
4	7	8	9	3	3	0	3	1	3	5	3	3	3	4	
3	9	5	4	4	0	4	1	4	5	4	3	4	4	
2	5	6	5	0	5	1	5	2	5	1	5	0	
2	4	3	4	0	4	1	4	5	4	3	3	4	
3	6	8	9	9	0	9	1	9	2	9	3	9	4	
2	1	3	3	0	3	1	3	2	3	5	3	4	
4	8	9	3	2	9	0	9	1	9	2	9	5	9	4	
3	1	0	5	1	0	1	1	1	2	1	5	0	4	
3	4	5	9	4	0	9	1	9	2	9	1	9	0	
3	5	6	8	5	0	5	1	5	2	5	3	5	4	
3	4	1	0	4	0	4	1	4	2	4	1	0	0	
3	2	3	9	3	0	3	1	3	5	3	3	3	4	
3	9	3	2	3	0	3	1	3	5	3	3	3	4	
2	2	3	3	0	3	1	3	5	3	3	3	4	
4	6	5	0	2	0	0	0	1	0	5	0	3	0	4	
3	6	5	4	4	0	4	1	4	5	4	3	4	4	
4	8	9	8	7	9	0	9	1	9	5	9	3	9	4	
3	1	3	9	1	0	1	1	1	2	3	5	9	4	
2	4	5	4	0	4	1	4	2	4	1	4	0	
2	5	4	4	0	4	1	4	2	4	3	4	4	
3	0	5	6	0	0	0	1	0	2	0	5	0	4	
4	7	6	5	0	5	0	5	1	5	2	5	5	5	4	
2	9	5	9	0	9	1	9	2	9	3	9	4	
3	3	9	5	3	0	5	1	5	2	5	1	5	0	
3	7	8	9	9	0	9	1	9	2	9	3	9	4	
4	1	0	5	6	1	0	1	1	1	5	1	3	5	4	
2	5	9	5	0	5	1	5	5	5	3	5	4	
3	3	1	0	1	0	1	1	1	2	1	1	1	0	
4	4	5	6	7	4	0	4	1	4	2	4	3	4	4	
4	2	3	9	8	3	0	3	1	3	2	3	3	3	4	
4	6	5	6	7	5	0	5	1	5	2	5	5	5	4	
4	8	9	8	6	9	0	9	1	9	2	9	3	9	4	
5	7	6	5	0	2	0	0	0	1	0	2	0	1	0	0	
2	0	5	5	0	5	1	5	5	5	3	5	4	
3	9	8	6	9	0	9	1	9	2	9	1	9	0	
2	3	2	3	0	3	1	3	2	3	3	3	4	
4	2	0	5	6	5	0	5	1	5	2	5	1	5	0	
2	5	0	0	0	0	1	0	2	0	5	0	4	
3	0	5	9	9	0	9	1	9	5	9	3	9	4	
2	6	5	5	0	5	1	5	2	5	1	5	0	
3	4	5	6	4	0	4	1	4	5	4	3	4	4	
3	5	9	3	5	0	3	1	3	2	3	3	3	4	
2	3	9	3	0	3	1	3	5	3	3	3	4	
3	8	9	5	9	0	9	1	9	2	9	1	9	0	
4	7	8	9	3	3	0	3	1	3	2	3	5	3	4	
3	9	5	4	4	0	4	1	4	2	4	3	4	4	
2	5	6	5	0	5	1	5	2	5	5	5	4	
3	6	8	9	9	0	9	1	9	2	9	1	9	0	
2	1	3	1	0	1	1	1	2	1	1	1	0	
4	7	8	9	8	9	0	9	1	9	2	9	3	9	4	
3	4	5	9	4	0	9	1	9	2	9	5	9	4	
3	5	6	8	5	0	5	1	5	2	5	1	5	0	
3	4	1	0	1	0	1	1	1	2	1	3	1	4	
3	2	3	9	9	0	9	1	9	2	9	3	9	4	
3	5	0	1	1	0	1	1	1	2	1	1	1	0	
4	6	5	0	2	0	0	0	1	0	2	0	5	0	4	
3	6	5	4	4	0	4	1	4	2	4	5	4	4	
4	8	9	8	7	9	0	9	1	9	2	9	3	9	4	
3	7	6	5	5	0	5	1	5	2	5	5	5	4	
2	4	5	4	0	4	1	4	2	4	5	4	4	
2	5	4	4	0	4	1	4	2	4	1	4	0	
4	3	9	8	6	9	0	9	1	9	2	9	5	9	4	
3	7	6	5	5	0	5	1	5	5	5	3	5	4	
2	9	3	3	0	3	1	3	5	3	3	3	4	
4	7	6	5	0	5	0	5	1	5	5	5	3	5	4	
2	9	5	9	0	9	1	9	5	9	3	9	4	
3	3	9	5	3	0	5	1	5	2	5	3	5	4	
4	6	5	6	8	5	0	5	1	5	2	5	1	5	0	
2	4	2	4	0	4	1	4	2	4	1	4	0	
2	5	9	9	0	9	1	9	2	9	5	9	4	
3	3	1	0	1	0	1	1	1	2	1	5	1	4	
4	4	5	6	7	4	0	4	1	4	2	4	1	4	0	
2	9	8	9	0	9	1	9	2	9	5	9	4	
4	2	3	9	8	3	0	3	1	3	5	3	3	3	4	
3	5	0	2	5	0	5	1	5	2	5	3	5	4	
4	8	9	5	0	9	0	5	1	5	5	5	3	5	4	
4	8	9	3	1	1	0	1	1	1	2	1	1	1	0	
5	1	0	5	6	7	1	0	1	1	1	5	1	3	1	4	
4	6	5	6	7	5	0	5	1	5	5	5	3	5	4	
4	8	6	5	6	5	0	5	1	5	5	5	3	5	4	
4	3	9	8	7	3	0	3	1	3	2	3	1	3	0	
3	2	0	5	5	0	5	1	5	2	5	5	5	4	
3	9	8	6	9	0	9	1	9	2	9	5	9	4	
2	3	2	3	0	3	1	3	2	3	1	3	0	
2	4	1	1	0	1	1	1	2	1	3	1	4	
4	2	0	5	6	0	0	0	1	0	2	0	3	0	4	
2	4	3	3	0	3	1	3	2	3	5	3	4	
3	0	1	4	1	0	1	1	1	5	1	3	1	4	
3	4	5	6	4	0	4	1	4	2	4	5	4	4	
2	3	9	3	0	3	1	3	2	3	5	3	4	
2	1	0	1	0	1	1	1	2	1	5	1	4	
3	8	9	5	9	0	9	1	9	2	9	5	9	4	
3	9	5	4	9	0	4	1	4	2	4	1	4	0	
4	0	5	9	8	0	0	0	1	0	5	0	3	0	4	
2	5	6	5	0	5	1	5	5	5	3	5	4	
2	3	4	3	0	3	1	3	2	3	3	3	4	
2	1	3	1	0	1	1	1	2	1	3	1	4	
4	7	8	9	8	9	0	9	1	9	2	9	1	9	0	
2	2	4	4	0	4	1	4	2	4	1	4	0	
3	4	5	9	4	0	9	1	9	5	9	3	9	4	
3	2	3	9	3	0	3	1	3	2	3	1	3	0	
3	5	0	1	1	0	1	1	1	2	1	3	1	4	
3	0	1	3	1	0	1	1	1	2	1	5	1	4	
4	6	5	0	2	5	0	5	1	5	2	5	1	5	0	
4	8	9	8	7	9	0	9	1	9	2	9	1	9	0	
2	4	5	4	0	4	1	4	5	4	3	4	4	
4	7	8	9	8	9	0	9	1	9	2	9	5	9	4	
4	3	9	5	6	9	0	9	1	5	5	5	3	5	4	
2	9	3	3	0	3	1	3	2	3	5	3	4	
2	9	5	5	0	5	1	5	2	5	5	5	4	
2	4	2	4	0	4	1	4	2	4	3	4	4	
5	2	0	5	6	7	5	0	5	1	5	2	5	3	5	4	
