2731.06	2230.93
593
20744.2	13969.6
10
0	0	-1
1	0	-1
2	0	-1
3	5150	5219
4	0	-1
5	6997	6999
6	0	-1
7	0	-1
8	0	-1
9	5499	5711
34
0	1	55.549554	168.385118	1.000000
0	2	44.418026	173.289587	1.000000
0	5	161.640232	191.272310	1.000000
1	0	55.380314	168.385118	1.000000
1	2	0.000000	188.002004	0.000000
1	3	81.714674	184.732688	1.000000
1	4	0.000000	188.002004	0.000000
2	0	44.200014	173.289587	1.000000
2	1	0.000000	188.002004	0.000000
2	3	54.987310	173.289587	1.000000
2	4	0.000000	166.749965	0.000000
3	1	82.278872	184.732688	1.000000
3	2	56.069788	173.289587	1.000000
3	4	33.425768	161.845496	1.000000
3	9	99.144242	148.767242	1.000000
4	1	0.000000	188.002004	0.000000
4	2	0.000000	166.749965	0.000000
4	3	33.669466	161.845496	1.000000
4	5	66.835512	150.401405	1.000000
5	0	162.137422	191.272310	1.000000
5	4	66.598816	150.401405	1.000000
5	6	157.811158	158.576180	1.000000
5	9	75.054680	179.828219	1.000000
6	5	157.530934	158.576180	1.000000
6	7	66.591534	178.193066	1.000000
6	8	35.496520	184.732688	1.000000
7	6	66.847556	178.193066	1.000000
7	8	33.062130	173.289587	1.000000
8	6	36.008374	184.732688	1.000000
8	7	33.149956	173.289587	1.000000
8	9	142.123134	147.132089	1.000000
9	3	100.220512	148.767242	1.000000
9	5	76.353664	179.828219	1.000000
9	8	141.647960	147.132089	1.000000
360
3	3	1	0	3	0	3	1	3	5	3	3	3	4	
2	8	9	9	0	9	1	9	2	9	3	9	4	
2	8	9	9	0	9	1	9	2	9	1	9	0	
2	9	8	9	0	9	1	9	5	9	3	9	4	
4	2	3	9	8	3	0	3	1	3	2	3	5	3	4	
3	5	0	2	5	0	5	1	5	2	5	1	5	0	
4	0	5	0	2	5	0	5	1	5	2	5	1	5	0	
4	8	9	5	0	9	0	9	1	9	2	9	5	9	4	
5	1	0	5	6	7	5	0	5	1	5	2	5	5	5	4	
4	8	9	5	6	9	0	9	1	9	2	9	5	9	4	
4	3	9	8	7	3	0	3	1	3	2	3	3	3	4	
3	1	3	2	3	0	3	1	3	2	3	3	3	4	
5	7	6	5	0	1	5	0	5	1	5	5	5	3	5	4	
3	2	0	5	5	0	5	1	5	5	5	3	5	4	
3	9	5	6	9	0	9	1	9	5	9	3	9	4	
3	4	3	1	3	0	3	1	3	2	3	1	3	0	
2	5	0	5	0	5	1	5	2	5	3	5	4	
3	0	5	4	5	0	5	1	5	2	5	5	5	4	
4	7	6	5	6	5	0	5	1	5	2	5	5	5	4	
4	0	5	0	1	5	0	5	1	5	2	5	3	5	4	
2	3	9	3	0	3	1	3	2	3	1	3	0	
4	1	0	5	0	5	0	5	1	5	5	5	3	5	4	
3	7	6	5	5	0	5	1	5	2	5	3	5	4	
4	0	5	9	8	9	0	9	1	9	2	9	5	9	4	
2	3	4	3	0	3	1	3	2	3	1	3	0	
2	4	3	3	0	3	1	3	2	3	3	3	4	
3	2	3	4	3	0	3	1	3	2	3	3	3	4	
4	6	5	0	1	5	0	5	1	5	2	5	5	5	4	
3	5	6	7	5	0	5	1	5	5	5	3	5	4	
3	5	0	1	5	0	5	1	5	5	5	3	5	4	
3	0	1	3	3	0	3	1	3	5	3	3	3	4	
4	6	5	0	2	5	0	5	1	5	2	5	3	5	4	
4	4	5	9	8	9	0	9	1	9	5	9	3	9	4	
4	3	9	8	6	3	0	3	1	3	2	3	3	3	4	
2	9	3	3	0	3	1	3	2	3	1	3	0	
3	7	8	9	9	0	9	1	9	5	9	3	9	4	
3	4	3	2	3	0	3	1	3	5	3	3	3	4	
5	2	0	5	6	7	5	0	5	1	5	2	5	1	5	0	
3	6	5	0	5	0	5	1	5	2	5	1	5	0	
5	7	6	5	0	1	5	0	5	1	5	2	5	5	5	4	
2	9	8	9	0	9	1	9	2	9	3	9	4	
3	5	0	2	5	0	5	1	5	2	5	5	5	4	
4	0	5	0	2	5	0	5	1	5	2	5	3	5	4	
4	8	6	5	0	5	0	5	1	5	2	5	1	5	0	
5	1	0	5	6	7	5	0	5	1	5	2	5	1	5	0	
4	7	6	5	4	5	0	5	1	5	2	5	3	5	4	
2	3	1	3	0	3	1	3	5	3	3	3	4	
4	3	9	8	7	9	0	9	1	9	5	9	3	9	4	
3	1	3	2	3	0	3	1	3	2	3	1	3	0	
3	2	0	5	5	0	5	1	5	2	5	3	5	4	
3	4	3	1	3	0	3	1	3	2	3	5	3	4	
2	5	0	5	0	5	1	5	2	5	1	5	0	
3	0	5	4	5	0	5	1	5	2	5	1	5	0	
4	6	8	9	3	9	0	9	1	9	2	9	3	9	4	
4	6	8	9	8	9	0	9	1	9	2	9	5	9	4	
4	7	6	5	6	5	0	5	1	5	5	5	3	5	4	
3	9	8	7	9	0	9	1	9	5	9	3	9	4	
4	0	5	0	1	5	0	5	1	5	2	5	1	5	0	
2	3	9	9	0	9	1	9	2	9	3	9	4	
4	1	0	5	0	5	0	5	1	5	2	5	3	5	4	
4	0	5	6	8	5	0	5	1	5	2	5	1	5	0	
2	3	4	3	0	3	1	3	2	3	5	3	4	
2	4	3	3	0	3	1	3	2	3	1	3	0	
3	2	3	4	3	0	3	1	3	5	3	3	3	4	
4	6	5	0	1	5	0	5	1	5	5	5	3	5	4	
4	8	9	5	4	9	0	9	1	9	5	9	3	9	4	
3	5	6	7	5	0	5	1	5	2	5	5	5	4	
3	5	0	1	5	0	5	1	5	2	5	5	5	4	
3	0	1	3	3	0	3	1	3	2	3	3	3	4	
4	4	5	9	8	9	0	9	1	9	2	9	5	9	4	
3	9	5	0	9	0	9	1	9	2	9	5	9	4	
4	7	8	9	8	9	0	9	1	9	5	9	3	9	4	
3	2	3	1	3	0	3	1	3	2	3	5	3	4	
4	3	9	8	6	3	0	3	1	3	2	3	1	3	0	
2	9	3	9	0	9	1	9	2	9	3	9	4	
3	4	3	2	3	0	3	1	3	2	3	5	3	4	
5	2	0	5	6	7	5	0	5	1	5	2	5	5	5	4	
3	6	5	0	5	0	5	1	5	2	5	3	5	4	
3	8	9	3	9	0	9	1	9	2	9	5	9	4	
3	1	3	4	3	0	3	1	3	2	3	5	3	4	
5	7	6	5	0	1	5	0	5	1	5	2	5	1	5	0	
2	9	8	9	0	9	1	9	2	9	1	9	0	
3	5	0	2	5	0	5	1	5	5	5	3	5	4	
4	0	5	0	2	5	0	5	1	5	5	5	3	5	4	
3	3	9	8	9	0	9	1	9	2	9	3	9	4	
4	8	6	5	0	5	0	5	1	5	2	5	3	5	4	
5	1	0	5	6	7	5	0	5	1	5	2	5	3	5	4	
4	7	6	5	4	5	0	5	1	5	2	5	1	5	0	
3	9	3	1	9	0	9	1	9	2	9	1	9	0	
4	2	0	5	0	5	0	5	1	5	2	5	1	5	0	
2	3	1	3	0	3	1	3	2	3	5	3	4	
4	1	3	9	8	3	0	3	1	3	2	3	5	3	4	
4	3	9	8	7	9	0	9	1	9	2	9	5	9	4	
3	1	3	2	3	0	3	1	3	2	3	5	3	4	
3	2	0	5	5	0	5	1	5	2	5	1	5	0	
4	0	5	6	7	5	0	5	1	5	2	5	5	5	4	
3	4	3	1	3	0	3	1	3	5	3	3	3	4	
3	0	5	4	5	0	5	1	5	2	5	3	5	4	
4	6	8	9	3	3	0	3	1	3	2	3	1	3	0	
4	8	9	3	2	9	0	9	1	9	2	9	1	9	0	
3	1	0	5	5	0	5	1	5	2	5	1	5	0	
4	7	6	5	6	5	0	5	1	5	2	5	3	5	4	
3	9	8	7	9	0	9	1	9	2	9	5	9	4	
4	0	1	3	1	3	0	3	1	3	2	3	5	3	4	
4	1	0	5	0	5	0	5	1	5	2	5	1	5	0	
3	9	3	2	9	0	9	1	9	2	9	3	9	4	
2	2	3	3	0	3	1	3	2	3	3	3	4	
4	0	5	6	8	5	0	5	1	5	2	5	3	5	4	
3	1	3	9	9	0	9	1	9	2	9	1	9	0	
2	3	4	3	0	3	1	3	5	3	3	3	4	
3	2	3	4	3	0	3	1	3	2	3	5	3	4	
3	0	5	6	5	0	5	1	5	2	5	1	5	0	
4	6	5	0	1	5	0	5	1	5	2	5	3	5	4	
4	8	9	5	4	9	0	9	1	9	2	9	5	9	4	
2	8	9	9	0	9	1	9	5	9	3	9	4	
3	5	6	7	5	0	5	1	5	2	5	1	5	0	
3	0	1	3	3	0	3	1	3	2	3	1	3	0	
4	8	9	3	1	9	0	9	1	9	2	9	3	9	4	
4	1	0	5	6	5	0	5	1	5	2	5	3	5	4	
4	4	5	6	8	5	0	5	1	5	2	5	1	5	0	
3	9	5	0	9	0	9	1	9	5	9	3	9	4	
3	2	3	1	3	0	3	1	3	5	3	3	3	4	
5	7	6	5	0	2	5	0	5	1	5	2	5	5	5	4	
5	2	3	9	8	7	3	0	3	1	3	5	3	3	3	4	
3	8	6	5	5	0	5	1	5	5	5	3	5	4	
2	0	5	5	0	5	1	5	2	5	3	5	4	
3	6	5	0	5	0	5	1	5	5	5	3	5	4	
3	8	9	3	9	0	9	1	9	5	9	3	9	4	
3	1	3	4	3	0	3	1	3	5	3	3	3	4	
5	7	6	5	0	1	5	0	5	1	5	2	5	3	5	4	
4	0	5	0	2	5	0	5	1	5	2	5	5	5	4	
3	3	9	8	9	0	9	1	9	2	9	1	9	0	
4	7	6	5	4	5	0	5	1	5	2	5	5	5	4	
3	9	3	1	9	0	9	1	9	2	9	3	9	4	
4	2	0	5	0	5	0	5	1	5	2	5	3	5	4	
4	6	5	9	8	9	0	9	1	9	5	9	3	9	4	
3	0	5	9	9	0	9	1	9	2	9	3	9	4	
2	3	1	3	0	3	1	3	2	3	1	3	0	
2	6	5	5	0	5	1	5	2	5	5	5	4	
4	1	3	9	8	9	0	9	1	9	5	9	3	9	4	
3	1	3	2	3	0	3	1	3	5	3	3	3	4	
3	5	9	3	9	0	9	1	9	5	9	3	9	4	
4	0	5	6	7	5	0	5	1	5	5	5	3	5	4	
4	7	8	9	3	9	0	9	1	9	2	9	1	9	0	
4	8	9	3	1	9	0	9	1	9	5	9	3	9	4	
3	6	8	9	9	0	9	1	9	2	9	5	9	4	
4	6	5	9	3	9	0	3	1	3	2	3	5	3	4	
4	8	9	3	2	9	0	9	1	9	2	9	3	9	4	
3	1	0	5	5	0	5	1	5	2	5	3	5	4	
4	7	6	5	6	5	0	5	1	5	2	5	1	5	0	
3	9	8	7	9	0	9	1	9	2	9	1	9	0	
3	5	9	8	9	0	9	1	9	2	9	5	9	4	
4	0	5	0	1	5	0	5	1	5	5	5	3	5	4	
3	4	5	0	5	0	5	1	5	5	5	3	5	4	
3	9	3	2	3	0	3	1	3	2	3	1	3	0	
2	2	3	3	0	3	1	3	2	3	1	3	0	
3	6	5	4	5	0	5	1	5	2	5	1	5	0	
3	1	3	9	3	0	3	1	3	2	3	3	3	4	
2	5	4	5	0	5	1	5	2	5	5	5	4	
3	0	5	6	5	0	5	1	5	2	5	3	5	4	
4	6	5	0	1	5	0	5	1	5	2	5	1	5	0	
4	8	6	5	4	5	0	5	1	5	2	5	1	5	0	
4	7	6	5	0	5	0	5	1	5	2	5	3	5	4	
3	5	6	7	5	0	5	1	5	2	5	3	5	4	
3	3	9	5	3	0	3	1	3	5	3	3	3	4	
3	7	8	9	9	0	9	1	9	2	9	5	9	4	
4	1	0	5	6	5	0	5	1	5	2	5	1	5	0	
4	4	5	6	8	5	0	5	1	5	2	5	3	5	4	
3	9	5	0	9	0	9	1	9	2	9	3	9	4	
3	2	3	1	3	0	3	1	3	2	3	3	3	4	
2	5	9	9	0	9	1	9	2	9	1	9	0	
4	4	5	6	7	5	0	5	1	5	2	5	5	5	4	
2	5	0	5	0	5	1	5	5	5	3	5	4	
4	6	5	6	7	5	0	5	1	5	2	5	3	5	4	
5	7	6	5	0	2	5	0	5	1	5	5	5	3	5	4	
2	0	5	5	0	5	1	5	2	5	1	5	0	
3	6	5	0	5	0	5	1	5	2	5	5	5	4	
3	8	9	3	3	0	3	1	3	2	3	3	3	4	
3	1	3	4	3	0	3	1	3	2	3	3	3	4	
2	3	2	3	0	3	1	3	2	3	5	3	4	
3	3	9	8	9	0	9	1	9	2	9	5	9	4	
4	2	0	5	6	5	0	5	1	5	5	5	3	5	4	
4	7	6	5	4	5	0	5	1	5	5	5	3	5	4	
3	9	3	1	3	0	3	1	3	5	3	3	3	4	
4	2	0	5	0	5	0	5	1	5	5	5	3	5	4	
3	0	5	9	9	0	9	1	9	2	9	1	9	0	
2	3	1	3	0	3	1	3	2	3	3	3	4	
2	6	5	5	0	5	1	5	5	5	3	5	4	
4	1	3	9	8	3	0	3	1	3	2	3	3	3	4	
3	4	5	6	5	0	5	1	5	2	5	1	5	0	
3	5	9	3	3	0	3	1	3	2	3	5	3	4	
4	0	5	6	7	5	0	5	1	5	2	5	3	5	4	
4	7	8	9	3	9	0	9	1	9	2	9	3	9	4	
3	9	5	4	9	0	9	1	9	2	9	5	9	4	
2	5	6	5	0	5	1	5	2	5	3	5	4	
3	6	5	9	9	0	9	1	9	5	9	3	9	4	
2	1	3	3	0	3	1	3	5	3	3	3	4	
4	6	8	9	3	3	0	3	1	3	5	3	3	3	4	
4	8	9	3	2	3	0	3	1	3	5	3	3	3	4	
3	1	0	5	5	0	5	1	5	5	5	3	5	4	
3	4	5	9	9	0	9	1	9	2	9	3	9	4	
3	9	8	7	9	0	9	1	9	2	9	3	9	4	
3	5	6	8	5	0	5	1	5	5	5	3	5	4	
2	8	9	9	0	9	1	9	2	9	5	9	4	
3	4	5	0	5	0	5	1	5	2	5	5	5	4	
3	2	3	9	3	0	3	1	3	2	3	5	3	4	
3	9	3	2	3	0	3	1	3	2	3	5	3	4	
2	2	3	3	0	3	1	3	2	3	5	3	4	
3	6	5	4	5	0	5	1	5	2	5	3	5	4	
4	8	9	8	7	9	0	9	1	9	2	9	5	9	4	
3	1	3	9	9	0	9	1	9	5	9	3	9	4	
2	4	5	5	0	5	1	5	2	5	3	5	4	
2	5	4	5	0	5	1	5	5	5	3	5	4	
3	0	5	6	5	0	5	1	5	5	5	3	5	4	
4	8	6	5	4	5	0	5	1	5	2	5	3	5	4	
4	7	6	5	0	5	0	5	1	5	2	5	1	5	0	
2	9	5	9	0	9	1	9	2	9	1	9	0	
4	6	5	6	8	5	0	5	1	5	2	5	3	5	4	
3	7	8	9	9	0	9	1	9	2	9	1	9	0	
4	1	0	5	6	5	0	5	1	5	2	5	5	5	4	
3	9	5	0	9	0	9	1	9	2	9	1	9	0	
3	7	6	5	5	0	5	1	5	2	5	1	5	0	
3	2	3	1	3	0	3	1	3	2	3	1	3	0	
2	5	9	9	0	9	1	9	2	9	3	9	4	
3	3	1	0	3	0	3	1	3	2	3	3	3	4	
4	4	5	6	7	5	0	5	1	5	5	5	3	5	4	
4	2	3	9	8	9	0	9	1	9	2	9	1	9	0	
4	6	5	6	7	5	0	5	1	5	2	5	1	5	0	
4	8	6	5	6	5	0	5	1	5	2	5	1	5	0	
5	7	6	5	0	2	5	0	5	1	5	2	5	3	5	4	
3	3	9	5	3	0	3	1	3	2	3	5	3	4	
2	0	5	5	0	5	1	5	2	5	5	5	4	
3	8	9	3	9	0	9	1	9	2	9	1	9	0	
3	1	3	4	3	0	3	1	3	2	3	1	3	0	
3	9	8	6	9	0	9	1	9	2	9	3	9	4	
2	3	2	3	0	3	1	3	5	3	3	3	4	
3	3	9	8	9	0	9	1	9	5	9	3	9	4	
4	8	9	3	1	9	0	9	1	9	2	9	5	9	4	
4	2	0	5	6	5	0	5	1	5	2	5	5	5	4	
3	9	3	1	3	0	3	1	3	2	3	5	3	4	
4	2	0	5	0	5	0	5	1	5	2	5	5	5	4	
3	0	5	9	9	0	9	1	9	2	9	5	9	4	
2	6	5	5	0	5	1	5	2	5	3	5	4	
4	1	3	9	8	9	0	9	1	9	2	9	1	9	0	
3	4	5	6	5	0	5	1	5	2	5	3	5	4	
3	5	9	3	3	0	3	1	3	2	3	1	3	0	
4	0	5	6	7	5	0	5	1	5	2	5	1	5	0	
3	8	6	5	5	0	5	1	5	2	5	3	5	4	
4	7	8	9	3	9	0	9	1	9	5	9	3	9	4	
3	9	5	4	9	0	9	1	9	5	9	3	9	4	
2	5	6	5	0	5	1	5	2	5	1	5	0	
2	4	3	3	0	3	1	3	5	3	3	3	4	
3	6	8	9	9	0	9	1	9	2	9	3	9	4	
2	1	3	3	0	3	1	3	2	3	5	3	4	
4	8	9	3	2	9	0	9	1	9	2	9	5	9	4	
3	1	0	5	5	0	5	1	5	2	5	5	5	4	
3	4	5	9	9	0	9	1	9	2	9	1	9	0	
3	5	6	8	5	0	5	1	5	2	5	3	5	4	
3	4	5	0	5	0	5	1	5	2	5	1	5	0	
3	2	3	9	9	0	9	1	9	5	9	3	9	4	
3	9	3	2	9	0	9	1	9	5	9	3	9	4	
2	2	3	3	0	3	1	3	5	3	3	3	4	
4	6	5	0	2	5	0	5	1	5	5	5	3	5	4	
3	6	5	4	5	0	5	1	5	5	5	3	5	4	
4	8	9	8	7	9	0	9	1	9	5	9	3	9	4	
3	1	3	9	9	0	9	1	9	2	9	5	9	4	
2	4	5	5	0	5	1	5	2	5	1	5	0	
2	5	4	5	0	5	1	5	2	5	3	5	4	
3	0	5	6	5	0	5	1	5	2	5	5	5	4	
4	7	6	5	0	5	0	5	1	5	2	5	5	5	4	
2	9	5	9	0	9	1	9	2	9	3	9	4	
3	3	9	5	3	0	3	1	3	2	3	1	3	0	
3	7	8	9	9	0	9	1	9	2	9	3	9	4	
4	1	0	5	6	5	0	5	1	5	5	5	3	5	4	
2	5	9	9	0	9	1	9	5	9	3	9	4	
3	3	1	0	3	0	3	1	3	2	3	1	3	0	
4	4	5	6	7	5	0	5	1	5	2	5	3	5	4	
4	2	3	9	8	3	0	3	1	3	2	3	3	3	4	
4	6	5	6	7	5	0	5	1	5	2	5	5	5	4	
4	8	6	5	6	5	0	5	1	5	2	5	3	5	4	
5	7	6	5	0	2	5	0	5	1	5	2	5	1	5	0	
2	0	5	5	0	5	1	5	5	5	3	5	4	
3	9	8	6	9	0	9	1	9	2	9	1	9	0	
2	3	2	3	0	3	1	3	2	3	3	3	4	
4	2	0	5	6	5	0	5	1	5	2	5	1	5	0	
2	5	0	5	0	5	1	5	2	5	5	5	4	
3	0	5	9	9	0	9	1	9	5	9	3	9	4	
2	6	5	5	0	5	1	5	2	5	1	5	0	
3	4	5	6	5	0	5	1	5	5	5	3	5	4	
3	5	9	3	3	0	3	1	3	2	3	3	3	4	
2	3	9	3	0	3	1	3	5	3	3	3	4	
3	8	6	5	5	0	5	1	5	2	5	1	5	0	
4	7	8	9	3	3	0	3	1	3	2	3	5	3	4	
3	9	5	4	9	0	9	1	9	2	9	3	9	4	
2	5	6	5	0	5	1	5	2	5	5	5	4	
3	6	8	9	9	0	9	1	9	2	9	1	9	0	
2	1	3	3	0	3	1	3	2	3	1	3	0	
4	7	8	9	8	9	0	9	1	9	2	9	3	9	4	
3	4	5	9	9	0	9	1	9	2	9	5	9	4	
3	5	6	8	5	0	5	1	5	2	5	1	5	0	
3	4	5	0	5	0	5	1	5	2	5	3	5	4	
3	2	3	9	3	0	3	1	3	2	3	3	3	4	
3	5	0	1	5	0	5	1	5	2	5	1	5	0	
4	6	5	0	2	5	0	5	1	5	2	5	5	5	4	
3	6	5	4	5	0	5	1	5	2	5	5	5	4	
4	8	9	8	7	9	0	9	1	9	2	9	3	9	4	
3	7	6	5	5	0	5	1	5	2	5	5	5	4	
2	4	5	5	0	5	1	5	2	5	5	5	4	
2	5	4	5	0	5	1	5	2	5	1	5	0	
4	3	9	8	6	3	0	3	1	3	2	3	5	3	4	
3	7	6	5	5	0	5	1	5	5	5	3	5	4	
2	9	3	3	0	3	1	3	5	3	3	3	4	
4	7	6	5	0	5	0	5	1	5	5	5	3	5	4	
2	9	5	9	0	9	1	9	5	9	3	9	4	
3	3	9	5	3	0	3	1	3	2	3	3	3	4	
4	6	5	6	8	5	0	5	1	5	2	5	1	5	0	
3	4	3	2	3	0	3	1	3	2	3	1	3	0	
2	5	9	9	0	9	1	9	2	9	5	9	4	
3	3	1	0	3	0	3	1	3	2	3	5	3	4	
4	4	5	6	7	5	0	5	1	5	2	5	1	5	0	
2	9	8	9	0	9	1	9	2	9	5	9	4	
4	2	3	9	8	3	0	3	1	3	5	3	3	3	4	
3	5	0	2	5	0	5	1	5	2	5	3	5	4	
4	8	9	5	0	9	0	9	1	9	5	9	3	9	4	
4	8	9	3	1	3	0	3	1	3	2	3	1	3	0	
5	1	0	5	6	7	5	0	5	1	5	5	5	3	5	4	
4	6	5	6	7	5	0	5	1	5	5	5	3	5	4	
4	8	9	5	6	9	0	9	1	9	5	9	3	9	4	
4	3	9	8	7	3	0	3	1	3	2	3	1	3	0	
3	2	0	5	5	0	5	1	5	2	5	5	5	4	
3	9	8	6	9	0	9	1	9	2	9	5	9	4	
2	3	2	3	0	3	1	3	2	3	1	3	0	
3	4	3	1	3	0	3	1	3	2	3	3	3	4	
4	2	0	5	6	5	0	5	1	5	2	5	3	5	4	
2	4	3	3	0	3	1	3	2	3	5	3	4	
3	0	5	4	5	0	5	1	5	5	5	3	5	4	
3	4	5	6	5	0	5	1	5	2	5	5	5	4	
2	3	9	3	0	3	1	3	2	3	5	3	4	
4	1	3	1	0	3	0	3	1	3	2	3	5	3	4	
3	8	9	5	9	0	9	1	9	2	9	5	9	4	
3	9	5	4	9	0	9	1	9	2	9	1	9	0	
4	0	5	9	8	9	0	9	1	9	5	9	3	9	4	
2	5	6	5	0	5	1	5	5	5	3	5	4	
2	3	4	3	0	3	1	3	2	3	3	3	4	
2	1	3	3	0	3	1	3	2	3	3	3	4	
4	7	8	9	8	9	0	9	1	9	2	9	1	9	0	
3	2	3	4	3	0	3	1	3	2	3	1	3	0	
3	4	5	9	9	0	9	1	9	5	9	3	9	4	
3	2	3	9	9	0	9	1	9	2	9	1	9	0	
3	5	0	1	5	0	5	1	5	2	5	3	5	4	
3	0	1	3	3	0	3	1	3	2	3	5	3	4	
4	6	5	0	2	5	0	5	1	5	2	5	1	5	0	
4	8	9	8	7	9	0	9	1	9	2	9	1	9	0	
2	4	5	5	0	5	1	5	5	5	3	5	4	
4	7	8	9	8	9	0	9	1	9	2	9	5	9	4	
4	3	9	8	6	9	0	9	1	9	5	9	3	9	4	
2	9	3	9	0	9	1	9	2	9	5	9	4	
2	9	5	9	0	9	1	9	2	9	5	9	4	
3	4	3	2	3	0	3	1	3	2	3	3	3	4	
5	2	0	5	6	7	5	0	5	1	5	2	5	3	5	4	
