3180.11	2379.93
718
20645.1	14715.1
10
0	1745	1753
1	1698	1954
2	1174	1290
3	1986	2027
4	1835	1836
5	2127	2169
6	1820	2025
7	1111	1190
8	2081	2147
9	2069	2142
34
0	1	66.571588	131.479641	1.000000
0	2	44.418026	135.308578	1.000000
0	5	121.970642	149.350323	1.000000
1	0	66.537402	131.479641	1.000000
1	2	11.099572	146.797369	1.000000
1	3	43.926766	144.244414	1.000000
1	4	22.129186	146.797369	1.000000
2	0	44.217164	135.308578	1.000000
2	1	11.186086	146.797369	1.000000
2	3	32.507396	135.308578	1.000000
2	4	11.276678	130.202668	1.000000
3	1	44.200572	144.244414	1.000000
3	2	33.878758	135.308578	1.000000
3	4	11.041938	126.372741	1.000000
3	9	99.127092	116.160923	1.000000
4	1	22.468118	146.797369	1.000000
4	2	11.091458	130.202668	1.000000
4	3	11.266978	126.372741	1.000000
4	5	55.678424	117.437895	1.000000
5	0	122.315628	149.350323	1.000000
5	4	55.576782	117.437895	1.000000
5	6	122.712356	123.819787	1.000000
5	9	67.163902	140.414487	1.000000
6	5	123.466460	123.819787	1.000000
6	7	66.608684	139.138505	1.000000
6	8	43.387298	144.244414	1.000000
7	6	66.847556	139.138505	1.000000
7	8	33.062130	135.308578	1.000000
8	6	44.950630	144.244414	1.000000
8	7	33.132806	135.308578	1.000000
8	9	110.097240	114.884940	1.000000
9	3	100.220512	116.160923	1.000000
9	5	67.411408	140.414487	1.000000
9	8	110.656394	114.884940	1.000000
360
3	3	1	0	3	0	3	1	3	5	3	3	3	4	
2	8	9	8	0	9	1	9	2	9	3	9	4	
2	8	9	8	0	8	1	8	2	8	1	8	0	
2	9	8	8	0	8	1	8	5	8	3	8	4	
4	2	3	9	8	2	0	3	1	3	2	3	5	8	4	
3	5	0	2	0	0	2	1	2	2	2	1	2	0	
2	0	2	2	0	2	1	2	2	2	1	2	0	
4	8	9	5	0	8	0	0	1	0	2	0	5	0	4	
5	1	0	5	6	7	1	0	1	1	1	2	1	5	7	4	
2	8	6	6	0	6	1	6	2	6	5	6	4	
4	3	9	8	7	7	0	7	1	7	2	7	3	7	4	
2	1	2	2	0	2	1	2	2	2	3	2	4	
5	7	6	5	0	1	7	0	7	1	7	5	6	3	1	4	
3	2	0	5	2	0	2	1	2	5	2	3	2	4	
3	9	5	6	9	0	9	1	9	5	9	3	9	4	
2	4	1	1	0	1	1	1	2	1	1	1	0	
2	5	0	0	0	0	1	0	2	0	3	0	4	
3	0	1	4	4	0	4	1	4	2	4	5	4	4	
2	7	6	7	0	7	1	7	2	7	5	7	4	
2	0	1	1	0	1	1	1	2	1	3	1	4	
2	3	9	9	0	9	1	9	2	9	1	9	0	
2	1	0	0	0	0	1	0	5	0	3	0	4	
3	7	6	5	7	0	7	1	7	2	6	3	6	4	
4	0	5	9	8	9	0	9	1	9	2	9	5	8	4	
2	3	4	3	0	3	1	3	2	3	1	3	0	
2	4	3	3	0	3	1	3	2	3	3	3	4	
2	2	4	4	0	4	1	4	2	4	3	4	4	
4	6	5	0	1	6	0	6	1	6	2	6	5	1	4	
3	5	6	7	5	0	5	1	5	5	5	3	5	4	
3	5	0	1	0	0	0	1	0	5	0	3	0	4	
3	0	1	3	0	0	0	1	0	5	3	3	3	4	
4	6	5	0	2	6	0	2	1	2	2	2	3	2	4	
4	4	5	6	8	5	0	5	1	5	5	5	3	5	4	
4	3	9	8	6	3	0	8	1	8	2	8	3	8	4	
2	9	3	9	0	9	1	9	2	9	1	9	0	
3	7	8	9	9	0	9	1	9	5	9	3	9	4	
2	4	2	2	0	2	1	2	5	2	3	2	4	
5	2	0	5	6	7	5	0	5	1	5	2	5	1	5	0	
3	6	5	0	0	0	0	1	0	2	0	1	0	0	
5	7	6	5	0	1	7	0	7	1	7	2	6	5	1	4	
2	9	8	8	0	8	1	8	2	8	3	8	4	
3	5	0	2	0	0	2	1	2	2	2	5	2	4	
2	0	2	2	0	2	1	2	2	2	3	2	4	
4	8	6	5	0	8	0	8	1	8	2	8	1	5	0	
5	1	0	5	6	7	5	0	5	1	5	2	5	1	5	0	
4	7	6	5	4	7	0	7	1	7	2	7	3	7	4	
2	3	1	3	0	3	1	3	5	3	3	3	4	
4	3	9	8	7	8	0	8	1	8	5	8	3	8	4	
2	1	2	1	0	2	1	2	2	2	1	2	0	
3	2	0	5	0	0	0	1	0	2	0	3	0	4	
2	4	1	4	0	4	1	4	2	4	5	1	4	
2	5	0	0	0	0	1	0	2	0	1	0	0	
3	0	1	4	0	0	0	1	0	2	0	1	0	0	
4	6	8	9	3	8	0	8	1	8	2	8	3	8	4	
2	6	8	8	0	8	1	8	2	8	5	8	4	
2	7	6	7	0	7	1	7	5	7	3	7	4	
3	9	8	7	9	0	9	1	9	5	9	3	9	4	
2	0	1	0	0	0	1	0	2	0	1	0	0	
2	3	9	9	0	9	1	9	2	9	3	9	4	
2	1	0	0	0	0	1	0	2	0	3	0	4	
4	0	5	6	8	5	0	5	1	5	2	5	1	5	0	
2	3	4	3	0	3	1	3	2	3	5	3	4	
2	4	3	4	0	4	1	4	2	4	1	4	0	
2	2	4	2	0	2	1	2	5	2	3	2	4	
4	6	5	0	1	6	0	6	1	6	5	6	3	1	4	
4	8	6	5	4	8	0	4	1	4	5	4	3	4	4	
3	5	6	7	5	0	5	1	5	2	5	5	5	4	
3	5	0	1	0	0	0	1	0	2	0	5	0	4	
3	0	1	3	3	0	3	1	3	2	3	3	3	4	
4	4	5	9	8	9	0	9	1	9	2	9	5	9	4	
3	9	5	0	9	0	0	1	0	2	0	5	0	4	
2	7	8	7	0	7	1	7	5	7	3	7	4	
2	2	1	2	0	2	1	2	2	1	5	1	4	
4	3	9	8	6	3	0	8	1	8	2	8	1	8	0	
2	9	3	3	0	3	1	3	2	3	3	3	4	
2	4	2	4	0	4	1	4	2	4	5	4	4	
5	2	0	5	6	7	5	0	5	1	5	2	5	5	5	4	
3	6	5	0	6	0	6	1	6	2	6	3	6	4	
3	8	9	3	8	0	8	1	8	2	8	5	9	4	
2	1	4	1	0	1	1	1	2	1	5	4	4	
5	7	6	5	0	1	7	0	7	1	7	2	6	1	1	0	
2	9	8	8	0	8	1	8	2	8	1	8	0	
3	5	0	2	0	0	2	1	2	5	2	3	2	4	
2	0	2	2	0	2	1	2	5	2	3	2	4	
3	3	9	8	3	0	3	1	3	2	3	3	3	4	
4	8	9	5	0	8	0	0	1	0	2	0	3	0	4	
5	1	0	5	6	7	1	0	1	1	1	2	1	3	7	4	
4	7	6	5	4	6	0	6	1	6	2	6	1	6	0	
3	9	3	1	9	0	9	1	9	2	9	1	9	0	
2	2	0	2	0	2	1	2	2	2	1	2	0	
2	3	1	3	0	3	1	3	2	3	5	3	4	
4	1	3	9	8	8	0	8	1	8	2	8	5	8	4	
4	3	9	8	7	9	0	9	1	9	2	9	5	9	4	
2	1	2	2	0	2	1	2	2	2	5	2	4	
3	2	0	5	0	0	0	1	0	2	0	1	0	0	
4	0	5	6	7	6	0	6	1	6	2	6	5	6	4	
2	4	1	1	0	1	1	1	5	1	3	1	4	
3	0	1	4	4	0	4	1	4	2	4	3	4	4	
4	6	8	9	3	6	0	3	1	3	2	3	1	3	0	
4	8	9	3	2	8	0	8	1	8	2	8	1	8	0	
3	1	0	5	1	0	1	1	1	2	1	1	0	0	
2	7	6	7	0	7	1	7	2	7	3	7	4	
3	9	8	7	7	0	7	1	7	2	7	5	7	4	
2	0	1	0	0	0	1	0	2	0	5	0	4	
2	1	0	1	0	1	1	1	2	1	1	1	0	
3	9	3	2	9	0	9	1	9	2	9	3	9	4	
2	2	3	2	0	3	1	3	2	3	3	3	4	
4	0	5	6	8	5	0	5	1	5	2	5	3	5	4	
3	1	3	9	1	0	1	1	1	2	1	1	1	0	
2	3	4	4	0	4	1	4	5	4	3	4	4	
2	2	4	4	0	4	1	4	2	4	5	4	4	
3	0	5	6	0	0	0	1	0	2	0	1	6	0	
4	6	5	0	1	6	0	6	1	6	2	6	3	1	4	
4	8	6	5	4	8	0	4	1	4	2	4	5	4	4	
2	8	9	8	0	8	1	8	5	8	3	8	4	
3	5	6	7	5	0	5	1	5	2	5	1	5	0	
3	0	1	3	3	0	3	1	3	2	3	1	3	0	
4	8	9	3	1	8	0	8	1	8	2	8	3	8	4	
4	1	0	5	6	1	0	1	1	1	2	1	3	6	4	
4	4	5	6	8	6	0	6	1	6	2	6	1	6	0	
3	9	5	0	9	0	9	1	9	5	9	3	9	4	
2	2	1	1	0	1	1	1	5	1	3	1	4	
5	7	6	5	0	2	5	0	5	1	5	2	5	5	5	4	
5	2	0	5	6	7	2	0	2	1	2	5	2	3	7	4	
3	8	6	5	6	0	6	1	6	5	6	3	6	4	
2	0	5	0	0	0	1	0	2	0	3	0	4	
3	6	5	0	6	0	6	1	6	5	6	3	6	4	
3	8	9	3	3	0	3	1	3	5	3	3	3	4	
2	1	4	1	0	1	1	1	5	1	3	1	4	
5	7	6	5	0	1	6	0	6	1	6	2	6	3	6	4	
2	0	2	2	0	2	1	2	2	2	5	2	4	
3	3	9	8	3	0	3	1	3	2	3	1	3	0	
4	7	6	5	4	7	0	7	1	7	2	6	5	4	4	
3	9	3	1	1	0	1	1	1	2	1	3	1	4	
2	2	0	2	0	2	1	2	2	2	3	2	4	
2	6	8	8	0	8	1	8	5	8	3	8	4	
3	0	5	9	9	0	9	1	9	2	9	3	9	4	
2	3	1	3	0	3	1	3	2	3	1	3	0	
2	6	5	6	0	6	1	6	2	6	5	6	4	
4	1	3	9	8	3	0	3	1	3	5	3	3	3	4	
2	1	2	1	0	1	1	1	5	1	3	1	4	
3	5	9	3	9	0	3	1	3	5	3	3	3	4	
4	0	5	6	7	5	0	5	1	5	5	5	3	5	4	
4	7	8	9	3	3	0	3	1	3	2	3	1	3	0	
4	8	9	3	1	3	0	1	1	1	5	1	3	1	4	
3	6	8	9	8	0	8	1	8	2	8	5	9	4	
4	6	8	9	3	6	0	3	1	3	2	3	5	3	4	
4	8	9	3	2	8	0	8	1	8	2	8	3	8	4	
3	1	0	5	1	0	1	1	1	2	1	3	5	4	
2	7	6	7	0	7	1	7	2	7	1	7	0	
3	9	8	7	8	0	8	1	8	2	8	1	7	0	
3	5	9	8	9	0	8	1	8	2	8	5	8	4	
2	0	1	1	0	1	1	1	5	1	3	1	4	
3	4	1	0	1	0	1	1	1	5	1	3	1	4	
3	9	3	2	9	0	9	1	9	2	9	1	9	0	
2	2	3	3	0	3	1	3	2	3	1	3	0	
3	6	5	4	4	0	4	1	4	2	4	1	4	0	
3	1	3	9	1	0	1	1	1	2	1	3	1	4	
2	5	4	4	0	4	1	4	2	4	5	4	4	
3	0	5	6	0	0	0	1	0	2	0	3	0	4	
4	6	5	0	1	1	0	1	1	1	2	1	1	1	0	
4	8	9	5	4	8	0	4	1	4	2	4	1	4	0	
4	7	6	5	0	0	0	0	1	0	2	0	3	0	4	
3	5	6	7	5	0	5	1	5	2	5	3	5	4	
3	3	9	5	3	0	3	1	3	5	9	3	9	4	
3	7	8	9	8	0	9	1	9	2	9	5	9	4	
4	1	0	5	6	5	0	5	1	5	2	5	1	5	0	
4	4	5	6	8	6	0	6	1	6	2	6	3	6	4	
3	9	5	0	0	0	0	1	0	2	0	3	0	4	
2	2	1	1	0	1	1	1	2	1	3	1	4	
2	5	9	5	0	5	1	5	2	5	1	5	0	
4	4	5	6	7	6	0	6	1	6	2	6	5	6	4	
2	5	0	0	0	0	1	0	5	0	3	0	4	
2	6	7	7	0	7	1	7	2	7	3	7	4	
5	7	6	5	0	2	0	0	0	1	0	5	0	3	0	4	
2	0	5	0	0	0	1	0	2	0	1	0	0	
3	6	5	0	0	0	0	1	0	2	0	5	0	4	
3	8	9	3	3	0	3	1	3	2	3	3	3	4	
2	1	4	1	0	1	1	1	2	1	3	1	4	
2	3	2	3	0	3	1	3	2	3	5	2	4	
3	3	9	8	3	0	3	1	3	2	3	5	8	4	
4	2	0	5	6	5	0	5	1	5	5	5	3	5	4	
4	7	6	5	4	7	0	7	1	7	5	6	3	4	4	
3	9	3	1	1	0	1	1	1	5	1	3	1	4	
2	2	0	2	0	2	1	2	5	2	3	2	4	
3	0	5	9	0	0	9	1	9	2	9	1	9	0	
2	3	1	1	0	1	1	1	2	1	3	1	4	
2	6	5	6	0	6	1	6	5	6	3	6	4	
4	1	3	9	8	1	0	1	1	1	2	1	3	1	4	
3	4	5	6	5	0	5	1	5	2	5	1	5	0	
3	5	9	3	5	0	5	1	5	2	5	5	5	4	
4	0	5	6	7	5	0	5	1	5	2	5	3	5	4	
4	7	8	9	3	7	0	7	1	7	2	7	3	7	4	
3	9	5	4	9	0	4	1	4	2	4	5	4	4	
2	5	6	6	0	6	1	6	2	6	3	6	4	
3	6	5	9	5	0	5	1	5	5	5	3	5	4	
2	1	3	1	0	1	1	1	5	1	3	1	4	
4	6	5	9	3	6	0	3	1	3	5	3	3	3	4	
4	8	9	3	2	2	0	2	1	2	5	2	3	2	4	
3	1	0	5	1	0	1	1	1	5	1	3	1	4	
3	4	5	9	5	0	5	1	5	2	5	3	5	4	
3	9	8	7	7	0	7	1	7	2	7	3	7	4	
3	5	6	8	5	0	5	1	5	5	5	3	8	4	
2	8	9	8	0	8	1	8	2	8	5	9	4	
3	4	1	0	1	0	1	1	1	2	1	5	1	4	
3	2	3	9	3	0	9	1	9	2	9	5	9	4	
3	9	3	2	2	0	2	1	2	2	2	5	2	4	
2	2	3	3	0	3	1	3	2	3	5	3	4	
3	6	5	4	6	0	6	1	6	2	6	3	6	4	
2	8	7	7	0	7	1	7	2	7	5	7	4	
3	1	3	9	1	0	1	1	1	5	1	3	1	4	
2	4	5	4	0	4	1	4	2	4	3	4	4	
2	5	4	4	0	4	1	4	5	4	3	4	4	
3	0	5	6	0	0	0	1	0	5	0	3	0	4	
4	8	6	5	4	6	0	6	1	6	2	6	3	6	4	
4	7	6	5	0	0	0	0	1	0	2	0	1	0	0	
2	9	5	5	0	5	1	5	2	5	1	5	0	
2	6	8	6	0	6	1	6	2	6	3	6	4	
3	7	8	9	8	0	8	1	8	2	8	1	8	0	
4	1	0	5	6	5	0	5	1	5	2	5	5	5	4	
3	9	5	0	0	0	0	1	0	2	0	1	0	0	
3	7	6	5	6	0	6	1	6	2	6	1	6	0	
2	2	1	1	0	1	1	1	2	1	1	1	0	
2	5	9	9	0	9	1	9	2	9	3	9	4	
3	3	1	0	1	0	1	1	1	2	1	3	1	4	
4	4	5	6	7	4	0	4	1	4	5	4	3	4	4	
4	2	3	9	8	8	0	8	1	8	2	8	1	8	0	
2	6	7	7	0	7	1	7	2	7	1	7	0	
2	8	6	6	0	6	1	6	2	6	1	6	0	
5	7	6	5	0	2	0	0	0	1	0	2	0	3	0	4	
3	3	9	5	3	0	5	1	5	2	5	5	5	4	
2	0	5	0	0	0	1	0	2	0	5	0	4	
3	8	9	3	8	0	8	1	8	2	8	1	8	0	
2	1	4	1	0	1	1	1	2	1	1	1	0	
3	9	8	6	9	0	9	1	9	2	8	3	8	4	
2	3	2	2	0	2	1	2	5	2	3	2	4	
3	3	9	8	8	0	8	1	8	5	8	3	8	4	
4	8	9	3	1	1	0	1	1	1	2	1	5	1	4	
4	2	0	5	6	5	0	5	1	5	2	5	5	5	4	
3	9	3	1	9	0	9	1	9	2	9	5	9	4	
2	2	0	0	0	0	1	0	2	0	5	0	4	
3	0	5	9	9	0	9	1	9	2	9	5	9	4	
2	6	5	6	0	6	1	6	2	6	3	6	4	
4	1	3	9	8	8	0	8	1	8	2	8	1	8	0	
3	4	5	6	4	0	4	1	4	2	4	3	4	4	
3	5	9	3	5	0	3	1	3	2	3	1	3	0	
4	0	5	6	7	5	0	5	1	5	2	5	1	5	0	
3	8	9	5	8	0	9	1	9	2	9	3	9	4	
4	7	8	9	3	8	0	8	1	8	5	8	3	8	4	
3	9	5	4	4	0	4	1	4	5	4	3	4	4	
2	5	6	6	0	6	1	6	2	6	1	6	0	
2	4	3	4	0	4	1	4	5	4	3	4	4	
3	6	8	9	8	0	8	1	8	2	8	3	8	4	
2	1	3	1	0	1	1	1	2	1	5	3	4	
4	8	9	3	2	8	0	8	1	8	2	8	5	8	4	
3	1	0	5	1	0	1	1	1	2	1	5	5	4	
3	4	5	9	4	0	9	1	9	2	9	1	9	0	
3	5	6	8	5	0	5	1	5	2	5	3	8	4	
3	4	1	0	4	0	4	1	4	2	4	1	4	0	
3	2	3	9	2	0	2	1	2	5	2	3	2	4	
3	9	3	2	2	0	2	1	2	5	2	3	2	4	
2	2	3	2	0	2	1	2	5	2	3	2	4	
4	6	5	0	2	2	0	2	1	2	5	2	3	2	4	
3	6	5	4	6	0	6	1	6	5	6	3	6	4	
2	8	7	7	0	7	1	7	5	7	3	7	4	
3	1	3	9	1	0	1	1	1	2	1	5	3	4	
2	4	5	4	0	4	1	4	2	4	1	4	0	
2	5	4	4	0	4	1	4	2	4	3	4	4	
3	0	5	6	6	0	6	1	6	2	6	5	6	4	
4	7	6	5	0	7	0	7	1	7	2	7	5	5	4	
2	9	5	9	0	9	1	9	2	9	3	9	4	
3	3	9	5	3	0	5	1	5	2	5	1	5	0	
3	7	8	9	8	0	8	1	8	2	8	3	8	4	
4	1	0	5	6	1	0	1	1	1	5	1	3	6	4	
2	5	9	5	0	5	1	5	5	5	3	5	4	
3	3	1	0	3	0	3	1	3	2	3	1	3	0	
4	4	5	6	7	4	0	4	1	4	2	4	3	4	4	
4	2	3	9	8	2	0	2	1	2	2	2	3	2	4	
2	6	7	7	0	7	1	7	2	7	5	7	4	
2	8	6	8	0	8	1	8	2	8	3	8	4	
5	7	6	5	0	2	2	0	2	1	2	2	2	1	2	0	
2	0	5	0	0	0	1	0	5	0	3	0	4	
3	9	5	6	9	0	6	1	6	2	6	1	6	0	
2	3	2	2	0	2	1	2	2	2	3	2	4	
4	2	0	5	6	2	0	2	1	2	2	2	1	6	0	
2	5	0	0	0	0	1	0	2	0	5	0	4	
3	0	5	9	5	0	5	1	5	5	5	3	9	4	
2	6	5	6	0	6	1	6	2	6	1	6	0	
3	4	5	6	4	0	4	1	4	5	4	3	4	4	
3	5	9	3	5	0	3	1	3	2	3	3	3	4	
2	3	9	9	0	9	1	9	5	9	3	9	4	
3	8	6	5	8	0	8	1	8	2	8	1	8	0	
4	7	8	9	3	8	0	8	1	8	2	8	5	9	4	
3	9	5	4	4	0	4	1	4	2	4	3	4	4	
2	5	6	6	0	6	1	6	2	6	5	6	4	
3	6	8	9	8	0	8	1	8	2	8	1	8	0	
2	1	3	1	0	1	1	1	2	1	1	1	0	
2	7	8	8	0	8	1	8	2	8	3	8	4	
3	4	5	9	4	0	9	1	9	2	9	5	9	4	
3	5	6	8	5	0	5	1	5	2	5	1	8	0	
3	4	1	0	1	0	1	1	1	2	1	3	1	4	
3	2	3	9	2	0	2	1	2	2	2	3	2	4	
3	5	0	1	1	0	1	1	1	2	1	1	1	0	
4	6	5	0	2	2	0	2	1	2	2	2	5	2	4	
3	6	5	4	4	0	4	1	4	2	4	5	4	4	
2	8	7	8	0	8	1	8	2	8	3	8	4	
3	7	6	5	5	0	5	1	5	2	5	5	5	4	
2	4	5	4	0	4	1	4	2	4	5	4	4	
2	5	4	4	0	4	1	4	2	4	1	4	0	
4	3	9	8	6	8	0	8	1	8	2	8	5	6	4	
3	7	6	5	6	0	6	1	6	5	6	3	6	4	
2	9	3	3	0	3	1	3	5	3	3	3	4	
4	7	6	5	0	0	0	0	1	0	5	0	3	0	4	
2	9	5	9	0	9	1	9	5	9	3	9	4	
3	3	9	5	3	0	5	1	5	2	5	3	5	4	
2	6	8	8	0	8	1	8	2	8	1	8	0	
2	4	2	4	0	4	1	4	2	4	1	4	0	
2	5	9	9	0	9	1	9	2	9	5	9	4	
3	3	1	0	3	0	3	1	3	2	3	5	3	4	
4	4	5	6	7	6	0	6	1	6	2	6	1	6	0	
2	9	8	8	0	8	1	8	2	8	5	8	4	
4	2	3	9	8	3	0	3	1	3	5	3	3	3	4	
3	5	0	2	0	0	0	1	0	2	0	3	0	4	
4	8	6	5	0	8	0	8	1	8	5	8	3	5	4	
4	8	9	3	1	3	0	3	1	3	2	3	1	3	0	
5	1	0	5	6	7	1	0	1	1	1	5	1	3	7	4	
2	6	7	6	0	6	1	6	5	6	3	6	4	
2	8	6	6	0	6	1	6	5	6	3	6	4	
4	3	9	8	7	3	0	3	1	3	2	3	1	3	0	
3	2	0	5	0	0	0	1	0	2	0	5	5	4	
3	9	8	6	9	0	9	1	9	2	8	5	8	4	
2	3	2	3	0	3	1	3	2	3	1	3	0	
2	4	1	1	0	1	1	1	2	1	3	1	4	
4	2	0	5	6	2	0	2	1	2	2	2	3	6	4	
2	4	3	3	0	3	1	3	2	3	5	3	4	
3	0	1	4	1	0	1	1	1	5	1	3	1	4	
3	4	5	6	4	0	6	1	6	2	6	5	6	4	
2	3	9	9	0	9	1	9	2	9	5	9	4	
2	1	0	1	0	1	1	1	2	1	5	1	4	
3	8	9	5	5	0	5	1	5	2	5	5	5	4	
3	9	5	4	4	0	4	1	4	2	4	1	4	0	
4	0	5	6	8	0	0	0	1	0	5	0	3	0	4	
2	5	6	6	0	6	1	6	5	6	3	6	4	
2	3	4	4	0	4	1	4	2	4	3	4	4	
2	1	3	3	0	3	1	3	2	3	3	3	4	
2	7	8	7	0	7	1	7	2	7	1	7	0	
2	2	4	2	0	2	1	2	2	2	1	2	0	
3	4	5	9	4	0	9	1	9	5	9	3	9	4	
3	2	3	9	2	0	2	1	2	2	2	1	2	0	
3	5	0	1	0	0	0	1	0	2	0	3	0	4	
3	0	1	3	3	0	3	1	3	2	3	5	3	4	
4	6	5	0	2	5	0	5	1	5	2	5	1	5	0	
2	8	7	7	0	7	1	7	2	7	1	7	0	
2	4	5	4	0	4	1	4	5	4	3	4	4	
2	7	8	7	0	7	1	7	2	7	5	8	4	
4	3	9	5	6	3	0	9	1	9	5	9	3	6	4	
2	9	3	3	0	3	1	3	2	3	5	3	4	
2	9	5	9	0	5	1	5	2	5	5	5	4	
2	4	2	4	0	4	1	4	2	4	3	4	4	
5	2	0	5	6	7	5	0	5	1	5	2	5	3	5	4	
