2899.42	2199.21
587
19331.2	13961.2
10
0	0	-1
1	0	-1
2	0	-1
3	3995	4639
4	2915	3950
5	5937	5980
6	0	-1
7	0	-1
8	0	-1
9	4799	5393
34
0	1	66.571588	168.607858	1.000000
0	2	44.418026	173.518756	1.000000
0	5	166.216532	191.525056	1.000000
1	0	66.537402	168.607858	1.000000
1	2	0.000000	188.251453	0.000000
1	3	55.026338	184.977850	1.000000
1	4	22.129186	188.251453	1.000000
2	0	44.217164	173.518756	1.000000
2	1	0.000000	188.251453	0.000000
2	3	43.693482	173.518756	1.000000
2	4	11.276678	166.970561	1.000000
3	1	55.386658	184.977850	1.000000
3	2	44.978330	173.518756	1.000000
3	4	11.041938	162.059662	1.000000
3	9	99.127092	148.964262	1.000000
4	1	22.468118	188.251453	1.000000
4	2	11.091458	166.970561	1.000000
4	3	11.266978	162.059662	1.000000
4	5	55.678424	150.601558	1.000000
5	0	166.561518	191.525056	1.000000
5	4	55.576782	150.601558	1.000000
5	6	156.859354	158.786060	1.000000
5	9	53.813426	180.066952	1.000000
6	5	157.567794	158.786060	1.000000
6	7	66.608684	178.429655	1.000000
6	8	56.737774	184.977850	1.000000
7	6	66.847556	178.429655	1.000000
7	8	33.062130	173.518756	1.000000
8	6	58.255442	184.977850	1.000000
8	7	33.132806	173.518756	1.000000
8	9	142.086274	147.326966	1.000000
9	3	100.220512	148.964262	1.000000
9	5	54.106596	180.066952	1.000000
9	8	142.599764	147.326966	1.000000
360
3	3	1	0	3	0	3	1	3	5	3	3	3	4	
2	8	9	9	0	9	1	9	2	9	3	9	4	
2	8	9	9	0	9	1	9	2	9	1	9	0	
2	9	8	9	0	9	1	9	5	9	3	9	4	
4	2	3	9	8	3	0	3	1	3	2	3	5	9	4	
3	5	0	2	5	0	5	1	5	2	5	1	5	0	
4	0	5	0	2	5	0	5	1	5	2	5	1	5	0	
4	8	9	5	0	9	0	9	1	9	2	9	5	9	4	
5	1	0	5	6	7	5	0	5	1	5	2	5	5	5	4	
4	8	9	8	6	9	0	9	1	9	2	9	5	9	4	
4	3	9	8	7	3	0	3	1	3	2	3	3	3	4	
3	1	3	2	3	0	3	1	3	2	3	3	3	4	
5	7	6	5	0	1	5	0	5	1	5	5	5	3	5	4	
3	2	0	5	5	0	5	1	5	5	5	3	5	4	
3	9	8	6	9	0	9	1	9	5	9	3	9	4	
2	4	1	4	0	4	1	4	2	4	1	4	0	
2	5	0	5	0	5	1	5	2	5	3	5	4	
3	0	1	4	4	0	4	1	4	2	4	5	4	4	
4	7	6	5	6	5	0	5	1	5	2	5	5	5	4	
4	0	5	0	1	5	0	5	1	5	2	5	3	5	4	
2	3	9	3	0	3	1	3	2	3	1	3	0	
4	1	0	5	0	5	0	5	1	5	5	5	3	5	4	
3	7	6	5	5	0	5	1	5	2	5	3	5	4	
4	0	5	9	8	9	0	9	1	9	2	9	5	9	4	
2	3	4	3	0	3	1	3	2	3	1	3	0	
2	4	3	3	0	3	1	3	2	3	3	3	4	
2	2	4	4	0	4	1	4	2	4	3	4	4	
4	6	5	0	1	5	0	5	1	5	2	5	5	5	4	
3	5	6	7	5	0	5	1	5	5	5	3	5	4	
3	5	0	1	5	0	5	1	5	5	5	3	5	4	
3	0	1	3	3	0	3	1	3	5	3	3	3	4	
4	6	5	0	2	5	0	5	1	5	2	5	3	5	4	
4	4	5	9	8	9	0	9	1	9	5	9	3	9	4	
4	3	9	8	6	3	0	3	1	3	2	3	3	9	4	
2	9	3	3	0	3	1	3	2	3	1	3	0	
3	7	8	9	9	0	9	1	9	5	9	3	9	4	
2	4	2	4	0	4	1	4	5	4	3	4	4	
5	2	0	5	6	7	5	0	5	1	5	2	5	1	5	0	
3	6	5	0	5	0	5	1	5	2	5	1	5	0	
5	7	6	5	0	1	5	0	5	1	5	2	5	5	5	4	
2	9	8	9	0	9	1	9	2	9	3	9	4	
3	5	0	2	5	0	5	1	5	2	5	5	5	4	
4	0	5	0	2	5	0	5	1	5	2	5	3	5	4	
4	8	6	5	0	5	0	5	1	5	2	5	1	5	0	
5	1	0	5	6	7	5	0	5	1	5	2	5	1	5	0	
4	7	6	5	4	4	0	4	1	4	2	4	3	4	4	
2	3	1	3	0	3	1	3	5	3	3	3	4	
4	3	9	8	7	9	0	9	1	9	5	9	3	9	4	
3	1	3	2	3	0	3	1	3	2	3	1	3	0	
3	2	0	5	5	0	5	1	5	2	5	3	5	4	
2	4	1	4	0	4	1	4	2	4	5	4	4	
2	5	0	5	0	5	1	5	2	5	1	5	0	
3	0	1	4	4	0	4	1	4	2	4	1	4	0	
4	6	8	9	3	9	0	9	1	9	2	9	3	9	4	
4	6	8	9	8	9	0	9	1	9	2	9	5	9	4	
4	7	6	5	6	5	0	5	1	5	5	5	3	5	4	
3	9	8	7	9	0	9	1	9	5	9	3	9	4	
4	0	5	0	1	5	0	5	1	5	2	5	1	5	0	
2	3	9	3	0	3	1	3	2	3	3	3	4	
4	1	0	5	0	5	0	5	1	5	2	5	3	5	4	
4	0	5	6	8	5	0	5	1	5	2	5	1	5	0	
2	3	4	3	0	3	1	3	2	3	5	3	4	
2	4	3	3	0	3	1	3	2	3	1	3	0	
2	2	4	4	0	4	1	4	5	4	3	4	4	
4	6	5	0	1	5	0	5	1	5	5	5	3	5	4	
4	8	6	5	4	4	0	4	1	4	5	4	3	4	4	
3	5	6	7	5	0	5	1	5	2	5	5	5	4	
3	5	0	1	5	0	5	1	5	2	5	5	5	4	
3	0	1	3	3	0	3	1	3	2	3	3	3	4	
4	4	5	6	8	4	0	4	1	4	2	4	5	4	4	
3	9	5	0	9	0	9	1	9	2	9	5	9	4	
4	7	8	9	8	9	0	9	1	9	5	9	3	9	4	
3	2	3	1	3	0	3	1	3	2	3	5	3	4	
4	3	9	8	6	3	0	3	1	3	2	3	1	9	0	
2	9	3	9	0	9	1	9	2	9	3	9	4	
2	4	2	4	0	4	1	4	2	4	5	4	4	
5	2	0	5	6	7	5	0	5	1	5	2	5	5	5	4	
3	6	5	0	5	0	5	1	5	2	5	3	5	4	
3	8	9	3	3	0	3	1	3	2	3	5	3	4	
2	1	4	4	0	4	1	4	2	4	5	4	4	
5	7	6	5	0	1	5	0	5	1	5	2	5	1	5	0	
2	9	8	9	0	9	1	9	2	9	1	9	0	
3	5	0	2	5	0	5	1	5	5	5	3	5	4	
4	0	5	0	2	5	0	5	1	5	5	5	3	5	4	
3	3	9	8	9	0	9	1	9	2	9	3	9	4	
4	8	6	5	0	5	0	5	1	5	2	5	3	5	4	
5	1	0	5	6	7	5	0	5	1	5	2	5	3	5	4	
4	7	6	5	4	4	0	4	1	4	2	4	1	4	0	
3	9	3	1	9	0	9	1	9	2	9	1	9	0	
4	2	0	5	0	5	0	5	1	5	2	5	1	5	0	
2	3	1	3	0	3	1	3	2	3	5	3	4	
4	1	3	9	8	9	0	9	1	9	2	9	5	9	4	
4	3	9	8	7	9	0	9	1	9	2	9	5	9	4	
3	1	3	2	3	0	3	1	3	2	3	5	3	4	
3	2	0	5	5	0	5	1	5	2	5	1	5	0	
4	0	5	6	7	5	0	5	1	5	2	5	5	5	4	
2	4	1	4	0	4	1	4	5	4	3	4	4	
3	0	1	4	4	0	4	1	4	2	4	3	4	4	
4	6	8	9	3	9	0	3	1	3	2	3	1	3	0	
4	8	9	3	2	3	0	3	1	3	2	3	1	3	0	
3	1	0	5	5	0	5	1	5	2	5	1	5	0	
4	7	6	5	6	5	0	5	1	5	2	5	3	5	4	
3	9	8	7	9	0	9	1	9	2	9	5	9	4	
4	0	5	0	1	5	0	5	1	5	2	5	5	5	4	
4	1	0	5	0	5	0	5	1	5	2	5	1	5	0	
3	9	3	2	3	0	3	1	3	2	3	3	3	4	
2	2	3	3	0	3	1	3	2	3	3	3	4	
4	0	5	6	8	5	0	5	1	5	2	5	3	5	4	
3	1	3	9	3	0	3	1	3	2	3	1	3	0	
2	3	4	3	0	3	1	3	5	3	3	3	4	
2	2	4	4	0	4	1	4	2	4	5	4	4	
3	0	5	6	5	0	5	1	5	2	5	1	5	0	
4	6	5	0	1	5	0	5	1	5	2	5	3	5	4	
4	8	6	5	4	4	0	4	1	4	2	4	5	4	4	
2	8	9	9	0	9	1	9	5	9	3	9	4	
3	5	6	7	5	0	5	1	5	2	5	1	5	0	
3	0	1	3	3	0	3	1	3	2	3	1	3	0	
4	8	9	3	1	3	0	3	1	3	2	3	3	3	4	
4	1	0	5	6	5	0	5	1	5	2	5	3	5	4	
4	4	5	6	8	5	0	5	1	5	2	5	1	5	0	
3	9	5	0	9	0	9	1	9	5	9	3	9	4	
3	2	3	1	3	0	3	1	3	5	3	3	3	4	
5	7	6	5	0	2	5	0	5	1	5	2	5	5	5	4	
5	2	0	5	6	7	5	0	5	1	5	5	5	3	5	4	
3	8	9	5	9	0	9	1	9	5	9	3	9	4	
2	0	5	5	0	5	1	5	2	5	3	5	4	
3	6	5	0	5	0	5	1	5	5	5	3	5	4	
3	8	9	3	9	0	9	1	9	5	9	3	9	4	
2	1	4	4	0	4	1	4	5	4	3	4	4	
5	7	6	5	0	1	5	0	5	1	5	2	5	3	5	4	
4	0	5	0	2	5	0	5	1	5	2	5	5	5	4	
3	3	9	8	9	0	9	1	9	2	9	1	9	0	
4	7	6	5	4	4	0	4	1	4	2	4	5	4	4	
3	9	3	1	9	0	9	1	9	2	9	3	9	4	
4	2	0	5	0	5	0	5	1	5	2	5	3	5	4	
4	6	8	9	8	9	0	9	1	9	5	9	3	9	4	
3	0	5	9	9	0	9	1	9	2	9	3	9	4	
2	3	1	3	0	3	1	3	2	3	1	3	0	
2	6	5	5	0	5	1	5	2	5	5	5	4	
4	1	3	9	8	9	0	9	1	9	5	9	3	9	4	
3	1	3	2	3	0	3	1	3	5	3	3	3	4	
3	5	9	3	9	0	9	1	9	5	9	3	9	4	
4	0	5	6	7	5	0	5	1	5	5	5	3	5	4	
4	7	8	9	3	9	0	9	1	9	2	9	1	9	0	
4	8	9	3	1	9	0	9	1	9	5	9	3	9	4	
3	6	8	9	9	0	9	1	9	2	9	5	9	4	
4	6	8	9	3	9	0	3	1	3	2	3	5	3	4	
4	8	9	3	2	3	0	3	1	3	2	3	3	3	4	
3	1	0	5	5	0	5	1	5	2	5	3	5	4	
4	7	6	5	6	5	0	5	1	5	2	5	1	5	0	
3	9	8	7	9	0	9	1	9	2	9	1	9	0	
3	5	6	8	5	0	5	1	5	2	5	5	5	4	
4	0	5	0	1	5	0	5	1	5	5	5	3	5	4	
3	4	1	0	4	0	4	1	4	5	4	3	4	4	
3	9	3	2	3	0	3	1	3	2	3	1	3	0	
2	2	3	3	0	3	1	3	2	3	1	3	0	
3	6	5	4	4	0	4	1	4	2	4	1	4	0	
3	1	3	9	3	0	3	1	3	2	3	3	3	4	
2	5	4	4	0	4	1	4	2	4	5	4	4	
3	0	5	6	5	0	5	1	5	2	5	3	5	4	
4	6	5	0	1	5	0	5	1	5	2	5	1	5	0	
4	8	6	5	4	4	0	4	1	4	2	4	1	4	0	
4	7	6	5	0	5	0	5	1	5	2	5	3	5	4	
3	5	6	7	5	0	5	1	5	2	5	3	5	4	
3	3	9	5	3	0	9	1	9	5	9	3	9	4	
3	7	8	9	9	0	9	1	9	2	9	5	9	4	
4	1	0	5	6	5	0	5	1	5	2	5	1	5	0	
4	4	5	9	8	9	0	9	1	9	2	9	3	9	4	
3	9	5	0	9	0	9	1	9	2	9	3	9	4	
3	2	3	1	3	0	3	1	3	2	3	3	3	4	
2	5	9	9	0	9	1	9	2	9	1	9	0	
4	4	5	6	7	4	0	4	1	4	2	4	5	4	4	
2	5	0	5	0	5	1	5	5	5	3	5	4	
4	6	5	6	7	5	0	5	1	5	2	5	3	5	4	
5	7	6	5	0	2	5	0	5	1	5	5	5	3	5	4	
2	0	5	5	0	5	1	5	2	5	1	5	0	
3	6	5	0	5	0	5	1	5	2	5	5	5	4	
3	8	9	3	3	0	3	1	3	2	3	3	3	4	
2	1	4	4	0	4	1	4	2	4	3	4	4	
2	3	2	3	0	3	1	3	2	3	5	3	4	
3	3	9	8	9	0	9	1	9	2	9	5	9	4	
4	2	0	5	6	5	0	5	1	5	5	5	3	5	4	
4	7	6	5	4	4	0	4	1	4	5	4	3	4	4	
3	9	3	1	3	0	3	1	3	5	3	3	3	4	
4	2	0	5	0	5	0	5	1	5	5	5	3	5	4	
3	0	5	9	9	0	9	1	9	2	9	1	9	0	
2	3	1	3	0	3	1	3	2	3	3	3	4	
2	6	5	5	0	5	1	5	5	5	3	5	4	
4	1	3	9	8	3	0	3	1	3	2	3	3	3	4	
3	4	5	6	4	0	4	1	4	2	4	1	4	0	
3	5	9	3	9	0	3	1	3	2	3	5	3	4	
4	0	5	6	7	5	0	5	1	5	2	5	3	5	4	
4	7	8	9	3	9	0	9	1	9	2	9	3	9	4	
3	9	5	4	9	0	4	1	4	2	4	5	4	4	
2	5	6	5	0	5	1	5	2	5	3	5	4	
3	6	8	9	9	0	9	1	9	5	9	3	9	4	
2	1	3	3	0	3	1	3	5	3	3	3	4	
4	6	8	9	3	9	0	9	1	9	5	3	3	3	4	
4	8	9	3	2	9	0	9	1	3	5	3	3	3	4	
3	1	0	5	5	0	5	1	5	5	5	3	5	4	
3	4	5	9	9	0	9	1	9	2	9	3	9	4	
3	9	8	7	9	0	9	1	9	2	9	3	9	4	
3	5	9	8	9	0	9	1	9	5	9	3	9	4	
2	8	9	9	0	9	1	9	2	9	5	9	4	
3	4	1	0	4	0	4	1	4	2	4	5	4	4	
3	2	3	9	3	0	3	1	3	2	3	5	3	4	
3	9	3	2	3	0	3	1	3	2	3	5	3	4	
2	2	3	3	0	3	1	3	2	3	5	3	4	
3	6	5	4	4	0	4	1	4	2	4	3	4	4	
4	8	9	8	7	9	0	9	1	9	2	9	5	9	4	
3	1	3	9	9	0	9	1	9	5	9	3	9	4	
2	4	5	4	0	4	1	4	2	4	3	4	4	
2	5	4	4	0	4	1	4	5	4	3	4	4	
3	0	5	6	5	0	5	1	5	5	5	3	5	4	
4	8	6	5	4	4	0	4	1	4	2	4	3	4	4	
4	7	6	5	0	5	0	5	1	5	2	5	1	5	0	
2	9	5	9	0	9	1	9	2	9	1	9	0	
4	6	8	9	8	9	0	9	1	9	2	9	3	9	4	
3	7	8	9	9	0	9	1	9	2	9	1	9	0	
4	1	0	5	6	5	0	5	1	5	2	5	5	5	4	
3	9	5	0	9	0	9	1	9	2	9	1	9	0	
3	7	6	5	5	0	5	1	5	2	5	1	5	0	
3	2	3	1	3	0	3	1	3	2	3	1	3	0	
2	5	9	9	0	9	1	9	2	9	3	9	4	
3	3	1	0	3	0	3	1	3	2	3	3	3	4	
4	4	5	6	7	4	0	4	1	4	5	4	3	4	4	
4	2	3	9	8	9	0	9	1	9	2	9	1	9	0	
4	6	5	6	7	5	0	5	1	5	2	5	1	5	0	
4	8	9	8	6	9	0	9	1	9	2	9	1	9	0	
5	7	6	5	0	2	5	0	5	1	5	2	5	3	5	4	
3	3	9	5	3	0	3	1	3	2	3	5	3	4	
2	0	5	5	0	5	1	5	2	5	5	5	4	
3	8	9	3	9	0	9	1	9	2	9	1	9	0	
2	1	4	4	0	4	1	4	2	4	1	4	0	
3	9	8	6	9	0	9	1	9	2	9	3	9	4	
2	3	2	3	0	3	1	3	5	3	3	3	4	
3	3	9	8	9	0	9	1	9	5	9	3	9	4	
4	8	9	3	1	9	0	9	1	9	2	9	5	9	4	
4	2	0	5	6	5	0	5	1	5	2	5	5	5	4	
3	9	3	1	3	0	3	1	3	2	3	5	3	4	
4	2	0	5	0	5	0	5	1	5	2	5	5	5	4	
3	0	5	9	9	0	9	1	9	2	9	5	9	4	
2	6	5	5	0	5	1	5	2	5	3	5	4	
4	1	3	9	8	9	0	9	1	9	2	9	1	9	0	
3	4	5	6	4	0	4	1	4	2	4	3	4	4	
3	5	9	3	9	0	3	1	3	2	3	1	3	0	
4	0	5	6	7	5	0	5	1	5	2	5	1	5	0	
3	8	6	5	5	0	5	1	5	2	5	3	5	4	
4	7	8	9	3	9	0	9	1	9	5	9	3	9	4	
3	9	5	4	9	0	4	1	4	5	4	3	4	4	
2	5	6	5	0	5	1	5	2	5	1	5	0	
2	4	3	3	0	3	1	3	5	3	3	3	4	
3	6	8	9	9	0	9	1	9	2	9	3	9	4	
2	1	3	3	0	3	1	3	2	3	5	3	4	
4	8	9	3	2	9	0	9	1	9	2	9	5	9	4	
3	1	0	5	5	0	5	1	5	2	5	5	5	4	
3	4	5	9	4	0	9	1	9	2	9	1	9	0	
3	5	6	8	5	0	5	1	5	2	5	3	5	4	
3	4	1	0	4	0	4	1	4	2	4	1	4	0	
3	2	3	9	9	0	9	1	9	5	9	3	9	4	
3	9	3	2	9	0	9	1	9	5	9	3	9	4	
2	2	3	3	0	3	1	3	5	3	3	3	4	
4	6	5	0	2	5	0	5	1	5	5	5	3	5	4	
3	6	5	4	4	0	4	1	4	5	4	3	4	4	
4	8	9	8	7	9	0	9	1	9	5	9	3	9	4	
3	1	3	9	9	0	9	1	9	2	9	5	9	4	
2	4	5	4	0	4	1	4	2	4	1	4	0	
2	5	4	4	0	4	1	4	2	4	3	4	4	
3	0	5	6	5	0	5	1	5	2	5	5	5	4	
4	7	6	5	0	5	0	5	1	5	2	5	5	5	4	
2	9	5	9	0	9	1	9	2	9	3	9	4	
3	3	9	5	3	0	3	1	3	2	3	1	9	0	
3	7	8	9	9	0	9	1	9	2	9	3	9	4	
4	1	0	5	6	5	0	5	1	5	5	5	3	5	4	
2	5	9	9	0	9	1	9	5	9	3	9	4	
3	3	1	0	3	0	3	1	3	2	3	1	3	0	
4	4	5	6	7	4	0	4	1	4	2	4	3	4	4	
4	2	3	9	8	3	0	3	1	3	2	3	3	3	4	
4	6	5	6	7	5	0	5	1	5	2	5	5	5	4	
4	8	9	8	6	9	0	9	1	9	2	9	3	9	4	
5	7	6	5	0	2	5	0	5	1	5	2	5	1	5	0	
2	0	5	5	0	5	1	5	5	5	3	5	4	
3	9	8	6	9	0	9	1	9	2	9	1	9	0	
2	3	2	3	0	3	1	3	2	3	3	3	4	
4	2	0	5	6	5	0	5	1	5	2	5	1	5	0	
2	5	0	5	0	5	1	5	2	5	5	5	4	
3	0	5	9	9	0	9	1	9	5	9	3	9	4	
2	6	5	5	0	5	1	5	2	5	1	5	0	
3	4	5	6	4	0	4	1	4	5	4	3	4	4	
3	5	9	3	9	0	3	1	3	2	3	3	3	4	
2	3	9	3	0	3	1	3	5	3	3	3	4	
3	8	9	5	9	0	9	1	9	2	9	1	9	0	
4	7	8	9	3	3	0	3	1	3	2	3	5	3	4	
3	9	5	4	4	0	4	1	4	2	4	3	4	4	
2	5	6	5	0	5	1	5	2	5	5	5	4	
3	6	8	9	9	0	9	1	9	2	9	1	9	0	
2	1	3	3	0	3	1	3	2	3	1	3	0	
4	7	8	9	8	9	0	9	1	9	2	9	3	9	4	
3	4	5	9	4	0	9	1	9	2	9	5	9	4	
3	5	6	8	5	0	5	1	5	2	5	1	5	0	
3	4	1	0	4	0	4	1	4	2	4	3	4	4	
3	2	3	9	9	0	9	1	9	2	9	3	9	4	
3	5	0	1	5	0	5	1	5	2	5	1	5	0	
4	6	5	0	2	5	0	5	1	5	2	5	5	5	4	
3	6	5	4	4	0	4	1	4	2	4	5	4	4	
4	8	9	8	7	9	0	9	1	9	2	9	3	9	4	
3	7	6	5	5	0	5	1	5	2	5	5	5	4	
2	4	5	4	0	4	1	4	2	4	5	4	4	
2	5	4	4	0	4	1	4	2	4	1	4	0	
4	3	9	8	6	3	0	3	1	3	2	3	5	9	4	
3	7	6	5	5	0	5	1	5	5	5	3	5	4	
2	9	3	3	0	3	1	3	5	3	3	3	4	
4	7	6	5	0	5	0	5	1	5	5	5	3	5	4	
2	9	5	9	0	9	1	9	5	9	3	9	4	
3	3	9	5	3	0	3	1	9	2	9	3	9	4	
4	6	8	9	8	9	0	9	1	9	2	9	1	9	0	
2	4	2	4	0	4	1	4	2	4	1	4	0	
2	5	9	9	0	9	1	9	2	9	5	9	4	
3	3	1	0	3	0	3	1	3	2	3	5	3	4	
4	4	5	6	7	5	0	5	1	5	2	5	1	5	0	
2	9	8	9	0	9	1	9	2	9	5	9	4	
4	2	3	9	8	3	0	3	1	3	5	3	3	3	4	
3	5	0	2	5	0	5	1	5	2	5	3	5	4	
4	8	9	5	0	9	0	9	1	9	5	9	3	9	4	
4	8	9	3	1	3	0	3	1	3	2	3	1	3	0	
5	1	0	5	6	7	5	0	5	1	5	5	5	3	5	4	
4	6	5	6	7	5	0	5	1	5	5	5	3	5	4	
4	8	9	5	6	9	0	9	1	9	5	9	3	9	4	
4	3	9	8	7	3	0	3	1	3	2	3	1	3	0	
3	2	0	5	5	0	5	1	5	2	5	5	5	4	
3	9	8	6	9	0	9	1	9	2	9	5	9	4	
2	3	2	3	0	3	1	3	2	3	1	3	0	
2	4	1	4	0	4	1	4	2	4	3	4	4	
4	2	0	5	6	5	0	5	1	5	2	5	3	5	4	
2	4	3	3	0	3	1	3	2	3	5	3	4	
3	0	1	4	4	0	4	1	4	5	4	3	4	4	
3	4	5	6	4	0	4	1	4	2	4	5	4	4	
2	3	9	3	0	3	1	3	2	3	5	9	4	
4	1	0	5	0	5	0	5	1	5	2	5	5	5	4	
3	8	6	5	5	0	5	1	5	2	5	5	5	4	
3	9	5	4	9	0	4	1	4	2	4	1	4	0	
4	0	5	9	8	9	0	9	1	9	5	9	3	9	4	
2	5	6	5	0	5	1	5	5	5	3	5	4	
2	3	4	3	0	3	1	3	2	3	3	3	4	
2	1	3	3	0	3	1	3	2	3	3	3	4	
4	7	8	9	8	9	0	9	1	9	2	9	1	9	0	
2	2	4	4	0	4	1	4	2	4	1	4	0	
3	4	5	9	9	0	9	1	9	5	9	3	9	4	
3	2	3	9	3	0	3	1	3	2	3	1	3	0	
3	5	0	1	5	0	5	1	5	2	5	3	5	4	
3	0	1	3	3	0	3	1	3	2	3	5	3	4	
4	6	5	0	2	5	0	5	1	5	2	5	1	5	0	
4	8	9	8	7	9	0	9	1	9	2	9	1	9	0	
2	4	5	4	0	4	1	4	5	4	3	4	4	
4	7	8	9	8	9	0	9	1	9	2	9	5	9	4	
4	3	9	8	6	3	0	3	1	3	5	3	3	9	4	
2	9	3	3	0	3	1	3	2	3	5	3	4	
2	9	5	9	0	9	1	9	2	9	5	9	4	
2	4	2	4	0	4	1	4	2	4	3	4	4	
5	2	0	5	6	7	5	0	5	1	5	2	5	3	5	4	
