3200.98	2400.89
681
19996.2	14616.9
10
0	2150	2160
1	2007	2085
2	1088	1560
3	2125	2390
4	1606	1941
5	3185	3211
6	2277	2658
7	0	-1
8	0	-1
9	3208	3344
34
0	1	66.571588	130.941429	1.000000
0	2	44.418026	134.754982	1.000000
0	5	121.970642	148.738619	1.000000
1	0	66.537402	130.941429	1.000000
1	2	11.099572	146.196555	1.000000
1	3	43.926766	143.653577	1.000000
1	4	22.129186	146.196555	1.000000
2	0	44.217164	134.754982	1.000000
2	1	11.186086	146.196555	1.000000
2	3	32.507396	134.754982	1.000000
2	4	11.276678	129.669940	1.000000
3	1	44.200572	143.653577	1.000000
3	2	33.878758	134.754982	1.000000
3	4	11.041938	125.855474	1.000000
3	9	99.127092	115.685390	1.000000
4	1	22.468118	146.196555	1.000000
4	2	11.091458	129.669940	1.000000
4	3	11.266978	125.855474	1.000000
4	5	55.678424	116.956879	1.000000
5	0	122.315628	148.738619	1.000000
5	4	55.576782	116.956879	1.000000
5	6	122.339656	123.313409	1.000000
5	9	66.228314	139.840024	1.000000
6	5	123.203358	123.313409	1.000000
6	7	77.575646	138.568535	1.000000
6	8	55.245880	143.653577	1.000000
7	6	77.770550	138.568535	1.000000
7	8	22.139136	134.754982	1.000000
8	6	56.962778	143.653577	1.000000
8	7	22.165844	134.754982	1.000000
8	9	110.360342	114.414814	1.000000
9	3	100.220512	115.685390	1.000000
9	5	66.366222	139.840024	1.000000
9	8	111.029094	114.414814	1.000000
360
3	3	1	0	3	0	3	1	3	5	3	3	0	4	
2	8	9	9	0	9	1	9	2	9	3	9	4	
2	8	9	9	0	9	1	9	2	9	1	9	0	
2	9	8	9	0	9	1	9	5	9	3	9	4	
4	2	3	9	8	9	0	9	1	9	2	9	5	9	4	
3	5	0	2	5	0	5	1	5	2	5	1	5	0	
2	0	2	0	0	0	1	0	2	0	1	0	0	
4	8	6	5	0	5	0	0	1	0	2	0	5	0	4	
5	1	0	5	6	7	1	0	1	1	1	2	1	5	5	4	
2	8	6	6	0	6	1	6	2	6	5	6	4	
4	3	9	8	7	3	0	3	1	3	2	3	3	3	4	
2	1	2	2	0	2	1	2	2	2	3	2	4	
5	7	6	5	0	1	6	0	6	1	6	5	6	3	1	4	
3	2	0	5	2	0	2	1	2	5	2	3	2	4	
3	9	5	6	5	0	5	1	5	5	5	3	5	4	
2	4	1	1	0	1	1	1	2	1	1	1	0	
2	5	0	5	0	5	1	5	2	5	3	5	4	
3	0	1	4	0	0	0	1	0	2	0	5	4	4	
2	7	6	6	0	6	1	6	2	6	5	6	4	
2	0	1	0	0	0	1	0	2	0	3	1	4	
2	3	9	3	0	3	1	3	2	3	1	3	0	
2	1	0	0	0	0	1	0	5	0	3	0	4	
3	7	6	5	5	0	5	1	5	2	5	3	5	4	
4	0	5	9	8	0	0	9	1	9	2	9	5	9	4	
2	3	4	4	0	4	1	4	2	4	1	4	0	
2	4	3	4	0	4	1	4	2	4	3	4	4	
2	2	4	4	0	4	1	4	2	4	3	4	4	
4	6	5	0	1	6	0	6	1	6	2	6	5	1	4	
3	5	6	7	5	0	5	1	5	5	5	3	5	4	
3	5	0	1	0	0	0	1	0	5	0	3	0	4	
3	0	1	3	3	0	3	1	3	5	3	3	3	4	
4	6	5	0	2	0	0	0	1	0	2	0	3	0	4	
4	4	5	6	8	4	0	6	1	6	5	6	3	6	4	
4	3	9	8	6	9	0	6	1	6	2	6	3	6	4	
2	9	3	3	0	3	1	3	2	3	1	3	0	
3	7	8	9	9	0	9	1	9	5	9	3	9	4	
2	4	2	4	0	4	1	4	5	4	3	4	4	
5	2	0	5	6	7	2	0	2	1	2	2	2	1	6	0	
3	6	5	0	0	0	0	1	0	2	0	1	0	0	
5	7	6	5	0	1	6	0	6	1	6	2	6	5	1	4	
2	9	8	9	0	9	1	9	2	9	3	9	4	
3	5	0	2	0	0	0	1	0	2	0	5	0	4	
2	0	2	2	0	2	1	2	2	2	3	2	4	
4	8	6	5	0	6	0	0	1	0	2	0	1	0	0	
5	1	0	5	6	7	1	0	1	1	1	2	1	1	6	0	
4	7	6	5	4	4	0	4	1	4	2	4	3	4	4	
2	3	1	1	0	1	1	1	5	1	3	1	4	
4	3	9	8	7	3	0	3	1	3	5	3	3	3	4	
2	1	2	2	0	2	1	2	2	2	1	2	0	
3	2	0	5	5	0	5	1	5	2	5	3	5	4	
2	4	1	4	0	4	1	4	2	4	5	1	4	
2	5	0	5	0	5	1	5	2	5	1	5	0	
3	0	1	4	0	0	0	1	0	2	0	1	4	0	
4	6	8	9	3	9	0	9	1	9	2	9	3	9	4	
2	6	8	6	0	6	1	6	2	6	5	6	4	
2	7	6	6	0	6	1	6	5	6	3	6	4	
3	9	8	7	9	0	9	1	9	5	9	3	9	4	
2	0	1	0	0	0	1	0	2	0	1	0	0	
2	3	9	3	0	3	1	3	2	3	3	3	4	
2	1	0	0	0	0	1	0	2	0	3	0	4	
4	0	5	9	8	0	0	5	1	5	2	5	1	5	0	
2	3	4	4	0	4	1	4	2	4	5	4	4	
2	4	3	4	0	4	1	4	2	4	1	4	0	
2	2	4	4	0	4	1	4	5	4	3	4	4	
4	6	5	0	1	5	0	5	1	5	5	5	3	5	4	
4	8	6	5	4	5	0	5	1	5	5	4	3	4	4	
3	5	6	7	5	0	5	1	5	2	5	5	5	4	
3	5	0	1	0	0	0	1	0	2	0	5	1	4	
3	0	1	3	0	0	0	1	0	2	0	3	3	4	
4	4	5	6	8	4	0	6	1	6	2	6	5	6	4	
3	9	5	0	5	0	0	1	0	2	0	5	0	4	
3	7	6	8	6	0	6	1	6	5	6	3	6	4	
2	2	1	2	0	2	1	2	2	2	5	2	4	
4	3	9	8	6	3	0	3	1	3	2	3	1	3	0	
2	9	3	3	0	3	1	3	2	3	3	3	4	
2	4	2	4	0	4	1	4	2	4	5	4	4	
5	2	0	5	6	7	5	0	5	1	5	2	5	5	6	4	
3	6	5	0	0	0	0	1	0	2	0	3	0	4	
3	8	9	3	3	0	3	1	3	2	3	5	3	4	
2	1	4	1	0	1	1	1	2	1	5	4	4	
5	7	6	5	0	1	6	0	6	1	6	2	6	1	1	0	
2	9	8	9	0	9	1	9	2	9	1	9	0	
3	5	0	2	5	0	2	1	2	5	2	3	2	4	
2	0	2	0	0	0	1	0	5	0	3	0	4	
3	3	9	8	3	0	3	1	3	2	3	3	3	4	
4	8	6	5	0	6	0	0	1	0	2	0	3	0	4	
5	1	0	5	6	7	1	0	1	1	1	2	1	3	6	4	
4	7	6	5	4	5	0	5	1	5	2	5	1	5	0	
3	9	3	1	3	0	1	1	1	2	1	1	1	0	
2	2	0	0	0	0	1	0	2	0	1	0	0	
2	3	1	1	0	1	1	1	2	1	5	1	4	
4	1	3	9	8	1	0	3	1	3	2	3	5	3	4	
4	3	9	8	7	3	0	3	1	3	2	3	5	3	4	
2	1	2	2	0	2	1	2	2	2	5	2	4	
3	2	0	5	5	0	5	1	5	2	5	1	5	0	
4	0	5	6	7	5	0	5	1	5	2	5	5	6	4	
2	4	1	4	0	4	1	4	5	4	3	4	4	
3	0	1	4	0	0	0	1	0	2	0	3	0	4	
4	6	8	9	3	3	0	3	1	3	2	3	1	3	0	
4	8	9	3	2	3	0	3	1	3	2	3	1	3	0	
3	1	0	5	0	0	0	1	0	2	0	1	0	0	
2	7	6	6	0	6	1	6	2	6	3	6	4	
3	9	8	7	9	0	9	1	9	2	9	5	9	4	
2	0	1	0	0	0	1	0	2	0	5	0	4	
2	1	0	1	0	1	1	1	2	1	1	1	0	
3	9	3	2	3	0	3	1	3	2	3	3	3	4	
2	2	3	3	0	3	1	3	2	3	3	3	4	
4	0	5	9	8	0	0	9	1	9	2	9	3	9	4	
3	1	3	9	1	0	1	1	1	2	1	1	1	0	
2	3	4	4	0	4	1	4	5	4	3	4	4	
2	2	4	4	0	4	1	4	2	4	5	4	4	
3	0	5	6	5	0	5	1	5	2	5	1	5	0	
4	6	5	0	1	6	0	6	1	6	2	6	3	1	4	
4	8	9	5	4	5	0	5	1	5	2	5	5	5	4	
2	8	9	9	0	9	1	9	5	9	3	9	4	
3	5	6	7	5	0	5	1	5	2	5	1	5	0	
3	0	1	3	1	0	1	1	1	2	1	1	1	0	
4	8	9	3	1	1	0	1	1	1	2	1	3	1	4	
4	1	0	5	6	6	0	6	1	6	2	6	3	6	4	
4	4	5	6	8	6	0	6	1	6	2	6	1	6	0	
3	9	5	0	5	0	5	1	0	5	0	3	0	4	
2	2	1	1	0	1	1	1	5	1	3	1	4	
5	7	6	5	0	2	6	0	2	1	2	2	2	5	2	4	
5	2	0	5	6	7	2	0	2	1	2	5	2	3	6	4	
3	8	6	5	5	0	5	1	5	5	5	3	5	4	
2	0	5	0	0	0	1	0	2	0	3	5	4	
3	6	5	0	0	0	0	1	0	5	0	3	0	4	
3	8	9	3	3	0	3	1	3	5	3	3	3	4	
2	1	4	1	0	1	1	1	5	1	3	1	4	
5	7	6	5	0	1	6	0	6	1	6	2	6	3	1	4	
2	0	2	0	0	0	1	0	2	0	5	2	4	
3	3	9	8	3	0	3	1	3	2	3	1	3	0	
4	7	6	5	4	5	0	5	1	5	2	5	5	5	4	
3	9	3	1	3	0	3	1	3	2	3	3	3	4	
2	2	0	0	0	0	1	0	2	0	3	0	4	
2	6	8	6	0	6	1	6	5	6	3	6	4	
3	0	5	9	0	0	5	1	5	2	5	3	5	4	
2	3	1	1	0	1	1	1	2	1	1	1	0	
2	6	5	5	0	5	1	5	2	5	5	5	4	
4	1	3	9	8	1	0	1	1	1	5	1	3	1	4	
2	1	2	1	0	1	1	1	5	1	3	1	4	
3	5	9	3	3	0	3	1	3	5	3	3	3	4	
4	0	5	6	7	0	0	0	1	0	5	0	3	0	4	
4	7	8	9	3	3	0	3	1	3	2	3	1	3	0	
4	8	9	3	1	1	0	1	1	1	5	1	3	1	4	
3	6	8	9	9	0	9	1	9	2	9	5	9	4	
4	6	8	9	3	3	0	3	1	3	2	3	5	3	4	
4	8	9	3	2	9	0	9	1	9	2	9	3	9	4	
3	1	0	5	1	0	1	1	1	2	1	3	5	4	
2	7	6	6	0	6	1	6	2	6	1	6	0	
3	9	8	7	9	0	9	1	9	2	9	1	9	0	
3	5	9	8	5	0	5	1	5	2	5	5	5	4	
2	0	1	1	0	1	1	1	5	1	3	1	4	
3	4	1	0	1	0	1	1	1	5	1	3	1	4	
3	9	3	2	9	0	9	1	9	2	9	1	9	0	
2	2	3	2	0	2	1	3	2	3	1	3	0	
3	6	5	4	4	0	4	1	4	2	4	1	4	0	
3	1	3	9	1	0	1	1	1	2	1	3	1	4	
2	5	4	4	0	4	1	4	2	4	5	4	4	
3	0	5	6	0	0	0	1	0	2	0	3	0	4	
4	6	5	0	1	1	0	1	1	1	2	1	1	1	0	
4	8	9	5	4	9	0	5	1	5	2	5	1	4	0	
4	7	6	5	0	0	0	0	1	0	2	0	3	0	4	
3	5	6	7	6	0	6	1	6	2	6	3	6	4	
3	3	9	5	3	0	5	1	5	5	5	3	5	4	
3	7	8	9	9	0	9	1	9	2	9	5	9	4	
4	1	0	5	6	1	0	1	1	1	2	1	1	6	0	
4	4	5	9	8	4	0	9	1	9	2	9	3	9	4	
3	9	5	0	0	0	0	1	0	2	0	3	0	4	
2	2	1	1	0	1	1	1	2	1	3	1	4	
2	5	9	5	0	5	1	5	2	5	1	5	0	
4	4	5	6	7	6	0	6	1	6	2	6	5	6	4	
2	5	0	0	0	0	1	0	5	0	3	0	4	
2	6	7	6	0	6	1	6	2	6	3	6	4	
5	7	6	5	0	2	6	0	2	1	2	5	2	3	2	4	
2	0	5	0	0	0	1	0	2	0	1	0	0	
3	6	5	0	0	0	0	1	0	2	0	5	0	4	
3	8	9	3	3	0	3	1	3	2	3	3	3	4	
2	1	4	1	0	1	1	1	2	1	3	1	4	
2	3	2	2	0	2	1	2	2	2	5	2	4	
3	3	9	8	9	0	9	1	9	2	9	5	9	4	
4	2	0	5	6	5	0	5	1	5	5	5	3	5	4	
4	7	6	5	4	5	0	5	1	5	5	5	3	5	4	
3	9	3	1	1	0	1	1	1	5	1	3	1	4	
2	2	0	0	0	0	1	0	5	0	3	0	4	
3	0	5	9	5	0	5	1	5	2	5	1	5	0	
2	3	1	1	0	1	1	1	2	1	3	1	4	
2	6	5	5	0	5	1	5	5	5	3	5	4	
4	1	3	9	8	1	0	1	1	1	2	1	3	1	4	
3	4	5	6	5	0	5	1	5	2	5	1	5	0	
3	5	9	3	5	0	3	1	3	2	3	5	3	4	
4	0	5	6	7	6	0	6	1	6	2	6	3	6	4	
4	7	8	9	3	3	0	3	1	3	2	3	3	3	4	
3	9	5	4	9	0	4	1	4	2	4	5	4	4	
2	5	6	5	0	5	1	5	2	5	3	5	4	
3	6	5	9	5	0	5	1	5	5	5	3	5	4	
2	1	3	1	0	1	1	1	5	1	3	1	4	
4	6	5	9	3	6	0	3	1	3	5	3	3	3	4	
4	8	9	3	2	9	0	9	1	9	5	9	3	9	4	
3	1	0	5	1	0	1	1	1	5	1	3	1	4	
3	4	5	9	9	0	9	1	9	2	9	3	9	4	
3	9	8	7	9	0	9	1	9	2	9	3	9	4	
3	5	6	8	5	0	5	1	5	5	5	3	6	4	
2	8	9	9	0	9	1	9	2	9	5	9	4	
3	4	1	0	1	0	1	1	1	2	1	5	1	4	
3	2	3	9	3	0	3	1	3	2	3	5	3	4	
3	9	3	2	9	0	9	1	9	2	9	5	9	4	
2	2	3	3	0	3	1	3	2	3	5	3	4	
3	6	5	4	6	0	6	1	6	2	6	3	6	4	
3	8	6	7	6	0	6	1	6	2	6	5	6	4	
3	1	3	9	1	0	1	1	1	5	1	3	1	4	
2	4	5	5	0	5	1	5	2	5	3	5	4	
2	5	4	5	0	5	1	5	5	5	3	5	4	
3	0	5	6	0	0	0	1	0	5	0	3	0	4	
4	8	9	5	4	9	0	5	1	5	2	5	3	4	4	
4	7	6	5	0	0	0	0	1	0	2	0	1	0	0	
2	9	5	5	0	5	1	5	2	5	1	5	0	
2	6	8	6	0	6	1	6	2	6	3	6	4	
3	7	8	9	9	0	9	1	9	2	9	1	9	0	
4	1	0	5	6	0	0	0	1	0	2	0	5	5	4	
3	9	5	0	0	0	0	1	0	2	0	1	0	0	
3	7	6	5	5	0	5	1	5	2	5	1	5	0	
2	2	1	1	0	1	1	1	2	1	1	1	0	
2	5	9	5	0	5	1	5	2	5	3	5	4	
3	3	1	0	1	0	1	1	1	2	1	3	1	4	
4	4	5	6	7	4	0	4	1	4	5	4	3	4	4	
4	2	3	9	8	3	0	3	1	3	2	3	1	3	0	
2	6	7	6	0	6	1	6	2	6	1	6	0	
2	8	6	6	0	6	1	6	2	6	1	6	0	
5	7	6	5	0	2	0	0	0	1	0	2	0	3	0	4	
3	3	9	5	3	0	5	1	5	2	5	5	5	4	
2	0	5	0	0	0	1	0	2	0	5	5	4	
3	8	9	3	3	0	3	1	3	2	3	1	3	0	
2	1	4	1	0	1	1	1	2	1	1	1	0	
3	9	8	6	9	0	9	1	9	2	9	3	9	4	
2	3	2	3	0	3	1	3	5	3	3	3	4	
3	3	9	8	3	0	3	1	3	5	3	3	3	4	
4	8	9	3	1	1	0	1	1	1	2	1	5	1	4	
4	2	0	5	6	2	0	2	1	2	2	2	5	6	4	
3	9	3	1	9	0	9	1	9	2	9	5	9	4	
2	2	0	0	0	0	1	0	2	0	5	0	4	
3	0	5	9	9	0	9	1	9	2	9	5	9	4	
2	6	5	5	0	5	1	5	2	5	3	5	4	
4	1	3	9	8	1	0	1	1	1	2	1	1	1	0	
3	4	5	6	4	0	4	1	4	2	4	3	4	4	
3	5	9	3	5	0	3	1	3	2	3	1	3	0	
4	0	5	6	7	6	0	6	1	6	2	6	1	6	0	
3	8	9	5	9	0	5	1	5	2	5	3	5	4	
4	7	8	9	3	3	0	3	1	3	5	3	3	3	4	
3	9	5	4	4	0	4	1	4	5	4	3	4	4	
2	5	6	5	0	5	1	5	2	5	1	5	0	
2	4	3	4	0	4	1	4	5	4	3	4	4	
3	6	8	9	6	0	9	1	9	2	9	3	9	4	
2	1	3	1	0	1	1	1	2	1	5	1	4	
4	8	9	3	2	9	0	9	1	9	2	9	5	9	4	
3	1	0	5	1	0	1	1	1	2	1	5	5	4	
3	4	5	9	4	0	9	1	9	2	9	1	9	0	
3	5	6	8	5	0	5	1	5	2	5	3	6	4	
3	4	1	0	4	0	4	1	4	2	4	1	0	0	
3	2	3	9	9	0	9	1	9	5	9	3	9	4	
3	9	3	2	9	0	9	1	9	5	9	3	9	4	
2	2	3	3	0	3	1	3	5	3	3	3	4	
4	6	5	0	2	6	0	2	1	2	5	2	3	2	4	
3	6	5	4	6	0	6	1	6	5	6	3	6	4	
3	8	6	7	6	0	6	1	6	5	6	3	6	4	
3	1	3	9	1	0	1	1	1	2	9	5	9	4	
2	4	5	5	0	5	1	5	2	5	1	5	0	
2	5	4	5	0	5	1	5	2	5	3	5	4	
3	0	5	6	6	0	6	1	6	2	6	5	6	4	
4	7	6	5	0	5	0	5	1	5	2	5	5	0	4	
2	9	5	5	0	5	1	5	2	5	3	5	4	
3	3	9	5	3	0	5	1	5	2	5	1	5	0	
3	7	8	9	9	0	9	1	9	2	9	3	9	4	
4	1	0	5	6	1	0	1	1	1	5	1	3	1	4	
2	5	9	5	0	5	1	5	5	5	3	5	4	
3	3	1	0	1	0	1	1	1	2	1	1	1	0	
4	4	5	6	7	4	0	4	1	4	2	4	3	4	4	
4	2	3	9	8	3	0	3	1	3	2	3	3	3	4	
2	6	7	6	0	6	1	6	2	6	5	6	4	
2	8	6	6	0	6	1	6	2	6	3	6	4	
5	7	6	5	0	2	6	0	2	1	2	2	2	1	2	0	
2	0	5	5	0	5	1	5	5	5	3	5	4	
3	9	8	6	9	0	9	1	9	2	9	1	9	0	
2	3	2	3	0	3	1	3	2	3	3	3	4	
4	2	0	5	6	2	0	2	1	2	2	2	1	6	0	
2	5	0	5	0	5	1	5	2	5	5	0	4	
3	0	5	9	9	0	9	1	9	5	9	3	9	4	
2	6	5	5	0	5	1	5	2	5	1	5	0	
3	4	5	6	4	0	4	1	4	5	4	3	4	4	
3	5	9	3	5	0	3	1	3	2	3	3	3	4	
2	3	9	3	0	3	1	3	5	3	3	3	4	
3	8	6	5	5	0	5	1	5	2	5	1	5	0	
4	7	8	9	3	3	0	3	1	3	2	3	5	3	4	
3	9	5	4	4	0	4	1	4	2	4	3	4	4	
2	5	6	5	0	5	1	5	2	5	5	5	4	
3	6	8	9	9	0	9	1	9	2	9	1	9	0	
2	1	3	1	0	1	1	1	2	1	1	1	0	
3	7	6	8	6	0	6	1	6	2	6	3	6	4	
3	4	5	9	4	0	9	1	9	2	9	5	9	4	
3	5	9	8	5	0	5	1	5	2	5	1	5	0	
3	4	1	0	1	0	1	1	1	2	1	3	1	4	
3	2	3	9	9	0	9	1	9	2	9	3	9	4	
3	5	0	1	1	0	1	1	1	2	1	1	1	0	
4	6	5	0	2	6	0	2	1	2	2	2	5	2	4	
3	6	5	4	5	0	5	1	5	2	5	5	5	4	
3	8	6	7	6	0	6	1	6	2	6	3	6	4	
3	7	6	5	5	0	5	1	5	2	5	5	5	4	
2	4	5	4	0	4	1	4	2	4	5	5	4	
2	5	4	4	0	4	1	4	2	4	1	4	0	
4	3	9	8	6	3	0	3	1	3	2	3	5	3	4	
3	7	6	5	5	0	5	1	5	5	5	3	5	4	
2	9	3	3	0	3	1	3	5	3	3	3	4	
4	7	6	5	0	0	0	0	1	0	5	0	3	0	4	
2	9	5	9	0	9	1	9	5	9	3	9	4	
3	3	9	5	3	0	5	1	5	2	5	3	5	4	
2	6	8	6	0	6	1	6	2	6	1	6	0	
2	4	2	4	0	4	1	4	2	4	1	4	0	
2	5	9	9	0	9	1	9	2	9	5	9	4	
3	3	1	0	1	0	1	1	1	2	1	5	1	4	
4	4	5	6	7	6	0	6	1	6	2	6	1	6	0	
2	9	8	9	0	9	1	9	2	9	5	9	4	
4	2	3	9	8	9	0	9	1	9	5	9	3	9	4	
3	5	0	2	0	0	0	1	0	2	0	3	0	4	
4	8	9	5	0	0	0	0	1	0	5	0	3	0	4	
4	8	9	3	1	1	0	1	1	1	2	1	1	1	0	
5	1	0	5	6	7	1	0	1	1	1	5	1	3	6	4	
2	6	7	6	0	6	1	6	5	6	3	6	4	
2	8	6	6	0	6	1	6	5	6	3	6	4	
4	3	9	8	7	3	0	3	1	3	2	3	1	3	0	
3	2	0	5	0	0	0	1	0	2	0	5	5	4	
3	9	8	6	9	0	9	1	9	2	9	5	9	4	
2	3	2	2	0	2	1	2	2	2	1	2	0	
2	4	1	1	0	1	1	1	2	1	3	1	4	
4	2	0	5	6	2	0	2	1	2	2	2	3	2	4	
2	4	3	4	0	4	1	4	2	4	5	4	4	
3	0	1	4	1	0	1	1	1	5	1	3	1	4	
3	4	5	6	4	0	5	1	5	2	5	5	5	4	
2	3	9	3	0	3	1	3	2	3	5	3	4	
2	1	0	1	0	1	1	1	2	1	5	1	4	
3	8	9	5	5	0	5	1	5	2	5	5	5	4	
3	9	5	4	4	0	4	1	4	2	4	1	4	0	
4	0	5	9	8	0	0	9	1	9	5	9	3	9	4	
2	5	6	5	0	5	1	5	5	5	3	5	4	
2	3	4	4	0	4	1	4	2	4	3	4	4	
2	1	3	1	0	1	1	1	2	1	3	1	4	
3	7	6	8	6	0	6	1	6	2	6	1	6	0	
2	2	4	4	0	4	1	4	2	4	1	4	0	
3	4	5	9	4	0	9	1	9	5	9	3	9	4	
3	2	3	9	9	0	9	1	9	2	9	1	9	0	
3	5	0	1	0	0	0	1	0	2	0	3	0	4	
3	0	1	3	0	0	0	1	0	2	0	5	3	4	
4	6	5	0	2	6	0	2	1	2	2	2	1	2	0	
3	8	6	7	6	0	6	1	6	2	6	1	6	0	
2	4	5	4	0	4	1	4	5	4	3	4	4	
3	7	6	8	6	0	6	1	6	2	6	5	6	4	
4	3	9	5	6	3	0	9	1	9	5	9	3	6	4	
2	9	3	9	0	9	1	9	2	9	5	9	4	
2	9	5	9	0	9	1	9	2	9	5	5	4	
2	4	2	4	0	4	1	4	2	4	3	4	4	
5	2	0	5	6	7	0	0	0	1	0	2	0	3	0	4	
