2664.94	1864.94
630
15056.5	10996.1
10
0	1830	1837
1	2021	2138
2	1476	1480
3	2092	2370
4	1835	1861
5	2034	2098
6	1539	1542
7	0	-1
8	2619	2710
9	2200	2202
34
0	1	66.571588	200.921360	1.000000
0	2	44.418026	206.773289	1.000000
0	5	121.970642	228.231387	1.000000
1	0	66.537402	200.921360	1.000000
1	2	11.099572	224.329078	1.000000
1	3	43.926766	220.428303	1.000000
1	4	22.129186	224.329078	1.000000
2	0	44.217164	206.773289	1.000000
2	1	11.186086	224.329078	1.000000
2	3	32.507396	206.773289	1.000000
2	4	11.276678	198.970205	1.000000
3	1	44.200572	220.428303	1.000000
3	2	33.878758	206.773289	1.000000
3	4	11.041938	193.118276	1.000000
3	9	99.127092	177.513642	1.000000
4	1	22.468118	224.329078	1.000000
4	2	11.091458	198.970205	1.000000
4	3	11.266978	193.118276	1.000000
4	5	55.678424	179.463262	1.000000
5	0	122.315628	228.231387	1.000000
5	4	55.576782	179.463262	1.000000
5	6	167.193312	189.217501	1.000000
5	9	66.273070	214.576374	1.000000
6	5	166.808412	189.217501	1.000000
6	7	66.608684	212.625219	1.000000
6	8	44.278130	220.428303	1.000000
7	6	66.847556	212.625219	1.000000
7	8	33.062130	206.773289	1.000000
8	6	44.702458	220.428303	1.000000
8	7	33.132806	206.773289	1.000000
8	9	66.755288	175.562488	1.000000
9	3	100.220512	177.513642	1.000000
9	5	67.659580	214.576374	1.000000
9	8	66.175438	175.562488	1.000000
360
3	3	1	0	3	0	1	1	0	5	0	3	0	4	
2	8	9	8	0	8	1	8	2	8	3	8	4	
2	8	9	9	0	9	1	9	2	9	1	9	0	
2	9	8	9	0	9	1	9	5	9	3	9	4	
4	2	3	9	8	2	0	3	1	3	2	3	5	8	4	
3	5	0	2	5	0	5	1	5	2	5	1	2	0	
2	0	2	0	0	0	1	0	2	0	1	2	0	
4	8	6	5	0	6	0	6	1	6	2	5	5	0	4	
5	1	0	5	6	7	1	0	1	1	1	2	1	5	6	4	
2	8	6	8	0	8	1	8	2	8	5	8	4	
4	3	9	8	7	8	0	8	1	8	2	8	3	8	4	
2	1	2	2	0	2	1	2	2	2	3	2	4	
5	7	6	5	0	1	6	0	6	1	6	5	6	3	1	4	
3	2	0	5	2	0	2	1	2	5	2	3	2	4	
3	9	5	6	9	0	9	1	9	5	9	3	9	4	
2	4	1	1	0	1	1	1	2	1	1	1	0	
2	5	0	5	0	5	1	5	2	5	3	5	4	
3	0	1	4	0	0	0	1	0	2	0	5	4	4	
2	7	6	6	0	6	1	6	2	6	5	6	4	
2	0	1	1	0	1	1	1	2	1	3	1	4	
2	3	9	9	0	9	1	9	2	9	1	9	0	
2	1	0	0	0	0	1	0	5	0	3	0	4	
3	7	6	5	5	0	5	1	5	2	5	3	5	4	
4	0	5	6	8	0	0	5	1	5	2	5	5	8	4	
2	3	4	3	0	3	1	3	2	3	1	3	0	
2	4	3	3	0	3	1	3	2	3	3	3	4	
2	2	4	2	0	2	1	2	2	2	3	4	4	
4	6	5	0	1	6	0	6	1	6	2	6	5	1	4	
3	5	6	7	5	0	5	1	5	5	5	3	5	4	
3	5	0	1	0	0	0	1	0	5	0	3	0	4	
3	0	1	3	3	0	3	1	3	5	3	3	3	4	
4	6	5	0	2	0	0	0	1	0	2	0	3	0	4	
4	4	5	6	8	4	0	8	1	8	5	8	3	8	4	
4	3	9	5	6	3	0	9	1	9	2	9	3	6	4	
2	9	3	9	0	9	1	9	2	9	1	3	0	
3	7	8	9	9	0	9	1	9	5	9	3	9	4	
2	4	2	2	0	2	1	2	5	2	3	2	4	
5	2	0	5	6	7	0	0	0	1	0	2	0	1	5	0	
3	6	5	0	5	0	5	1	5	2	5	1	5	0	
5	7	6	5	0	1	6	0	6	1	6	2	6	5	1	4	
2	9	8	9	0	9	1	9	2	9	3	8	4	
3	5	0	2	5	0	2	1	2	2	2	5	2	4	
2	0	2	0	0	0	1	0	2	0	3	0	4	
4	8	6	5	0	8	0	8	1	8	2	8	1	5	0	
5	1	0	5	6	7	1	0	1	1	1	2	1	1	6	0	
4	7	6	5	4	5	0	5	1	5	2	5	3	5	4	
2	3	1	1	0	1	1	1	5	1	3	1	4	
4	3	9	8	7	9	0	9	1	9	5	9	3	9	4	
2	1	2	2	0	2	1	2	2	2	1	2	0	
3	2	0	5	0	0	0	1	0	2	0	3	0	4	
2	4	1	1	0	1	1	1	2	1	5	1	4	
2	5	0	0	0	0	1	0	2	0	1	0	0	
3	0	1	4	0	0	0	1	0	2	0	1	0	0	
4	6	5	9	3	6	0	3	1	3	2	3	3	3	4	
2	6	8	8	0	8	1	8	2	8	5	8	4	
2	7	6	6	0	6	1	6	5	6	3	6	4	
3	9	8	7	9	0	9	1	9	5	9	3	9	4	
2	0	1	0	0	0	1	0	2	0	1	0	0	
2	3	9	9	0	9	1	9	2	9	3	9	4	
2	1	0	0	0	0	1	0	2	0	3	0	4	
4	0	5	6	8	0	0	5	1	5	2	5	1	8	0	
2	3	4	3	0	3	1	3	2	3	5	4	4	
2	4	3	3	0	3	1	3	2	3	1	3	0	
2	2	4	2	0	2	1	2	5	2	3	2	4	
4	6	5	0	1	0	0	0	1	0	5	0	3	0	4	
4	8	6	5	4	8	0	4	1	4	5	4	3	4	4	
3	5	6	7	5	0	5	1	5	2	5	5	5	4	
3	5	0	1	0	0	0	1	0	2	0	5	0	4	
3	0	1	3	0	0	0	1	0	2	0	3	3	4	
4	4	5	6	8	4	0	8	1	8	2	8	5	8	4	
3	9	5	0	9	0	9	1	9	2	9	5	5	4	
2	7	8	8	0	8	1	8	5	8	3	8	4	
2	2	1	2	0	2	1	2	2	2	5	2	4	
4	3	9	5	6	3	0	9	1	9	2	9	1	6	0	
2	9	3	3	0	3	1	3	2	3	3	3	4	
2	4	2	4	0	4	1	4	2	4	5	4	4	
5	2	0	5	6	7	2	0	2	1	2	2	2	5	6	4	
3	6	5	0	0	0	0	1	0	2	0	3	0	4	
3	8	9	3	3	0	3	1	3	2	3	5	3	4	
2	1	4	1	0	1	1	1	2	1	5	1	4	
5	7	6	5	0	1	6	0	6	1	6	2	6	1	1	0	
2	9	8	9	0	9	1	9	2	9	1	9	0	
3	5	0	2	5	0	2	1	2	5	2	3	2	4	
2	0	2	2	0	2	1	2	5	2	3	2	4	
3	3	9	8	9	0	8	1	8	2	8	3	8	4	
4	8	6	5	0	8	0	8	1	8	2	8	3	5	4	
5	1	0	5	6	7	6	0	6	1	6	2	6	3	6	4	
4	7	6	5	4	6	0	6	1	6	2	6	1	6	0	
3	9	3	1	9	0	9	1	9	2	9	1	9	0	
2	2	0	0	0	0	1	0	2	0	1	0	0	
2	3	1	3	0	3	1	3	2	3	5	3	4	
4	1	3	9	8	8	0	8	1	8	2	8	5	8	4	
4	3	9	8	7	9	0	9	1	9	2	9	5	9	4	
2	1	2	2	0	2	1	2	2	2	5	2	4	
3	2	0	5	0	0	0	1	0	2	0	1	0	0	
4	0	5	6	7	0	0	0	1	0	2	5	5	6	4	
2	4	1	4	0	4	1	4	5	4	3	4	4	
3	0	1	4	0	0	0	1	0	2	0	3	4	4	
4	6	5	9	3	9	0	9	1	9	2	9	1	9	0	
4	8	9	3	2	8	0	8	1	8	2	8	1	8	0	
3	1	0	5	0	0	0	1	0	2	0	1	0	0	
2	7	6	6	0	6	1	6	2	6	3	6	4	
3	9	8	7	8	0	8	1	8	2	8	5	8	4	
2	0	1	0	0	0	1	0	2	0	5	1	4	
2	1	0	0	0	0	1	0	2	0	1	0	0	
3	9	3	2	9	0	9	1	9	2	9	3	9	4	
2	2	3	3	0	3	1	3	2	3	3	3	4	
4	0	5	6	8	5	0	5	1	5	2	5	3	5	4	
3	1	3	9	9	0	9	1	9	2	9	1	9	0	
2	3	4	4	0	4	1	4	5	4	3	4	4	
2	2	4	4	0	4	1	4	2	4	5	4	4	
3	0	5	6	5	0	5	1	5	2	5	1	5	0	
4	6	5	0	1	6	0	6	1	6	2	6	3	1	4	
4	8	6	5	4	8	0	4	1	4	2	4	5	4	4	
2	8	9	9	0	9	1	9	5	9	3	9	4	
3	5	6	7	6	0	6	1	6	2	6	1	6	0	
3	0	1	3	0	0	0	1	0	2	0	1	0	0	
4	8	9	3	1	9	0	9	1	9	2	9	3	9	4	
4	1	0	5	6	0	0	0	1	0	2	0	3	0	4	
4	4	5	6	8	6	0	6	1	6	2	6	1	6	0	
3	9	5	0	0	0	0	1	0	5	0	3	0	4	
2	2	1	1	0	1	1	1	5	1	3	1	4	
5	7	6	5	0	2	6	0	6	1	6	2	0	5	2	4	
5	2	0	5	6	7	6	0	6	1	6	5	6	3	6	4	
3	8	6	5	6	0	6	1	6	5	6	3	6	4	
2	0	5	0	0	0	1	0	2	0	3	0	4	
3	6	5	0	6	0	6	1	6	5	6	3	6	4	
3	8	9	3	3	0	3	1	3	5	3	3	3	4	
2	1	4	1	0	1	1	1	5	1	3	1	4	
5	7	6	5	0	1	6	0	6	1	6	2	6	3	1	4	
2	0	2	0	0	0	1	0	2	0	5	2	4	
3	3	9	8	9	0	9	1	9	2	9	1	9	0	
4	7	6	5	4	4	0	4	1	4	2	4	5	4	4	
3	9	3	1	3	0	3	1	3	2	3	3	3	4	
2	2	0	0	0	0	1	0	2	0	3	0	4	
2	6	8	8	0	8	1	8	5	8	3	8	4	
3	0	5	9	9	0	9	1	9	2	9	3	9	4	
2	3	1	3	0	1	1	1	2	1	1	1	0	
2	6	5	6	0	6	1	6	2	5	5	5	4	
4	1	3	9	8	3	0	3	1	3	5	3	3	8	4	
2	1	2	1	0	1	1	1	5	1	3	1	4	
3	5	9	3	5	0	3	1	3	5	3	3	3	4	
4	0	5	6	7	6	0	6	1	6	5	6	3	6	4	
4	7	8	9	3	8	0	8	1	8	2	8	1	8	0	
4	8	9	3	1	9	0	9	1	9	5	9	3	3	4	
3	6	5	9	5	0	9	1	9	2	9	5	9	4	
4	6	5	9	3	6	0	3	1	3	2	3	5	3	4	
4	8	9	3	2	8	0	8	1	8	2	8	3	8	4	
3	1	0	5	1	0	1	1	1	2	1	3	5	4	
2	7	6	6	0	6	1	6	2	6	1	6	0	
3	9	8	7	9	0	9	1	9	2	9	1	9	0	
3	5	6	8	8	0	8	1	8	2	8	5	8	4	
2	0	1	1	0	1	1	1	5	1	3	1	4	
3	4	1	0	1	0	1	1	1	5	1	3	1	4	
3	9	3	2	9	0	9	1	9	2	9	1	9	0	
2	2	3	3	0	3	1	3	2	3	1	3	0	
3	6	5	4	6	0	6	1	6	2	6	1	6	0	
3	1	3	9	1	0	1	1	1	2	1	3	1	4	
2	5	4	4	0	4	1	4	2	4	5	4	4	
3	0	5	6	6	0	6	1	6	2	6	3	6	4	
4	6	5	0	1	1	0	1	1	1	2	1	1	1	0	
4	8	6	5	4	8	0	4	1	4	2	4	1	4	0	
4	7	6	5	0	6	0	6	1	6	2	6	3	6	4	
3	5	6	7	6	0	6	1	6	2	6	3	6	4	
3	3	9	5	3	0	5	1	5	5	5	3	5	4	
3	7	8	9	9	0	9	1	9	2	9	5	9	4	
4	1	0	5	6	1	0	1	1	1	2	1	1	6	0	
4	4	5	6	8	6	0	8	1	8	2	8	3	8	4	
3	9	5	0	0	0	0	1	0	2	0	3	0	4	
2	2	1	1	0	1	1	1	2	1	3	1	4	
2	5	9	5	0	5	1	5	2	9	1	9	0	
4	4	5	6	7	4	0	4	1	4	2	4	5	4	4	
2	5	0	0	0	0	1	0	5	0	3	0	4	
2	6	7	6	0	6	1	6	2	6	3	6	4	
5	7	6	5	0	2	0	0	0	1	0	5	0	3	0	4	
2	0	5	0	0	0	1	0	2	0	1	0	0	
3	6	5	0	5	0	5	1	5	2	5	5	5	4	
3	8	9	3	3	0	3	1	3	2	3	3	3	4	
2	1	4	1	0	1	1	1	2	1	3	1	4	
2	3	2	3	0	3	1	3	2	3	5	3	4	
3	3	9	8	8	0	8	1	8	2	8	5	8	4	
4	2	0	5	6	2	0	2	1	2	5	2	3	2	4	
4	7	6	5	4	4	0	4	1	4	5	4	3	4	4	
3	9	3	1	1	0	1	1	1	5	1	3	1	4	
2	2	0	2	0	2	1	2	5	2	3	2	4	
3	0	5	9	0	0	0	1	0	2	0	1	0	0	
2	3	1	1	0	1	1	1	2	1	3	1	4	
2	6	5	5	0	5	1	5	5	5	3	5	4	
4	1	3	9	8	1	0	1	1	1	2	1	3	1	4	
3	4	5	6	4	0	4	1	4	2	4	1	4	0	
3	5	9	3	9	0	9	1	9	2	9	5	3	4	
4	0	5	6	7	0	0	0	1	0	2	0	3	0	4	
4	7	8	9	3	9	0	9	1	9	2	9	3	9	4	
3	9	5	4	9	0	4	1	4	2	4	5	4	4	
2	5	6	5	0	5	1	5	2	5	3	5	4	
3	6	5	9	5	0	9	1	9	5	9	3	9	4	
2	1	3	1	0	1	1	1	5	1	3	1	4	
4	6	5	9	3	6	0	3	1	3	5	3	3	3	4	
4	8	9	3	2	2	0	2	1	2	5	2	3	2	4	
3	1	0	5	1	0	1	1	1	5	1	3	1	4	
3	4	5	9	9	0	9	1	9	2	9	3	9	4	
3	9	8	7	8	0	8	1	8	2	8	3	8	4	
3	5	6	8	8	0	8	1	8	5	8	3	8	4	
2	8	9	8	0	8	1	8	2	8	5	9	4	
3	4	1	0	1	0	1	1	1	2	1	5	1	4	
3	2	3	9	2	0	2	1	2	2	2	5	2	4	
3	9	3	2	3	0	3	1	3	2	3	5	3	4	
2	2	3	2	0	2	1	2	2	2	5	3	4	
3	6	5	4	5	0	5	1	5	2	5	3	5	4	
2	8	7	8	0	8	1	8	2	8	5	8	4	
3	1	3	9	1	0	1	1	1	5	1	3	1	4	
2	4	5	5	0	5	1	5	2	5	3	5	4	
2	5	4	5	0	5	1	5	5	5	3	5	4	
3	0	5	6	0	0	0	1	0	5	0	3	0	4	
4	8	6	5	4	8	0	4	1	4	2	4	3	4	4	
4	7	6	5	0	0	0	0	1	0	2	0	1	0	0	
2	9	5	9	0	9	1	9	2	9	1	9	0	
2	6	8	6	0	6	1	6	2	6	3	6	4	
3	7	8	9	9	0	9	1	9	2	9	1	9	0	
4	1	0	5	6	0	0	0	1	0	2	0	5	0	4	
3	9	5	0	0	0	0	1	0	2	0	1	0	0	
3	7	6	5	5	0	5	1	5	2	5	1	5	0	
2	2	1	1	0	1	1	1	2	1	1	1	0	
2	5	9	9	0	9	1	9	2	9	3	9	4	
3	3	1	0	1	0	1	1	1	2	1	3	1	4	
4	4	5	6	7	5	0	5	1	5	5	5	3	5	4	
4	2	3	9	8	9	0	9	1	9	2	9	1	9	0	
2	6	7	6	0	6	1	6	2	6	1	6	0	
2	8	6	6	0	6	1	6	2	6	1	6	0	
5	7	6	5	0	2	0	0	0	1	0	2	0	3	0	4	
3	3	9	5	3	0	5	1	5	2	5	5	5	4	
2	0	5	0	0	0	1	0	2	0	5	0	4	
3	8	9	3	9	0	9	1	9	2	9	1	9	0	
2	1	4	1	0	1	1	1	2	1	1	1	0	
3	9	5	6	6	0	6	1	6	2	6	3	6	4	
2	3	2	2	0	2	1	2	5	2	3	2	4	
3	3	9	8	9	0	9	1	9	5	9	3	9	4	
4	8	9	3	1	1	0	1	1	1	2	1	5	1	4	
4	2	0	5	6	2	0	2	1	2	2	2	5	6	4	
3	9	3	1	9	0	9	1	9	2	9	5	1	4	
2	2	0	2	0	2	1	2	2	2	5	0	4	
3	0	5	9	9	0	9	1	9	2	9	5	9	4	
2	6	5	5	0	5	1	5	2	5	3	5	4	
4	1	3	9	8	8	0	8	1	8	2	8	1	8	0	
3	4	5	6	4	0	4	1	4	2	4	3	4	4	
3	5	9	3	5	0	3	1	3	2	3	1	3	0	
4	0	5	6	7	6	0	6	1	6	2	6	1	6	0	
3	8	6	5	8	0	8	1	8	2	8	3	8	4	
4	7	8	9	3	8	0	8	1	8	5	8	3	8	4	
3	9	5	4	4	0	4	1	4	5	4	3	4	4	
2	5	6	6	0	6	1	6	2	6	1	6	0	
2	4	3	3	0	3	1	3	5	3	3	3	4	
3	6	5	9	5	0	9	1	9	2	9	3	9	4	
2	1	3	3	0	3	1	3	2	3	5	3	4	
4	8	9	3	2	8	0	8	1	8	2	8	5	8	4	
3	1	0	5	1	0	1	1	1	2	1	5	5	4	
3	4	5	9	4	0	9	1	9	2	9	1	9	0	
3	5	6	8	6	0	6	1	6	2	6	3	6	4	
3	4	1	0	4	0	4	1	4	2	4	1	0	0	
3	2	3	9	2	0	2	1	2	5	2	3	2	4	
3	9	3	2	2	0	2	1	2	5	2	3	2	4	
2	2	3	2	0	2	1	2	5	2	3	2	4	
4	6	5	0	2	6	0	2	1	2	5	2	3	2	4	
3	6	5	4	5	0	5	1	5	5	5	3	5	4	
2	8	7	8	0	8	1	8	5	8	3	8	4	
3	1	3	9	1	0	1	1	1	2	1	5	1	4	
2	4	5	5	0	5	1	5	2	5	1	5	0	
2	5	4	5	0	5	1	5	2	5	3	5	4	
3	0	5	6	5	0	5	1	5	2	5	5	5	4	
4	7	6	5	0	6	0	6	1	6	2	6	5	0	4	
2	9	5	9	0	9	1	9	2	9	3	9	4	
3	3	9	5	3	0	5	1	5	2	5	1	5	0	
3	7	8	9	8	0	8	1	8	2	8	3	8	4	
4	1	0	5	6	1	0	1	1	1	5	1	3	6	4	
2	5	9	9	0	9	1	9	5	9	3	9	4	
3	3	1	0	3	0	3	1	3	2	3	1	0	0	
4	4	5	6	7	4	0	4	1	4	2	4	3	4	4	
4	2	3	9	8	2	0	2	1	2	2	2	3	2	4	
2	6	7	6	0	6	1	6	2	6	5	6	4	
2	8	6	8	0	8	1	8	2	8	3	8	4	
5	7	6	5	0	2	6	0	2	1	2	2	2	1	2	0	
2	0	5	0	0	0	1	0	5	0	3	0	4	
3	9	5	6	9	0	6	1	6	2	6	1	6	0	
2	3	2	3	0	3	1	3	2	3	3	3	4	
4	2	0	5	6	2	0	2	1	2	2	2	1	2	0	
2	5	0	0	0	0	1	0	2	0	5	0	4	
3	0	5	9	9	0	9	1	9	5	9	3	9	4	
2	6	5	5	0	5	1	5	2	5	1	5	0	
3	4	5	6	4	0	4	1	4	5	4	3	4	4	
3	5	9	3	5	0	3	1	3	2	3	3	3	4	
2	3	9	3	0	3	1	3	5	3	3	3	4	
3	8	6	5	8	0	8	1	8	2	8	1	8	0	
4	7	8	9	3	8	0	8	1	8	2	8	5	3	4	
3	9	5	4	4	0	4	1	4	2	4	3	4	4	
2	5	6	5	0	5	1	5	2	5	5	5	4	
3	6	5	9	9	0	9	1	9	2	9	1	9	0	
2	1	3	1	0	1	1	1	2	1	1	1	0	
2	7	8	8	0	8	1	8	2	8	3	8	4	
3	4	5	9	4	0	9	1	9	2	9	5	9	4	
3	5	6	8	5	0	5	1	5	2	5	1	8	0	
3	4	1	0	4	0	4	1	4	2	4	3	0	4	
3	2	3	9	2	0	2	1	2	2	2	3	2	4	
3	5	0	1	1	0	1	1	1	2	1	1	1	0	
4	6	5	0	2	6	0	2	1	2	2	2	5	2	4	
3	6	5	4	4	0	4	1	4	2	4	5	4	4	
2	8	7	8	0	8	1	8	2	8	3	8	4	
3	7	6	5	6	0	6	1	6	2	5	5	5	4	
2	4	5	4	0	4	1	4	2	4	5	4	4	
2	5	4	5	0	5	1	5	2	5	1	5	0	
4	3	9	5	6	3	0	9	1	9	2	9	5	6	4	
3	7	6	5	6	0	6	1	6	5	6	3	6	4	
2	9	3	9	0	9	1	9	5	9	3	9	4	
4	7	6	5	0	6	0	6	1	6	5	6	3	6	4	
2	9	5	9	0	9	1	9	5	9	3	9	4	
3	3	9	5	9	0	9	1	9	2	9	3	9	4	
2	6	8	8	0	8	1	8	2	8	1	8	0	
2	4	2	2	0	2	1	2	2	2	1	2	0	
2	5	9	9	0	9	1	9	2	9	5	9	4	
3	3	1	0	1	0	1	1	1	2	1	5	1	4	
4	4	5	6	7	4	0	4	1	4	2	4	1	4	0	
2	9	8	8	0	8	1	8	2	8	5	8	4	
4	2	3	9	8	3	0	3	1	3	5	3	3	3	4	
3	5	0	2	0	0	0	1	0	2	0	3	0	4	
4	8	6	5	0	8	0	8	1	8	5	8	3	0	4	
4	8	9	3	1	1	0	1	1	1	2	1	1	1	0	
5	1	0	5	6	7	1	0	1	1	1	5	1	3	1	4	
2	6	7	6	0	6	1	6	5	6	3	6	4	
2	8	6	8	0	8	1	8	5	8	3	8	4	
4	3	9	8	7	3	0	3	1	3	2	3	1	3	0	
3	2	0	5	2	0	2	1	2	2	0	5	0	4	
3	9	5	6	9	0	6	1	6	2	6	5	6	4	
2	3	2	3	0	3	1	3	2	3	1	3	0	
2	4	1	1	0	1	1	1	2	1	3	1	4	
4	2	0	5	6	2	0	2	1	2	2	2	3	2	4	
2	4	3	3	0	3	1	3	2	3	5	3	4	
3	0	1	4	1	0	1	1	1	5	1	3	1	4	
3	4	5	6	5	0	5	1	5	2	5	5	5	4	
2	3	9	9	0	9	1	9	2	9	5	9	4	
2	1	0	1	0	1	1	1	2	1	5	1	4	
3	8	6	5	8	0	8	1	8	2	8	5	8	4	
3	9	5	4	9	0	4	1	4	2	4	1	4	0	
4	0	5	6	8	0	0	0	1	0	5	0	3	8	4	
2	5	6	6	0	6	1	6	5	6	3	6	4	
2	3	4	3	0	3	1	3	2	3	3	3	4	
2	1	3	1	0	1	1	1	2	1	3	1	4	
2	7	8	8	0	8	1	8	2	8	1	8	0	
2	2	4	2	0	2	1	2	2	2	1	2	0	
3	4	5	9	4	0	9	1	9	5	9	3	9	4	
3	2	3	9	2	0	2	1	2	2	2	1	2	0	
3	5	0	1	1	0	1	1	1	2	1	3	1	4	
3	0	1	3	3	0	3	1	3	2	3	5	3	4	
4	6	5	0	2	0	0	0	1	0	2	0	1	0	0	
2	8	7	8	0	8	1	8	2	8	1	8	0	
2	4	5	4	0	4	1	4	5	4	3	4	4	
2	7	8	8	0	8	1	8	2	8	5	8	4	
4	3	9	5	6	3	0	9	1	9	5	9	3	6	4	
2	9	3	9	0	9	1	9	2	9	5	3	4	
2	9	5	9	0	9	1	9	2	9	5	9	4	
2	4	2	4	0	4	1	4	2	4	3	4	4	
5	2	0	5	6	7	6	0	6	1	6	2	6	3	6	4	
