5657.54	5120.13
4723
6.9142e+06	586179
11
0	0	12
1	0	12
2	0	12
3	0	12
4	0	12
5	0	12
6	0	12
7	0	12
8	0	12
9	0	12
10	0	12
68
0	6	0.000000	5933.000000	0.000000
0	7	0.000000	5933.000000	0.000000
0	8	1813.000000	5933.000000	1.000000
0	9	0.000000	5933.000000	0.000000
1	2	2033.500000	5933.000000	1.000000
1	3	1610.000000	5933.000000	1.000000
1	4	1330.000000	5933.000000	1.000000
1	5	1190.000000	5933.000000	1.000000
1	7	2450.000000	5933.000000	1.000000
1	8	105.000000	5933.000000	1.000000
1	9	0.000000	5933.000000	0.000000
1	10	0.000000	5933.000000	0.000000
2	1	1214.500000	5933.000000	1.000000
2	3	0.000000	5933.000000	0.000000
2	4	0.000000	5933.000000	0.000000
2	5	0.000000	5933.000000	0.000000
2	9	0.000000	5933.000000	0.000000
2	10	0.000000	5933.000000	0.000000
3	1	399.000000	5933.000000	1.000000
3	2	0.000000	5933.000000	0.000000
3	4	0.000000	5933.000000	0.000000
3	5	0.000000	5933.000000	0.000000
4	1	738.500000	5933.000000	1.000000
4	2	0.000000	5933.000000	0.000000
4	3	0.000000	5933.000000	0.000000
4	5	0.000000	5933.000000	0.000000
4	6	0.000000	5933.000000	0.000000
4	7	0.000000	5933.000000	0.000000
5	1	434.000000	5933.000000	1.000000
5	2	0.000000	5933.000000	0.000000
5	3	0.000000	5933.000000	0.000000
5	4	0.000000	5933.000000	0.000000
5	7	0.000000	5933.000000	0.000000
5	8	0.000000	5933.000000	0.000000
6	0	0.000000	5933.000000	0.000000
6	4	0.000000	5933.000000	0.000000
6	7	0.000000	5933.000000	0.000000
6	8	773.500000	5933.000000	1.000000
6	9	0.000000	5933.000000	0.000000
6	10	0.000000	5933.000000	0.000000
7	0	0.000000	5933.000000	0.000000
7	1	35.000000	5933.000000	1.000000
7	4	0.000000	5933.000000	0.000000
7	5	0.000000	5933.000000	0.000000
7	6	0.000000	5933.000000	0.000000
7	8	0.000000	5933.000000	0.000000
7	9	0.000000	5933.000000	0.000000
7	10	0.000000	5933.000000	0.000000
8	0	35.000000	5933.000000	1.000000
8	1	4487.000000	5933.000000	1.000000
8	5	0.000000	5933.000000	0.000000
8	6	1375.500000	5933.000000	1.000000
8	7	0.000000	5933.000000	0.000000
8	9	1935.500000	5933.000000	1.000000
8	10	0.000000	5933.000000	0.000000
9	0	0.000000	5933.000000	0.000000
9	1	0.000000	5933.000000	0.000000
9	2	0.000000	5933.000000	0.000000
9	6	0.000000	5933.000000	0.000000
9	7	0.000000	5933.000000	0.000000
9	8	2019.500000	5933.000000	1.000000
9	10	1862.000000	5933.000000	1.000000
10	1	0.000000	5933.000000	0.000000
10	2	0.000000	5933.000000	0.000000
10	6	0.000000	5933.000000	0.000000
10	7	0.000000	5933.000000	0.000000
10	8	0.000000	5933.000000	0.000000
10	9	1305.500000	5933.000000	1.000000
440
3	1	8	9	1	0	1	1	1	2	1	5	1	4	
3	3	1	5	1	0	1	1	1	2	1	5	1	4	
3	7	1	3	1	0	1	1	1	5	1	3	1	4	
4	9	8	1	3	1	0	1	1	1	2	1	5	1	4	
5	10	9	8	1	7	1	0	1	1	1	2	1	3	1	4	
4	3	1	8	6	1	0	1	1	1	5	1	3	1	4	
3	4	1	7	1	0	1	1	1	2	1	5	1	4	
2	1	8	1	0	1	1	1	2	1	1	1	0	
3	7	1	4	1	0	1	1	1	2	1	3	1	4	
4	0	8	1	2	1	0	1	1	1	2	1	5	1	4	
3	7	1	3	1	0	1	1	1	2	1	1	1	0	
5	5	1	8	9	10	1	0	1	1	1	5	1	3	1	4	
3	5	1	2	1	0	1	1	1	2	1	5	1	4	
2	8	1	1	0	1	1	1	2	1	1	1	0	
3	8	1	7	1	0	1	1	1	2	1	3	1	4	
3	6	8	0	8	0	8	1	8	5	8	3	8	4	
3	2	1	5	1	0	1	1	1	5	1	3	1	4	
3	7	1	5	1	0	1	1	1	2	1	5	1	4	
3	5	1	7	1	0	1	1	1	2	1	1	1	0	
2	8	9	8	0	8	1	8	5	8	3	8	4	
5	4	1	8	9	10	1	0	1	1	1	2	1	5	1	4	
5	5	1	8	9	10	1	0	1	1	1	2	1	5	1	4	
3	8	9	10	8	0	8	1	8	2	8	1	8	0	
4	10	9	8	1	1	0	1	1	1	2	1	5	1	4	
4	0	8	1	5	1	0	1	1	1	2	1	3	1	4	
3	3	1	2	1	0	1	1	1	2	1	5	1	4	
2	1	7	1	0	1	1	1	5	1	3	1	4	
3	8	1	4	1	0	1	1	1	5	1	3	1	4	
5	2	1	8	9	10	1	0	1	1	1	5	1	3	1	4	
3	2	1	3	1	0	1	1	1	2	1	5	1	4	
2	4	1	1	0	1	1	1	5	1	3	1	4	
4	9	8	1	3	1	0	1	1	1	2	1	3	1	4	
4	0	8	1	3	1	0	1	1	1	2	1	1	1	0	
5	10	9	8	1	2	1	0	1	1	1	2	1	3	1	4	
3	7	1	4	1	0	1	1	1	2	1	1	1	0	
4	6	8	1	3	1	0	1	1	1	2	1	3	1	4	
4	9	8	1	5	1	0	1	1	1	5	1	3	1	4	
4	4	1	8	0	1	0	1	1	1	2	1	5	1	4	
3	2	1	7	1	0	1	1	1	2	1	3	1	4	
2	5	1	1	0	1	1	1	2	1	5	1	4	
3	10	9	8	8	0	8	1	8	2	8	5	8	4	
3	3	1	7	1	0	1	1	1	2	1	1	1	0	
4	6	8	1	7	8	0	8	1	8	5	8	3	8	4	
3	3	1	4	1	0	1	1	1	2	1	1	1	0	
3	5	1	8	1	0	1	1	1	2	1	1	1	0	
2	9	8	8	0	8	1	8	2	8	5	8	4	
3	1	8	0	1	0	1	1	1	5	1	3	1	4	
2	1	3	1	0	1	1	1	2	1	1	1	0	
5	2	1	8	9	10	1	0	1	1	1	2	1	1	1	0	
2	1	3	1	0	1	1	1	2	1	3	1	4	
3	4	1	7	1	0	1	1	1	2	1	3	1	4	
4	0	8	9	10	8	0	8	1	8	2	8	5	8	4	
3	5	1	8	1	0	1	1	1	2	1	5	1	4	
3	8	1	2	1	0	1	1	1	2	1	5	1	4	
3	6	8	9	8	0	8	1	8	2	8	3	8	4	
3	6	8	0	8	0	8	1	8	2	8	1	8	0	
3	9	8	0	8	0	8	1	8	2	8	3	8	4	
4	5	1	8	6	1	0	1	1	1	2	1	3	1	4	
3	3	1	7	1	0	1	1	1	2	1	5	1	4	
3	9	8	1	1	0	1	1	1	2	1	5	1	4	
5	10	9	8	1	5	1	0	1	1	1	2	1	3	1	4	
4	10	9	8	0	8	0	8	1	8	2	8	1	8	0	
2	7	1	1	0	1	1	1	2	1	1	1	0	
3	8	1	7	8	0	8	1	8	5	8	3	8	4	
5	3	1	8	9	10	1	0	1	1	1	2	1	5	1	4	
3	3	1	4	1	0	1	1	1	2	1	5	1	4	
3	9	8	6	8	0	8	1	8	5	8	3	8	4	
4	2	1	8	6	1	0	1	1	1	2	1	3	1	4	
3	8	1	5	1	0	1	1	1	2	1	3	1	4	
3	3	1	4	3	0	3	1	3	5	3	3	3	4	
4	7	1	8	6	1	0	1	1	1	2	1	3	1	4	
3	0	8	1	1	0	1	1	1	5	1	3	1	4	
4	6	8	1	2	1	0	1	1	1	5	1	3	1	4	
2	1	2	1	0	1	1	1	2	1	1	1	0	
5	10	9	8	1	3	1	0	1	1	1	2	1	5	1	4	
4	10	9	8	6	8	0	8	1	8	5	8	3	8	4	
2	1	3	1	0	1	1	1	2	1	5	1	4	
3	1	8	0	1	0	1	1	1	2	1	3	1	4	
2	1	5	5	0	5	1	5	5	5	3	5	4	
4	4	1	8	6	1	0	1	1	1	2	1	3	1	4	
2	8	6	6	0	6	1	6	5	6	3	6	4	
4	7	1	8	9	1	0	1	1	1	5	1	3	1	4	
2	2	1	1	0	1	1	1	2	1	5	1	4	
5	3	1	8	9	10	1	0	1	1	1	5	1	3	1	4	
4	6	8	9	10	8	0	8	1	8	2	8	1	8	0	
3	4	1	3	1	0	1	1	1	5	1	3	1	4	
4	0	8	1	4	1	0	1	1	1	2	1	5	1	4	
3	3	1	8	1	0	1	1	1	2	1	3	1	4	
3	9	8	6	8	0	8	1	8	2	8	5	8	4	
4	10	9	8	0	8	0	8	1	8	2	8	3	8	4	
3	6	8	9	8	0	8	1	8	2	8	1	8	0	
2	3	1	1	0	1	1	1	2	1	1	1	0	
2	1	8	1	0	1	1	1	2	1	5	1	4	
2	3	1	1	0	1	1	1	5	1	3	1	4	
3	4	1	2	1	0	1	1	1	2	1	1	1	0	
2	2	1	1	0	1	1	1	2	1	3	1	4	
2	0	8	8	0	8	1	8	2	8	3	8	4	
3	5	1	8	1	0	1	1	1	5	1	3	1	4	
4	4	1	8	6	1	0	1	1	1	2	1	5	1	4	
4	4	1	8	9	1	0	1	1	1	2	1	3	1	4	
2	0	8	8	0	8	1	8	2	8	1	8	0	
3	8	9	10	8	0	8	1	8	2	8	5	8	4	
3	7	1	2	1	0	1	1	1	2	1	1	1	0	
3	2	1	4	2	0	2	1	2	5	2	3	2	4	
3	5	1	8	1	0	1	1	1	2	1	3	1	4	
2	8	6	6	0	6	1	6	2	6	3	6	4	
4	9	8	1	7	1	0	1	1	1	2	1	1	1	0	
4	3	1	8	9	1	0	1	1	1	2	1	5	1	4	
3	6	8	1	1	0	1	1	1	2	1	5	1	4	
3	7	1	2	1	0	1	1	1	2	1	5	1	4	
3	3	1	8	1	0	1	1	1	2	1	1	1	0	
3	9	8	6	8	0	8	1	8	2	8	3	8	4	
3	5	1	7	1	0	1	1	1	2	1	5	1	4	
2	8	6	6	0	6	1	6	2	6	1	6	0	
5	10	9	8	1	2	1	0	1	1	1	2	1	5	1	4	
3	8	1	4	1	0	1	1	1	2	1	5	1	4	
5	10	9	8	1	5	1	0	1	1	1	5	1	3	1	4	
4	4	1	8	0	1	0	1	1	1	5	1	3	1	4	
3	6	8	9	8	0	8	1	8	5	8	3	8	4	
3	9	8	0	8	0	8	1	8	5	8	3	8	4	
4	9	8	1	7	1	0	1	1	1	2	1	5	1	4	
5	10	9	8	1	3	1	0	1	1	1	2	1	3	1	4	
3	0	8	6	8	0	8	1	8	2	8	5	8	4	
2	6	8	6	0	6	1	6	2	6	5	6	4	
3	4	1	3	1	0	1	1	1	2	1	1	1	0	
2	2	1	1	0	1	1	1	5	1	3	1	4	
4	0	8	1	3	1	0	1	1	1	5	1	3	1	4	
2	1	5	1	0	1	1	1	2	1	5	1	4	
2	4	1	1	0	1	1	1	2	1	5	1	4	
4	7	1	8	0	1	0	1	1	1	2	1	3	1	4	
3	0	8	1	1	0	1	1	1	2	1	3	1	4	
3	10	9	8	8	0	8	1	8	5	8	3	8	4	
3	3	1	5	1	0	1	1	1	2	1	3	1	4	
3	4	1	8	1	0	1	1	1	2	1	1	1	0	
2	1	3	3	0	3	1	3	5	3	3	3	4	
4	5	1	8	6	1	0	1	1	1	2	1	5	1	4	
4	5	1	8	6	1	0	1	1	1	5	1	3	1	4	
4	2	1	8	9	1	0	1	1	1	2	1	1	1	0	
4	9	8	1	7	1	0	1	1	1	2	1	3	1	4	
2	7	1	1	0	1	1	1	2	1	5	1	4	
3	5	1	3	1	0	1	1	1	2	1	1	1	0	
4	0	8	1	5	1	0	1	1	1	5	1	3	1	4	
4	4	1	8	0	1	0	1	1	1	2	1	3	1	4	
4	2	1	8	6	1	0	1	1	1	2	1	1	1	0	
3	7	1	8	1	0	1	1	1	2	1	1	1	0	
2	1	4	1	0	1	1	1	2	1	1	1	0	
4	3	1	8	6	1	0	1	1	1	2	1	5	1	4	
3	2	1	3	1	0	1	1	1	2	1	3	1	4	
5	7	1	8	9	10	1	0	1	1	1	2	1	5	1	4	
3	5	1	7	1	0	1	1	1	2	1	3	1	4	
3	4	1	3	1	0	1	1	1	2	1	5	1	4	
3	4	1	5	4	0	4	1	4	5	4	3	4	4	
4	0	8	1	7	1	0	1	1	1	2	1	1	1	0	
3	7	1	2	1	0	1	1	1	5	1	3	1	4	
3	0	8	1	1	0	1	1	1	2	1	5	1	4	
3	2	1	8	1	0	1	1	1	2	1	5	1	4	
3	6	8	0	8	0	8	1	8	2	8	3	8	4	
4	2	1	8	6	1	0	1	1	1	5	1	3	1	4	
3	8	1	4	1	0	1	1	1	2	1	1	1	0	
5	10	9	8	1	4	1	0	1	1	1	2	1	5	1	4	
2	9	10	10	0	10	1	10	5	10	3	10	4	
4	6	8	1	3	1	0	1	1	1	5	1	3	1	4	
2	8	6	6	0	6	1	6	2	6	5	6	4	
3	8	9	10	8	0	8	1	8	5	8	3	8	4	
3	5	1	4	1	0	1	1	1	2	1	1	1	0	
5	10	9	8	1	7	1	0	1	1	1	5	1	3	1	4	
3	4	1	2	1	0	1	1	1	5	1	3	1	4	
4	9	8	1	4	1	0	1	1	1	2	1	3	1	4	
3	5	1	2	1	0	1	1	1	2	1	3	1	4	
3	4	1	3	1	0	1	1	1	2	1	3	1	4	
4	0	8	1	2	1	0	1	1	1	2	1	1	1	0	
4	9	8	1	5	1	0	1	1	1	2	1	5	1	4	
4	10	9	8	1	1	0	1	1	1	2	1	3	1	4	
3	7	1	5	1	0	1	1	1	2	1	1	1	0	
2	4	1	1	0	1	1	1	2	1	1	1	0	
2	10	9	10	0	10	1	10	2	10	1	10	0	
3	7	1	8	1	0	1	1	1	2	1	5	1	4	
4	5	1	8	9	1	0	1	1	1	5	1	3	1	4	
4	6	8	1	5	1	0	1	1	1	2	1	3	1	4	
3	2	1	8	1	0	1	1	1	2	1	3	1	4	
3	3	1	2	1	0	1	1	1	2	1	1	1	0	
3	9	8	0	8	0	8	1	8	2	8	1	8	0	
5	10	9	8	1	4	1	0	1	1	1	2	1	1	1	0	
4	5	1	8	9	1	0	1	1	1	2	1	1	1	0	
3	3	1	8	1	0	1	1	1	2	1	5	1	4	
4	0	8	1	5	1	0	1	1	1	2	1	5	1	4	
3	5	1	4	1	0	1	1	1	5	1	3	1	4	
2	8	9	8	0	8	1	8	2	8	3	8	4	
3	3	1	8	1	0	1	1	1	5	1	3	1	4	
3	7	1	2	1	0	1	1	1	2	1	3	1	4	
3	8	1	3	1	0	1	1	1	2	1	1	1	0	
4	6	8	1	4	1	0	1	1	1	2	1	3	1	4	
3	0	8	1	1	0	1	1	1	2	1	1	1	0	
5	7	1	8	9	10	1	0	1	1	1	2	1	3	1	4	
4	4	1	8	6	1	0	1	1	1	2	1	1	1	0	
3	4	1	2	1	0	1	1	1	2	1	3	1	4	
2	8	1	1	0	1	1	1	2	1	5	1	4	
2	5	1	1	0	1	1	1	2	1	3	1	4	
3	4	1	7	4	0	4	1	4	5	4	3	4	4	
4	9	8	1	3	1	0	1	1	1	5	1	3	1	4	
4	7	1	8	9	1	0	1	1	1	2	1	3	1	4	
4	1	8	9	10	1	0	1	1	1	5	1	3	1	4	
5	4	1	8	9	10	1	0	1	1	1	2	1	3	1	4	
4	7	1	8	6	1	0	1	1	1	2	1	1	1	0	
3	1	8	9	1	0	1	1	1	2	1	1	1	0	
4	2	1	8	0	1	0	1	1	1	5	1	3	1	4	
3	3	1	5	1	0	1	1	1	2	1	1	1	0	
5	5	1	8	9	10	1	0	1	1	1	2	1	3	1	4	
4	6	8	1	5	1	0	1	1	1	5	1	3	1	4	
2	1	4	4	0	4	1	4	2	4	5	4	4	
3	3	1	5	1	0	1	1	1	5	1	3	1	4	
4	7	1	8	0	1	0	1	1	1	5	1	3	1	4	
3	8	1	2	1	0	1	1	1	2	1	1	1	0	
3	3	1	4	1	0	1	1	1	2	1	3	1	4	
3	4	1	5	1	0	1	1	1	2	1	3	1	4	
5	10	9	8	1	3	1	0	1	1	1	2	1	1	1	0	
5	2	1	8	9	10	1	0	1	1	1	2	1	3	1	4	
3	5	1	7	5	0	5	1	5	5	5	3	5	4	
3	2	1	8	1	0	1	1	1	2	1	1	1	0	
4	6	8	1	5	1	0	1	1	1	2	1	1	1	0	
4	2	1	8	6	1	0	1	1	1	2	1	5	1	4	
2	9	8	8	0	8	1	8	2	8	1	8	0	
4	0	8	1	4	1	0	1	1	1	2	1	3	1	4	
3	4	1	7	1	0	1	1	1	2	1	1	1	0	
2	6	8	6	0	6	1	6	2	6	1	6	0	
3	2	1	5	1	0	1	1	1	2	1	1	1	0	
4	10	9	8	1	8	0	8	1	8	5	8	3	8	4	
4	0	8	1	7	1	0	1	1	1	5	1	3	1	4	
2	8	1	8	0	8	1	8	5	8	3	8	4	
3	5	1	4	1	0	1	1	1	2	1	3	1	4	
3	1	8	9	1	0	1	1	1	2	1	3	1	4	
4	9	8	1	4	1	0	1	1	1	5	1	3	1	4	
5	10	9	8	1	2	1	0	1	1	1	2	1	1	1	0	
5	5	1	8	9	10	1	0	1	1	1	2	1	1	1	0	
2	10	9	10	0	10	1	10	2	10	5	10	4	
2	3	1	1	0	1	1	1	2	1	3	1	4	
3	1	8	6	1	0	1	1	1	2	1	3	1	4	
3	9	8	6	8	0	8	1	8	2	8	1	8	0	
3	2	1	4	1	0	1	1	1	2	1	3	1	4	
4	9	8	1	2	1	0	1	1	1	2	1	1	1	0	
3	1	8	0	1	0	1	1	1	2	1	1	1	0	
4	0	8	9	10	8	0	8	1	8	5	8	3	8	4	
3	4	1	8	1	0	1	1	1	2	1	5	1	4	
5	10	9	8	1	4	1	0	1	1	1	5	1	3	1	4	
4	6	8	1	4	1	0	1	1	1	2	1	5	1	4	
3	8	1	3	1	0	1	1	1	2	1	5	1	4	
3	5	1	3	1	0	1	1	1	2	1	3	1	4	
3	5	1	2	1	0	1	1	1	5	1	3	1	4	
5	10	9	8	1	2	8	0	8	1	8	5	8	3	8	4	
2	6	8	6	0	6	1	6	5	6	3	6	4	
4	5	1	8	9	1	0	1	1	1	2	1	5	1	4	
4	7	1	8	6	1	0	1	1	1	5	1	3	1	4	
3	9	8	0	8	0	8	1	8	2	8	5	8	4	
4	0	8	1	4	1	0	1	1	1	5	1	3	1	4	
2	8	0	8	0	8	1	8	2	8	3	8	4	
3	9	8	1	1	0	1	1	1	2	1	1	1	0	
4	4	1	8	9	1	0	1	1	1	5	1	3	1	4	
2	8	0	8	0	8	1	8	2	8	1	8	0	
3	1	8	6	6	0	6	1	6	2	6	5	6	4	
3	7	1	4	1	0	1	1	1	2	1	5	1	4	
2	9	8	8	0	8	1	8	2	8	3	8	4	
4	6	8	1	7	1	0	1	1	1	2	1	1	1	0	
3	2	1	4	1	0	1	1	1	2	1	5	1	4	
4	3	1	8	6	1	0	1	1	1	2	1	3	1	4	
3	7	1	3	1	0	1	1	1	2	1	3	1	4	
3	10	9	8	8	0	8	1	8	2	8	1	8	0	
4	10	9	8	0	8	0	8	1	8	2	8	5	8	4	
4	7	1	8	9	1	0	1	1	1	2	1	1	1	0	
3	4	1	5	1	0	1	1	1	2	1	1	1	0	
4	6	8	1	7	8	0	8	1	8	2	8	5	8	4	
3	2	1	7	1	0	1	1	1	2	1	1	1	0	
3	0	8	6	8	0	8	1	8	2	8	3	8	4	
5	10	9	8	1	3	1	0	1	1	1	5	1	3	1	4	
4	4	1	8	6	1	0	1	1	1	5	1	3	1	4	
2	1	8	1	0	1	1	1	5	1	3	1	4	
3	0	8	9	8	0	8	1	8	5	8	3	8	4	
3	8	1	3	1	0	1	1	1	5	1	3	1	4	
4	6	8	9	10	8	0	8	1	8	5	8	3	8	4	
3	0	8	6	8	0	8	1	8	2	8	1	8	0	
2	8	9	8	0	8	1	8	2	8	1	8	0	
4	6	8	1	2	1	0	1	1	1	2	1	1	1	0	
2	7	1	1	0	1	1	1	5	1	3	1	4	
4	2	1	8	9	1	0	1	1	1	2	1	5	1	4	
3	6	8	1	1	0	1	1	1	2	1	3	1	4	
4	3	1	8	6	1	0	1	1	1	2	1	1	1	0	
4	9	8	1	4	1	0	1	1	1	2	1	1	1	0	
3	10	9	8	8	0	8	1	8	2	8	3	8	4	
4	3	1	8	9	1	0	1	1	1	2	1	1	1	0	
3	2	1	7	1	0	1	1	1	5	1	3	1	4	
3	7	1	3	1	0	1	1	1	2	1	5	1	4	
4	9	8	1	2	8	0	8	1	8	2	8	5	8	4	
4	2	1	8	9	1	0	1	1	1	2	1	3	1	4	
3	8	1	7	1	0	1	1	1	2	1	1	1	0	
4	5	1	8	0	1	0	1	1	1	5	1	3	1	4	
4	0	8	1	7	1	0	1	1	1	2	1	3	1	4	
3	2	1	4	1	0	1	1	1	2	1	1	1	0	
3	0	8	6	8	0	8	1	8	5	8	3	8	4	
3	9	8	1	1	0	1	1	1	2	1	3	1	4	
4	0	8	1	5	1	0	1	1	1	2	1	1	1	0	
4	1	8	9	10	1	0	1	1	1	2	1	1	1	0	
3	6	8	9	8	0	8	1	8	2	8	5	8	4	
4	5	1	8	0	1	0	1	1	1	2	1	1	1	0	
2	1	8	1	0	1	1	1	2	1	3	1	4	
4	0	8	1	2	1	0	1	1	1	5	1	3	1	4	
3	7	1	4	1	0	1	1	1	5	1	3	1	4	
4	10	9	8	1	1	0	1	1	1	2	1	1	1	0	
4	9	8	1	7	1	0	1	1	1	5	1	3	1	4	
4	0	8	1	3	1	0	1	1	1	2	1	5	1	4	
4	3	1	8	0	1	0	1	1	1	2	1	3	1	4	
4	6	8	1	2	1	0	1	1	1	2	1	3	1	4	
3	7	1	5	1	0	1	1	1	2	1	3	1	4	
3	6	8	1	1	0	1	1	1	2	1	1	1	0	
2	0	8	8	0	8	1	8	2	8	5	8	4	
3	6	8	1	6	0	6	1	6	5	6	3	6	4	
3	1	8	0	1	0	1	1	1	2	1	5	1	4	
2	1	5	1	0	1	1	1	2	1	3	1	4	
4	3	1	8	9	1	0	1	1	1	5	1	3	1	4	
2	9	8	8	0	8	1	8	5	8	3	8	4	
4	5	1	8	6	1	0	1	1	1	2	1	1	1	0	
2	4	1	1	0	1	1	1	2	1	3	1	4	
2	8	9	8	0	8	1	8	2	8	5	8	4	
3	5	1	3	1	0	1	1	1	5	1	3	1	4	
3	1	8	6	1	0	1	1	1	5	1	3	1	4	
2	1	5	1	0	1	1	1	2	1	1	1	0	
3	8	1	5	1	0	1	1	1	5	1	3	1	4	
4	5	1	8	0	1	0	1	1	1	2	1	3	1	4	
2	3	1	1	0	1	1	1	2	1	5	1	4	
5	7	1	8	9	10	1	0	1	1	1	5	1	3	1	4	
3	3	1	2	1	0	1	1	1	5	1	3	1	4	
4	6	8	1	7	1	0	1	1	1	2	1	3	1	4	
3	7	1	8	1	0	1	1	1	2	1	3	1	4	
4	3	1	8	0	1	0	1	1	1	2	1	1	1	0	
3	0	8	9	8	0	8	1	8	2	8	3	8	4	
5	2	1	8	9	10	1	0	1	1	1	2	1	5	1	4	
4	2	1	8	0	1	0	1	1	1	2	1	3	1	4	
3	8	1	3	1	0	1	1	1	2	1	3	1	4	
4	6	8	1	4	1	0	1	1	1	5	1	3	1	4	
2	2	1	1	0	1	1	1	2	1	1	1	0	
3	4	1	8	1	0	1	1	1	5	1	3	1	4	
3	4	1	8	1	0	1	1	1	2	1	3	1	4	
5	4	1	8	9	10	1	0	1	1	1	2	1	1	1	0	
4	10	9	8	6	8	0	8	1	8	2	8	5	8	4	
5	4	1	8	9	10	1	0	1	1	1	5	1	3	1	4	
4	10	9	8	6	8	0	8	1	8	2	8	1	8	0	
5	10	9	8	1	5	1	0	1	1	1	2	1	5	1	4	
2	1	2	1	0	1	1	1	2	1	3	1	4	
3	6	8	0	8	0	8	1	8	2	8	5	8	4	
3	8	1	7	8	0	8	1	8	2	8	5	8	4	
4	6	8	1	4	1	0	1	1	1	2	1	1	1	0	
3	8	1	5	1	0	1	1	1	2	1	1	1	0	
2	9	10	10	0	10	1	10	2	10	1	10	0	
3	2	1	7	1	0	1	1	1	2	1	5	1	4	
5	7	1	8	9	10	1	0	1	1	1	2	1	1	1	0	
4	2	1	8	9	1	0	1	1	1	5	1	3	1	4	
4	6	8	9	10	8	0	8	1	8	2	8	3	8	4	
4	9	8	1	4	1	0	1	1	1	2	1	5	1	4	
3	9	8	1	1	0	1	1	1	5	1	3	1	4	
3	0	8	9	8	0	8	1	8	2	8	5	8	4	
2	6	8	6	0	6	1	6	2	6	3	6	4	
4	10	9	8	0	8	0	8	1	8	5	8	3	8	4	
4	4	1	8	0	1	0	1	1	1	2	1	1	1	0	
2	8	0	8	0	8	1	8	5	8	3	8	4	
2	0	8	8	0	8	1	8	5	8	3	8	4	
4	7	1	8	9	1	0	1	1	1	2	1	5	1	4	
3	3	1	7	1	0	1	1	1	5	1	3	1	4	
4	10	9	8	6	8	0	8	1	8	2	8	3	8	4	
4	7	1	8	0	1	0	1	1	1	2	1	1	1	0	
4	6	8	1	3	1	0	1	1	1	2	1	1	1	0	
3	8	1	4	1	0	1	1	1	2	1	3	1	4	
3	3	1	2	1	0	1	1	1	2	1	3	1	4	
2	1	7	1	0	1	1	1	2	1	3	1	4	
4	9	8	1	5	1	0	1	1	1	2	1	1	1	0	
2	10	9	10	0	10	1	10	2	10	3	10	4	
5	10	9	8	1	7	1	0	1	1	1	2	1	1	1	0	
2	1	2	2	0	2	1	2	2	2	5	2	4	
4	4	1	8	9	1	0	1	1	1	2	1	1	1	0	
4	6	8	1	3	1	0	1	1	1	2	1	5	1	4	
5	3	1	8	9	10	1	0	1	1	1	2	1	3	1	4	
4	7	1	8	0	1	0	1	1	1	2	1	5	1	4	
2	5	1	1	0	1	1	1	5	1	3	1	4	
4	0	8	1	2	1	0	1	1	1	2	1	3	1	4	
4	4	1	8	9	8	0	8	1	8	2	8	5	8	4	
2	1	4	4	0	4	1	4	5	4	3	4	4	
2	1	7	1	0	1	1	1	2	1	1	1	0	
3	4	1	5	4	0	4	1	4	2	4	5	4	4	
4	2	1	8	0	8	0	8	1	8	2	8	5	8	4	
4	1	8	9	10	8	0	8	1	8	2	8	5	8	4	
4	0	8	9	10	8	0	8	1	8	2	8	3	8	4	
4	1	8	9	10	1	0	1	1	1	2	1	3	1	4	
4	9	8	1	2	8	0	8	1	8	5	8	3	8	4	
3	7	1	5	1	0	1	1	1	5	1	3	1	4	
2	8	1	1	0	1	1	1	2	1	3	1	4	
3	2	1	3	1	0	1	1	1	2	1	1	1	0	
4	3	1	8	0	1	0	1	1	1	5	1	3	1	4	
3	2	1	3	2	0	2	1	2	5	2	3	2	4	
3	0	8	9	8	0	8	1	8	2	8	1	8	0	
5	10	9	8	1	7	8	0	8	1	8	2	8	5	8	4	
2	1	7	7	0	7	1	7	2	7	5	7	4	
2	1	4	1	0	1	1	1	2	1	3	1	4	
3	5	1	4	4	0	4	1	4	2	4	5	4	4	
4	5	1	8	9	1	0	1	1	1	2	1	3	1	4	
3	2	1	5	2	0	2	1	2	2	2	5	2	4	
4	0	8	1	3	1	0	1	1	1	2	1	3	1	4	
3	3	1	7	1	0	1	1	1	2	1	3	1	4	
4	6	8	1	2	8	0	8	1	8	2	8	5	8	4	
3	1	8	6	1	0	1	1	1	2	1	1	1	0	
4	9	8	1	5	1	0	1	1	1	2	1	3	1	4	
2	5	1	1	0	1	1	1	2	1	1	1	0	
4	3	1	8	0	8	0	8	1	8	2	8	5	8	4	
3	1	8	9	1	0	1	1	1	5	1	3	1	4	
3	8	1	2	1	0	1	1	1	5	1	3	1	4	
4	6	8	9	10	8	0	8	1	8	2	8	5	8	4	
4	0	8	1	7	8	0	8	1	8	2	8	5	8	4	
3	4	1	2	2	0	2	1	2	2	2	5	2	4	
4	9	8	1	3	1	0	1	1	1	2	1	1	1	0	
4	0	8	9	10	8	0	8	1	8	2	8	1	8	0	
4	2	1	8	0	1	0	1	1	1	2	1	1	1	0	
5	10	9	8	1	4	1	0	1	1	1	2	1	3	1	4	
3	8	1	2	1	0	1	1	1	2	1	3	1	4	
4	7	1	8	6	8	0	8	1	8	2	8	5	8	4	
3	2	1	5	1	0	1	1	1	2	1	3	1	4	
5	10	9	8	1	5	1	0	1	1	1	2	1	1	1	0	
2	9	10	10	0	10	1	10	2	10	5	10	4	
3	5	1	3	3	0	3	1	3	2	3	5	3	4	
5	3	1	8	9	10	1	0	1	1	1	2	1	1	1	0	
3	8	9	10	8	0	8	1	8	2	8	3	8	4	
2	7	1	1	0	1	1	1	2	1	3	1	4	
2	10	9	10	0	10	1	10	5	10	3	10	4	
2	9	10	10	0	10	1	10	2	10	3	10	4	
2	1	2	2	0	2	1	2	5	2	3	2	4	
3	2	1	8	1	0	1	1	1	5	1	3	1	4	
4	6	8	1	5	8	0	8	1	8	2	8	5	8	4	
3	7	1	8	1	0	1	1	1	5	1	3	1	4	
3	5	1	2	1	0	1	1	1	2	1	1	1	0	
3	8	1	5	8	0	8	1	8	2	8	5	8	4	
4	9	8	1	2	1	0	1	1	1	2	1	3	1	4	
4	3	1	8	9	1	0	1	1	1	2	1	3	1	4	
2	8	0	8	0	8	1	8	2	8	5	8	4	
4	0	8	1	4	1	0	1	1	1	2	1	1	1	0	
4	5	1	8	0	8	0	8	1	8	2	8	5	8	4	
