4670.77	2508.5
1399
70353.7	49365.9
11
0	0	8
1	0	8
2	0	8
3	0	8
4	0	8
5	0	8
6	0	8
7	0	8
8	0	8
9	0	8
10	0	8
68
0	6	0.000000	1290.000000	0.000000
0	7	0.000000	60.000000	0.000000
0	8	1165.500000	2340.000000	1.000000
0	9	0.000000	1050.000000	0.000000
1	2	1307.250000	2520.000000	1.000000
1	3	1035.000000	2190.000000	1.000000
1	4	855.000000	1350.000000	1.000000
1	5	765.000000	2160.000000	1.000000
1	7	0.000000	1470.000000	0.000000
1	8	922.500000	3480.000000	1.000000
1	9	0.000000	60.000000	0.000000
1	10	0.000000	2460.000000	0.000000
2	1	780.750000	2520.000000	1.000000
2	3	0.000000	1950.000000	0.000000
2	4	0.000000	1140.000000	0.000000
2	5	0.000000	30.000000	0.000000
2	9	0.000000	1800.000000	0.000000
2	10	0.000000	930.000000	0.000000
3	1	256.500000	2190.000000	1.000000
3	2	0.000000	1950.000000	0.000000
3	4	0.000000	960.000000	0.000000
3	5	0.000000	30.000000	0.000000
4	1	474.750000	1350.000000	1.000000
4	2	0.000000	1140.000000	0.000000
4	3	0.000000	960.000000	0.000000
4	5	0.000000	870.000000	0.000000
4	6	0.000000	60.000000	0.000000
4	7	0.000000	990.000000	0.000000
5	1	279.000000	2160.000000	1.000000
5	2	0.000000	30.000000	0.000000
5	3	0.000000	30.000000	0.000000
5	4	0.000000	870.000000	0.000000
5	7	0.000000	1050.000000	0.000000
5	8	0.000000	30.000000	0.000000
6	0	0.000000	1290.000000	0.000000
6	4	0.000000	60.000000	0.000000
6	7	1575.000000	1920.000000	1.000000
6	8	40.500000	2250.000000	1.000000
6	9	0.000000	30.000000	0.000000
6	10	0.000000	60.000000	0.000000
7	0	0.000000	60.000000	0.000000
7	1	0.000000	1470.000000	0.000000
7	4	0.000000	990.000000	0.000000
7	5	0.000000	1050.000000	0.000000
7	6	22.500000	1920.000000	1.000000
7	8	0.000000	930.000000	0.000000
7	9	0.000000	30.000000	0.000000
7	10	0.000000	30.000000	0.000000
8	0	22.500000	2340.000000	1.000000
8	1	2187.000000	3480.000000	1.000000
8	5	0.000000	30.000000	0.000000
8	6	1980.000000	2250.000000	1.000000
8	7	0.000000	930.000000	0.000000
8	9	1244.250000	2370.000000	1.000000
8	10	0.000000	1470.000000	0.000000
9	0	0.000000	1050.000000	0.000000
9	1	0.000000	60.000000	0.000000
9	2	0.000000	1800.000000	0.000000
9	6	0.000000	30.000000	0.000000
9	7	0.000000	30.000000	0.000000
9	8	1298.250000	2370.000000	1.000000
9	10	1197.000000	3300.000000	1.000000
10	1	0.000000	2460.000000	0.000000
10	2	0.000000	930.000000	0.000000
10	6	0.000000	60.000000	0.000000
10	7	0.000000	30.000000	0.000000
10	8	0.000000	1470.000000	0.000000
10	9	839.250000	3300.000000	1.000000
440
3	1	8	9	8	0	8	1	8	2	8	5	8	4	
3	3	1	5	1	0	1	1	1	2	1	5	1	4	
5	7	6	8	1	3	8	0	8	1	8	5	8	3	8	4	
4	9	8	1	3	8	0	8	1	8	2	8	5	8	4	
5	10	9	8	6	7	8	0	8	1	8	2	8	3	8	4	
4	3	1	8	6	8	0	8	1	8	5	8	3	8	4	
5	4	1	8	6	7	8	0	8	1	8	2	8	5	8	4	
2	1	8	8	0	8	1	8	2	8	1	8	0	
5	7	6	8	1	4	8	0	8	1	8	2	8	3	8	4	
4	0	8	1	2	8	0	8	1	8	2	8	5	8	4	
5	7	6	8	1	3	8	0	8	1	8	2	8	1	8	0	
5	5	1	8	9	10	8	0	8	1	8	5	8	3	8	4	
3	5	1	2	1	0	1	1	1	2	1	5	1	4	
2	8	1	8	0	8	1	8	2	8	1	8	0	
3	8	6	7	8	0	8	1	8	2	8	3	8	4	
3	6	8	0	8	0	8	1	8	5	8	3	8	4	
3	2	1	5	1	0	1	1	1	5	1	3	1	4	
5	7	6	8	1	5	8	0	8	1	8	2	8	5	8	4	
5	5	1	8	6	7	8	0	8	1	8	2	8	1	8	0	
2	8	9	8	0	8	1	8	5	8	3	8	4	
5	4	1	8	9	10	8	0	8	1	8	2	8	5	8	4	
5	5	1	8	9	10	8	0	8	1	8	2	8	5	8	4	
3	8	9	10	8	0	8	1	8	2	8	1	8	0	
4	10	9	8	1	8	0	8	1	8	2	8	5	8	4	
4	0	8	1	5	8	0	8	1	8	2	8	3	8	4	
3	3	1	2	1	0	1	1	1	2	1	5	1	4	
4	1	8	6	7	8	0	8	1	8	5	8	3	8	4	
3	8	1	4	8	0	8	1	8	5	8	3	8	4	
5	2	1	8	9	10	8	0	8	1	8	5	8	3	8	4	
3	2	1	3	1	0	1	1	1	2	1	5	1	4	
2	4	1	1	0	1	1	1	5	1	3	1	4	
4	9	8	1	3	8	0	8	1	8	2	8	3	8	4	
4	0	8	1	3	8	0	8	1	8	2	8	1	8	0	
5	10	9	8	1	2	8	0	8	1	8	2	8	3	8	4	
5	7	6	8	1	4	8	0	8	1	8	2	8	1	8	0	
4	6	8	1	3	8	0	8	1	8	2	8	3	8	4	
4	9	8	1	5	8	0	8	1	8	5	8	3	8	4	
4	4	1	8	0	8	0	8	1	8	2	8	5	8	4	
5	2	1	8	6	7	8	0	8	1	8	2	8	3	8	4	
2	5	1	1	0	1	1	1	2	1	5	1	4	
3	10	9	8	8	0	8	1	8	2	8	5	8	4	
5	3	1	8	6	7	8	0	8	1	8	2	8	1	8	0	
2	6	7	6	0	6	1	6	5	6	3	6	4	
3	3	1	4	1	0	1	1	1	2	1	1	1	0	
3	5	1	8	8	0	8	1	8	2	8	1	8	0	
2	9	8	8	0	8	1	8	2	8	5	8	4	
3	1	8	0	8	0	8	1	8	5	8	3	8	4	
2	1	3	1	0	1	1	1	2	1	1	1	0	
5	2	1	8	9	10	8	0	8	1	8	2	8	1	8	0	
2	1	3	1	0	1	1	1	2	1	3	1	4	
5	4	1	8	6	7	8	0	8	1	8	2	8	3	8	4	
4	0	8	9	10	8	0	8	1	8	2	8	5	8	4	
3	5	1	8	8	0	8	1	8	2	8	5	8	4	
3	8	1	2	8	0	8	1	8	2	8	5	8	4	
3	6	8	9	8	0	8	1	8	2	8	3	8	4	
3	6	8	0	8	0	8	1	8	2	8	1	8	0	
3	9	8	0	8	0	8	1	8	2	8	3	8	4	
4	5	1	8	6	8	0	8	1	8	2	8	3	8	4	
5	3	1	8	6	7	8	0	8	1	8	2	8	5	8	4	
3	9	8	1	8	0	8	1	8	2	8	5	8	4	
5	10	9	8	1	5	8	0	8	1	8	2	8	3	8	4	
4	10	9	8	0	8	0	8	1	8	2	8	1	8	0	
4	7	6	8	1	8	0	8	1	8	2	8	1	8	0	
3	8	6	7	8	0	8	1	8	5	8	3	8	4	
5	3	1	8	9	10	8	0	8	1	8	2	8	5	8	4	
3	3	1	4	1	0	1	1	1	2	1	5	1	4	
3	9	8	6	8	0	8	1	8	5	8	3	8	4	
4	2	1	8	6	8	0	8	1	8	2	8	3	8	4	
3	8	1	5	8	0	8	1	8	2	8	3	8	4	
3	3	1	4	1	0	1	1	1	5	1	3	1	4	
2	7	6	6	0	6	1	6	2	6	3	6	4	
3	0	8	1	8	0	8	1	8	5	8	3	8	4	
4	6	8	1	2	8	0	8	1	8	5	8	3	8	4	
2	1	2	1	0	1	1	1	2	1	1	1	0	
5	10	9	8	1	3	8	0	8	1	8	2	8	5	8	4	
4	10	9	8	6	8	0	8	1	8	5	8	3	8	4	
2	1	3	1	0	1	1	1	2	1	5	1	4	
3	1	8	0	8	0	8	1	8	2	8	3	8	4	
2	1	5	1	0	1	1	1	5	1	3	1	4	
4	4	1	8	6	8	0	8	1	8	2	8	3	8	4	
2	8	6	8	0	8	1	8	5	8	3	8	4	
4	7	6	8	9	8	0	8	1	8	5	8	3	8	4	
2	2	1	1	0	1	1	1	2	1	5	1	4	
5	3	1	8	9	10	8	0	8	1	8	5	8	3	8	4	
4	6	8	9	10	8	0	8	1	8	2	8	1	8	0	
3	4	1	3	1	0	1	1	1	5	1	3	1	4	
4	0	8	1	4	8	0	8	1	8	2	8	5	8	4	
3	3	1	8	8	0	8	1	8	2	8	3	8	4	
3	9	8	6	8	0	8	1	8	2	8	5	8	4	
4	10	9	8	0	8	0	8	1	8	2	8	3	8	4	
3	6	8	9	8	0	8	1	8	2	8	1	8	0	
2	3	1	1	0	1	1	1	2	1	1	1	0	
2	1	8	8	0	8	1	8	2	8	5	8	4	
2	3	1	1	0	1	1	1	5	1	3	1	4	
3	4	1	2	1	0	1	1	1	2	1	1	1	0	
2	2	1	1	0	1	1	1	2	1	3	1	4	
2	0	8	8	0	8	1	8	2	8	3	8	4	
3	5	1	8	8	0	8	1	8	5	8	3	8	4	
4	4	1	8	6	8	0	8	1	8	2	8	5	8	4	
4	4	1	8	9	8	0	8	1	8	2	8	3	8	4	
2	0	8	8	0	8	1	8	2	8	1	8	0	
3	8	9	10	8	0	8	1	8	2	8	5	8	4	
5	7	6	8	1	2	8	0	8	1	8	2	8	1	8	0	
3	2	1	4	1	0	1	1	1	5	1	3	1	4	
3	5	1	8	8	0	8	1	8	2	8	3	8	4	
2	8	6	8	0	8	1	8	2	8	3	8	4	
4	9	8	6	7	8	0	8	1	8	2	8	1	8	0	
4	3	1	8	9	8	0	8	1	8	2	8	5	8	4	
3	6	8	1	8	0	8	1	8	2	8	5	8	4	
5	7	6	8	1	2	8	0	8	1	8	2	8	5	8	4	
3	3	1	8	8	0	8	1	8	2	8	1	8	0	
3	9	8	6	8	0	8	1	8	2	8	3	8	4	
5	5	1	8	6	7	8	0	8	1	8	2	8	5	8	4	
2	8	6	8	0	8	1	8	2	8	1	8	0	
5	10	9	8	1	2	8	0	8	1	8	2	8	5	8	4	
3	8	1	4	8	0	8	1	8	2	8	5	8	4	
5	10	9	8	1	5	8	0	8	1	8	5	8	3	8	4	
4	4	1	8	0	8	0	8	1	8	5	8	3	8	4	
3	6	8	9	8	0	8	1	8	5	8	3	8	4	
3	9	8	0	8	0	8	1	8	5	8	3	8	4	
4	9	8	6	7	8	0	8	1	8	2	8	5	8	4	
5	10	9	8	1	3	8	0	8	1	8	2	8	3	8	4	
3	0	8	6	8	0	8	1	8	2	8	5	8	4	
2	6	8	8	0	8	1	8	2	8	5	8	4	
3	4	1	3	1	0	1	1	1	2	1	1	1	0	
2	2	1	1	0	1	1	1	5	1	3	1	4	
4	0	8	1	3	8	0	8	1	8	5	8	3	8	4	
2	1	5	1	0	1	1	1	2	1	5	1	4	
2	4	1	1	0	1	1	1	2	1	5	1	4	
4	7	6	8	0	8	0	8	1	8	2	8	3	8	4	
3	0	8	1	8	0	8	1	8	2	8	3	8	4	
3	10	9	8	8	0	8	1	8	5	8	3	8	4	
3	3	1	5	1	0	1	1	1	2	1	3	1	4	
3	4	1	8	8	0	8	1	8	2	8	1	8	0	
2	1	3	1	0	1	1	1	5	1	3	1	4	
4	5	1	8	6	8	0	8	1	8	2	8	5	8	4	
4	5	1	8	6	8	0	8	1	8	5	8	3	8	4	
4	2	1	8	9	8	0	8	1	8	2	8	1	8	0	
4	9	8	6	7	8	0	8	1	8	2	8	3	8	4	
4	7	6	8	1	8	0	8	1	8	2	8	5	8	4	
3	5	1	3	1	0	1	1	1	2	1	1	1	0	
4	0	8	1	5	8	0	8	1	8	5	8	3	8	4	
4	4	1	8	0	8	0	8	1	8	2	8	3	8	4	
4	2	1	8	6	8	0	8	1	8	2	8	1	8	0	
3	7	6	8	8	0	8	1	8	2	8	1	8	0	
2	1	4	1	0	1	1	1	2	1	1	1	0	
4	3	1	8	6	8	0	8	1	8	2	8	5	8	4	
3	2	1	3	1	0	1	1	1	2	1	3	1	4	
5	7	6	8	9	10	8	0	8	1	8	2	8	5	8	4	
5	5	1	8	6	7	8	0	8	1	8	2	8	3	8	4	
3	4	1	3	1	0	1	1	1	2	1	5	1	4	
3	4	1	5	1	0	1	1	1	5	1	3	1	4	
4	0	8	6	7	8	0	8	1	8	2	8	1	8	0	
5	7	6	8	1	2	8	0	8	1	8	5	8	3	8	4	
3	0	8	1	8	0	8	1	8	2	8	5	8	4	
3	2	1	8	8	0	8	1	8	2	8	5	8	4	
3	6	8	0	8	0	8	1	8	2	8	3	8	4	
4	2	1	8	6	8	0	8	1	8	5	8	3	8	4	
3	8	1	4	8	0	8	1	8	2	8	1	8	0	
5	10	9	8	1	4	8	0	8	1	8	2	8	5	8	4	
2	9	10	9	0	9	1	9	5	9	3	9	4	
4	6	8	1	3	8	0	8	1	8	5	8	3	8	4	
2	8	6	8	0	8	1	8	2	8	5	8	4	
3	8	9	10	8	0	8	1	8	5	8	3	8	4	
3	5	1	4	1	0	1	1	1	2	1	1	1	0	
5	10	9	8	6	7	8	0	8	1	8	5	8	3	8	4	
3	4	1	2	1	0	1	1	1	5	1	3	1	4	
4	9	8	1	4	8	0	8	1	8	2	8	3	8	4	
3	5	1	2	1	0	1	1	1	2	1	3	1	4	
3	4	1	3	1	0	1	1	1	2	1	3	1	4	
4	0	8	1	2	8	0	8	1	8	2	8	1	8	0	
4	9	8	1	5	8	0	8	1	8	2	8	5	8	4	
4	10	9	8	1	8	0	8	1	8	2	8	3	8	4	
5	7	6	8	1	5	8	0	8	1	8	2	8	1	8	0	
2	4	1	1	0	1	1	1	2	1	1	1	0	
2	10	9	9	0	9	1	9	2	9	1	9	0	
3	7	6	8	8	0	8	1	8	2	8	5	8	4	
4	5	1	8	9	8	0	8	1	8	5	8	3	8	4	
4	6	8	1	5	8	0	8	1	8	2	8	3	8	4	
3	2	1	8	8	0	8	1	8	2	8	3	8	4	
3	3	1	2	1	0	1	1	1	2	1	1	1	0	
3	9	8	0	8	0	8	1	8	2	8	1	8	0	
5	10	9	8	1	4	8	0	8	1	8	2	8	1	8	0	
4	5	1	8	9	8	0	8	1	8	2	8	1	8	0	
3	3	1	8	8	0	8	1	8	2	8	5	8	4	
4	0	8	1	5	8	0	8	1	8	2	8	5	8	4	
3	5	1	4	1	0	1	1	1	5	1	3	1	4	
2	8	9	8	0	8	1	8	2	8	3	8	4	
3	3	1	8	8	0	8	1	8	5	8	3	8	4	
5	7	6	8	1	2	8	0	8	1	8	2	8	3	8	4	
3	8	1	3	8	0	8	1	8	2	8	1	8	0	
4	6	8	1	4	8	0	8	1	8	2	8	3	8	4	
3	0	8	1	8	0	8	1	8	2	8	1	8	0	
5	7	6	8	9	10	8	0	8	1	8	2	8	3	8	4	
4	4	1	8	6	8	0	8	1	8	2	8	1	8	0	
3	4	1	2	1	0	1	1	1	2	1	3	1	4	
2	8	1	8	0	8	1	8	2	8	5	8	4	
2	5	1	1	0	1	1	1	2	1	3	1	4	
5	4	1	8	6	7	8	0	8	1	8	5	8	3	8	4	
4	9	8	1	3	8	0	8	1	8	5	8	3	8	4	
4	7	6	8	9	8	0	8	1	8	2	8	3	8	4	
4	1	8	9	10	8	0	8	1	8	5	8	3	8	4	
5	4	1	8	9	10	8	0	8	1	8	2	8	3	8	4	
2	7	6	6	0	6	1	6	2	6	1	6	0	
3	1	8	9	8	0	8	1	8	2	8	1	8	0	
4	2	1	8	0	8	0	8	1	8	5	8	3	8	4	
3	3	1	5	1	0	1	1	1	2	1	1	1	0	
5	5	1	8	9	10	8	0	8	1	8	2	8	3	8	4	
4	6	8	1	5	8	0	8	1	8	5	8	3	8	4	
2	1	4	1	0	1	1	1	2	1	5	1	4	
3	3	1	5	1	0	1	1	1	5	1	3	1	4	
4	7	6	8	0	8	0	8	1	8	5	8	3	8	4	
3	8	1	2	8	0	8	1	8	2	8	1	8	0	
3	3	1	4	1	0	1	1	1	2	1	3	1	4	
3	4	1	5	1	0	1	1	1	2	1	3	1	4	
5	10	9	8	1	3	8	0	8	1	8	2	8	1	8	0	
5	2	1	8	9	10	8	0	8	1	8	2	8	3	8	4	
5	5	1	8	6	7	8	0	8	1	8	5	8	3	8	4	
3	2	1	8	8	0	8	1	8	2	8	1	8	0	
4	6	8	1	5	8	0	8	1	8	2	8	1	8	0	
4	2	1	8	6	8	0	8	1	8	2	8	5	8	4	
2	9	8	8	0	8	1	8	2	8	1	8	0	
4	0	8	1	4	8	0	8	1	8	2	8	3	8	4	
5	4	1	8	6	7	8	0	8	1	8	2	8	1	8	0	
2	6	8	8	0	8	1	8	2	8	1	8	0	
3	2	1	5	1	0	1	1	1	2	1	1	1	0	
4	10	9	8	1	8	0	8	1	8	5	8	3	8	4	
4	0	8	6	7	8	0	8	1	8	5	8	3	8	4	
2	8	1	8	0	8	1	8	5	8	3	8	4	
3	5	1	4	1	0	1	1	1	2	1	3	1	4	
3	1	8	9	8	0	8	1	8	2	8	3	8	4	
4	9	8	1	4	8	0	8	1	8	5	8	3	8	4	
5	10	9	8	1	2	8	0	8	1	8	2	8	1	8	0	
5	5	1	8	9	10	8	0	8	1	8	2	8	1	8	0	
2	10	9	9	0	9	1	9	2	9	5	9	4	
2	3	1	1	0	1	1	1	2	1	3	1	4	
3	1	8	6	8	0	8	1	8	2	8	3	8	4	
3	9	8	6	8	0	8	1	8	2	8	1	8	0	
3	2	1	4	1	0	1	1	1	2	1	3	1	4	
4	9	8	1	2	8	0	8	1	8	2	8	1	8	0	
3	1	8	0	8	0	8	1	8	2	8	1	8	0	
4	0	8	9	10	8	0	8	1	8	5	8	3	8	4	
3	4	1	8	8	0	8	1	8	2	8	5	8	4	
5	10	9	8	1	4	8	0	8	1	8	5	8	3	8	4	
4	6	8	1	4	8	0	8	1	8	2	8	5	8	4	
3	8	1	3	8	0	8	1	8	2	8	5	8	4	
3	5	1	3	1	0	1	1	1	2	1	3	1	4	
3	5	1	2	1	0	1	1	1	5	1	3	1	4	
5	10	9	8	1	2	8	0	8	1	8	5	8	3	8	4	
2	6	8	8	0	8	1	8	5	8	3	8	4	
4	5	1	8	9	8	0	8	1	8	2	8	5	8	4	
2	7	6	6	0	6	1	6	5	6	3	6	4	
3	9	8	0	8	0	8	1	8	2	8	5	8	4	
4	0	8	1	4	8	0	8	1	8	5	8	3	8	4	
2	8	0	8	0	8	1	8	2	8	3	8	4	
3	9	8	1	8	0	8	1	8	2	8	1	8	0	
4	4	1	8	9	8	0	8	1	8	5	8	3	8	4	
2	8	0	8	0	8	1	8	2	8	1	8	0	
3	1	8	6	8	0	8	1	8	2	8	5	8	4	
5	7	6	8	1	4	8	0	8	1	8	2	8	5	8	4	
2	9	8	8	0	8	1	8	2	8	3	8	4	
2	6	7	6	0	6	1	6	2	6	1	6	0	
3	2	1	4	1	0	1	1	1	2	1	5	1	4	
4	3	1	8	6	8	0	8	1	8	2	8	3	8	4	
5	7	6	8	1	3	8	0	8	1	8	2	8	3	8	4	
3	10	9	8	8	0	8	1	8	2	8	1	8	0	
4	10	9	8	0	8	0	8	1	8	2	8	5	8	4	
4	7	6	8	9	8	0	8	1	8	2	8	1	8	0	
3	4	1	5	1	0	1	1	1	2	1	1	1	0	
2	6	7	6	0	6	1	6	2	6	5	6	4	
5	2	1	8	6	7	8	0	8	1	8	2	8	1	8	0	
3	0	8	6	8	0	8	1	8	2	8	3	8	4	
5	10	9	8	1	3	8	0	8	1	8	5	8	3	8	4	
4	4	1	8	6	8	0	8	1	8	5	8	3	8	4	
2	1	8	8	0	8	1	8	5	8	3	8	4	
3	0	8	9	8	0	8	1	8	5	8	3	8	4	
3	8	1	3	8	0	8	1	8	5	8	3	8	4	
4	6	8	9	10	8	0	8	1	8	5	8	3	8	4	
3	0	8	6	8	0	8	1	8	2	8	1	8	0	
2	8	9	8	0	8	1	8	2	8	1	8	0	
4	6	8	1	2	8	0	8	1	8	2	8	1	8	0	
4	7	6	8	1	8	0	8	1	8	5	8	3	8	4	
4	2	1	8	9	8	0	8	1	8	2	8	5	8	4	
3	6	8	1	8	0	8	1	8	2	8	3	8	4	
4	3	1	8	6	8	0	8	1	8	2	8	1	8	0	
4	9	8	1	4	8	0	8	1	8	2	8	1	8	0	
3	10	9	8	8	0	8	1	8	2	8	3	8	4	
4	3	1	8	9	8	0	8	1	8	2	8	1	8	0	
5	2	1	8	6	7	8	0	8	1	8	5	8	3	8	4	
5	7	6	8	1	3	8	0	8	1	8	2	8	5	8	4	
4	9	8	1	2	8	0	8	1	8	2	8	5	8	4	
4	2	1	8	9	8	0	8	1	8	2	8	3	8	4	
3	8	6	7	8	0	8	1	8	2	8	1	8	0	
4	5	1	8	0	8	0	8	1	8	5	8	3	8	4	
4	0	8	6	7	8	0	8	1	8	2	8	3	8	4	
3	2	1	4	1	0	1	1	1	2	1	1	1	0	
3	0	8	6	8	0	8	1	8	5	8	3	8	4	
3	9	8	1	8	0	8	1	8	2	8	3	8	4	
4	0	8	1	5	8	0	8	1	8	2	8	1	8	0	
4	1	8	9	10	8	0	8	1	8	2	8	1	8	0	
3	6	8	9	8	0	8	1	8	2	8	5	8	4	
4	5	1	8	0	8	0	8	1	8	2	8	1	8	0	
2	1	8	8	0	8	1	8	2	8	3	8	4	
4	0	8	1	2	8	0	8	1	8	5	8	3	8	4	
5	7	6	8	1	4	8	0	8	1	8	5	8	3	8	4	
4	10	9	8	1	8	0	8	1	8	2	8	1	8	0	
4	9	8	6	7	8	0	8	1	8	5	8	3	8	4	
4	0	8	1	3	8	0	8	1	8	2	8	5	8	4	
4	3	1	8	0	8	0	8	1	8	2	8	3	8	4	
4	6	8	1	2	8	0	8	1	8	2	8	3	8	4	
5	7	6	8	1	5	8	0	8	1	8	2	8	3	8	4	
3	6	8	1	8	0	8	1	8	2	8	1	8	0	
2	0	8	8	0	8	1	8	2	8	5	8	4	
3	6	8	1	8	0	8	1	8	5	8	3	8	4	
3	1	8	0	8	0	8	1	8	2	8	5	8	4	
2	1	5	1	0	1	1	1	2	1	3	1	4	
4	3	1	8	9	8	0	8	1	8	5	8	3	8	4	
2	9	8	8	0	8	1	8	5	8	3	8	4	
4	5	1	8	6	8	0	8	1	8	2	8	1	8	0	
2	4	1	1	0	1	1	1	2	1	3	1	4	
2	8	9	9	0	9	1	9	2	9	5	9	4	
3	5	1	3	1	0	1	1	1	5	1	3	1	4	
3	1	8	6	8	0	8	1	8	5	8	3	8	4	
2	1	5	1	0	1	1	1	2	1	1	1	0	
3	8	1	5	8	0	8	1	8	5	8	3	8	4	
4	5	1	8	0	8	0	8	1	8	2	8	3	8	4	
2	3	1	1	0	1	1	1	2	1	5	1	4	
5	7	6	8	9	10	8	0	8	1	8	5	8	3	8	4	
3	3	1	2	1	0	1	1	1	5	1	3	1	4	
2	6	7	6	0	6	1	6	2	6	3	6	4	
3	7	6	8	8	0	8	1	8	2	8	3	8	4	
4	3	1	8	0	8	0	8	1	8	2	8	1	8	0	
3	0	8	9	8	0	8	1	8	2	8	3	8	4	
5	2	1	8	9	10	8	0	8	1	8	2	8	5	8	4	
4	2	1	8	0	8	0	8	1	8	2	8	3	8	4	
3	8	1	3	8	0	8	1	8	2	8	3	8	4	
4	6	8	1	4	8	0	8	1	8	5	8	3	8	4	
2	2	1	1	0	1	1	1	2	1	1	1	0	
3	4	1	8	8	0	8	1	8	5	8	3	8	4	
3	4	1	8	8	0	8	1	8	2	8	3	8	4	
5	4	1	8	9	10	8	0	8	1	8	2	8	1	8	0	
4	10	9	8	6	8	0	8	1	8	2	8	5	8	4	
5	4	1	8	9	10	8	0	8	1	8	5	8	3	8	4	
4	10	9	8	6	8	0	8	1	8	2	8	1	8	0	
5	10	9	8	1	5	8	0	8	1	8	2	8	5	8	4	
2	1	2	1	0	1	1	1	2	1	3	1	4	
3	6	8	0	8	0	8	1	8	2	8	5	8	4	
3	8	6	7	6	0	6	1	6	2	6	5	6	4	
4	6	8	1	4	8	0	8	1	8	2	8	1	8	0	
3	8	1	5	8	0	8	1	8	2	8	1	8	0	
2	9	10	9	0	9	1	9	2	9	1	9	0	
5	2	1	8	6	7	8	0	8	1	8	2	8	5	8	4	
5	7	6	8	9	10	8	0	8	1	8	2	8	1	8	0	
4	2	1	8	9	8	0	8	1	8	5	8	3	8	4	
4	6	8	9	10	8	0	8	1	8	2	8	3	8	4	
4	9	8	1	4	8	0	8	1	8	2	8	5	8	4	
3	9	8	1	8	0	8	1	8	5	8	3	8	4	
3	0	8	9	9	0	9	1	9	2	9	5	9	4	
2	6	8	8	0	8	1	8	2	8	3	8	4	
4	10	9	8	0	8	0	8	1	8	5	8	3	8	4	
4	4	1	8	0	8	0	8	1	8	2	8	1	8	0	
2	8	0	8	0	8	1	8	5	8	3	8	4	
2	0	8	8	0	8	1	8	5	8	3	8	4	
4	7	6	8	9	8	0	8	1	8	2	8	5	8	4	
5	3	1	8	6	7	8	0	8	1	8	5	8	3	8	4	
4	10	9	8	6	8	0	8	1	8	2	8	3	8	4	
4	7	6	8	0	8	0	8	1	8	2	8	1	8	0	
4	6	8	1	3	8	0	8	1	8	2	8	1	8	0	
3	8	1	4	8	0	8	1	8	2	8	3	8	4	
3	3	1	2	1	0	1	1	1	2	1	3	1	4	
4	1	8	6	7	8	0	8	1	8	2	8	3	8	4	
4	9	8	1	5	8	0	8	1	8	2	8	1	8	0	
2	10	9	9	0	9	1	9	2	9	3	9	4	
5	10	9	8	6	7	8	0	8	1	8	2	8	1	8	0	
2	1	2	1	0	1	1	1	2	1	5	1	4	
4	4	1	8	9	8	0	8	1	8	2	8	1	8	0	
4	6	8	1	3	8	0	8	1	8	2	8	5	8	4	
5	3	1	8	9	10	8	0	8	1	8	2	8	3	8	4	
4	7	6	8	0	8	0	8	1	8	2	8	5	8	4	
2	5	1	1	0	1	1	1	5	1	3	1	4	
4	0	8	1	2	8	0	8	1	8	2	8	3	8	4	
4	4	1	8	9	8	0	8	1	8	2	8	5	8	4	
2	1	4	1	0	1	1	1	5	1	3	1	4	
4	1	8	6	7	8	0	8	1	8	2	8	1	8	0	
3	4	1	5	1	0	1	1	1	2	1	5	1	4	
4	2	1	8	0	8	0	8	1	8	2	8	5	8	4	
4	1	8	9	10	8	0	8	1	8	2	8	5	8	4	
4	0	8	9	10	8	0	8	1	8	2	8	3	8	4	
4	1	8	9	10	8	0	8	1	8	2	8	3	8	4	
4	9	8	1	2	8	0	8	1	8	5	8	3	8	4	
5	7	6	8	1	5	8	0	8	1	8	5	8	3	8	4	
2	8	1	8	0	8	1	8	2	8	3	8	4	
3	2	1	3	1	0	1	1	1	2	1	1	1	0	
4	3	1	8	0	8	0	8	1	8	5	8	3	8	4	
3	2	1	3	1	0	1	1	1	5	1	3	1	4	
3	0	8	9	8	0	8	1	8	2	8	1	8	0	
5	10	9	8	6	7	8	0	8	1	8	2	8	5	8	4	
4	1	8	6	7	1	0	1	1	1	2	1	5	1	4	
2	1	4	1	0	1	1	1	2	1	3	1	4	
3	5	1	4	1	0	1	1	1	2	1	5	1	4	
4	5	1	8	9	8	0	8	1	8	2	8	3	8	4	
3	2	1	5	1	0	1	1	1	2	1	5	1	4	
4	0	8	1	3	8	0	8	1	8	2	8	3	8	4	
5	3	1	8	6	7	8	0	8	1	8	2	8	3	8	4	
4	6	8	1	2	8	0	8	1	8	2	8	5	8	4	
3	1	8	6	8	0	8	1	8	2	8	1	8	0	
4	9	8	1	5	8	0	8	1	8	2	8	3	8	4	
2	5	1	1	0	1	1	1	2	1	1	1	0	
4	3	1	8	0	8	0	8	1	8	2	8	5	8	4	
3	1	8	9	8	0	8	1	8	5	8	3	8	4	
3	8	1	2	8	0	8	1	8	5	8	3	8	4	
4	6	8	9	10	8	0	8	1	8	2	8	5	8	4	
4	0	8	6	7	8	0	8	1	8	2	8	5	8	4	
3	4	1	2	1	0	1	1	1	2	1	5	1	4	
4	9	8	1	3	8	0	8	1	8	2	8	1	8	0	
4	0	8	9	10	8	0	8	1	8	2	8	1	8	0	
4	2	1	8	0	8	0	8	1	8	2	8	1	8	0	
5	10	9	8	1	4	8	0	8	1	8	2	8	3	8	4	
3	8	1	2	8	0	8	1	8	2	8	3	8	4	
2	7	6	6	0	6	1	6	2	6	5	6	4	
3	2	1	5	1	0	1	1	1	2	1	3	1	4	
5	10	9	8	1	5	8	0	8	1	8	2	8	1	8	0	
2	9	10	9	0	9	1	9	2	9	5	9	4	
3	5	1	3	1	0	1	1	1	2	1	5	1	4	
5	3	1	8	9	10	8	0	8	1	8	2	8	1	8	0	
3	8	9	10	8	0	8	1	8	2	8	3	8	4	
4	7	6	8	1	8	0	8	1	8	2	8	3	8	4	
2	10	9	9	0	9	1	9	5	9	3	9	4	
2	9	10	9	0	9	1	9	2	9	3	9	4	
2	1	2	1	0	1	1	1	5	1	3	1	4	
3	2	1	8	8	0	8	1	8	5	8	3	8	4	
4	6	8	1	5	8	0	8	1	8	2	8	5	8	4	
3	7	6	8	8	0	8	1	8	5	8	3	8	4	
3	5	1	2	1	0	1	1	1	2	1	1	1	0	
3	8	1	5	8	0	8	1	8	2	8	5	8	4	
4	9	8	1	2	8	0	8	1	8	2	8	3	8	4	
4	3	1	8	9	8	0	8	1	8	2	8	3	8	4	
2	8	0	8	0	8	1	8	2	8	5	8	4	
4	0	8	1	4	8	0	8	1	8	2	8	1	8	0	
4	5	1	8	0	8	0	8	1	8	2	8	5	8	4	
