2930.96241362	2130.96241362	800
0	3	1	10	9	10	10	10	10	10
1	3	3	1	5	1	1	1	1	1
2	3	7	1	3	7	7	7	7	7
3	4	9	10	1	3	10	10	10	10	10
4	3	10	1	7	10	10	10	10	10
5	4	3	1	8	6	8	8	8	8	8
6	3	4	1	7	7	7	7	7	7
7	2	1	8	1	1	8	8	8
8	3	7	1	4	7	7	7	7	7
9	4	0	8	1	2	2	2	2	2	2
10	3	7	1	3	7	7	7	7	7
11	3	5	1	10	10	10	10	10	10
12	3	5	1	2	1	2	2	2	2
13	2	8	1	8	8	1	1	1
14	3	8	1	7	7	7	7	7	7
15	3	6	8	0	8	8	8	8	8
16	3	2	1	5	2	2	2	1	1
17	3	7	1	5	7	7	7	7	7
18	3	5	1	7	7	7	7	7	7
19	4	8	1	10	9	10	10	10	10	10
20	3	4	1	10	10	10	10	10	10
21	3	5	1	10	10	10	10	10	10
22	3	8	1	10	10	10	10	10	10
23	2	10	1	10	10	10	10	1
24	4	0	8	1	5	8	8	1	1	1
25	3	3	1	2	1	2	2	2	2
26	2	1	7	7	7	7	7	7
27	3	8	1	4	8	8	8	8	1
28	3	2	1	10	10	10	10	10	10
29	3	2	1	3	2	2	2	1	1
30	2	4	1	1	1	1	1	1
31	4	9	10	1	3	10	10	10	10	10
32	4	0	8	1	3	8	8	1	1	1
33	3	10	1	2	10	10	10	10	10
34	3	7	1	4	7	7	7	7	7
35	4	6	8	1	3	8	8	1	1	1
36	4	9	10	1	5	10	10	10	10	10
37	4	4	1	8	0	8	8	8	8	8
38	3	2	1	7	7	7	7	7	7
39	2	5	1	1	1	1	1	1
40	3	10	1	8	10	10	10	10	10
41	3	3	1	7	7	7	7	7	7
42	4	6	8	1	7	7	7	7	7	7
43	3	3	1	4	1	1	1	1	1
44	3	5	1	8	1	8	8	8	8
45	4	9	10	1	8	10	10	10	10	10
46	3	1	8	0	1	1	1	1	1
47	2	1	3	1	1	1	1	1
48	3	2	1	10	10	10	10	10	10
49	2	1	3	1	1	1	1	1
50	3	4	1	7	7	7	7	7	7
51	4	0	8	1	10	10	10	10	10	10
52	3	5	1	8	1	8	8	8	8
53	3	8	1	2	8	2	2	2	2
54	5	6	8	1	10	9	10	10	10	10	10
55	3	6	8	0	8	8	8	8	8
56	5	9	10	1	8	0	10	10	10	10	10
57	4	5	1	8	6	8	8	8	8	8
58	3	3	1	7	7	7	7	7	7
59	3	9	10	1	10	10	10	10	10
60	3	10	1	5	10	10	10	10	10
61	4	10	1	8	0	10	10	10	10	10
62	2	7	1	7	7	7	7	7
63	3	8	1	7	7	7	7	7	7
64	3	3	1	10	10	10	10	10	10
65	3	3	1	4	1	1	1	1	1
66	5	9	10	1	8	6	10	10	10	10	10
67	4	2	1	8	6	2	2	2	2	2
68	3	8	1	5	8	8	1	1	1
69	3	3	1	4	1	1	1	1	1
70	4	7	1	8	6	7	7	7	7	7
71	3	0	8	1	8	1	1	1	1
72	4	6	8	1	2	2	2	2	2	2
73	2	1	2	2	2	2	2	2
74	3	10	1	3	10	10	10	10	10
75	4	10	1	8	6	10	10	10	10	10
76	2	1	3	1	1	1	1	1
77	3	1	8	0	1	8	8	8	8
78	2	1	5	1	1	1	1	1
79	4	4	1	8	6	8	8	8	8	8
80	2	8	6	8	8	8	8	8
81	4	7	1	10	9	10	10	10	10	10
82	2	2	1	2	2	2	2	2
83	3	3	1	10	10	10	10	10	10
84	4	6	8	1	10	10	10	10	10	10
85	3	4	1	3	1	1	1	1	1
86	4	0	8	1	4	8	1	1	1	1
87	3	3	1	8	1	8	8	8	8
88	5	9	10	1	8	6	10	10	10	10	10
89	4	10	1	8	0	10	10	10	10	10
90	5	6	8	1	10	9	10	10	10	10	10
91	2	3	1	1	1	1	1	1
92	2	1	8	1	1	8	8	8
93	2	3	1	1	1	1	1	1
94	3	4	1	2	1	2	2	2	2
95	2	2	1	2	2	2	2	1
96	2	0	8	8	8	8	8	8
97	3	5	1	8	1	8	8	8	8
98	4	4	1	8	6	1	1	1	1	1
99	4	4	1	10	9	10	10	10	10	10
100	2	0	8	8	8	8	8	8
101	3	8	1	10	10	10	10	10	10
102	3	7	1	2	7	7	7	7	7
103	3	2	1	4	2	2	2	2	2
104	3	5	1	8	1	8	8	8	8
105	2	8	6	8	8	8	8	8
106	4	9	10	1	7	10	10	10	10	10
107	4	3	1	10	9	10	10	10	10	10
108	3	6	8	1	1	1	1	1	1
109	3	7	1	2	7	7	7	7	7
110	3	3	1	8	1	8	8	8	8
111	5	9	10	1	8	6	10	10	10	10	10
112	3	5	1	7	7	7	7	7	7
113	2	8	6	8	8	8	8	8
114	3	10	1	2	10	10	10	10	10
115	3	8	1	4	8	1	1	1	1
116	3	10	1	5	10	10	10	10	10
117	4	4	1	8	0	1	1	1	8	8
118	5	6	8	1	10	9	10	10	10	10	10
119	5	9	10	1	8	0	10	10	10	10	10
120	4	9	10	1	7	10	10	10	10	10
121	3	10	1	3	10	10	10	10	10
122	3	0	8	6	8	8	8	8	8
123	2	6	8	8	8	8	8	8
124	3	4	1	3	1	1	1	1	1
125	2	2	1	2	2	1	1	1
126	4	0	8	1	3	1	1	1	1	1
127	2	1	5	1	1	1	1	1
128	2	4	1	1	1	1	1	1
129	4	7	1	8	0	7	7	7	7	7
130	3	0	8	1	8	1	1	1	1
131	3	10	1	8	10	10	10	10	10
132	3	3	1	5	1	1	1	1	1
133	3	4	1	8	1	8	8	8	8
134	2	1	3	1	1	1	1	1
135	4	5	1	8	6	1	1	1	8	8
136	4	5	1	8	6	8	8	8	8	8
137	4	2	1	10	9	10	10	10	10	10
138	4	9	10	1	7	10	10	10	10	10
139	2	7	1	7	7	7	7	7
140	3	5	1	3	1	1	1	1	1
141	4	0	8	1	5	1	1	1	1	1
142	4	4	1	8	0	1	1	8	8	8
143	4	2	1	8	6	8	8	8	8	8
144	3	7	1	8	7	7	7	7	7
145	2	1	4	1	1	1	1	1
146	4	3	1	8	6	1	1	1	8	8
147	3	2	1	3	2	2	2	2	2
148	3	7	1	10	10	10	10	10	10
149	3	5	1	7	7	7	7	7	7
150	3	4	1	3	1	1	1	1	1
151	3	4	1	5	1	1	1	1	1
152	4	0	8	1	7	7	7	7	7	7
153	3	7	1	2	7	7	7	7	7
154	3	0	8	1	8	1	1	1	1
155	3	2	1	8	2	2	2	2	2
156	3	6	8	0	8	8	8	8	8
157	4	2	1	8	6	8	8	8	8	8
158	3	8	1	4	8	1	1	1	1
159	3	10	1	4	10	10	10	10	10
160	2	9	10	10	10	10	10	10
161	4	6	8	1	3	1	1	1	1	1
162	2	8	6	8	8	8	8	8
163	3	8	1	10	10	10	10	10	10
164	3	5	1	4	1	1	1	1	1
165	3	10	1	7	10	10	10	10	10
166	3	4	1	2	1	2	2	2	2
167	4	9	10	1	4	10	10	10	10	10
168	3	5	1	2	1	2	2	2	2
169	3	4	1	3	1	1	1	1	1
170	4	0	8	1	2	2	2	2	2	2
171	4	9	10	1	5	10	10	10	10	10
172	2	10	1	10	10	10	10	10
173	3	7	1	5	7	7	7	7	7
174	2	4	1	1	1	1	1	1
175	2	10	9	10	10	10	10	10
176	3	7	1	8	7	7	7	7	7
177	4	5	1	10	9	10	10	10	10	10
178	4	6	8	1	5	8	1	1	1	1
179	3	2	1	8	2	2	2	2	2
180	3	3	1	2	1	2	2	2	2
181	5	9	10	1	8	0	10	10	10	10	10
182	3	10	1	4	10	10	10	10	10
183	4	5	1	10	9	10	10	10	10	10
184	3	3	1	8	1	8	8	8	8
185	4	0	8	1	5	1	1	1	1	1
186	3	5	1	4	1	1	1	1	1
187	4	8	1	10	9	10	10	10	10	10
188	3	3	1	8	1	8	8	8	8
189	3	7	1	2	7	7	7	7	7
190	3	8	1	3	8	8	1	1	1
191	4	6	8	1	4	1	1	1	1	1
192	3	0	8	1	8	1	1	1	1
193	3	7	1	10	10	10	10	10	10
194	4	4	1	8	6	8	8	8	8	8
195	3	4	1	2	1	2	2	2	2
196	2	8	1	8	8	8	8	8
197	2	5	1	1	1	1	1	1
198	3	4	1	7	7	7	7	7	7
199	4	9	10	1	3	10	10	10	10	10
200	4	7	1	10	9	7	7	7	10	10
201	2	1	10	10	10	10	10	10
202	3	4	1	10	10	10	10	10	10
203	4	7	1	8	6	7	7	7	7	7
204	3	1	10	9	10	10	10	10	10
205	4	2	1	8	0	2	2	8	8	8
206	3	3	1	5	1	1	1	1	1
207	3	5	1	10	10	10	10	10	10
208	4	6	8	1	5	1	1	1	1	1
209	2	1	4	1	1	1	1	1
210	3	3	1	5	1	1	1	1	1
211	4	7	1	8	0	7	7	7	7	7
212	3	8	1	2	8	2	2	2	2
213	3	3	1	4	1	1	1	1	1
214	3	4	1	5	1	1	1	1	1
215	3	10	1	3	10	10	10	10	10
216	3	2	1	10	10	10	10	10	10
217	3	5	1	7	7	7	7	7	7
218	3	2	1	8	2	8	8	8	8
219	4	6	8	1	5	8	8	8	1	1
220	4	2	1	8	6	2	2	2	2	2
221	4	9	10	1	8	10	10	10	10	10
222	4	0	8	1	4	1	1	1	1	1
223	3	4	1	7	7	7	7	7	7
224	2	6	8	8	8	8	8	8
225	3	2	1	5	2	2	2	2	1
226	2	10	1	10	10	10	10	10
227	4	0	8	1	7	7	7	7	7	7
228	2	8	1	8	8	1	1	1
229	3	5	1	4	1	1	1	1	1
230	3	1	10	9	10	10	10	10	10
231	4	9	10	1	4	10	10	10	10	10
232	3	10	1	2	10	10	10	10	10
233	3	5	1	10	10	10	10	10	10
234	2	10	9	10	10	10	10	10
235	2	3	1	1	1	1	1	1
236	3	1	8	6	1	8	8	8	8
237	5	9	10	1	8	6	10	10	10	10	10
238	3	2	1	4	2	2	2	2	2
239	4	9	10	1	2	10	10	10	10	10
240	3	1	8	0	1	8	8	8	8
241	4	0	8	1	10	10	10	10	10	10
242	3	4	1	8	1	8	8	8	8
243	3	10	1	4	10	10	10	10	10
244	4	6	8	1	4	8	1	1	1	1
245	3	8	1	3	8	1	1	1	1
246	3	5	1	3	1	1	1	1	1
247	3	5	1	2	1	2	2	2	2
248	3	10	1	2	10	10	10	10	10
249	2	6	8	8	8	8	8	8
250	4	5	1	10	9	10	10	10	10	10
251	4	7	1	8	6	7	7	7	7	7
252	5	9	10	1	8	0	10	10	10	10	10
253	4	0	8	1	4	1	1	1	1	1
254	2	8	0	8	8	8	8	8
255	3	9	10	1	10	10	10	10	10
256	4	4	1	10	9	10	10	10	10	10
257	2	8	0	8	8	8	8	8
258	3	1	8	6	1	1	1	1	8
259	3	7	1	4	7	7	7	7	7
260	4	9	10	1	8	10	10	10	10	10
261	4	6	8	1	7	7	7	7	7	7
262	3	2	1	4	2	2	2	2	2
263	4	3	1	8	6	8	8	8	8	8
264	3	7	1	3	7	7	7	7	7
265	3	10	1	8	10	10	10	10	10
266	4	10	1	8	0	10	10	10	10	10
267	4	7	1	10	9	10	10	10	10	10
268	3	4	1	5	1	1	1	1	1
269	4	6	8	1	7	7	7	7	7	7
270	3	2	1	7	7	7	7	7	7
271	3	0	8	6	8	8	8	8	8
272	3	10	1	3	10	10	10	10	10
273	4	4	1	8	6	8	8	8	8	8
274	2	1	8	1	1	8	8	8
275	5	0	8	1	10	9	10	10	10	10	10
276	3	8	1	3	8	1	1	1	1
277	4	6	8	1	10	10	10	10	10	10
278	3	0	8	6	8	8	8	8	8
279	4	8	1	10	9	10	10	10	10	10
280	4	6	8	1	2	2	2	2	2	2
281	2	7	1	7	7	7	7	7
282	4	2	1	10	9	10	10	10	10	10
283	3	6	8	1	1	1	1	1	1
284	4	3	1	8	6	8	8	8	8	8
285	4	9	10	1	4	10	10	10	10	10
286	3	10	1	8	10	10	10	10	10
287	4	3	1	10	9	10	10	10	10	10
288	3	2	1	7	7	7	7	7	7
289	3	7	1	3	7	7	7	7	7
290	4	9	10	1	2	10	10	10	2	2
291	4	2	1	10	9	10	10	10	10	10
292	3	8	1	7	7	7	7	7	7
293	4	5	1	8	0	1	1	8	8	8
294	4	0	8	1	7	7	7	7	7	7
295	3	2	1	4	2	2	2	2	2
296	3	0	8	6	8	8	8	8	8
297	3	9	10	1	10	10	10	10	10
298	4	0	8	1	5	1	1	1	1	1
299	2	1	10	10	10	10	10	10
300	5	6	8	1	10	9	10	10	10	10	10
301	4	5	1	8	0	1	1	1	1	8
302	2	1	8	1	1	8	8	8
303	4	0	8	1	2	2	2	2	2	2
304	3	7	1	4	7	7	7	7	7
305	2	10	1	10	10	10	10	10
306	4	9	10	1	7	10	10	10	10	10
307	4	0	8	1	3	8	8	1	1	1
308	4	3	1	8	0	1	8	8	8	8
309	4	6	8	1	2	2	2	2	2	2
310	3	7	1	5	7	7	7	7	7
311	3	6	8	1	1	1	1	1	1
312	2	0	8	8	8	8	8	8
313	3	6	8	1	1	1	1	1	1
314	3	1	8	0	1	8	8	8	8
315	2	1	5	1	1	1	1	1
316	4	3	1	10	9	10	10	10	10	10
317	4	9	10	1	8	10	10	10	10	10
318	4	5	1	8	6	8	8	8	8	8
319	2	4	1	1	1	1	1	1
320	4	8	1	10	9	10	10	10	10	10
321	3	5	1	3	1	1	1	1	1
322	3	1	8	6	1	8	8	8	8
323	2	1	5	1	1	1	1	1
324	3	8	1	5	8	8	1	1	1
325	4	5	1	8	0	1	8	8	8	8
326	2	3	1	1	1	1	1	1
327	3	7	1	10	10	10	10	10	10
328	3	3	1	2	1	2	2	2	2
329	4	6	8	1	7	7	7	7	7	7
330	3	7	1	8	7	7	7	7	7
331	4	3	1	8	0	1	1	1	1	8
332	5	0	8	1	10	9	10	10	10	10	10
333	3	2	1	10	10	10	10	10	10
334	4	2	1	8	0	2	2	2	2	2
335	3	8	1	3	8	8	1	1	1
336	4	6	8	1	4	1	1	1	1	1
337	2	2	1	2	2	1	1	1
338	3	4	1	8	1	8	8	8	8
339	3	4	1	8	1	8	8	8	8
340	3	4	1	10	10	10	10	10	10
341	4	10	1	8	6	10	10	10	10	10
342	3	4	1	10	10	10	10	10	10
343	4	10	1	8	6	10	10	10	10	10
344	3	10	1	5	10	10	10	10	10
345	2	1	2	2	2	2	2	2
346	3	6	8	0	8	8	8	8	8
347	3	8	1	7	8	8	8	8	7
348	4	6	8	1	4	8	8	8	8	1
349	3	8	1	5	8	8	8	8	8
350	2	9	10	10	10	10	10	10
351	3	2	1	7	7	7	7	7	7
352	3	7	1	10	10	10	10	10	10
353	4	2	1	10	9	10	10	10	10	10
354	4	6	8	1	10	10	10	10	10	10
355	4	9	10	1	4	10	10	10	10	10
356	3	9	10	1	10	10	10	10	10
357	5	0	8	1	10	9	10	10	10	10	10
358	2	6	8	8	8	8	8	8
359	4	10	1	8	0	10	10	10	10	10
360	4	4	1	8	0	1	1	1	1	1
361	2	8	0	8	8	8	8	8
362	2	0	8	8	8	8	8	8
363	4	7	1	10	9	7	7	10	10	10
364	3	3	1	7	7	7	7	7	7
365	4	10	1	8	6	10	10	10	10	10
366	4	7	1	8	0	7	7	7	7	7
367	4	6	8	1	3	1	1	1	1	1
368	3	8	1	4	8	8	1	1	1
369	3	3	1	2	1	2	2	2	2
370	2	1	7	7	7	7	7	7
371	4	9	10	1	5	10	10	10	10	10
372	2	10	9	10	10	10	10	10
373	3	10	1	7	10	10	10	10	10
374	2	1	2	2	2	2	2	2
375	4	4	1	10	9	10	10	10	10	10
376	4	6	8	1	3	1	1	1	1	1
377	3	3	1	10	10	10	10	10	10
378	4	7	1	8	0	7	7	7	7	7
379	2	5	1	1	1	1	1	1
380	4	0	8	1	2	2	2	2	2	2
381	4	4	1	10	9	10	10	10	10	10
382	2	1	4	1	1	1	1	1
383	2	1	7	7	7	7	7	7
384	3	4	1	5	1	1	1	1	1
385	4	2	1	8	0	2	2	2	2	2
386	2	1	10	10	10	10	10	10
387	4	0	8	1	10	10	10	10	10	10
388	2	1	10	10	10	10	10	10
389	4	9	10	1	2	10	10	10	10	10
390	3	7	1	5	7	7	7	7	7
391	2	8	1	8	8	8	8	8
392	3	2	1	3	2	2	2	2	2
393	4	3	1	8	0	1	1	1	1	1
394	3	2	1	3	2	2	2	2	2
395	5	0	8	1	10	9	10	10	10	10	10
396	3	10	1	7	10	10	10	10	10
397	2	1	7	1	1	1	1	7
398	2	1	4	1	1	1	1	1
399	3	5	1	4	1	1	1	1	1
400	4	5	1	10	9	10	10	10	10	10
401	3	2	1	5	2	2	2	2	2
402	4	0	8	1	3	8	8	1	1	1
403	3	3	1	7	7	7	7	7	7
404	4	6	8	1	2	2	2	2	2	2
405	3	1	8	6	1	8	8	8	8
406	4	9	10	1	5	10	10	10	10	10
407	2	5	1	1	1	1	1	1
408	4	3	1	8	0	8	8	8	8	8
409	3	1	10	9	10	10	10	10	10
410	3	8	1	2	8	2	2	2	2
411	4	6	8	1	10	10	10	10	10	10
412	4	0	8	1	7	7	7	7	7	7
413	3	4	1	2	1	2	2	2	2
414	4	9	10	1	3	10	10	10	10	10
415	4	0	8	1	10	10	10	10	10	10
416	4	2	1	8	0	2	1	1	8	8
417	3	10	1	4	10	10	10	10	10
418	3	8	1	2	8	2	2	2	2
419	4	7	1	8	6	7	7	7	7	7
420	3	2	1	5	2	2	2	2	2
421	3	10	1	5	10	10	10	10	10
422	2	9	10	10	10	10	10	10
423	3	5	1	3	1	1	1	1	1
424	3	3	1	10	10	10	10	10	10
425	3	8	1	10	10	10	10	10	10
426	2	7	1	7	7	7	7	7
427	2	10	9	10	10	10	10	10
428	2	9	10	10	10	10	10	10
429	2	1	2	1	1	2	2	2
430	3	2	1	8	2	8	8	8	8
431	4	6	8	1	5	1	1	1	1	1
432	3	7	1	8	7	7	7	7	7
433	3	5	1	2	1	2	2	2	2
434	3	8	1	5	8	1	1	1	1
435	4	9	10	1	2	10	10	10	10	10
436	4	3	1	10	9	10	10	10	10	10
437	2	8	0	8	8	8	8	8
438	4	0	8	1	4	1	1	1	1	1
439	4	5	1	8	0	8	8	8	8	8
