9355.85	-1
-1
14.041	14.0558
11
0	2	8
1	8	8
2	7	8
3	2	8
4	2	8
5	2	8
6	4	8
7	3	8
8	8	8
9	6	8
10	1	8
68
0	6	735.000000	1290.000000	1
0	7	0	60.000000	0
0	8	1984.500000	2340.000000	1
0	9	0	1050.000000	0
1	2	1995.000000	2520.000000	1
1	3	1281.000000	2190.000000	1
1	4	1338.750000	1350.000000	1
1	5	1769.250000	2160.000000	1
1	7	1428.000000	1470.000000	1
1	8	94.500000	3480.000000	1
1	9	0	60.000000	0
1	10	611.132882	2460.000000	1
2	1	47.250000	2520.000000	1
2	3	1134.000000	1950.000000	1
2	4	656.250000	1140.000000	1
2	5	0	30.000000	0
2	9	21.000000	1800.000000	1
2	10	0	930.000000	0
3	1	588.000000	2190.000000	1
3	2	10.500000	1950.000000	1
3	4	0	960.000000	0
3	5	0	30.000000	0
4	1	1097.250000	1350.000000	1
4	2	10.500000	1140.000000	1
4	3	0	960.000000	0
4	5	0	870.000000	0
4	6	0	60.000000	0
4	7	0	990.000000	0
5	1	42.000000	2160.000000	1
5	2	0	30.000000	0
5	3	0	30.000000	0
5	4	0	870.000000	0
5	7	609.000000	1050.000000	1
5	8	0	30.000000	0
6	0	10.500000	1290.000000	1
6	4	0	60.000000	0
6	7	1659.000000	1920.000000	1
6	8	36.750000	2250.000000	1
6	9	0	30.000000	0
6	10	0	60.000000	0
7	0	0	60.000000	0
7	1	36.750000	1470.000000	1
7	4	0	990.000000	0
7	5	15.750000	1050.000000	1
7	6	21.000000	1920.000000	1
7	8	0	930.000000	0
7	9	0	30.000000	0
7	10	0	30.000000	0
8	0	42.000000	2340.000000	1
8	1	2637.632882	3480.000000	1
8	5	0	30.000000	0
8	6	1853.250000	2250.000000	1
8	7	0	930.000000	0
8	9	2286.867118	2370.000000	1
8	10	0	1470.000000	0
9	0	0	1050.000000	0
9	1	0	60.000000	0
9	2	1071.000000	1800.000000	1
9	6	0	30.000000	0
9	7	0	30.000000	0
9	8	21.000000	2370.000000	1
9	10	2608.948350	3300.000000	1
10	1	1953.000000	2460.000000	1
10	2	0	930.000000	0
10	6	0	60.000000	0
10	7	0	30.000000	0
10	8	0	1470.000000	0
10	9	432.331232	3300.000000	1
440
3	1	10	9	1	0	1	1	1	2	1	5	1	4	
3	3	1	5	1	0	1	1	1	2	1	5	1	4	
3	7	1	3	1	0	1	1	1	5	1	3	1	4	
3	9	2	3	2	0	2	1	2	2	2	5	2	4	
3	10	1	7	1	0	1	1	1	2	1	3	1	4	
4	3	1	8	6	1	0	1	1	1	5	1	3	1	4	
3	4	1	7	1	0	1	1	1	2	1	5	1	4	
2	1	8	1	0	1	1	1	2	1	1	1	0	
3	7	1	4	1	0	1	1	1	2	1	3	1	4	
4	0	8	9	2	8	0	8	1	8	2	8	5	8	4	
3	7	1	3	1	0	1	1	1	2	1	1	1	0	
3	5	1	10	1	0	1	1	1	5	1	3	1	4	
3	5	1	2	1	0	1	1	1	2	1	5	1	4	
2	8	1	1	0	1	1	1	2	1	1	1	0	
3	8	6	7	8	0	8	1	8	2	8	3	8	4	
2	6	0	6	0	6	1	6	5	6	3	6	4	
3	2	1	5	1	0	1	1	1	5	1	3	1	4	
2	7	5	7	0	7	1	7	2	7	5	7	4	
2	5	7	7	0	7	1	7	2	7	1	7	0	
2	8	9	8	0	8	1	8	5	8	3	8	4	
3	4	1	10	1	0	1	1	1	2	1	5	1	4	
3	5	1	10	1	0	1	1	1	2	1	5	1	4	
3	8	9	10	8	0	8	1	8	2	8	1	8	0	
2	10	1	1	0	1	1	1	2	1	5	1	4	
4	0	6	7	5	6	0	6	1	6	2	6	3	6	4	
2	3	2	2	0	2	1	2	2	2	5	2	4	
2	1	7	7	0	7	1	7	5	7	3	7	4	
3	8	1	4	1	0	1	1	1	5	1	3	1	4	
3	2	1	10	1	0	1	1	1	5	1	3	1	4	
2	2	3	2	0	2	1	2	2	2	5	2	4	
2	4	1	1	0	1	1	1	5	1	3	1	4	
3	9	2	3	2	0	2	1	2	2	2	3	2	4	
4	0	8	1	3	1	0	1	1	1	2	1	1	1	0	
3	10	1	2	1	0	1	1	1	2	1	3	1	4	
3	7	1	4	1	0	1	1	1	2	1	1	1	0	
4	6	8	1	3	1	0	1	1	1	2	1	3	1	4	
4	9	2	1	5	1	0	1	1	1	5	1	3	1	4	
4	4	1	8	0	1	0	1	1	1	2	1	5	1	4	
3	2	1	7	1	0	1	1	1	2	1	3	1	4	
2	5	1	1	0	1	1	1	2	1	5	1	4	
3	10	1	8	1	0	1	1	1	2	1	5	1	4	
3	3	1	7	1	0	1	1	1	2	1	1	1	0	
2	6	7	6	0	6	1	6	5	6	3	6	4	
3	3	1	4	1	0	1	1	1	2	1	1	1	0	
3	5	1	8	1	0	1	1	1	2	1	1	1	0	
2	9	8	8	0	8	1	8	2	8	5	8	4	
3	1	8	0	1	0	1	1	1	5	1	3	1	4	
2	1	3	1	0	1	1	1	2	1	1	1	0	
3	2	1	10	1	0	1	1	1	2	1	1	1	0	
2	1	3	1	0	1	1	1	2	1	3	1	4	
3	4	1	7	1	0	1	1	1	2	1	3	1	4	
4	0	8	9	10	8	0	8	1	8	2	8	5	8	4	
3	5	1	8	1	0	1	1	1	2	1	5	1	4	
3	8	9	2	8	0	8	1	8	2	8	5	8	4	
3	6	8	9	8	0	8	1	8	2	8	3	8	4	
2	6	0	6	0	6	1	6	2	6	1	6	0	
3	9	8	0	8	0	8	1	8	2	8	3	8	4	
3	5	7	6	6	0	6	1	6	2	6	3	6	4	
3	3	1	7	1	0	1	1	1	2	1	5	1	4	
3	9	2	1	1	0	1	1	1	2	1	5	1	4	
3	10	1	5	1	0	1	1	1	2	1	3	1	4	
4	10	1	8	0	1	0	1	1	1	2	1	1	1	0	
2	7	1	1	0	1	1	1	2	1	1	1	0	
3	8	6	7	8	0	8	1	8	5	8	3	8	4	
3	3	1	10	1	0	1	1	1	2	1	5	1	4	
3	3	1	4	1	0	1	1	1	2	1	5	1	4	
3	9	8	6	8	0	8	1	8	5	8	3	8	4	
4	2	1	7	6	1	0	1	1	1	2	1	3	1	4	
3	8	1	5	1	0	1	1	1	2	1	3	1	4	
3	3	1	4	3	0	3	1	3	5	3	3	3	4	
2	7	6	6	0	6	1	6	2	6	3	6	4	
3	0	8	1	1	0	1	1	1	5	1	3	1	4	
4	6	8	9	2	8	0	8	1	8	5	8	3	8	4	
2	1	2	1	0	1	1	1	2	1	1	1	0	
3	10	1	3	1	0	1	1	1	2	1	5	1	4	
4	10	1	8	6	1	0	1	1	1	5	1	3	1	4	
2	1	3	3	0	3	1	3	2	3	5	3	4	
3	1	8	0	1	0	1	1	1	2	1	3	1	4	
2	1	5	5	0	5	1	5	5	5	3	5	4	
4	4	1	8	6	1	0	1	1	1	2	1	3	1	4	
2	8	6	8	0	8	1	8	5	8	3	8	4	
4	7	1	2	9	1	0	1	1	1	5	1	3	1	4	
2	2	1	1	0	1	1	1	2	1	5	1	4	
3	3	1	10	1	0	1	1	1	5	1	3	1	4	
4	6	8	9	10	8	0	8	1	8	2	8	1	8	0	
3	4	1	3	1	0	1	1	1	5	1	3	1	4	
4	0	8	1	4	1	0	1	1	1	2	1	5	1	4	
3	3	1	8	1	0	1	1	1	2	1	3	1	4	
3	9	8	6	8	0	8	1	8	2	8	5	8	4	
4	10	1	8	0	1	0	1	1	1	2	1	3	1	4	
3	6	8	9	8	0	8	1	8	2	8	1	8	0	
2	3	1	1	0	1	1	1	2	1	1	1	0	
2	1	8	1	0	1	1	1	2	1	5	1	4	
2	3	1	1	0	1	1	1	5	1	3	1	4	
2	4	2	2	0	2	1	2	2	2	1	2	0	
2	2	1	1	0	1	1	1	2	1	3	1	4	
2	0	8	8	0	8	1	8	2	8	3	8	4	
3	5	1	8	1	0	1	1	1	5	1	3	1	4	
4	4	1	8	6	1	0	1	1	1	2	1	5	1	4	
3	4	2	9	2	0	2	1	2	2	2	3	2	4	
2	0	8	8	0	8	1	8	2	8	1	8	0	
3	8	9	10	8	0	8	1	8	2	8	5	8	4	
3	7	1	2	1	0	1	1	1	2	1	1	1	0	
2	2	4	2	0	2	1	2	5	2	3	2	4	
3	5	1	8	1	0	1	1	1	2	1	3	1	4	
2	8	6	8	0	8	1	8	2	8	3	8	4	
4	9	8	6	7	8	0	8	1	8	2	8	1	8	0	
3	3	2	9	2	0	2	1	2	2	2	5	2	4	
3	6	8	1	1	0	1	1	1	2	1	5	1	4	
3	7	1	2	1	0	1	1	1	2	1	5	1	4	
3	3	1	8	1	0	1	1	1	2	1	1	1	0	
3	9	8	6	8	0	8	1	8	2	8	3	8	4	
2	5	7	7	0	7	1	7	2	7	5	7	4	
2	8	6	8	0	8	1	8	2	8	1	8	0	
3	10	1	2	1	0	1	1	1	2	1	5	1	4	
3	8	1	4	1	0	1	1	1	2	1	5	1	4	
3	10	1	5	1	0	1	1	1	5	1	3	1	4	
4	4	1	8	0	1	0	1	1	1	5	1	3	1	4	
3	6	8	9	8	0	8	1	8	5	8	3	8	4	
3	9	8	0	8	0	8	1	8	5	8	3	8	4	
4	9	8	6	7	8	0	8	1	8	2	8	5	8	4	
3	10	1	3	1	0	1	1	1	2	1	3	1	4	
2	0	6	6	0	6	1	6	2	6	5	6	4	
2	6	8	8	0	8	1	8	2	8	5	8	4	
3	4	1	3	1	0	1	1	1	2	1	1	1	0	
2	2	1	1	0	1	1	1	5	1	3	1	4	
4	0	8	1	3	1	0	1	1	1	5	1	3	1	4	
2	1	5	5	0	5	1	5	2	5	5	5	4	
2	4	1	1	0	1	1	1	2	1	5	1	4	
3	7	6	0	6	0	6	1	6	2	6	3	6	4	
3	0	8	1	1	0	1	1	1	2	1	3	1	4	
3	10	1	8	1	0	1	1	1	5	1	3	1	4	
3	3	1	5	1	0	1	1	1	2	1	3	1	4	
3	4	1	8	1	0	1	1	1	2	1	1	1	0	
2	1	3	3	0	3	1	3	5	3	3	3	4	
3	5	7	6	6	0	6	1	6	2	6	5	6	4	
3	5	7	6	6	0	6	1	6	5	6	3	6	4	
2	2	9	2	0	2	1	2	2	2	1	2	0	
4	9	8	6	7	8	0	8	1	8	2	8	3	8	4	
2	7	1	1	0	1	1	1	2	1	5	1	4	
3	5	1	3	1	0	1	1	1	2	1	1	1	0	
4	0	6	7	5	6	0	6	1	6	5	6	3	6	4	
4	4	1	8	0	1	0	1	1	1	2	1	3	1	4	
4	2	1	7	6	1	0	1	1	1	2	1	1	1	0	
3	7	1	8	1	0	1	1	1	2	1	1	1	0	
2	1	4	1	0	1	1	1	2	1	1	1	0	
4	3	1	8	6	1	0	1	1	1	2	1	5	1	4	
2	2	3	2	0	2	1	2	2	2	3	2	4	
3	7	1	10	1	0	1	1	1	2	1	5	1	4	
2	5	7	7	0	7	1	7	2	7	3	7	4	
3	4	1	3	1	0	1	1	1	2	1	5	1	4	
3	4	1	5	4	0	4	1	4	5	4	3	4	4	
3	0	6	7	6	0	6	1	6	2	6	1	6	0	
3	7	1	2	2	0	2	1	2	5	2	3	2	4	
3	0	8	1	1	0	1	1	1	2	1	5	1	4	
3	2	1	8	1	0	1	1	1	2	1	5	1	4	
2	6	0	6	0	6	1	6	2	6	3	6	4	
4	2	1	7	6	2	0	2	1	2	5	2	3	2	4	
3	8	1	4	1	0	1	1	1	2	1	1	1	0	
3	10	1	4	1	0	1	1	1	2	1	5	1	4	
2	9	10	9	0	9	1	9	5	9	3	9	4	
4	6	8	1	3	8	0	8	1	8	5	8	3	8	4	
2	8	6	8	0	8	1	8	2	8	5	8	4	
3	8	9	10	8	0	8	1	8	5	8	3	8	4	
3	5	1	4	1	0	1	1	1	2	1	1	1	0	
3	10	1	7	7	0	7	1	7	5	7	3	7	4	
2	4	2	2	0	2	1	2	5	2	3	2	4	
3	9	2	4	2	0	2	1	2	2	2	3	2	4	
3	5	1	2	1	0	1	1	1	2	1	3	1	4	
3	4	1	3	1	0	1	1	1	2	1	3	1	4	
4	0	8	9	2	8	0	8	1	8	2	8	1	8	0	
4	9	2	1	5	1	0	1	1	1	2	1	5	1	4	
2	10	1	1	0	1	1	1	2	1	3	1	4	
2	7	5	7	0	7	1	7	2	7	1	7	0	
2	4	1	1	0	1	1	1	2	1	1	1	0	
2	10	9	9	0	9	1	9	2	9	1	9	0	
3	7	1	8	1	0	1	1	1	2	1	5	1	4	
4	5	1	8	9	8	0	8	1	8	5	8	3	8	4	
3	6	7	5	6	0	6	1	6	2	6	3	6	4	
3	2	1	8	1	0	1	1	1	2	1	3	1	4	
2	3	2	2	0	2	1	2	2	2	1	2	0	
3	9	8	0	8	0	8	1	8	2	8	1	8	0	
3	10	1	4	1	0	1	1	1	2	1	1	1	0	
4	5	1	8	9	1	0	1	1	1	2	1	1	1	0	
3	3	1	8	1	0	1	1	1	2	1	5	1	4	
4	0	6	7	5	6	0	6	1	6	2	6	5	6	4	
3	5	1	4	4	0	4	1	4	5	4	3	4	4	
2	8	9	8	0	8	1	8	2	8	3	8	4	
3	3	1	8	8	0	8	1	8	5	8	3	8	4	
3	7	1	2	1	0	1	1	1	2	1	3	1	4	
3	8	1	3	1	0	1	1	1	2	1	1	1	0	
4	6	8	1	4	1	0	1	1	1	2	1	3	1	4	
3	0	8	1	1	0	1	1	1	2	1	1	1	0	
3	7	1	10	1	0	1	1	1	2	1	3	1	4	
4	4	1	8	6	1	0	1	1	1	2	1	1	1	0	
2	4	2	2	0	2	1	2	2	2	3	2	4	
2	8	1	8	0	8	1	8	2	8	5	8	4	
2	5	1	1	0	1	1	1	2	1	3	1	4	
3	4	1	7	7	0	7	1	7	5	7	3	7	4	
3	9	2	3	2	0	2	1	2	5	2	3	2	4	
4	7	1	2	9	1	0	1	1	1	2	1	3	1	4	
2	1	10	10	0	10	1	10	5	10	3	10	4	
3	4	1	10	1	0	1	1	1	2	1	3	1	4	
2	7	6	6	0	6	1	6	2	6	1	6	0	
3	1	10	9	1	0	1	1	1	2	1	1	1	0	
4	2	1	8	0	8	0	8	1	8	5	8	3	8	4	
3	3	1	5	1	0	1	1	1	2	1	1	1	0	
3	5	1	10	1	0	1	1	1	2	1	3	1	4	
3	6	7	5	6	0	6	1	6	5	6	3	6	4	
2	1	4	4	0	4	1	4	2	4	5	4	4	
3	3	1	5	3	0	3	1	3	5	3	3	3	4	
3	7	6	0	6	0	6	1	6	5	6	3	6	4	
3	8	9	2	8	0	8	1	8	2	8	1	8	0	
3	3	1	4	1	0	1	1	1	2	1	3	1	4	
3	4	1	5	1	0	1	1	1	2	1	3	1	4	
3	10	1	3	1	0	1	1	1	2	1	1	1	0	
3	2	1	10	1	0	1	1	1	2	1	3	1	4	
2	5	7	7	0	7	1	7	5	7	3	7	4	
3	2	1	8	1	0	1	1	1	2	1	1	1	0	
3	6	7	5	6	0	6	1	6	2	6	1	6	0	
4	2	1	7	6	1	0	1	1	1	2	1	5	1	4	
2	9	8	8	0	8	1	8	2	8	1	8	0	
4	0	8	1	4	1	0	1	1	1	2	1	3	1	4	
3	4	1	7	1	0	1	1	1	2	1	1	1	0	
2	6	8	8	0	8	1	8	2	8	1	8	0	
3	2	1	5	1	0	1	1	1	2	1	1	1	0	
2	10	1	10	0	10	1	10	5	10	3	10	4	
3	0	6	7	6	0	6	1	6	5	6	3	6	4	
2	8	1	8	0	8	1	8	5	8	3	8	4	
3	5	1	4	1	0	1	1	1	2	1	3	1	4	
3	1	10	9	1	0	1	1	1	2	1	3	1	4	
3	9	2	4	2	0	2	1	2	5	2	3	2	4	
3	10	1	2	1	0	1	1	1	2	1	1	1	0	
3	5	1	10	1	0	1	1	1	2	1	1	1	0	
2	10	9	9	0	9	1	9	2	9	5	9	4	
2	3	1	1	0	1	1	1	2	1	3	1	4	
3	1	8	6	1	0	1	1	1	2	1	3	1	4	
3	9	8	6	8	0	8	1	8	2	8	1	8	0	
2	2	4	2	0	2	1	2	2	2	3	2	4	
2	9	2	2	0	2	1	2	2	2	1	2	0	
3	1	8	0	1	0	1	1	1	2	1	1	1	0	
4	0	8	9	10	8	0	8	1	8	5	8	3	8	4	
3	4	1	8	1	0	1	1	1	2	1	5	1	4	
3	10	1	4	10	0	10	1	10	5	10	3	10	4	
4	6	8	1	4	1	0	1	1	1	2	1	5	1	4	
3	8	1	3	1	0	1	1	1	2	1	5	1	4	
3	5	1	3	1	0	1	1	1	2	1	3	1	4	
3	5	1	2	2	0	2	1	2	5	2	3	2	4	
3	10	1	2	2	0	2	1	2	5	2	3	2	4	
2	6	8	8	0	8	1	8	5	8	3	8	4	
4	5	1	8	9	1	0	1	1	1	2	1	5	1	4	
2	7	6	6	0	6	1	6	5	6	3	6	4	
3	9	8	0	8	0	8	1	8	2	8	5	8	4	
4	0	8	1	4	8	0	8	1	8	5	8	3	8	4	
2	8	0	8	0	8	1	8	2	8	3	8	4	
3	9	2	1	1	0	1	1	1	2	1	1	1	0	
3	4	2	9	2	0	2	1	2	5	2	3	2	4	
2	8	0	8	0	8	1	8	2	8	1	8	0	
3	1	8	6	1	0	1	1	1	2	1	5	1	4	
3	7	1	4	1	0	1	1	1	2	1	5	1	4	
2	9	8	8	0	8	1	8	2	8	3	8	4	
2	6	7	6	0	6	1	6	2	6	1	6	0	
2	2	4	2	0	2	1	2	2	2	5	2	4	
4	3	1	8	6	1	0	1	1	1	2	1	3	1	4	
3	7	1	3	1	0	1	1	1	2	1	3	1	4	
3	10	1	8	1	0	1	1	1	2	1	1	1	0	
4	10	1	8	0	1	0	1	1	1	2	1	5	1	4	
4	7	1	2	9	1	0	1	1	1	2	1	1	1	0	
3	4	1	5	1	0	1	1	1	2	1	1	1	0	
2	6	7	6	0	6	1	6	2	6	5	6	4	
3	2	1	7	1	0	1	1	1	2	1	1	1	0	
2	0	6	6	0	6	1	6	2	6	3	6	4	
3	10	1	3	10	0	10	1	10	5	10	3	10	4	
4	4	1	8	6	8	0	8	1	8	5	8	3	8	4	
2	1	8	8	0	8	1	8	5	8	3	8	4	
3	0	8	9	8	0	8	1	8	5	8	3	8	4	
3	8	1	3	8	0	8	1	8	5	8	3	8	4	
4	6	8	9	10	8	0	8	1	8	5	8	3	8	4	
2	0	6	6	0	6	1	6	2	6	1	6	0	
2	8	9	8	0	8	1	8	2	8	1	8	0	
4	6	8	9	2	8	0	8	1	8	2	8	1	8	0	
2	7	1	7	0	7	1	7	5	7	3	7	4	
2	2	9	2	0	2	1	2	2	2	5	2	4	
3	6	8	1	1	0	1	1	1	2	1	3	1	4	
4	3	1	8	6	1	0	1	1	1	2	1	1	1	0	
3	9	2	4	2	0	2	1	2	2	2	1	2	0	
3	10	1	8	1	0	1	1	1	2	1	3	1	4	
3	3	2	9	2	0	2	1	2	2	2	1	2	0	
3	2	1	7	2	0	2	1	2	5	2	3	2	4	
3	7	1	3	1	0	1	1	1	2	1	5	1	4	
2	9	2	2	0	2	1	2	2	2	5	2	4	
2	2	9	2	0	2	1	2	2	2	3	2	4	
3	8	6	7	8	0	8	1	8	2	8	1	8	0	
4	5	1	8	0	8	0	8	1	8	5	8	3	8	4	
3	0	6	7	6	0	6	1	6	2	6	3	6	4	
2	2	4	2	0	2	1	2	2	2	1	2	0	
2	0	6	6	0	6	1	6	5	6	3	6	4	
3	9	2	1	1	0	1	1	1	2	1	3	1	4	
4	0	6	7	5	6	0	6	1	6	2	6	1	6	0	
2	1	10	1	0	1	1	1	2	1	1	1	0	
3	6	8	9	8	0	8	1	8	2	8	5	8	4	
4	5	1	8	0	1	0	1	1	1	2	1	1	1	0	
2	1	8	1	0	1	1	1	2	1	3	1	4	
4	0	8	9	2	8	0	8	1	8	5	8	3	8	4	
3	7	1	4	7	0	7	1	7	5	7	3	7	4	
2	10	1	1	0	1	1	1	2	1	1	1	0	
4	9	8	6	7	8	0	8	1	8	5	8	3	8	4	
4	0	8	1	3	1	0	1	1	1	2	1	5	1	4	
4	3	1	8	0	1	0	1	1	1	2	1	3	1	4	
4	6	8	9	2	8	0	8	1	8	2	8	3	8	4	
2	7	5	7	0	7	1	7	2	7	3	7	4	
3	6	8	1	1	0	1	1	1	2	1	1	1	0	
2	0	8	0	0	0	1	0	2	0	5	0	4	
3	6	8	1	8	0	8	1	8	5	8	3	8	4	
3	1	8	0	1	0	1	1	1	2	1	5	1	4	
2	1	5	1	0	1	1	1	2	1	3	1	4	
3	3	2	9	2	0	2	1	2	5	2	3	2	4	
2	9	8	8	0	8	1	8	5	8	3	8	4	
3	5	7	6	6	0	6	1	6	2	6	1	6	0	
2	4	1	1	0	1	1	1	2	1	3	1	4	
2	8	9	9	0	9	1	9	2	9	5	9	4	
3	5	1	3	3	0	3	1	3	5	3	3	3	4	
3	1	8	6	8	0	8	1	8	5	8	3	8	4	
2	1	5	1	0	1	1	1	2	1	1	1	0	
3	8	1	5	8	0	8	1	8	5	8	3	8	4	
4	5	1	8	0	1	0	1	1	1	2	1	3	1	4	
2	3	1	1	0	1	1	1	2	1	5	1	4	
3	7	1	10	7	0	7	1	7	5	7	3	7	4	
2	3	2	2	0	2	1	2	5	2	3	2	4	
2	6	7	6	0	6	1	6	2	6	3	6	4	
3	7	1	8	1	0	1	1	1	2	1	3	1	4	
4	3	1	8	0	1	0	1	1	1	2	1	1	1	0	
3	0	8	9	8	0	8	1	8	2	8	3	8	4	
3	2	1	10	1	0	1	1	1	2	1	5	1	4	
4	2	1	8	0	1	0	1	1	1	2	1	3	1	4	
3	8	1	3	1	0	1	1	1	2	1	3	1	4	
4	6	8	1	4	8	0	8	1	8	5	8	3	8	4	
2	2	1	1	0	1	1	1	2	1	1	1	0	
3	4	1	8	8	0	8	1	8	5	8	3	8	4	
3	4	1	8	1	0	1	1	1	2	1	3	1	4	
3	4	1	10	1	0	1	1	1	2	1	1	1	0	
4	10	1	8	6	1	0	1	1	1	2	1	5	1	4	
3	4	1	10	10	0	10	1	10	5	10	3	10	4	
4	10	1	8	6	1	0	1	1	1	2	1	1	1	0	
3	10	1	5	1	0	1	1	1	2	1	5	1	4	
2	1	2	1	0	1	1	1	2	1	3	1	4	
2	6	0	6	0	6	1	6	2	6	5	6	4	
3	8	6	7	8	0	8	1	8	2	8	5	8	4	
4	6	8	1	4	1	0	1	1	1	2	1	1	1	0	
3	8	1	5	1	0	1	1	1	2	1	1	1	0	
2	9	10	9	0	9	1	9	2	9	1	9	0	
3	2	1	7	1	0	1	1	1	2	1	5	1	4	
3	7	1	10	1	0	1	1	1	2	1	1	1	0	
2	2	9	2	0	2	1	2	5	2	3	2	4	
4	6	8	9	10	8	0	8	1	8	2	8	3	8	4	
3	9	2	4	2	0	2	1	2	2	2	5	2	4	
3	9	2	1	2	0	2	1	2	5	2	3	2	4	
5	0	8	1	10	9	9	0	9	1	9	2	9	5	9	4	
2	6	8	8	0	8	1	8	2	8	3	8	4	
4	10	1	8	0	8	0	8	1	8	5	8	3	8	4	
4	4	1	8	0	1	0	1	1	1	2	1	1	1	0	
2	8	0	8	0	8	1	8	5	8	3	8	4	
2	0	8	8	0	8	1	8	5	8	3	8	4	
4	7	1	2	9	1	0	1	1	1	2	1	5	1	4	
3	3	1	7	7	0	7	1	7	5	7	3	7	4	
4	10	1	8	6	1	0	1	1	1	2	1	3	1	4	
3	7	6	0	6	0	6	1	6	2	6	1	6	0	
4	6	8	1	3	1	0	1	1	1	2	1	1	1	0	
3	8	1	4	1	0	1	1	1	2	1	3	1	4	
2	3	2	2	0	2	1	2	2	2	3	2	4	
2	1	7	1	0	1	1	1	2	1	3	1	4	
4	9	2	1	5	1	0	1	1	1	2	1	1	1	0	
2	10	9	9	0	9	1	9	2	9	3	9	4	
3	10	1	7	1	0	1	1	1	2	1	1	1	0	
2	1	2	2	0	2	1	2	2	2	5	2	4	
3	4	2	9	2	0	2	1	2	2	2	1	2	0	
4	6	8	1	3	1	0	1	1	1	2	1	5	1	4	
3	3	1	10	1	0	1	1	1	2	1	3	1	4	
3	7	6	0	6	0	6	1	6	2	6	5	6	4	
2	5	1	5	0	5	1	5	5	5	3	5	4	
4	0	8	9	2	8	0	8	1	8	2	8	3	8	4	
3	4	2	9	2	0	2	1	2	2	2	5	2	4	
2	1	4	4	0	4	1	4	5	4	3	4	4	
2	1	7	1	0	1	1	1	2	1	1	1	0	
3	4	1	5	1	0	1	1	1	2	1	5	1	4	
4	2	1	8	0	1	0	1	1	1	2	1	5	1	4	
2	1	10	1	0	1	1	1	2	1	5	1	4	
4	0	8	9	10	8	0	8	1	8	2	8	3	8	4	
2	1	10	1	0	1	1	1	2	1	3	1	4	
2	9	2	2	0	2	1	2	5	2	3	2	4	
2	7	5	7	0	7	1	7	5	7	3	7	4	
2	8	1	1	0	1	1	1	2	1	3	1	4	
2	2	3	2	0	2	1	2	2	2	1	2	0	
4	3	1	8	0	8	0	8	1	8	5	8	3	8	4	
2	2	3	2	0	2	1	2	5	2	3	2	4	
3	0	8	9	8	0	8	1	8	2	8	1	8	0	
3	10	1	7	1	0	1	1	1	2	1	5	1	4	
2	1	7	7	0	7	1	7	2	7	5	7	4	
2	1	4	1	0	1	1	1	2	1	3	1	4	
3	5	1	4	1	0	1	1	1	2	1	5	1	4	
4	5	1	8	9	1	0	1	1	1	2	1	3	1	4	
3	2	1	5	1	0	1	1	1	2	1	5	1	4	
4	0	8	1	3	1	0	1	1	1	2	1	3	1	4	
3	3	1	7	1	0	1	1	1	2	1	3	1	4	
4	6	8	9	2	8	0	8	1	8	2	8	5	8	4	
3	1	8	6	1	0	1	1	1	2	1	1	1	0	
4	9	2	1	5	1	0	1	1	1	2	1	3	1	4	
2	5	1	1	0	1	1	1	2	1	1	1	0	
4	3	1	8	0	1	0	1	1	1	2	1	5	1	4	
3	1	10	9	9	0	9	1	9	5	9	3	9	4	
3	8	9	2	8	0	8	1	8	5	8	3	8	4	
4	6	8	9	10	8	0	8	1	8	2	8	5	8	4	
3	0	6	7	6	0	6	1	6	2	6	5	6	4	
2	4	2	2	0	2	1	2	2	2	5	2	4	
3	9	2	3	2	0	2	1	2	2	2	1	2	0	
4	0	8	9	10	8	0	8	1	8	2	8	1	8	0	
4	2	1	8	0	1	0	1	1	1	2	1	1	1	0	
3	10	1	4	1	0	1	1	1	2	1	3	1	4	
3	8	9	2	8	0	8	1	8	2	8	3	8	4	
2	7	6	6	0	6	1	6	2	6	5	6	4	
3	2	1	5	1	0	1	1	1	2	1	3	1	4	
3	10	1	5	1	0	1	1	1	2	1	1	1	0	
2	9	10	9	0	9	1	9	2	9	5	9	4	
3	5	1	3	3	0	3	1	3	2	3	5	3	4	
3	3	1	10	1	0	1	1	1	2	1	1	1	0	
3	8	1	10	1	0	1	1	1	2	1	3	1	4	
2	7	1	1	0	1	1	1	2	1	3	1	4	
2	10	9	9	0	9	1	9	5	9	3	9	4	
2	9	10	9	0	9	1	9	2	9	3	9	4	
2	1	2	2	0	2	1	2	5	2	3	2	4	
3	2	1	8	8	0	8	1	8	5	8	3	8	4	
3	6	7	5	6	0	6	1	6	2	6	5	6	4	
3	7	1	8	8	0	8	1	8	5	8	3	8	4	
3	5	1	2	1	0	1	1	1	2	1	1	1	0	
3	8	1	5	8	0	8	1	8	2	8	5	8	4	
2	9	2	2	0	2	1	2	2	2	3	2	4	
3	3	2	9	2	0	2	1	2	2	2	3	2	4	
2	8	0	8	0	8	1	8	2	8	5	8	4	
4	0	8	1	4	1	0	1	1	1	2	1	1	1	0	
4	5	1	8	0	8	0	8	1	8	2	8	5	8	4	
