12380.5	-1
-1
26.057	26.0719
11
0	0	12
1	12	12
2	5	12
3	1	12
4	6	12
5	1	12
6	4	12
7	3	12
8	8	12
9	10	12
10	1	12
68
0	6	840.000000	5933.000000	1
0	7	6.000000	5933.000000	1
0	8	1560.000000	5933.000000	1
0	9	702.000000	5933.000000	1
1	2	1668.000000	5933.000000	1
1	3	1440.000000	5933.000000	1
1	4	870.000000	5933.000000	1
1	5	1428.000000	5933.000000	1
1	7	972.000000	5933.000000	1
1	8	24.000000	5933.000000	1
1	9	30.000000	5933.000000	1
1	10	30.000000	5933.000000	1
2	1	18.000000	5933.000000	1
2	3	1290.000000	5933.000000	1
2	4	744.000000	5933.000000	1
2	5	6.000000	5933.000000	1
2	9	18.000000	5933.000000	1
2	10	6.000000	5933.000000	1
3	1	30.000000	5933.000000	1
3	2	6.000000	5933.000000	1
3	4	642.000000	5933.000000	1
3	5	6.000000	5933.000000	1
4	1	24.000000	5933.000000	1
4	2	6.000000	5933.000000	1
4	3	12.000000	5933.000000	1
4	5	570.000000	5933.000000	1
4	6	18.000000	5933.000000	1
4	7	654.000000	5933.000000	1
5	1	18.000000	5933.000000	1
5	2	6.000000	5933.000000	1
5	3	18.000000	5933.000000	1
5	4	6.000000	5933.000000	1
5	7	690.000000	5933.000000	1
5	8	18.000000	5933.000000	1
6	0	12.000000	5933.000000	1
6	4	18.000000	5933.000000	1
6	7	1272.000000	5933.000000	1
6	8	12.000000	5933.000000	1
6	9	18.000000	5933.000000	1
6	10	12.000000	5933.000000	1
7	0	12.000000	5933.000000	1
7	1	6.000000	5933.000000	1
7	4	18.000000	5933.000000	1
7	5	12.000000	5933.000000	1
7	6	6.000000	5933.000000	1
7	8	6.000000	5933.000000	1
7	9	12.000000	5933.000000	1
7	10	6.000000	5933.000000	1
8	0	12.000000	5933.000000	1
8	1	2310.000000	5933.000000	1
8	5	30.000000	5933.000000	1
8	6	1488.000000	5933.000000	1
8	7	606.000000	5933.000000	1
8	9	1584.000000	5933.000000	1
8	10	960.000000	5933.000000	1
9	0	24.000000	5933.000000	1
9	1	24.000000	5933.000000	1
9	2	1206.000000	5933.000000	1
9	6	12.000000	5933.000000	1
9	7	12.000000	5933.000000	1
9	8	12.000000	5933.000000	1
9	10	2184.000000	5933.000000	1
10	1	1614.000000	5933.000000	1
10	2	594.000000	5933.000000	1
10	6	12.000000	5933.000000	1
10	7	6.000000	5933.000000	1
10	8	6.000000	5933.000000	1
10	9	12.000000	5933.000000	1
440
2	1	9	1	0	1	1	1	2	1	5	1	4	
2	3	5	5	0	5	1	5	2	5	5	5	4	
3	7	5	3	7	0	7	1	7	5	7	3	7	4	
3	9	1	3	1	0	1	1	1	2	1	5	1	4	
2	10	7	7	0	7	1	7	2	7	3	7	4	
3	3	4	6	4	0	4	1	4	5	4	3	4	4	
2	4	7	4	0	4	1	4	2	4	5	4	4	
2	1	8	1	0	1	1	1	2	1	1	1	0	
2	7	4	4	0	4	1	4	2	4	3	4	4	
3	0	9	2	9	0	9	1	9	2	9	5	9	4	
3	7	5	3	7	0	7	1	7	2	7	1	7	0	
3	5	1	10	1	0	1	1	1	5	1	3	1	4	
2	5	2	5	0	5	1	5	2	5	5	5	4	
2	8	1	1	0	1	1	1	2	1	1	1	0	
2	8	7	8	0	8	1	8	2	8	3	8	4	
2	6	0	6	0	6	1	6	5	6	3	6	4	
2	2	5	5	0	5	1	5	5	5	3	5	4	
2	7	5	7	0	7	1	7	2	7	5	7	4	
2	5	7	7	0	7	1	7	2	7	1	7	0	
2	8	9	9	0	9	1	9	5	9	3	9	4	
3	4	1	10	1	0	1	1	1	2	1	5	1	4	
3	5	1	10	1	0	1	1	1	2	1	5	1	4	
2	8	10	8	0	8	1	8	2	8	1	8	0	
2	10	1	1	0	1	1	1	2	1	5	1	4	
3	0	8	5	8	0	8	1	8	2	8	3	8	4	
2	3	2	2	0	2	1	2	2	2	5	2	4	
2	1	7	1	0	1	1	1	5	1	3	1	4	
3	8	7	4	8	0	8	1	8	5	8	3	8	4	
2	2	10	10	0	10	1	10	5	10	3	10	4	
2	2	3	2	0	2	1	2	2	2	5	2	4	
2	4	1	1	0	1	1	1	5	1	3	1	4	
3	9	1	3	1	0	1	1	1	2	1	3	1	4	
4	0	8	5	3	8	0	8	1	8	2	8	1	8	0	
2	10	2	10	0	10	1	10	2	10	3	10	4	
2	7	4	4	0	4	1	4	2	4	1	4	0	
3	6	4	3	4	0	4	1	4	2	4	3	4	4	
3	9	8	5	9	0	9	1	9	5	9	3	9	4	
3	4	7	0	4	0	4	1	4	2	4	5	4	4	
3	2	1	7	1	0	1	1	1	2	1	3	1	4	
2	5	1	1	0	1	1	1	2	1	5	1	4	
2	10	8	8	0	8	1	8	2	8	5	8	4	
3	3	1	7	1	0	1	1	1	2	1	1	1	0	
2	6	7	6	0	6	1	6	5	6	3	6	4	
2	3	4	4	0	4	1	4	2	4	1	4	0	
2	5	8	8	0	8	1	8	2	8	1	8	0	
2	9	8	9	0	9	1	9	2	9	5	9	4	
3	1	9	0	1	0	1	1	1	5	1	3	1	4	
2	1	3	1	0	1	1	1	2	1	1	1	0	
2	2	10	10	0	10	1	10	2	10	1	10	0	
2	1	3	1	0	1	1	1	2	1	3	1	4	
2	4	7	4	0	4	1	4	2	4	3	4	4	
3	0	6	10	6	0	6	1	6	2	6	5	6	4	
2	5	8	8	0	8	1	8	2	8	5	8	4	
3	8	9	2	9	0	9	1	9	2	9	5	9	4	
2	6	9	9	0	9	1	9	2	9	3	9	4	
2	6	0	6	0	6	1	6	2	6	1	6	0	
2	9	0	9	0	9	1	9	2	9	3	9	4	
3	5	8	6	8	0	8	1	8	2	8	3	8	4	
3	3	1	7	1	0	1	1	1	2	1	5	1	4	
2	9	1	1	0	1	1	1	2	1	5	1	4	
3	10	1	5	1	0	1	1	1	2	1	3	1	4	
3	10	9	0	9	0	9	1	9	2	9	1	9	0	
2	7	1	1	0	1	1	1	2	1	1	1	0	
2	8	7	8	0	8	1	8	5	8	3	8	4	
3	3	1	10	1	0	1	1	1	2	1	5	1	4	
2	3	4	4	0	4	1	4	2	4	5	4	4	
2	9	6	9	0	9	1	9	5	9	3	9	4	
3	2	9	6	9	0	9	1	9	2	9	3	9	4	
2	8	5	8	0	8	1	8	2	8	3	8	4	
2	3	4	4	0	4	1	4	5	4	3	4	4	
2	7	6	6	0	6	1	6	2	6	3	6	4	
3	0	9	1	1	0	1	1	1	5	1	3	1	4	
3	6	9	2	9	0	9	1	9	5	9	3	9	4	
2	1	2	1	0	1	1	1	2	1	1	1	0	
3	10	1	3	1	0	1	1	1	2	1	5	1	4	
2	10	6	6	0	6	1	6	5	6	3	6	4	
2	1	3	1	0	1	1	1	2	1	5	1	4	
3	1	9	0	1	0	1	1	1	2	1	3	1	4	
2	1	5	5	0	5	1	5	5	5	3	5	4	
2	4	6	4	0	4	1	4	2	4	3	4	4	
2	8	6	8	0	8	1	8	5	8	3	8	4	
2	7	9	9	0	9	1	9	5	9	3	9	4	
2	2	1	1	0	1	1	1	2	1	5	1	4	
3	3	1	10	1	0	1	1	1	5	1	3	1	4	
2	6	10	6	0	6	1	6	2	6	1	6	0	
2	4	3	4	0	4	1	4	5	4	3	4	4	
3	0	6	4	4	0	4	1	4	2	4	5	4	4	
3	3	1	8	1	0	1	1	1	2	1	3	1	4	
2	9	6	9	0	9	1	9	2	9	5	9	4	
3	10	9	0	9	0	9	1	9	2	9	3	9	4	
2	6	9	9	0	9	1	9	2	9	1	9	0	
2	3	1	1	0	1	1	1	2	1	1	1	0	
2	1	8	1	0	1	1	1	2	1	5	1	4	
2	3	1	1	0	1	1	1	5	1	3	1	4	
2	4	2	4	0	4	1	4	2	4	1	4	0	
2	2	1	1	0	1	1	1	2	1	3	1	4	
2	0	8	8	0	8	1	8	2	8	3	8	4	
2	5	8	8	0	8	1	8	5	8	3	8	4	
2	4	6	4	0	4	1	4	2	4	5	4	4	
3	4	1	9	1	0	1	1	1	2	1	3	1	4	
2	0	8	8	0	8	1	8	2	8	1	8	0	
2	8	10	8	0	8	1	8	2	8	5	8	4	
3	7	9	2	9	0	9	1	9	2	9	1	9	0	
2	2	4	4	0	4	1	4	5	4	3	4	4	
2	5	8	8	0	8	1	8	2	8	3	8	4	
2	8	6	8	0	8	1	8	2	8	3	8	4	
2	9	7	9	0	9	1	9	2	9	1	9	0	
3	3	1	9	1	0	1	1	1	2	1	5	1	4	
3	6	9	1	1	0	1	1	1	2	1	5	1	4	
3	7	9	2	9	0	9	1	9	2	9	5	9	4	
3	3	1	8	1	0	1	1	1	2	1	1	1	0	
2	9	6	9	0	9	1	9	2	9	3	9	4	
2	5	7	7	0	7	1	7	2	7	5	7	4	
2	8	6	8	0	8	1	8	2	8	1	8	0	
2	10	2	10	0	10	1	10	2	10	5	10	4	
3	8	7	4	8	0	8	1	8	2	8	5	8	4	
3	10	1	5	1	0	1	1	1	5	1	3	1	4	
3	4	7	0	4	0	4	1	4	5	4	3	4	4	
2	6	9	9	0	9	1	9	5	9	3	9	4	
2	9	0	9	0	9	1	9	5	9	3	9	4	
2	9	7	9	0	9	1	9	2	9	5	9	4	
3	10	1	3	1	0	1	1	1	2	1	3	1	4	
2	0	6	6	0	6	1	6	2	6	5	6	4	
2	6	8	8	0	8	1	8	2	8	5	8	4	
2	4	3	4	0	4	1	4	2	4	1	4	0	
2	2	1	1	0	1	1	1	5	1	3	1	4	
4	0	8	5	3	8	0	8	1	8	5	8	3	8	4	
2	1	5	1	0	1	1	1	2	1	5	1	4	
2	4	1	1	0	1	1	1	2	1	5	1	4	
2	7	0	7	0	7	1	7	2	7	3	7	4	
3	0	9	1	1	0	1	1	1	2	1	3	1	4	
2	10	8	8	0	8	1	8	5	8	3	8	4	
2	3	5	5	0	5	1	5	2	5	3	5	4	
3	4	1	8	1	0	1	1	1	2	1	1	1	0	
2	1	3	3	0	3	1	3	5	3	3	3	4	
3	5	8	6	8	0	8	1	8	2	8	5	8	4	
3	5	8	6	8	0	8	1	8	5	8	3	8	4	
2	2	9	9	0	9	1	9	2	9	1	9	0	
2	9	7	9	0	9	1	9	2	9	3	9	4	
2	7	1	1	0	1	1	1	2	1	5	1	4	
2	5	3	5	0	5	1	5	2	5	1	5	0	
3	0	8	5	8	0	8	1	8	5	8	3	8	4	
3	4	7	0	4	0	4	1	4	2	4	3	4	4	
3	2	9	6	9	0	9	1	9	2	9	1	9	0	
2	7	8	8	0	8	1	8	2	8	1	8	0	
2	1	4	1	0	1	1	1	2	1	1	1	0	
3	3	4	6	4	0	4	1	4	2	4	5	4	4	
2	2	3	2	0	2	1	2	2	2	3	2	4	
2	7	10	7	0	7	1	7	2	7	5	7	4	
2	5	7	7	0	7	1	7	2	7	3	7	4	
2	4	3	4	0	4	1	4	2	4	5	4	4	
2	4	5	4	0	4	1	4	5	4	3	4	4	
2	0	7	7	0	7	1	7	2	7	1	7	0	
3	7	9	2	9	0	9	1	9	5	9	3	9	4	
3	0	9	1	1	0	1	1	1	2	1	5	1	4	
3	2	1	8	1	0	1	1	1	2	1	5	1	4	
2	6	0	6	0	6	1	6	2	6	3	6	4	
3	2	9	6	9	0	9	1	9	5	9	3	9	4	
3	8	7	4	8	0	8	1	8	2	8	1	8	0	
3	10	1	4	1	0	1	1	1	2	1	5	1	4	
2	9	10	9	0	9	1	9	5	9	3	9	4	
3	6	4	3	4	0	4	1	4	5	4	3	4	4	
2	8	6	8	0	8	1	8	2	8	5	8	4	
2	8	10	8	0	8	1	8	5	8	3	8	4	
2	5	4	4	0	4	1	4	2	4	1	4	0	
2	10	7	7	0	7	1	7	5	7	3	7	4	
2	4	2	4	0	4	1	4	5	4	3	4	4	
3	9	7	4	9	0	9	1	9	2	9	3	9	4	
2	5	2	5	0	5	1	5	2	5	3	5	4	
2	4	3	4	0	4	1	4	2	4	3	4	4	
3	0	9	2	9	0	9	1	9	2	9	1	9	0	
3	9	8	5	9	0	9	1	9	2	9	5	9	4	
2	10	1	1	0	1	1	1	2	1	3	1	4	
2	7	5	7	0	7	1	7	2	7	1	7	0	
2	4	1	1	0	1	1	1	2	1	1	1	0	
2	10	9	9	0	9	1	9	2	9	1	9	0	
2	7	8	8	0	8	1	8	2	8	5	8	4	
3	5	1	9	1	0	1	1	1	5	1	3	1	4	
3	6	8	5	8	0	8	1	8	2	8	3	8	4	
3	2	1	8	1	0	1	1	1	2	1	3	1	4	
2	3	2	2	0	2	1	2	2	2	1	2	0	
2	9	0	9	0	9	1	9	2	9	1	9	0	
3	10	1	4	1	0	1	1	1	2	1	1	1	0	
3	5	1	9	1	0	1	1	1	2	1	1	1	0	
3	3	1	8	1	0	1	1	1	2	1	5	1	4	
3	0	8	5	8	0	8	1	8	2	8	5	8	4	
2	5	4	4	0	4	1	4	5	4	3	4	4	
2	8	9	9	0	9	1	9	2	9	3	9	4	
3	3	1	8	1	0	1	1	1	5	1	3	1	4	
3	7	9	2	9	0	9	1	9	2	9	3	9	4	
3	8	1	3	1	0	1	1	1	2	1	1	1	0	
2	6	4	4	0	4	1	4	2	4	3	4	4	
3	0	9	1	1	0	1	1	1	2	1	1	1	0	
2	7	10	7	0	7	1	7	2	7	3	7	4	
2	4	6	4	0	4	1	4	2	4	1	4	0	
2	4	2	4	0	4	1	4	2	4	3	4	4	
2	8	1	1	0	1	1	1	2	1	5	1	4	
2	5	1	1	0	1	1	1	2	1	3	1	4	
2	4	7	4	0	4	1	4	5	4	3	4	4	
3	9	1	3	1	0	1	1	1	5	1	3	1	4	
2	7	9	9	0	9	1	9	2	9	3	9	4	
2	1	10	1	0	1	1	1	5	1	3	1	4	
3	4	1	10	1	0	1	1	1	2	1	3	1	4	
2	7	6	6	0	6	1	6	2	6	1	6	0	
2	1	9	1	0	1	1	1	2	1	1	1	0	
3	2	9	0	9	0	9	1	9	5	9	3	9	4	
2	3	5	5	0	5	1	5	2	5	1	5	0	
3	5	1	10	1	0	1	1	1	2	1	3	1	4	
3	6	8	5	8	0	8	1	8	5	8	3	8	4	
2	1	4	4	0	4	1	4	2	4	5	4	4	
2	3	5	5	0	5	1	5	5	5	3	5	4	
2	7	0	7	0	7	1	7	5	7	3	7	4	
3	8	9	2	9	0	9	1	9	2	9	1	9	0	
2	3	4	4	0	4	1	4	2	4	3	4	4	
2	4	5	4	0	4	1	4	2	4	3	4	4	
3	10	1	3	1	0	1	1	1	2	1	1	1	0	
2	2	10	10	0	10	1	10	2	10	3	10	4	
2	5	7	7	0	7	1	7	5	7	3	7	4	
3	2	1	8	1	0	1	1	1	2	1	1	1	0	
3	6	8	5	8	0	8	1	8	2	8	1	8	0	
3	2	9	6	9	0	9	1	9	2	9	5	9	4	
2	9	8	9	0	9	1	9	2	9	1	9	0	
3	0	6	4	4	0	4	1	4	2	4	3	4	4	
2	4	7	4	0	4	1	4	2	4	1	4	0	
2	6	8	8	0	8	1	8	2	8	1	8	0	
2	2	5	5	0	5	1	5	2	5	1	5	0	
2	10	1	10	0	10	1	10	5	10	3	10	4	
2	0	7	7	0	7	1	7	5	7	3	7	4	
2	8	1	8	0	8	1	8	5	8	3	8	4	
2	5	4	4	0	4	1	4	2	4	3	4	4	
2	1	9	1	0	1	1	1	2	1	3	1	4	
3	9	7	4	9	0	9	1	9	5	9	3	9	4	
2	10	2	10	0	10	1	10	2	10	1	10	0	
3	5	1	10	1	0	1	1	1	2	1	1	1	0	
2	10	9	9	0	9	1	9	2	9	5	9	4	
2	3	1	1	0	1	1	1	2	1	3	1	4	
3	1	10	6	1	0	1	1	1	2	1	3	1	4	
2	9	6	9	0	9	1	9	2	9	1	9	0	
2	2	4	4	0	4	1	4	2	4	3	4	4	
2	9	2	9	0	9	1	9	2	9	1	9	0	
3	1	9	0	1	0	1	1	1	2	1	1	1	0	
3	0	6	10	6	0	6	1	6	5	6	3	6	4	
3	4	1	8	1	0	1	1	1	2	1	5	1	4	
3	10	1	4	1	0	1	1	1	5	1	3	1	4	
2	6	4	4	0	4	1	4	2	4	5	4	4	
3	8	1	3	1	0	1	1	1	2	1	5	1	4	
2	5	3	5	0	5	1	5	2	5	3	5	4	
2	5	2	5	0	5	1	5	5	5	3	5	4	
2	10	2	10	0	10	1	10	5	10	3	10	4	
2	6	8	8	0	8	1	8	5	8	3	8	4	
3	5	1	9	1	0	1	1	1	2	1	5	1	4	
2	7	6	6	0	6	1	6	5	6	3	6	4	
2	9	0	9	0	9	1	9	2	9	5	9	4	
3	0	6	4	4	0	4	1	4	5	4	3	4	4	
2	8	0	8	0	8	1	8	2	8	3	8	4	
2	9	1	1	0	1	1	1	2	1	1	1	0	
3	4	1	9	1	0	1	1	1	5	1	3	1	4	
2	8	0	8	0	8	1	8	2	8	1	8	0	
3	1	10	6	1	0	1	1	1	2	1	5	1	4	
2	7	4	4	0	4	1	4	2	4	5	4	4	
2	9	8	9	0	9	1	9	2	9	3	9	4	
2	6	7	6	0	6	1	6	2	6	1	6	0	
2	2	4	4	0	4	1	4	2	4	5	4	4	
3	3	4	6	4	0	4	1	4	2	4	3	4	4	
3	7	5	3	7	0	7	1	7	2	7	3	7	4	
2	10	8	8	0	8	1	8	2	8	1	8	0	
3	10	9	0	9	0	9	1	9	2	9	5	9	4	
2	7	9	9	0	9	1	9	2	9	1	9	0	
2	4	5	4	0	4	1	4	2	4	1	4	0	
2	6	7	6	0	6	1	6	2	6	5	6	4	
3	2	1	7	1	0	1	1	1	2	1	1	1	0	
2	0	6	6	0	6	1	6	2	6	3	6	4	
3	10	1	3	1	0	1	1	1	5	1	3	1	4	
2	4	6	4	0	4	1	4	5	4	3	4	4	
2	1	8	1	0	1	1	1	5	1	3	1	4	
2	0	9	9	0	9	1	9	5	9	3	9	4	
3	8	1	3	1	0	1	1	1	5	1	3	1	4	
2	6	10	6	0	6	1	6	5	6	3	6	4	
2	0	6	6	0	6	1	6	2	6	1	6	0	
2	8	9	9	0	9	1	9	2	9	1	9	0	
3	6	9	2	9	0	9	1	9	2	9	1	9	0	
2	7	1	1	0	1	1	1	5	1	3	1	4	
2	2	9	9	0	9	1	9	2	9	5	9	4	
3	6	9	1	1	0	1	1	1	2	1	3	1	4	
3	3	4	6	4	0	4	1	4	2	4	1	4	0	
3	9	7	4	9	0	9	1	9	2	9	1	9	0	
2	10	8	8	0	8	1	8	2	8	3	8	4	
3	3	1	9	1	0	1	1	1	2	1	1	1	0	
3	2	1	7	1	0	1	1	1	5	1	3	1	4	
3	7	5	3	7	0	7	1	7	2	7	5	7	4	
2	9	2	9	0	9	1	9	2	9	5	9	4	
2	2	9	9	0	9	1	9	2	9	3	9	4	
2	8	7	8	0	8	1	8	2	8	1	8	0	
3	5	8	0	8	0	8	1	8	5	8	3	8	4	
2	0	7	7	0	7	1	7	2	7	3	7	4	
2	2	4	4	0	4	1	4	2	4	1	4	0	
2	0	6	6	0	6	1	6	5	6	3	6	4	
2	9	1	1	0	1	1	1	2	1	3	1	4	
3	0	8	5	8	0	8	1	8	2	8	1	8	0	
2	1	10	1	0	1	1	1	2	1	1	1	0	
2	6	9	9	0	9	1	9	2	9	5	9	4	
3	5	8	0	8	0	8	1	8	2	8	1	8	0	
2	1	8	1	0	1	1	1	2	1	3	1	4	
3	0	9	2	9	0	9	1	9	5	9	3	9	4	
2	7	4	4	0	4	1	4	5	4	3	4	4	
2	10	1	1	0	1	1	1	2	1	1	1	0	
2	9	7	9	0	9	1	9	5	9	3	9	4	
4	0	8	5	3	8	0	8	1	8	2	8	5	8	4	
4	3	4	6	0	4	0	4	1	4	2	4	3	4	4	
3	6	9	2	9	0	9	1	9	2	9	3	9	4	
2	7	5	7	0	7	1	7	2	7	3	7	4	
3	6	9	1	1	0	1	1	1	2	1	1	1	0	
2	0	8	8	0	8	1	8	2	8	5	8	4	
3	6	9	1	1	0	1	1	1	5	1	3	1	4	
3	1	9	0	1	0	1	1	1	2	1	5	1	4	
2	1	5	1	0	1	1	1	2	1	3	1	4	
3	3	1	9	1	0	1	1	1	5	1	3	1	4	
2	9	8	9	0	9	1	9	5	9	3	9	4	
3	5	8	6	8	0	8	1	8	2	8	1	8	0	
2	4	1	1	0	1	1	1	2	1	3	1	4	
2	8	9	9	0	9	1	9	2	9	5	9	4	
2	5	3	5	0	5	1	5	5	5	3	5	4	
3	1	10	6	1	0	1	1	1	5	1	3	1	4	
2	1	5	1	0	1	1	1	2	1	1	1	0	
2	8	5	8	0	8	1	8	5	8	3	8	4	
3	5	8	0	8	0	8	1	8	2	8	3	8	4	
2	3	1	1	0	1	1	1	2	1	5	1	4	
2	7	10	7	0	7	1	7	5	7	3	7	4	
2	3	2	2	0	2	1	2	5	2	3	2	4	
2	6	7	6	0	6	1	6	2	6	3	6	4	
2	7	8	8	0	8	1	8	2	8	3	8	4	
4	3	4	6	0	4	0	4	1	4	2	4	1	4	0	
2	0	9	9	0	9	1	9	2	9	3	9	4	
2	2	10	10	0	10	1	10	2	10	5	10	4	
3	2	9	0	9	0	9	1	9	2	9	3	9	4	
3	8	1	3	1	0	1	1	1	2	1	3	1	4	
2	6	4	4	0	4	1	4	5	4	3	4	4	
2	2	1	1	0	1	1	1	2	1	1	1	0	
3	4	1	8	1	0	1	1	1	5	1	3	1	4	
3	4	1	8	1	0	1	1	1	2	1	3	1	4	
3	4	1	10	1	0	1	1	1	2	1	1	1	0	
2	10	6	6	0	6	1	6	2	6	5	6	4	
3	4	1	10	1	0	1	1	1	5	1	3	1	4	
2	10	6	6	0	6	1	6	2	6	1	6	0	
3	10	1	5	1	0	1	1	1	2	1	5	1	4	
2	1	2	1	0	1	1	1	2	1	3	1	4	
2	6	0	6	0	6	1	6	2	6	5	6	4	
2	8	7	8	0	8	1	8	2	8	5	8	4	
2	6	4	4	0	4	1	4	2	4	1	4	0	
2	8	5	8	0	8	1	8	2	8	1	8	0	
2	9	10	9	0	9	1	9	2	9	1	9	0	
3	2	1	7	1	0	1	1	1	2	1	5	1	4	
2	7	10	7	0	7	1	7	2	7	1	7	0	
2	2	9	9	0	9	1	9	5	9	3	9	4	
2	6	10	6	0	6	1	6	2	6	3	6	4	
3	9	7	4	9	0	9	1	9	2	9	5	9	4	
2	9	1	1	0	1	1	1	5	1	3	1	4	
2	0	9	9	0	9	1	9	2	9	5	9	4	
2	6	8	8	0	8	1	8	2	8	3	8	4	
3	10	9	0	9	0	9	1	9	5	9	3	9	4	
3	4	7	0	4	0	4	1	4	2	4	1	4	0	
2	8	0	8	0	8	1	8	5	8	3	8	4	
2	0	8	8	0	8	1	8	5	8	3	8	4	
2	7	9	9	0	9	1	9	2	9	5	9	4	
3	3	1	7	1	0	1	1	1	5	1	3	1	4	
2	10	6	6	0	6	1	6	2	6	3	6	4	
2	7	0	7	0	7	1	7	2	7	1	7	0	
3	6	4	3	4	0	4	1	4	2	4	1	4	0	
3	8	7	4	8	0	8	1	8	2	8	3	8	4	
2	3	2	2	0	2	1	2	2	2	3	2	4	
2	1	7	1	0	1	1	1	2	1	3	1	4	
3	9	8	5	9	0	9	1	9	2	9	1	9	0	
2	10	9	9	0	9	1	9	2	9	3	9	4	
2	10	7	7	0	7	1	7	2	7	1	7	0	
2	1	2	2	0	2	1	2	2	2	5	2	4	
3	4	1	9	1	0	1	1	1	2	1	1	1	0	
3	6	4	3	4	0	4	1	4	2	4	5	4	4	
3	3	1	10	1	0	1	1	1	2	1	3	1	4	
2	7	0	7	0	7	1	7	2	7	5	7	4	
2	5	1	1	0	1	1	1	5	1	3	1	4	
3	0	9	2	9	0	9	1	9	2	9	3	9	4	
3	4	1	9	9	0	9	1	9	2	9	5	9	4	
2	1	4	1	0	1	1	1	5	1	3	1	4	
2	1	7	1	0	1	1	1	2	1	1	1	0	
2	4	5	4	0	4	1	4	2	4	5	4	4	
3	2	9	0	9	0	9	1	9	2	9	5	9	4	
2	1	10	10	0	10	1	10	2	10	5	10	4	
3	0	6	10	6	0	6	1	6	2	6	3	6	4	
2	1	10	1	0	1	1	1	2	1	3	1	4	
2	9	2	9	0	9	1	9	5	9	3	9	4	
2	7	5	7	0	7	1	7	5	7	3	7	4	
2	8	1	1	0	1	1	1	2	1	3	1	4	
2	2	3	2	0	2	1	2	2	2	1	2	0	
4	3	4	6	0	4	0	4	1	4	5	4	3	4	4	
2	2	3	2	0	2	1	2	5	2	3	2	4	
2	0	9	9	0	9	1	9	2	9	1	9	0	
2	10	7	7	0	7	1	7	2	7	5	7	4	
2	1	7	7	0	7	1	7	2	7	5	7	4	
2	1	4	1	0	1	1	1	2	1	3	1	4	
2	5	4	4	0	4	1	4	2	4	5	4	4	
3	5	1	9	1	0	1	1	1	2	1	3	1	4	
2	2	5	5	0	5	1	5	2	5	5	5	4	
4	0	8	5	3	8	0	8	1	8	2	8	3	8	4	
3	3	1	7	1	0	1	1	1	2	1	3	1	4	
3	6	9	2	9	0	9	1	9	2	9	5	9	4	
3	1	10	6	1	0	1	1	1	2	1	1	1	0	
3	9	8	5	9	0	9	1	9	2	9	3	9	4	
2	5	1	1	0	1	1	1	2	1	1	1	0	
4	3	4	6	0	4	0	4	1	4	2	4	5	4	4	
2	1	9	1	0	1	1	1	5	1	3	1	4	
3	8	9	2	9	0	9	1	9	5	9	3	9	4	
2	6	10	6	0	6	1	6	2	6	5	6	4	
2	0	7	7	0	7	1	7	2	7	5	7	4	
2	4	2	4	0	4	1	4	2	4	5	4	4	
3	9	1	3	1	0	1	1	1	2	1	1	1	0	
3	0	6	10	6	0	6	1	6	2	6	1	6	0	
3	2	9	0	9	0	9	1	9	2	9	1	9	0	
3	10	1	4	1	0	1	1	1	2	1	3	1	4	
3	8	9	2	9	0	9	1	9	2	9	3	9	4	
2	7	6	6	0	6	1	6	2	6	5	6	4	
2	2	5	5	0	5	1	5	2	5	3	5	4	
3	10	1	5	1	0	1	1	1	2	1	1	1	0	
2	9	10	9	0	9	1	9	2	9	5	9	4	
2	5	3	5	0	5	1	5	2	5	5	5	4	
3	3	1	10	1	0	1	1	1	2	1	1	1	0	
2	8	10	8	0	8	1	8	2	8	3	8	4	
2	7	1	1	0	1	1	1	2	1	3	1	4	
2	10	9	9	0	9	1	9	5	9	3	9	4	
2	9	10	9	0	9	1	9	2	9	3	9	4	
2	1	2	2	0	2	1	2	5	2	3	2	4	
3	2	1	8	1	0	1	1	1	5	1	3	1	4	
3	6	8	5	8	0	8	1	8	2	8	5	8	4	
2	7	8	8	0	8	1	8	5	8	3	8	4	
2	5	2	5	0	5	1	5	2	5	1	5	0	
2	8	5	8	0	8	1	8	2	8	5	8	4	
2	9	2	9	0	9	1	9	2	9	3	9	4	
3	3	1	9	1	0	1	1	1	2	1	3	1	4	
2	8	0	8	0	8	1	8	2	8	5	8	4	
3	0	6	4	4	0	4	1	4	2	4	1	4	0	
3	5	8	0	8	0	8	1	8	2	8	5	8	4	
