3030.96	2848.56
960
32424.2	3277.16
11
0	0	12
1	0	12
2	0	12
3	0	12
4	0	12
5	0	12
6	0	12
7	0	12
8	0	12
9	0	12
10	0	12
68
0	6	0.000000	5933.000000	0.000000
0	7	0.000000	5933.000000	-0.000000
0	8	518.000000	5933.000000	1.000000
0	9	0.000000	5933.000000	0.000000
1	2	581.000000	5933.000000	1.000000
1	3	460.000000	5933.000000	1.000000
1	4	380.000000	5933.000000	1.000000
1	5	340.000000	5933.000000	1.000000
1	7	700.000000	5933.000000	1.000000
1	8	24.000000	5933.000000	1.000000
1	9	0.000000	5933.000000	0.000000
1	10	553.000000	5933.000000	1.000000
2	1	347.000000	5933.000000	1.000000
2	3	0.000000	5933.000000	-0.000000
2	4	0.000000	5933.000000	-0.000000
2	5	0.000000	5933.000000	0.000000
2	9	0.000000	5933.000000	0.000000
2	10	0.000000	5933.000000	-0.000000
3	1	114.000000	5933.000000	1.000000
3	2	0.000000	5933.000000	-0.000000
3	4	0.000000	5933.000000	0.000000
3	5	0.000000	5933.000000	-0.000000
4	1	211.000000	5933.000000	1.000000
4	2	0.000000	5933.000000	-0.000000
4	3	0.000000	5933.000000	0.000000
4	5	0.000000	5933.000000	0.000000
4	6	0.000000	5933.000000	-0.000000
4	7	0.000000	5933.000000	-0.000000
5	1	124.000000	5933.000000	1.000000
5	2	0.000000	5933.000000	0.000000
5	3	0.000000	5933.000000	-0.000000
5	4	0.000000	5933.000000	0.000000
5	7	0.000000	5933.000000	-0.000000
5	8	0.000000	5933.000000	0.000000
6	0	0.000000	5933.000000	0.000000
6	4	0.000000	5933.000000	-0.000000
6	7	0.000000	5933.000000	-0.000000
6	8	221.000000	5933.000000	1.000000
6	9	0.000000	5933.000000	-0.000000
6	10	0.000000	5933.000000	-0.000000
7	0	0.000000	5933.000000	-0.000000
7	1	10.000000	5933.000000	1.000000
7	4	0.000000	5933.000000	-0.000000
7	5	0.000000	5933.000000	-0.000000
7	6	0.000000	5933.000000	-0.000000
7	8	0.000000	5933.000000	-0.000000
7	9	0.000000	5933.000000	-0.000000
7	10	0.000000	5933.000000	-0.000000
8	0	10.000000	5933.000000	1.000000
8	1	1252.000000	5933.000000	1.000000
8	5	0.000000	5933.000000	0.000000
8	6	393.000000	5933.000000	1.000000
8	7	0.000000	5933.000000	-0.000000
8	9	0.000000	5933.000000	-0.000000
8	10	0.000000	5933.000000	-0.000000
9	0	0.000000	5933.000000	0.000000
9	1	0.000000	5933.000000	0.000000
9	2	0.000000	5933.000000	0.000000
9	6	0.000000	5933.000000	-0.000000
9	7	0.000000	5933.000000	-0.000000
9	8	0.000000	5933.000000	-0.000000
9	10	569.000000	5933.000000	1.000000
10	1	577.000000	5933.000000	1.000000
10	2	0.000000	5933.000000	-0.000000
10	6	0.000000	5933.000000	-0.000000
10	7	0.000000	5933.000000	-0.000000
10	8	0.000000	5933.000000	-0.000000
10	9	386.000000	5933.000000	1.000000
440
3	1	10	9	1	0	9	1	9	2	9	5	9	4	
3	3	1	5	1	0	1	1	1	2	1	5	1	4	
3	7	1	3	7	0	7	1	7	5	7	3	7	4	
4	9	10	1	3	9	0	9	1	9	2	10	5	10	4	
3	10	1	7	10	0	7	1	7	2	7	3	7	4	
4	3	1	8	6	6	0	6	1	6	5	6	3	6	4	
3	4	1	7	1	0	1	1	1	2	7	5	7	4	
2	1	8	1	0	1	1	8	2	8	1	8	0	
3	7	1	4	7	0	7	1	7	2	1	3	1	4	
4	0	8	1	2	1	0	1	1	1	2	1	5	1	4	
3	7	1	3	7	0	7	1	7	2	7	1	7	0	
3	5	1	10	1	0	10	1	10	5	10	3	10	4	
3	5	1	2	1	0	1	1	1	2	1	5	1	4	
2	8	1	1	0	1	1	1	2	1	1	1	0	
3	8	1	7	8	0	8	1	8	2	1	3	1	4	
3	6	8	0	6	0	6	1	6	5	6	3	8	4	
3	2	1	5	2	0	2	1	1	5	1	3	1	4	
3	7	1	5	7	0	1	1	1	2	1	5	1	4	
3	5	1	7	1	0	7	1	7	2	7	1	7	0	
4	8	1	10	9	9	0	9	1	9	5	9	3	9	4	
3	4	1	10	1	0	10	1	10	2	10	5	10	4	
3	5	1	10	1	0	10	1	10	2	10	5	10	4	
3	8	1	10	8	0	10	1	10	2	10	1	10	0	
2	10	1	10	0	10	1	10	2	10	5	10	4	
4	0	8	1	5	8	0	8	1	1	2	1	3	1	4	
2	3	2	3	0	3	1	3	2	3	5	3	4	
2	1	7	1	0	1	1	7	5	7	3	7	4	
3	8	1	4	8	0	1	1	1	5	1	3	1	4	
3	2	1	10	2	0	10	1	10	5	10	3	10	4	
3	2	1	3	2	0	2	1	2	2	2	5	1	4	
2	4	1	1	0	1	1	1	5	1	3	1	4	
4	9	10	1	3	9	0	1	1	1	2	1	3	1	4	
4	0	8	1	3	8	0	8	1	1	2	1	1	1	0	
3	10	1	2	10	0	1	1	1	2	1	3	1	4	
3	7	1	4	7	0	7	1	1	2	1	1	1	0	
4	6	8	1	3	6	0	8	1	1	2	1	3	1	4	
4	9	10	1	5	9	0	10	1	10	5	10	3	10	4	
4	4	1	8	0	8	0	8	1	8	2	8	5	8	4	
3	2	1	7	1	0	7	1	7	2	7	3	7	4	
2	5	1	1	0	1	1	1	2	1	5	1	4	
3	10	1	8	10	0	8	1	8	2	8	5	8	4	
3	3	1	7	1	0	7	1	7	2	7	1	7	0	
4	6	8	1	7	6	0	6	1	6	5	6	3	7	4	
3	3	1	4	1	0	1	1	1	2	1	1	1	0	
3	5	1	8	1	0	8	1	8	2	8	1	8	0	
4	9	10	1	8	8	0	8	1	8	2	8	5	8	4	
3	1	8	0	1	0	1	1	1	5	1	3	1	4	
2	1	3	1	0	1	1	1	2	1	1	1	0	
3	2	1	10	10	0	10	1	10	2	10	1	10	0	
2	1	3	1	0	1	1	1	2	1	3	1	4	
3	4	1	7	1	0	1	1	1	2	7	3	7	4	
4	0	8	1	10	10	0	10	1	10	2	10	5	10	4	
3	5	1	8	1	0	1	1	8	2	8	5	8	4	
3	8	1	2	8	0	8	1	1	2	1	5	1	4	
5	6	8	1	10	9	9	0	9	1	9	2	9	3	9	4	
3	6	8	0	6	0	6	1	6	2	8	1	8	0	
5	9	10	1	8	0	9	0	9	1	9	2	10	3	10	4	
4	5	1	8	6	6	0	6	1	6	2	6	3	6	4	
3	3	1	7	1	0	7	1	7	2	7	5	7	4	
3	9	10	1	9	0	1	1	1	2	1	5	1	4	
3	10	1	5	10	0	1	1	1	2	1	3	1	4	
4	10	1	8	0	10	0	10	1	8	2	8	1	8	0	
2	7	1	7	0	7	1	1	2	1	1	1	0	
3	8	1	7	8	0	7	1	7	5	7	3	7	4	
3	3	1	10	1	0	10	1	10	2	10	5	10	4	
3	3	1	4	1	0	1	1	1	2	1	5	1	4	
5	9	10	1	8	6	6	0	6	1	6	5	6	3	6	4	
4	2	1	8	6	6	0	6	1	6	2	6	3	6	4	
3	8	1	5	8	0	8	1	1	2	1	3	1	4	
3	3	1	4	1	0	1	1	1	5	1	3	1	4	
4	7	1	8	6	6	0	6	1	6	2	6	3	6	4	
3	0	8	1	8	0	1	1	1	5	1	3	1	4	
4	6	8	1	2	6	0	6	1	6	5	6	3	6	4	
2	1	2	1	0	1	1	1	2	1	1	1	0	
3	10	1	3	10	0	1	1	1	2	1	5	1	4	
4	10	1	8	6	6	0	6	1	6	5	6	3	6	4	
2	1	3	1	0	1	1	1	2	1	5	1	4	
3	1	8	0	1	0	8	1	8	2	8	3	8	4	
2	1	5	1	0	1	1	1	5	1	3	1	4	
4	4	1	8	6	6	0	6	1	6	2	6	3	6	4	
2	8	6	8	0	8	1	6	5	6	3	6	4	
4	7	1	10	9	9	0	9	1	9	5	9	3	9	4	
2	2	1	2	0	2	1	1	2	1	5	1	4	
3	3	1	10	1	0	10	1	10	5	10	3	10	4	
4	6	8	1	10	10	0	10	1	10	2	10	1	10	0	
3	4	1	3	1	0	1	1	1	5	1	3	1	4	
4	0	8	1	4	8	0	1	1	1	2	1	5	1	4	
3	3	1	8	1	0	1	1	8	2	8	3	8	4	
5	9	10	1	8	6	9	0	10	1	10	2	6	5	6	4	
4	10	1	8	0	10	0	8	1	8	2	8	3	8	4	
5	6	8	1	10	9	9	0	9	1	9	2	9	1	9	0	
2	3	1	1	0	1	1	1	2	1	1	1	0	
2	1	8	1	0	1	1	1	2	1	5	1	4	
2	3	1	1	0	1	1	1	5	1	3	1	4	
3	4	1	2	1	0	1	1	1	2	1	1	1	0	
2	2	1	1	0	1	1	1	2	1	3	1	4	
2	0	8	8	0	8	1	8	2	8	3	8	4	
3	5	1	8	1	0	8	1	8	5	8	3	8	4	
4	4	1	8	6	1	0	1	1	1	2	6	5	6	4	
4	4	1	10	9	9	0	9	1	9	2	9	3	9	4	
2	0	8	8	0	8	1	8	2	8	1	8	0	
3	8	1	10	8	0	10	1	10	2	10	5	10	4	
3	7	1	2	7	0	7	1	7	2	1	1	1	0	
3	2	1	4	1	0	1	1	1	5	1	3	1	4	
3	5	1	8	1	0	1	1	8	2	8	3	8	4	
2	8	6	6	0	6	1	6	2	6	3	6	4	
4	9	10	1	7	7	0	7	1	7	2	7	1	7	0	
4	3	1	10	9	9	0	9	1	9	2	9	5	9	4	
3	6	8	1	6	0	6	1	6	2	6	5	6	4	
3	7	1	2	7	0	7	1	7	2	1	5	1	4	
3	3	1	8	1	0	8	1	8	2	8	1	8	0	
5	9	10	1	8	6	6	0	6	1	6	2	6	3	6	4	
3	5	1	7	1	0	1	1	1	2	7	5	7	4	
2	8	6	6	0	6	1	6	2	6	1	6	0	
3	10	1	2	10	0	2	1	2	2	2	5	2	4	
3	8	1	4	8	0	1	1	1	2	1	5	1	4	
3	10	1	5	10	0	10	1	10	5	10	3	10	4	
4	4	1	8	0	1	0	1	1	1	5	1	3	8	4	
5	6	8	1	10	9	9	0	9	1	9	5	9	3	9	4	
5	9	10	1	8	0	9	0	10	1	10	5	10	3	8	4	
4	9	10	1	7	7	0	7	1	7	2	7	5	7	4	
3	10	1	3	10	0	10	1	1	2	1	3	1	4	
3	0	8	6	6	0	6	1	6	2	6	5	6	4	
2	6	8	6	0	6	1	6	2	6	5	6	4	
3	4	1	3	1	0	1	1	1	2	1	1	1	0	
2	2	1	2	0	2	1	1	5	1	3	1	4	
4	0	8	1	3	1	0	1	1	1	5	1	3	1	4	
2	1	5	1	0	1	1	1	2	1	5	1	4	
2	4	1	1	0	1	1	1	2	1	5	1	4	
4	7	1	8	0	1	0	1	1	8	2	8	3	8	4	
3	0	8	1	8	0	1	1	1	2	1	3	1	4	
3	10	1	8	10	0	8	1	8	5	8	3	8	4	
3	3	1	5	1	0	1	1	1	2	1	3	1	4	
3	4	1	8	1	0	8	1	8	2	8	1	8	0	
2	1	3	1	0	1	1	1	5	1	3	1	4	
4	5	1	8	6	1	0	6	1	6	2	6	5	6	4	
4	5	1	8	6	6	0	6	1	6	5	6	3	6	4	
4	2	1	10	9	9	0	9	1	9	2	9	1	9	0	
4	9	10	1	7	7	0	7	1	7	2	7	3	7	4	
2	7	1	7	0	7	1	7	2	7	5	7	4	
3	5	1	3	1	0	1	1	1	2	1	1	1	0	
4	0	8	1	5	1	0	1	1	1	5	1	3	1	4	
4	4	1	8	0	1	0	1	1	8	2	8	3	8	4	
4	2	1	8	6	6	0	6	1	6	2	6	1	6	0	
3	7	1	8	7	0	8	1	8	2	8	1	8	0	
2	1	4	1	0	1	1	1	2	1	1	1	0	
4	3	1	8	6	1	0	1	1	1	2	6	5	6	4	
3	2	1	3	1	0	1	1	1	2	1	3	1	4	
3	7	1	10	7	0	10	1	10	2	10	5	10	4	
3	5	1	7	1	0	1	1	1	2	7	3	7	4	
3	4	1	3	1	0	1	1	1	2	1	5	1	4	
3	4	1	5	1	0	1	1	1	5	1	3	1	4	
4	0	8	1	7	7	0	7	1	7	2	7	1	7	0	
3	7	1	2	7	0	1	1	1	5	1	3	1	4	
3	0	8	1	8	0	1	1	1	2	1	5	1	4	
3	2	1	8	1	0	8	1	8	2	8	5	8	4	
3	6	8	0	6	0	6	1	8	2	8	3	8	4	
4	2	1	8	6	6	0	6	1	6	5	6	3	6	4	
3	8	1	4	8	0	1	1	1	2	1	1	1	0	
3	10	1	4	10	0	1	1	1	2	1	5	1	4	
2	9	10	9	0	9	1	10	5	10	3	10	4	
4	6	8	1	3	6	0	1	1	1	5	1	3	1	4	
2	8	6	6	0	6	1	6	2	6	5	6	4	
3	8	1	10	8	0	10	1	10	5	10	3	10	4	
3	5	1	4	1	0	1	1	1	2	1	1	1	0	
3	10	1	7	10	0	7	1	7	5	7	3	7	4	
3	4	1	2	1	0	1	1	1	5	1	3	1	4	
4	9	10	1	4	9	0	9	1	9	2	10	3	10	4	
3	5	1	2	1	0	1	1	1	2	1	3	1	4	
3	4	1	3	1	0	1	1	1	2	1	3	1	4	
4	0	8	1	2	8	0	8	1	8	2	8	1	8	0	
4	9	10	1	5	1	0	1	1	1	2	1	5	1	4	
2	10	1	10	0	10	1	10	2	10	3	10	4	
3	7	1	5	7	0	1	1	1	2	1	1	1	0	
2	4	1	1	0	1	1	1	2	1	1	1	0	
2	10	9	10	0	10	1	9	2	9	1	9	0	
3	7	1	8	7	0	8	1	8	2	8	5	8	4	
4	5	1	10	9	9	0	9	1	9	5	9	3	9	4	
4	6	8	1	5	8	0	1	1	1	2	1	3	1	4	
3	2	1	8	1	0	8	1	8	2	8	3	8	4	
3	3	1	2	1	0	1	1	1	2	1	1	1	0	
5	9	10	1	8	0	8	0	8	1	8	2	8	1	8	0	
3	10	1	4	10	0	10	1	10	2	10	1	10	0	
4	5	1	10	9	9	0	9	1	9	2	9	1	9	0	
3	3	1	8	1	0	1	1	8	2	8	5	8	4	
4	0	8	1	5	1	0	1	1	1	2	1	5	1	4	
3	5	1	4	1	0	1	1	1	5	1	3	1	4	
4	8	1	10	9	8	0	8	1	8	2	10	3	10	4	
3	3	1	8	1	0	8	1	8	5	8	3	8	4	
3	7	1	2	7	0	7	1	7	2	7	3	7	4	
3	8	1	3	8	0	8	1	1	2	1	1	1	0	
4	6	8	1	4	6	0	6	1	6	2	6	3	6	4	
3	0	8	1	8	0	1	1	1	2	1	1	1	0	
3	7	1	10	7	0	10	1	10	2	10	3	10	4	
4	4	1	8	6	6	0	6	1	6	2	6	1	6	0	
3	4	1	2	1	0	1	1	1	2	1	3	1	4	
2	8	1	8	0	8	1	8	2	8	5	1	4	
2	5	1	1	0	1	1	1	2	1	3	1	4	
3	4	1	7	1	0	7	1	7	5	7	3	7	4	
4	9	10	1	3	9	0	9	1	9	5	10	3	1	4	
4	7	1	10	9	9	0	9	1	9	2	9	3	9	4	
2	1	10	1	0	1	1	10	5	10	3	10	4	
3	4	1	10	1	0	10	1	10	2	10	3	10	4	
4	7	1	8	6	6	0	6	1	6	2	6	1	6	0	
3	1	10	9	1	0	9	1	9	2	9	1	9	0	
4	2	1	8	0	2	0	2	1	8	5	8	3	8	4	
3	3	1	5	1	0	1	1	1	2	1	1	1	0	
3	5	1	10	1	0	10	1	10	2	10	3	10	4	
4	6	8	1	5	6	0	6	1	6	5	1	3	1	4	
2	1	4	1	0	1	1	1	2	1	5	1	4	
3	3	1	5	1	0	1	1	1	5	1	3	1	4	
4	7	1	8	0	7	0	7	1	7	5	1	3	8	4	
3	8	1	2	8	0	8	1	1	2	1	1	1	0	
3	3	1	4	1	0	1	1	1	2	1	3	1	4	
3	4	1	5	1	0	1	1	1	2	1	3	1	4	
3	10	1	3	10	0	1	1	1	2	1	1	1	0	
3	2	1	10	1	0	10	1	10	2	10	3	10	4	
3	5	1	7	1	0	7	1	7	5	7	3	7	4	
3	2	1	8	1	0	8	1	8	2	8	1	8	0	
4	6	8	1	5	6	0	6	1	8	2	1	1	1	0	
4	2	1	8	6	1	0	1	1	6	2	6	5	6	4	
4	9	10	1	8	8	0	8	1	8	2	8	1	8	0	
4	0	8	1	4	8	0	1	1	1	2	1	3	1	4	
3	4	1	7	1	0	7	1	7	2	7	1	7	0	
2	6	8	6	0	6	1	6	2	8	1	8	0	
3	2	1	5	1	0	1	1	1	2	1	1	1	0	
2	10	1	10	0	10	1	1	5	1	3	1	4	
4	0	8	1	7	7	0	7	1	7	5	7	3	7	4	
2	8	1	1	0	1	1	1	5	1	3	1	4	
3	5	1	4	1	0	1	1	1	2	1	3	1	4	
3	1	10	9	1	0	9	1	9	2	9	3	9	4	
4	9	10	1	4	10	0	1	1	1	5	1	3	1	4	
3	10	1	2	10	0	1	1	1	2	1	1	1	0	
3	5	1	10	1	0	10	1	10	2	10	1	10	0	
2	10	9	10	0	10	1	9	2	9	5	9	4	
2	3	1	1	0	1	1	1	2	1	3	1	4	
3	1	8	6	1	0	6	1	6	2	6	3	6	4	
5	9	10	1	8	6	6	0	6	1	6	2	6	1	6	0	
3	2	1	4	1	0	1	1	1	2	1	3	1	4	
4	9	10	1	2	1	0	1	1	1	2	1	1	1	0	
3	1	8	0	1	0	8	1	8	2	8	1	8	0	
4	0	8	1	10	10	0	10	1	10	5	10	3	10	4	
3	4	1	8	1	0	1	1	8	2	8	5	8	4	
3	10	1	4	10	0	10	1	1	5	1	3	1	4	
4	6	8	1	4	6	0	6	1	6	2	6	5	6	4	
3	8	1	3	8	0	1	1	1	2	1	5	1	4	
3	5	1	3	1	0	1	1	1	2	1	3	1	4	
3	5	1	2	1	0	1	1	1	5	1	3	1	4	
3	10	1	2	10	0	1	1	1	5	1	3	1	4	
2	6	8	6	0	6	1	6	5	8	3	8	4	
4	5	1	10	9	9	0	9	1	9	2	9	5	9	4	
4	7	1	8	6	6	0	6	1	6	5	6	3	6	4	
5	9	10	1	8	0	8	0	8	1	8	2	8	5	8	4	
4	0	8	1	4	1	0	1	1	1	5	1	3	1	4	
2	8	0	8	0	8	1	8	2	8	3	8	4	
3	9	10	1	9	0	1	1	1	2	1	1	1	0	
4	4	1	10	9	9	0	9	1	9	5	9	3	9	4	
2	8	0	8	0	8	1	8	2	8	1	8	0	
3	1	8	6	1	0	1	1	1	2	6	5	6	4	
3	7	1	4	7	0	1	1	1	2	1	5	1	4	
4	9	10	1	8	8	0	8	1	8	2	8	3	8	4	
4	6	8	1	7	6	0	6	1	6	2	6	1	6	0	
3	2	1	4	2	0	2	1	2	2	2	5	2	4	
4	3	1	8	6	6	0	6	1	6	2	6	3	6	4	
3	7	1	3	7	0	7	1	1	2	1	3	1	4	
3	10	1	8	10	0	8	1	8	2	8	1	8	0	
4	10	1	8	0	8	0	8	1	8	2	8	5	8	4	
4	7	1	10	9	9	0	9	1	9	2	9	1	9	0	
3	4	1	5	1	0	1	1	1	2	1	1	1	0	
4	6	8	1	7	6	0	6	1	6	2	6	5	6	4	
3	2	1	7	7	0	7	1	7	2	7	1	7	0	
3	0	8	6	6	0	6	1	6	2	6	3	6	4	
3	10	1	3	10	0	1	1	1	5	1	3	1	4	
4	4	1	8	6	6	0	6	1	6	5	6	3	6	4	
2	1	8	1	0	1	1	1	5	8	3	8	4	
5	0	8	1	10	9	9	0	9	1	9	5	9	3	9	4	
3	8	1	3	8	0	1	1	1	5	1	3	1	4	
4	6	8	1	10	10	0	10	1	10	5	10	3	10	4	
3	0	8	6	6	0	6	1	6	2	6	1	6	0	
4	8	1	10	9	9	0	9	1	9	2	9	1	9	0	
4	6	8	1	2	6	0	6	1	6	2	6	1	6	0	
2	7	1	7	0	7	1	1	5	1	3	1	4	
4	2	1	10	9	9	0	9	1	9	2	9	5	9	4	
3	6	8	1	6	0	1	1	1	2	1	3	1	4	
4	3	1	8	6	6	0	6	1	6	2	6	1	6	0	
4	9	10	1	4	10	0	1	1	1	2	1	1	1	0	
3	10	1	8	10	0	8	1	8	2	8	3	8	4	
4	3	1	10	9	9	0	9	1	9	2	9	1	9	0	
3	2	1	7	2	0	7	1	7	5	7	3	7	4	
3	7	1	3	7	0	1	1	1	2	1	5	1	4	
4	9	10	1	2	9	0	9	1	9	2	9	5	2	4	
4	2	1	10	9	9	0	9	1	9	2	9	3	9	4	
3	8	1	7	8	0	7	1	7	2	7	1	7	0	
4	5	1	8	0	8	0	8	1	8	5	8	3	8	4	
4	0	8	1	7	7	0	7	1	7	2	7	3	7	4	
3	2	1	4	1	0	1	1	1	2	1	1	1	0	
3	0	8	6	8	0	6	1	6	5	6	3	6	4	
3	9	10	1	9	0	1	1	1	2	1	3	1	4	
4	0	8	1	5	1	0	1	1	1	2	1	1	1	0	
2	1	10	1	0	1	1	10	2	10	1	10	0	
5	6	8	1	10	9	6	0	6	1	6	2	6	5	9	4	
4	5	1	8	0	1	0	1	1	1	2	1	1	8	0	
2	1	8	1	0	1	1	1	2	8	3	8	4	
4	0	8	1	2	0	0	0	1	1	5	1	3	1	4	
3	7	1	4	7	0	7	1	7	5	7	3	7	4	
2	10	1	10	0	10	1	10	2	1	1	1	0	
4	9	10	1	7	7	0	7	1	7	5	7	3	7	4	
4	0	8	1	3	8	0	8	1	1	2	1	5	1	4	
4	3	1	8	0	1	0	8	1	8	2	8	3	8	4	
4	6	8	1	2	6	0	6	1	6	2	6	3	1	4	
3	7	1	5	7	0	1	1	1	2	1	3	1	4	
3	6	8	1	6	0	1	1	1	2	1	1	1	0	
2	0	8	8	0	8	1	8	2	8	5	8	4	
3	6	8	1	6	0	1	1	1	5	1	3	1	4	
3	1	8	0	1	0	8	1	8	2	8	5	8	4	
2	1	5	1	0	1	1	1	2	1	3	1	4	
4	3	1	10	9	9	0	9	1	9	5	9	3	9	4	
4	9	10	1	8	8	0	8	1	8	5	8	3	8	4	
4	5	1	8	6	6	0	6	1	6	2	6	1	6	0	
2	4	1	1	0	1	1	1	2	1	3	1	4	
4	8	1	10	9	8	0	8	1	8	2	10	5	9	4	
3	5	1	3	1	0	1	1	1	5	1	3	1	4	
3	1	8	6	1	0	6	1	6	5	6	3	6	4	
2	1	5	1	0	1	1	1	2	1	1	1	0	
3	8	1	5	8	0	1	1	1	5	1	3	1	4	
4	5	1	8	0	1	0	8	1	8	2	8	3	8	4	
2	3	1	1	0	1	1	1	2	1	5	1	4	
3	7	1	10	7	0	10	1	10	5	10	3	10	4	
3	3	1	2	1	0	1	1	1	5	1	3	1	4	
4	6	8	1	7	6	0	6	1	6	2	6	3	6	4	
3	7	1	8	7	0	8	1	8	2	8	3	8	4	
4	3	1	8	0	1	0	1	1	1	2	1	1	8	0	
5	0	8	1	10	9	8	0	8	1	8	2	8	3	8	4	
3	2	1	10	10	0	10	1	10	2	10	5	10	4	
4	2	1	8	0	1	0	8	1	8	2	8	3	8	4	
3	8	1	3	8	0	8	1	1	2	1	3	1	4	
4	6	8	1	4	1	0	1	1	1	5	1	3	1	4	
2	2	1	1	0	1	1	1	2	1	1	1	0	
3	4	1	8	1	0	8	1	8	5	8	3	8	4	
3	4	1	8	1	0	1	1	8	2	8	3	8	4	
3	4	1	10	1	0	10	1	10	2	10	1	10	0	
4	10	1	8	6	6	0	6	1	6	2	6	5	6	4	
3	4	1	10	1	0	10	1	10	5	10	3	10	4	
4	10	1	8	6	6	0	6	1	6	2	6	1	6	0	
3	10	1	5	10	0	1	1	1	2	1	5	1	4	
2	1	2	1	0	1	1	1	2	1	3	1	4	
3	6	8	0	6	0	6	1	6	2	6	5	6	4	
3	8	1	7	8	0	8	1	1	2	7	5	7	4	
4	6	8	1	4	6	0	6	1	8	2	8	1	1	0	
3	8	1	5	8	0	8	1	8	2	8	1	8	0	
2	9	10	9	0	9	1	10	2	10	1	10	0	
3	2	1	7	7	0	7	1	7	2	7	5	7	4	
3	7	1	10	7	0	10	1	10	2	10	1	10	0	
4	2	1	10	9	9	0	9	1	9	5	9	3	9	4	
4	6	8	1	10	10	0	10	1	10	2	10	3	10	4	
4	9	10	1	4	1	0	1	1	1	2	1	5	1	4	
3	9	10	1	9	0	1	1	1	5	1	3	1	4	
5	0	8	1	10	9	8	0	8	1	8	2	8	5	8	4	
2	6	8	6	0	6	1	6	2	6	3	6	4	
4	10	1	8	0	10	0	10	1	10	5	10	3	10	4	
4	4	1	8	0	8	0	8	1	8	2	8	1	8	0	
2	8	0	8	0	8	1	8	5	8	3	8	4	
2	0	8	8	0	8	1	8	5	8	3	8	4	
4	7	1	10	9	9	0	9	1	9	2	9	5	9	4	
3	3	1	7	1	0	7	1	7	5	7	3	7	4	
4	10	1	8	6	6	0	6	1	6	2	6	3	6	4	
4	7	1	8	0	1	0	8	1	8	2	8	1	8	0	
4	6	8	1	3	6	0	6	1	8	2	8	1	8	0	
3	8	1	4	8	0	8	1	8	2	1	3	1	4	
3	3	1	2	1	0	1	1	1	2	1	3	1	4	
2	1	7	1	0	1	1	1	2	7	3	7	4	
4	9	10	1	5	9	0	9	1	10	2	10	1	1	0	
2	10	9	10	0	10	1	9	2	9	3	9	4	
3	10	1	7	10	0	7	1	7	2	7	1	7	0	
2	1	2	1	0	1	1	2	2	2	5	2	4	
4	4	1	10	9	9	0	9	1	9	2	9	1	9	0	
4	6	8	1	3	6	0	6	1	6	2	6	5	6	4	
3	3	1	10	1	0	10	1	10	2	10	3	10	4	
4	7	1	8	0	8	0	8	1	8	2	8	5	8	4	
2	5	1	1	0	1	1	1	5	1	3	1	4	
4	0	8	1	2	1	0	1	1	1	2	1	3	1	4	
4	4	1	10	9	9	0	9	1	9	2	9	5	9	4	
2	1	4	1	0	1	1	1	5	1	3	1	4	
2	1	7	1	0	1	1	7	2	7	1	7	0	
3	4	1	5	1	0	1	1	1	2	1	5	1	4	
4	2	1	8	0	8	0	8	1	8	2	8	5	8	4	
2	1	10	1	0	1	1	10	2	10	5	10	4	
4	0	8	1	10	10	0	10	1	10	2	10	3	10	4	
2	1	10	1	0	1	1	10	2	10	3	10	4	
4	9	10	1	2	9	0	9	1	9	5	9	3	10	4	
3	7	1	5	7	0	1	1	1	5	1	3	1	4	
2	8	1	8	0	8	1	8	2	8	3	8	4	
3	2	1	3	1	0	1	1	1	2	1	1	1	0	
4	3	1	8	0	8	0	8	1	8	5	8	3	8	4	
3	2	1	3	2	0	1	1	1	5	1	3	1	4	
5	0	8	1	10	9	9	0	9	1	9	2	9	1	9	0	
3	10	1	7	10	0	7	1	7	2	7	5	7	4	
2	1	7	1	0	1	1	1	2	7	5	7	4	
2	1	4	1	0	1	1	1	2	1	3	1	4	
3	5	1	4	1	0	1	1	1	2	1	5	1	4	
4	5	1	10	9	9	0	9	1	9	2	9	3	9	4	
3	2	1	5	1	0	1	1	1	2	1	5	1	4	
4	0	8	1	3	8	0	8	1	1	2	1	3	1	4	
3	3	1	7	1	0	7	1	7	2	7	3	7	4	
4	6	8	1	2	6	0	6	1	6	2	6	5	6	4	
3	1	8	6	1	0	6	1	6	2	6	1	6	0	
4	9	10	1	5	10	0	10	1	1	2	1	3	1	4	
2	5	1	1	0	1	1	1	2	1	1	1	0	
4	3	1	8	0	8	0	8	1	8	2	8	5	8	4	
3	1	10	9	1	0	9	1	9	5	9	3	9	4	
3	8	1	2	8	0	8	1	1	5	1	3	1	4	
4	6	8	1	10	6	0	6	1	6	2	6	5	6	4	
4	0	8	1	7	7	0	7	1	7	2	7	5	7	4	
3	4	1	2	1	0	1	1	1	2	1	5	1	4	
4	9	10	1	3	1	0	1	1	1	2	1	1	1	0	
4	0	8	1	10	10	0	10	1	10	2	10	1	10	0	
4	2	1	8	0	8	0	8	1	8	2	8	1	8	0	
3	10	1	4	10	0	10	1	10	2	1	3	1	4	
3	8	1	2	8	0	1	1	1	2	2	3	2	4	
4	7	1	8	6	7	0	7	1	7	2	6	5	6	4	
3	2	1	5	1	0	1	1	1	2	1	3	1	4	
3	10	1	5	10	0	1	1	1	2	1	1	1	0	
2	9	10	9	0	9	1	9	2	9	5	9	4	
3	5	1	3	1	0	1	1	1	2	1	5	1	4	
3	3	1	10	1	0	10	1	10	2	10	1	10	0	
3	8	1	10	8	0	10	1	10	2	10	3	10	4	
2	7	1	7	0	7	1	1	2	1	3	1	4	
2	10	9	10	0	10	1	9	5	9	3	9	4	
2	9	10	9	0	9	1	9	2	9	3	9	4	
2	1	2	1	0	1	1	1	5	1	3	1	4	
3	2	1	8	2	0	8	1	8	5	8	3	8	4	
4	6	8	1	5	6	0	6	1	6	2	6	5	6	4	
3	7	1	8	7	0	8	1	8	5	8	3	8	4	
3	5	1	2	1	0	1	1	1	2	1	1	1	0	
3	8	1	5	1	0	1	1	1	2	1	5	1	4	
4	9	10	1	2	9	0	9	1	9	2	9	3	10	4	
4	3	1	10	9	9	0	9	1	9	2	9	3	9	4	
2	8	0	8	0	8	1	8	2	8	5	8	4	
4	0	8	1	4	1	0	1	1	1	2	1	1	1	0	
4	5	1	8	0	8	0	8	1	8	2	8	5	8	4	
