2502.46	2020.8
190
14890.1	2302.41
11
0	0	12
1	0	12
2	0	12
3	0	12
4	0	12
5	0	12
6	0	12
7	0	12
8	0	12
9	0	12
10	0	12
68
0	6	0.000000	5933.000000	0.000000
0	7	0.000000	5933.000000	0.000000
0	8	0.000000	5933.000000	0.000000
0	9	0.698685	5933.000000	1.000000
1	2	0.000000	5933.000000	0.000000
1	3	0.000000	5933.000000	0.000000
1	4	0.000000	5933.000000	0.000000
1	5	0.000000	5933.000000	0.000000
1	7	0.000000	5933.000000	0.000000
1	8	0.121201	5933.000000	1.000000
1	9	0.819886	5933.000000	1.000000
1	10	0.000000	5933.000000	0.000000
2	1	0.000000	5933.000000	0.000000
2	3	0.818391	5933.000000	1.000000
2	4	0.000000	5933.000000	0.000000
2	5	0.698685	5933.000000	1.000000
2	9	0.002990	5933.000000	1.000000
2	10	0.000000	5933.000000	0.000000
3	1	0.000000	5933.000000	0.000000
3	2	0.700180	5933.000000	1.000000
3	4	0.000000	5933.000000	0.000000
3	5	0.000000	5933.000000	0.000000
4	1	0.000000	5933.000000	0.000000
4	2	0.000000	5933.000000	0.000000
4	3	0.000000	5933.000000	0.000000
4	5	0.000000	5933.000000	0.000000
4	6	0.001495	5933.000000	1.000000
4	7	75.459504	5933.000000	1.000000
5	1	0.000000	5933.000000	0.000000
5	2	0.700180	5933.000000	1.000000
5	3	0.000000	5933.000000	0.000000
5	4	0.000000	5933.000000	0.000000
5	7	0.000000	5933.000000	0.000000
5	8	0.000000	5933.000000	0.000000
6	0	0.000000	5933.000000	0.000000
6	4	0.001495	5933.000000	1.000000
6	7	0.000000	5933.000000	0.000000
6	8	0.000000	5933.000000	0.000000
6	9	0.000000	5933.000000	0.000000
6	10	0.000000	5933.000000	0.000000
7	0	0.000000	5933.000000	0.000000
7	1	0.000000	5933.000000	0.000000
7	4	0.183104	5933.000000	1.000000
7	5	0.000000	5933.000000	0.000000
7	6	0.000000	5933.000000	0.000000
7	8	0.121201	5933.000000	1.000000
7	9	0.000000	5933.000000	0.000000
7	10	0.001495	5933.000000	1.000000
8	0	0.000000	5933.000000	0.000000
8	1	45.514125	5933.000000	1.000000
8	5	0.000000	5933.000000	0.000000
8	6	0.000000	5933.000000	0.000000
8	7	18.163900	5933.000000	1.000000
8	9	0.000000	5933.000000	0.000000
8	10	0.000000	5933.000000	0.000000
9	0	0.001495	5933.000000	1.000000
9	1	0.002990	5933.000000	1.000000
9	2	1.517076	5933.000000	1.000000
9	6	0.000000	5933.000000	0.000000
9	7	0.000000	5933.000000	0.000000
9	8	0.000000	5933.000000	0.000000
9	10	0.000000	5933.000000	0.000000
10	1	0.000000	5933.000000	0.000000
10	2	0.000000	5933.000000	0.000000
10	6	0.000000	5933.000000	0.000000
10	7	0.181609	5933.000000	1.000000
10	8	0.000000	5933.000000	0.000000
10	9	0.000000	5933.000000	0.000000
16
2	1	9	9	0	9	1	9	2	9	5	9	4	
3	3	2	5	2	0	2	1	2	2	2	5	2	4	
6	7	8	1	9	2	3	1	0	1	1	1	5	1	3	1	4	
3	9	2	3	2	0	2	1	2	2	2	5	2	4	
2	10	7	7	0	7	1	7	2	7	3	7	4	
8	3	2	9	1	8	7	4	6	1	0	1	1	1	5	1	3	1	4	
2	4	7	4	0	4	1	4	2	4	5	4	4	
2	1	8	1	0	1	1	1	2	1	1	1	0	
2	7	4	7	0	7	1	7	2	7	3	7	4	
3	0	9	2	2	0	2	1	2	2	2	5	2	4	
6	7	8	1	9	2	3	1	0	1	1	1	2	1	1	1	0	
7	5	2	9	1	8	7	10	1	0	1	1	1	5	1	3	1	4	
2	5	2	2	0	2	1	2	2	2	5	2	4	
2	8	1	1	0	1	1	1	2	1	1	1	0	
2	8	7	7	0	7	1	7	2	7	3	7	4	
7	6	4	7	8	1	9	0	1	0	1	1	1	5	1	3	1	4	
