10520.8	6396.36
1233
72499	49196.5
11
0	2	8
1	2	8
2	2	8
3	0	8
4	0	8
5	0	8
6	2	8
7	0	8
8	2	8
9	2	8
10	2	8
68
0	6	839.241519	1290.000000	1.000000
0	7	0.000000	60.000000	0.000000
0	8	2268.758481	2340.000000	1.000000
0	9	0.000000	1050.000000	0.000000
1	2	2426.851087	2520.000000	1.000000
1	3	1453.409560	2190.000000	1.000000
1	4	1349.816934	1350.000000	1.000000
1	5	2032.892407	2160.000000	1.000000
1	7	1406.305339	1470.000000	1.000000
1	8	79.763042	3480.000000	1.000000
1	9	0.000000	60.000000	0.000000
1	10	11.000728	2460.000000	1.000000
2	1	35.970332	2520.000000	1.000000
2	3	1306.590440	1950.000000	1.000000
2	4	906.910269	1140.000000	1.000000
2	5	0.000000	30.000000	0.000000
2	9	63.428341	1800.000000	1.000000
2	10	0.000000	930.000000	0.000000
3	1	658.307103	2190.000000	1.000000
3	2	25.692897	1950.000000	1.000000
3	4	0.000000	960.000000	0.000000
3	5	0.000000	30.000000	0.000000
4	1	589.436467	1350.000000	1.000000
4	2	32.037410	1140.000000	1.000000
4	3	0.000000	960.000000	0.000000
4	5	0.000000	870.000000	0.000000
4	6	0.000000	60.000000	0.000000
4	7	654.000000	990.000000	1.000000
5	1	34.325041	2160.000000	1.000000
5	2	0.000000	30.000000	0.000000
5	3	0.000000	30.000000	0.000000
5	4	0.000000	870.000000	0.000000
5	7	709.674959	1050.000000	1.000000
5	8	0.000000	30.000000	0.000000
6	0	12.000000	1290.000000	1.000000
6	4	0.000000	60.000000	0.000000
6	7	1469.182644	1920.000000	1.000000
6	8	52.843191	2250.000000	1.000000
6	9	0.000000	30.000000	0.000000
6	10	0.000000	60.000000	0.000000
7	0	0.000000	60.000000	0.000000
7	1	28.219020	1470.000000	1.000000
7	4	32.746675	990.000000	1.000000
7	5	7.107593	1050.000000	1.000000
7	6	31.089655	1920.000000	1.000000
7	8	0.000000	930.000000	0.000000
7	9	0.000000	30.000000	0.000000
7	10	0.000000	30.000000	0.000000
8	0	48.000000	2340.000000	1.000000
8	1	2776.170493	3480.000000	1.000000
8	5	0.000000	30.000000	0.000000
8	6	1695.694661	2250.000000	1.000000
8	7	0.000000	930.000000	0.000000
8	9	2337.256775	2370.000000	1.000000
8	10	972.000000	1470.000000	1.000000
9	0	0.000000	1050.000000	0.000000
9	1	0.000000	60.000000	0.000000
9	2	1232.317988	1800.000000	1.000000
9	6	0.000000	30.000000	0.000000
9	7	0.000000	30.000000	0.000000
9	8	57.757216	2370.000000	1.000000
9	10	2217.136034	3300.000000	1.000000
10	1	2219.610641	2460.000000	1.000000
10	2	0.000000	930.000000	0.000000
10	6	0.000000	60.000000	0.000000
10	7	0.000000	30.000000	0.000000
10	8	18.000000	1470.000000	1.000000
10	9	8.526122	3300.000000	1.000000
440
3	1	8	9	1	0	1	1	9	2	9	5	9	4	
3	3	1	5	1	0	1	1	1	2	1	5	1	4	
3	7	1	3	1	0	1	1	1	5	1	3	1	4	
3	9	2	3	9	0	9	1	9	2	9	5	9	4	
3	10	1	7	1	0	1	1	1	2	1	3	1	4	
5	3	2	9	8	6	3	0	6	1	6	5	6	3	6	4	
2	4	7	7	0	7	1	7	2	7	5	7	4	
2	1	8	1	0	1	1	1	2	1	1	1	0	
2	7	4	7	0	7	1	7	2	7	3	7	4	
4	0	8	9	2	0	0	0	1	0	2	0	5	0	4	
3	7	1	3	1	0	1	1	1	2	1	1	1	0	
5	5	1	2	9	10	5	0	5	1	5	5	1	3	9	4	
4	5	7	4	2	5	0	5	1	2	2	2	5	2	4	
2	8	1	1	0	1	1	1	2	1	1	1	0	
3	8	6	7	7	0	7	1	7	2	7	3	7	4	
2	6	0	6	0	6	1	6	5	6	3	6	4	
3	2	1	5	1	0	1	1	1	5	1	3	1	4	
2	7	5	7	0	7	1	7	2	7	5	7	4	
2	5	7	7	0	7	1	7	2	7	1	7	0	
2	8	9	9	0	9	1	9	5	9	3	9	4	
4	4	2	9	10	4	0	4	1	4	2	10	5	10	4	
6	5	7	1	8	9	10	5	0	9	1	10	2	10	5	10	4	
2	8	10	10	0	10	1	10	2	10	1	10	0	
2	10	1	1	0	1	1	1	2	1	5	1	4	
4	0	8	1	5	0	0	0	1	0	2	0	3	8	4	
2	3	2	2	0	2	1	2	2	2	5	2	4	
2	1	7	7	0	7	1	7	5	7	3	7	4	
3	8	1	4	1	0	1	1	1	5	1	3	1	4	
3	2	9	10	2	0	2	1	2	5	2	3	2	4	
2	2	3	2	0	2	1	2	2	2	5	2	4	
2	4	1	1	0	1	1	1	5	1	3	1	4	
3	9	2	3	9	0	9	1	9	2	9	3	9	4	
4	0	8	1	3	8	0	8	1	8	2	8	1	1	0	
3	10	1	2	1	0	1	1	1	2	1	3	1	4	
2	7	4	7	0	7	1	7	2	7	1	7	0	
5	6	8	9	2	3	6	0	6	1	6	2	6	3	6	4	
4	9	8	1	5	9	0	5	1	5	5	5	3	5	4	
4	4	1	8	0	4	0	4	1	4	2	4	5	4	4	
5	2	9	8	1	7	9	0	9	1	9	2	9	3	9	4	
3	5	7	1	5	0	5	1	5	2	5	5	5	4	
2	10	8	10	0	10	1	10	2	10	5	10	4	
3	3	1	7	1	0	1	1	1	2	1	1	1	0	
2	6	7	7	0	7	1	7	5	7	3	7	4	
3	3	1	4	1	0	1	1	1	2	1	1	1	0	
3	5	1	8	1	0	1	1	1	2	1	1	1	0	
2	9	8	9	0	9	1	9	2	9	5	9	4	
3	1	8	0	8	0	0	1	0	5	0	3	0	4	
2	1	3	1	0	1	1	1	2	1	1	1	0	
3	2	1	10	1	0	1	1	1	2	1	1	1	0	
2	1	3	1	0	1	1	1	2	1	3	1	4	
2	4	7	7	0	7	1	7	2	7	3	7	4	
3	0	8	10	0	0	10	1	10	2	10	5	10	4	
3	5	1	8	1	0	1	1	1	2	1	5	1	4	
3	8	9	2	9	0	9	1	9	2	9	5	9	4	
3	6	8	9	6	0	6	1	6	2	9	3	9	4	
2	6	0	6	0	6	1	6	2	6	1	6	0	
3	9	8	0	9	0	9	1	9	2	9	3	9	4	
3	5	7	6	7	0	7	1	7	2	7	3	7	4	
3	3	1	7	1	0	1	1	1	2	1	5	1	4	
3	9	8	1	9	0	9	1	9	2	8	5	8	4	
3	10	1	5	1	0	1	1	1	2	1	3	1	4	
3	10	8	0	10	0	8	1	8	2	8	1	8	0	
2	7	1	1	0	1	1	1	2	1	1	1	0	
3	8	1	7	8	0	8	1	8	5	8	3	8	4	
4	3	2	9	10	3	0	3	1	3	2	10	5	10	4	
3	3	1	4	1	0	1	1	1	2	1	5	1	4	
3	9	8	6	9	0	9	1	6	5	6	3	6	4	
4	2	1	8	6	1	0	1	1	1	2	1	3	1	4	
5	8	9	2	1	5	2	0	2	1	2	2	5	3	5	4	
3	3	1	4	1	0	1	1	1	5	1	3	1	4	
2	7	6	7	0	7	1	7	2	7	3	7	4	
3	0	8	1	8	0	1	1	1	5	1	3	1	4	
4	6	8	9	2	6	0	6	1	2	5	2	3	2	4	
2	1	2	1	0	1	1	1	2	1	1	1	0	
3	10	1	3	1	0	1	1	1	2	1	5	1	4	
3	10	8	6	10	0	10	1	6	5	6	3	6	4	
2	1	3	3	0	3	1	3	2	3	5	3	4	
3	1	8	0	1	0	1	1	1	2	1	3	8	4	
2	1	5	5	0	5	1	5	5	5	3	5	4	
3	4	7	6	7	0	7	1	7	2	7	3	7	4	
2	8	6	8	0	8	1	8	5	8	3	8	4	
4	7	1	8	9	7	0	7	1	7	5	7	3	7	4	
4	2	9	8	1	2	0	2	1	2	2	2	5	8	4	
4	3	2	9	10	3	0	3	1	3	5	2	3	9	4	
3	6	8	10	8	0	8	1	8	2	8	1	8	0	
3	4	1	3	1	0	1	1	1	5	1	3	1	4	
4	0	6	7	4	4	0	4	1	4	2	4	5	4	4	
3	3	1	8	1	0	1	1	1	2	1	3	1	4	
3	9	8	6	9	0	9	1	9	2	6	5	6	4	
3	10	8	0	10	0	10	1	10	2	10	3	8	4	
3	6	8	9	6	0	6	1	9	2	9	1	9	0	
2	3	1	1	0	1	1	1	2	1	1	1	0	
2	1	8	1	0	1	1	1	2	1	5	1	4	
2	3	1	1	0	1	1	1	5	1	3	1	4	
2	4	2	2	0	2	1	2	2	2	1	2	0	
2	2	1	1	0	1	1	1	2	1	3	1	4	
2	0	8	0	0	0	1	0	2	0	3	0	4	
4	5	7	1	8	5	0	5	1	5	5	5	3	5	4	
3	4	7	6	7	0	7	1	7	2	7	5	7	4	
3	4	2	9	4	0	4	1	4	2	9	3	9	4	
2	0	8	0	0	0	1	0	2	0	1	0	0	
2	8	10	10	0	10	1	10	2	10	5	10	4	
3	7	1	2	1	0	1	1	1	2	1	1	1	0	
2	2	4	2	0	2	1	2	5	2	3	2	4	
3	5	1	8	1	0	1	1	1	2	1	3	1	4	
2	8	6	6	0	6	1	6	2	6	3	6	4	
4	9	8	1	7	8	0	8	1	8	2	8	1	8	0	
3	3	2	9	3	0	3	1	3	2	3	5	3	4	
3	6	8	1	1	0	1	1	1	2	1	5	1	4	
3	7	4	2	7	0	7	1	7	2	2	5	2	4	
3	3	1	8	1	0	1	1	1	2	1	1	1	0	
3	9	8	6	6	0	6	1	6	2	6	3	6	4	
2	5	7	7	0	7	1	7	2	7	5	7	4	
2	8	6	6	0	6	1	6	2	6	1	6	0	
3	10	1	2	1	0	1	1	1	2	1	5	1	4	
3	8	1	4	1	0	1	1	1	2	1	5	1	4	
4	10	1	7	5	10	0	10	1	10	5	5	3	5	4	
4	4	1	8	0	8	0	0	1	0	5	0	3	0	4	
3	6	8	9	6	0	6	1	9	5	9	3	9	4	
3	9	8	0	9	0	9	1	0	5	0	3	0	4	
4	9	8	1	7	9	0	9	1	9	2	8	5	8	4	
3	10	1	3	1	0	1	1	1	2	1	3	1	4	
2	0	6	6	0	6	1	6	2	6	5	6	4	
2	6	8	6	0	6	1	6	2	6	5	6	4	
3	4	1	3	1	0	1	1	1	2	1	1	1	0	
2	2	1	1	0	1	1	1	5	1	3	1	4	
6	0	6	8	9	2	3	0	0	0	1	3	5	3	3	3	4	
2	1	5	5	0	5	1	5	2	5	5	5	4	
2	4	1	1	0	1	1	1	2	1	5	1	4	
3	7	6	0	7	0	7	1	7	2	7	3	7	4	
3	0	8	1	0	0	0	1	0	2	0	3	8	4	
2	10	8	10	0	10	1	8	5	8	3	8	4	
3	3	1	5	1	0	1	1	1	2	1	3	1	4	
3	4	1	8	1	0	1	1	1	2	1	1	1	0	
2	1	3	3	0	3	1	3	5	3	3	3	4	
4	5	1	8	6	5	0	5	1	6	2	6	5	6	4	
3	5	7	6	7	0	7	1	7	5	7	3	7	4	
2	2	9	9	0	9	1	9	2	9	1	9	0	
4	9	8	1	7	1	0	1	1	1	2	1	3	7	4	
2	7	1	1	0	1	1	1	2	1	5	1	4	
3	5	1	3	1	0	1	1	1	2	1	1	1	0	
4	0	8	1	5	5	0	5	1	5	5	5	3	5	4	
4	4	1	8	0	4	0	4	1	4	2	0	3	0	4	
4	2	1	8	6	1	0	1	1	1	2	1	1	1	0	
3	7	6	8	7	0	7	1	7	2	7	1	6	0	
2	1	4	1	0	1	1	1	2	1	1	1	0	
5	3	2	9	8	6	3	0	3	1	6	2	6	5	6	4	
2	2	3	2	0	2	1	2	2	2	3	2	4	
5	7	1	8	9	10	7	0	7	1	7	2	10	5	10	4	
2	5	7	7	0	7	1	7	2	7	3	7	4	
3	4	1	3	1	0	1	1	1	2	1	5	1	4	
3	4	1	5	4	0	4	1	4	5	4	3	4	4	
3	0	6	7	7	0	7	1	7	2	7	1	7	0	
3	7	1	2	7	0	7	1	7	5	7	3	7	4	
3	0	8	1	0	0	0	1	0	2	0	5	8	4	
3	2	9	8	2	0	2	1	2	2	2	5	8	4	
2	6	0	6	0	6	1	6	2	6	3	6	4	
4	2	9	8	6	2	0	2	1	6	5	6	3	6	4	
3	8	1	4	1	0	1	1	1	2	1	1	1	0	
3	10	1	4	1	0	1	1	1	2	1	5	1	4	
2	9	10	9	0	9	1	9	5	9	3	9	4	
5	6	8	9	2	3	6	0	6	1	6	5	6	3	6	4	
2	8	6	6	0	6	1	6	2	6	5	6	4	
2	8	10	8	0	8	1	10	5	10	3	10	4	
3	5	7	4	5	0	5	1	4	2	4	1	4	0	
3	10	1	7	7	0	7	1	7	5	7	3	7	4	
2	4	2	2	0	2	1	2	5	2	3	2	4	
3	9	2	4	9	0	9	1	9	2	9	3	9	4	
3	5	1	2	1	0	1	1	1	2	1	3	1	4	
3	4	1	3	1	0	1	1	1	2	1	3	1	4	
4	0	8	1	2	8	0	8	1	8	2	8	1	1	0	
4	9	10	1	5	10	0	10	1	10	2	10	5	1	4	
2	10	1	1	0	1	1	1	2	1	3	1	4	
2	7	5	7	0	7	1	7	2	7	1	7	0	
2	4	1	1	0	1	1	1	2	1	1	1	0	
2	10	9	9	0	9	1	9	2	9	1	9	0	
3	7	6	8	7	0	7	1	7	2	7	5	7	4	
4	5	1	10	9	1	0	1	1	9	5	9	3	9	4	
3	6	7	5	7	0	7	1	7	2	7	3	7	4	
3	2	1	8	1	0	1	1	1	2	1	3	1	4	
2	3	2	2	0	2	1	2	2	2	1	2	0	
3	9	8	0	8	0	8	1	8	2	8	1	8	0	
3	10	1	4	1	0	1	1	1	2	1	1	1	0	
4	5	1	10	9	10	0	10	1	10	2	10	1	10	0	
4	3	2	9	8	3	0	3	1	3	2	2	5	2	4	
6	0	8	9	2	1	5	0	0	0	1	0	2	0	5	2	4	
3	5	1	4	4	0	4	1	4	5	4	3	4	4	
2	8	9	9	0	9	1	9	2	9	3	9	4	
4	3	2	9	8	3	0	3	1	3	5	3	3	3	4	
3	7	4	2	7	0	7	1	2	2	2	3	2	4	
3	8	1	3	1	0	1	1	1	2	1	1	1	0	
3	6	7	4	7	0	7	1	7	2	7	3	7	4	
3	0	8	1	8	0	8	1	8	2	8	1	8	0	
5	7	1	8	9	10	7	0	7	1	7	2	9	3	9	4	
3	4	7	6	7	0	7	1	7	2	7	1	7	0	
2	4	2	2	0	2	1	2	2	2	3	2	4	
2	8	1	8	0	8	1	8	2	8	5	8	4	
2	5	1	1	0	1	1	1	2	1	3	1	4	
2	4	7	7	0	7	1	7	5	7	3	7	4	
3	9	2	3	9	0	9	1	9	5	9	3	9	4	
4	7	6	8	9	7	0	7	1	7	2	7	3	6	4	
2	1	10	10	0	10	1	10	5	10	3	10	4	
4	4	2	9	10	4	0	4	1	4	2	2	3	2	4	
2	7	6	7	0	7	1	7	2	7	1	7	0	
3	1	10	9	10	0	10	1	10	2	10	1	10	0	
4	2	9	8	0	2	0	2	1	0	5	0	3	0	4	
3	3	1	5	1	0	1	1	1	2	1	1	1	0	
5	5	1	2	9	10	2	0	10	1	10	2	10	3	10	4	
3	6	7	5	7	0	7	1	7	5	7	3	7	4	
2	1	4	4	0	4	1	4	2	4	5	4	4	
3	3	1	5	3	0	3	1	3	5	3	3	3	4	
3	7	6	0	7	0	7	1	7	5	7	3	7	4	
3	8	1	2	1	0	1	1	1	2	1	1	1	0	
3	3	1	4	1	0	1	1	1	2	1	3	1	4	
3	4	1	5	1	0	1	1	1	2	1	3	1	4	
3	10	1	3	1	0	1	1	1	2	1	1	1	0	
3	2	9	10	9	0	9	1	10	2	10	3	10	4	
2	5	7	7	0	7	1	7	5	7	3	7	4	
3	2	1	8	1	0	1	1	1	2	1	1	1	0	
4	6	8	1	5	8	0	8	1	1	2	1	1	1	0	
4	2	9	8	6	2	0	2	1	2	2	6	5	6	4	
2	9	8	9	0	9	1	9	2	9	1	9	0	
4	0	8	1	4	0	0	0	1	0	2	0	3	0	4	
2	4	7	7	0	7	1	7	2	7	1	7	0	
2	6	8	6	0	6	1	6	2	6	1	6	0	
3	2	1	5	1	0	1	1	1	2	1	1	1	0	
2	10	1	10	0	10	1	10	5	10	3	10	4	
3	0	6	7	7	0	7	1	7	5	7	3	7	4	
4	8	9	2	1	9	0	9	1	2	5	2	3	1	4	
3	5	7	4	5	0	5	1	5	2	7	3	4	4	
3	1	10	9	10	0	10	1	10	2	10	3	10	4	
3	9	2	4	9	0	9	1	9	5	9	3	9	4	
3	10	1	2	1	0	1	1	1	2	1	1	1	0	
3	5	1	10	1	0	1	1	1	2	1	1	1	0	
2	10	9	9	0	9	1	9	2	9	5	9	4	
2	3	1	1	0	1	1	1	2	1	3	1	4	
3	1	7	6	1	0	1	1	1	2	1	3	7	4	
3	9	8	6	8	0	8	1	8	2	8	1	8	0	
2	2	4	2	0	2	1	2	2	2	3	2	4	
2	9	2	9	0	9	1	9	2	9	1	9	0	
3	1	8	0	1	0	8	1	8	2	8	1	8	0	
3	0	8	10	0	0	0	1	0	5	0	3	0	4	
4	4	2	9	8	4	0	4	1	4	2	4	5	4	4	
3	10	1	4	4	0	4	1	4	5	4	3	4	4	
3	6	7	4	7	0	7	1	7	2	7	5	7	4	
4	8	9	2	3	9	0	9	1	9	2	9	5	9	4	
3	5	1	3	1	0	1	1	1	2	1	3	1	4	
3	5	1	2	2	0	2	1	2	5	2	3	2	4	
3	10	1	2	2	0	2	1	2	5	2	3	2	4	
2	6	8	6	0	6	1	6	5	6	3	6	4	
4	5	1	8	9	5	0	5	1	9	2	9	5	9	4	
2	7	6	7	0	7	1	7	5	7	3	7	4	
3	9	8	0	9	0	9	1	9	2	9	5	8	4	
4	0	8	1	4	8	0	1	1	4	5	4	3	4	4	
2	8	0	8	0	8	1	8	2	8	3	8	4	
3	9	10	1	10	0	10	1	10	2	10	1	1	0	
3	4	2	9	4	0	4	1	9	5	9	3	9	4	
2	8	0	8	0	8	1	8	2	8	1	8	0	
3	1	8	6	1	0	1	1	1	2	1	5	1	4	
2	7	4	7	0	7	1	7	2	7	5	7	4	
2	9	8	9	0	9	1	9	2	9	3	9	4	
2	6	7	7	0	7	1	7	2	7	1	7	0	
2	2	4	2	0	2	1	2	2	2	5	2	4	
4	3	1	8	6	1	0	1	1	1	2	1	3	1	4	
3	7	1	3	1	0	1	1	1	2	1	3	1	4	
2	10	8	10	0	8	1	8	2	8	1	8	0	
3	10	8	0	10	0	10	1	10	2	10	5	10	4	
4	7	6	8	9	6	0	6	1	6	2	6	1	6	0	
3	4	1	5	1	0	1	1	1	2	1	1	1	0	
2	6	7	7	0	7	1	7	2	7	5	7	4	
3	2	1	7	1	0	1	1	1	2	1	1	1	0	
2	0	6	6	0	6	1	6	2	6	3	6	4	
3	10	1	3	3	0	3	1	3	5	3	3	3	4	
3	4	7	6	7	0	7	1	7	5	7	3	7	4	
4	1	2	9	8	1	0	1	1	2	5	2	3	2	4	
4	0	6	8	9	0	0	0	1	0	5	0	3	6	4	
4	8	9	2	3	9	0	9	1	3	5	3	3	3	4	
3	6	8	10	6	0	6	1	6	5	6	3	6	4	
2	0	6	6	0	6	1	6	2	6	1	6	0	
2	8	9	9	0	9	1	9	2	9	1	9	0	
4	6	8	1	2	1	0	1	1	1	2	1	1	1	0	
2	7	1	7	0	7	1	7	5	7	3	7	4	
2	2	9	9	0	9	1	9	2	9	5	9	4	
3	6	8	1	1	0	1	1	1	2	1	3	1	4	
4	3	1	8	6	1	0	1	1	1	2	1	1	1	0	
3	9	2	4	9	0	9	1	9	2	9	1	9	0	
2	10	8	10	0	10	1	10	2	10	3	10	4	
3	3	2	9	2	0	2	1	2	2	2	1	2	0	
3	2	1	7	7	0	7	1	7	5	7	3	7	4	
3	7	1	3	1	0	1	1	1	2	1	5	1	4	
2	9	2	9	0	9	1	9	2	9	5	9	4	
2	2	9	9	0	9	1	9	2	9	3	9	4	
3	8	6	7	6	0	6	1	6	2	6	1	6	0	
4	5	1	8	0	8	0	0	1	0	5	0	3	0	4	
3	0	6	7	7	0	7	1	7	2	7	3	7	4	
2	2	4	2	0	2	1	2	2	2	1	2	0	
2	0	6	6	0	6	1	6	5	6	3	6	4	
3	9	8	1	9	0	9	1	9	2	9	3	9	4	
4	0	8	1	5	8	0	8	1	8	2	8	1	1	0	
2	1	10	1	0	1	1	1	2	1	1	1	0	
3	6	8	9	6	0	6	1	6	2	9	5	9	4	
4	5	1	8	0	1	0	1	1	1	2	1	1	8	0	
2	1	8	1	0	1	1	1	2	1	3	1	4	
5	0	6	8	9	2	0	0	0	1	2	5	2	3	2	4	
2	7	4	7	0	7	1	7	5	7	3	7	4	
2	10	1	1	0	1	1	1	2	1	1	1	0	
4	9	8	1	7	9	0	7	1	7	5	7	3	7	4	
4	0	8	1	3	0	0	0	1	0	2	0	5	8	4	
4	3	1	8	0	1	0	1	1	1	2	0	3	0	4	
4	6	8	9	2	6	0	6	1	6	2	6	3	6	4	
2	7	5	7	0	7	1	7	2	7	3	7	4	
3	6	8	1	1	0	1	1	1	2	1	1	1	0	
2	0	8	0	0	0	1	0	2	0	5	0	4	
5	6	8	9	2	1	6	0	6	1	6	5	6	3	6	4	
3	1	8	0	1	0	1	1	1	2	1	5	0	4	
2	1	5	1	0	1	1	1	2	1	3	1	4	
3	3	2	9	3	0	3	1	9	5	9	3	9	4	
2	9	8	9	0	9	1	9	5	9	3	9	4	
4	5	1	8	6	8	0	8	1	8	2	8	1	8	0	
2	4	1	1	0	1	1	1	2	1	3	1	4	
2	8	9	9	0	9	1	9	2	9	5	9	4	
3	5	1	3	3	0	3	1	3	5	3	3	3	4	
3	1	7	6	1	0	1	1	6	5	6	3	6	4	
2	1	5	1	0	1	1	1	2	1	1	1	0	
5	8	9	2	1	5	9	0	5	1	5	5	5	3	5	4	
4	5	1	8	0	5	0	5	1	8	2	0	3	0	4	
2	3	1	1	0	1	1	1	2	1	5	1	4	
3	7	1	10	7	0	7	1	7	5	7	3	7	4	
2	3	2	2	0	2	1	2	5	2	3	2	4	
2	6	7	7	0	7	1	7	2	7	3	7	4	
3	7	1	8	1	0	1	1	1	2	1	3	1	4	
4	3	1	8	0	1	0	1	1	1	2	1	1	8	0	
3	0	8	9	0	0	0	1	0	2	0	3	9	4	
3	2	9	10	2	0	2	1	2	2	2	5	9	4	
4	2	1	8	0	1	0	1	1	1	2	1	3	1	4	
4	8	9	2	3	2	0	2	1	2	2	3	3	3	4	
3	6	7	4	7	0	7	1	7	5	7	3	7	4	
2	2	1	1	0	1	1	1	2	1	1	1	0	
3	4	1	8	4	0	4	1	4	5	4	3	4	4	
4	4	2	9	8	4	0	4	1	4	2	2	3	9	4	
3	4	1	10	1	0	1	1	1	2	1	1	1	0	
3	10	8	6	10	0	10	1	10	2	10	5	6	4	
3	4	1	10	4	0	4	1	4	5	4	3	4	4	
3	10	8	6	10	0	8	1	8	2	8	1	8	0	
3	10	1	5	1	0	1	1	1	2	1	5	1	4	
2	1	2	1	0	1	1	1	2	1	3	1	4	
2	6	0	6	0	6	1	6	2	6	5	6	4	
3	8	1	7	8	0	8	1	8	2	8	5	1	4	
3	6	7	4	7	0	7	1	7	2	7	1	7	0	
3	8	1	5	1	0	1	1	1	2	1	1	1	0	
2	9	10	9	0	9	1	9	2	9	1	9	0	
3	2	1	7	1	0	1	1	1	2	1	5	1	4	
3	7	1	10	1	0	1	1	1	2	1	1	1	0	
2	2	9	9	0	9	1	9	5	9	3	9	4	
3	6	8	10	6	0	6	1	6	2	6	3	10	4	
3	9	2	4	9	0	9	1	9	2	9	5	9	4	
3	9	2	1	9	0	9	1	9	5	2	3	2	4	
3	0	8	9	0	0	0	1	0	2	0	5	0	4	
2	6	8	6	0	6	1	6	2	6	3	6	4	
3	10	8	0	10	0	10	1	0	5	0	3	0	4	
4	4	1	8	0	1	0	1	1	1	2	1	1	8	0	
2	8	0	8	0	8	1	8	5	8	3	8	4	
2	0	8	0	0	0	1	0	5	0	3	0	4	
4	7	6	8	9	7	0	7	1	7	2	6	5	6	4	
3	3	1	7	7	0	7	1	7	5	7	3	7	4	
3	10	8	6	10	0	10	1	10	2	10	3	8	4	
3	7	6	0	7	0	7	1	7	2	7	1	7	0	
4	6	8	1	3	1	0	1	1	1	2	1	1	1	0	
3	8	1	4	1	0	1	1	1	2	1	3	1	4	
2	3	2	2	0	2	1	2	2	2	3	2	4	
2	1	7	1	0	1	1	1	2	1	3	1	4	
4	9	10	1	5	10	0	10	1	10	2	10	1	1	0	
2	10	9	9	0	9	1	9	2	9	3	9	4	
3	10	1	7	1	0	1	1	1	2	1	1	1	0	
2	1	2	2	0	2	1	2	2	2	5	2	4	
3	4	2	9	2	0	2	1	2	2	2	1	2	0	
5	6	8	9	2	3	6	0	6	1	6	2	6	5	9	4	
4	3	2	9	10	9	0	10	1	10	2	10	3	10	4	
3	7	6	0	7	0	7	1	7	2	7	5	7	4	
2	5	1	5	0	5	1	5	5	5	3	5	4	
4	0	8	1	2	0	0	0	1	0	2	0	3	8	4	
3	4	2	9	4	0	4	1	4	2	4	5	4	4	
2	1	4	4	0	4	1	4	5	4	3	4	4	
2	1	7	1	0	1	1	1	2	1	1	1	0	
3	4	1	5	1	0	1	1	1	2	1	5	1	4	
4	2	1	8	0	2	0	2	1	2	2	2	5	2	4	
2	1	10	10	0	10	1	10	2	10	5	10	4	
3	0	8	10	0	0	0	1	0	2	0	3	0	4	
4	1	8	9	10	1	0	1	1	1	2	1	3	9	4	
2	9	2	9	0	9	1	9	5	9	3	9	4	
2	7	5	7	0	7	1	7	5	7	3	7	4	
2	8	1	1	0	1	1	1	2	1	3	1	4	
2	2	3	2	0	2	1	2	2	2	1	2	0	
4	3	1	8	0	8	0	0	1	0	5	0	3	0	4	
2	2	3	2	0	2	1	2	5	2	3	2	4	
3	0	8	9	0	0	9	1	9	2	9	1	9	0	
3	10	1	7	7	0	7	1	7	2	7	5	7	4	
2	1	7	7	0	7	1	7	2	7	5	7	4	
3	1	2	4	1	0	1	1	1	2	1	3	1	4	
3	5	7	4	7	0	7	1	7	2	7	5	7	4	
4	5	1	2	9	2	0	2	1	2	2	2	3	9	4	
3	2	1	5	2	0	2	1	2	2	2	5	2	4	
4	0	8	1	3	0	0	0	1	0	2	0	3	3	4	
3	3	1	7	1	0	1	1	1	2	1	3	1	4	
4	6	8	9	2	6	0	6	1	2	2	2	5	2	4	
3	1	8	6	1	0	1	1	1	2	1	1	1	0	
4	9	8	1	5	8	0	8	1	1	2	5	3	5	4	
2	5	1	1	0	1	1	1	2	1	1	1	0	
4	3	1	8	0	3	0	3	1	3	2	3	5	0	4	
3	1	10	9	1	0	1	1	9	5	9	3	9	4	
3	8	9	2	9	0	9	1	9	5	9	3	9	4	
3	6	8	10	6	0	6	1	6	2	6	5	6	4	
3	0	6	7	7	0	7	1	7	2	7	5	7	4	
2	4	2	2	0	2	1	2	2	2	5	2	4	
3	9	2	3	9	0	9	1	9	2	9	1	9	0	
3	0	8	10	8	0	10	1	10	2	10	1	10	0	
4	2	1	8	0	8	0	8	1	8	2	8	1	8	0	
4	10	1	7	4	1	0	1	1	1	2	1	3	1	4	
3	8	9	2	9	0	9	1	9	2	9	3	9	4	
2	7	6	7	0	7	1	7	2	7	5	7	4	
3	2	1	5	1	0	1	1	1	2	1	3	1	4	
3	10	1	5	1	0	1	1	1	2	1	1	1	0	
2	9	10	10	0	10	1	10	2	10	5	10	4	
3	5	1	3	3	0	3	1	3	2	3	5	3	4	
3	3	1	10	1	0	1	1	1	2	1	1	1	0	
2	8	10	10	0	10	1	10	2	10	3	10	4	
2	7	1	1	0	1	1	1	2	1	3	1	4	
2	10	9	9	0	9	1	9	5	9	3	9	4	
2	9	10	9	0	9	1	9	2	9	3	9	4	
2	1	2	2	0	2	1	2	5	2	3	2	4	
3	2	1	8	2	0	2	1	2	5	2	3	2	4	
4	6	8	1	5	6	0	6	1	6	2	6	5	6	4	
3	7	1	8	7	0	7	1	7	5	1	3	1	4	
3	5	1	2	1	0	1	1	1	2	1	1	1	0	
5	8	9	2	1	5	5	0	5	1	5	2	5	5	5	4	
2	9	2	9	0	9	1	9	2	9	3	9	4	
3	3	2	9	2	0	9	1	9	2	9	3	9	4	
2	8	0	0	0	0	1	0	2	0	5	0	4	
4	0	8	1	4	8	0	8	1	8	2	8	1	1	0	
4	5	1	8	0	5	0	5	1	5	2	5	5	5	4	
