42	13
48	13
43	13
49	13
24	13
25	13
26	13
27	13
20	13
21	13
22	13
23	13
46	13
47	13
44	13
45	13
28	13
29	13
40	13
41	13
1	13
0	13
3	13
2	13
5	13
4	13
7	13
6	13
9	13
8	13
39	13
38	13
11	13
10	13
13	13
12	13
15	13
14	13
17	13
16	13
19	13
18	13
31	13
30	13
37	13
36	13
35	13
34	13
33	13
32	13
