7	3	0.0204081632653061	0	1	5	3	4
6	9	0.0303030303030303	0	1	2	5	4
11	11	0.0377358490566038	0	1	2	1	0
7	12	0.0612244897959184	0	1	2	3	4
14	4	0.0196078431372549	0	1	5	3	4
13	4	0.0384615384615385	0	1	2	5	4
12	12	0.0555555555555556	0	1	2	1	0
0	7	0.0298507462686567	0	1	5	3	4
15	1	0.0500000000000000	0	1	2	1	0
1	6	0.0285714285714286	0	1	5	3	4
0	10	0.0447761194029851	0	1	2	1	0
3	7	0.0163934426229508	0	1	2	1	0
2	5	0.0188679245283019	0	1	2	5	4
1	11	0.0285714285714286	0	1	5	3	4
5	8	0.0285714285714286	0	1	5	3	4
4	0	0.0129870129870130	0	1	5	3	4
10	8	0.0294117647058824	0	1	2	3	4
9	0	0.0500000000000000	0	1	2	3	4
6	7	0.0303030303030303	0	1	2	3	4
11	5	0.0188679245283019	0	1	5	3	4
10	7	0.0294117647058824	0	1	5	3	4
7	6	0.0204081632653061	0	1	2	5	4
6	10	0.0303030303030303	0	1	5	3	4
12	6	0.0555555555555556	0	1	2	5	4
15	11	0.0500000000000000	0	1	5	3	4
14	1	0.0196078431372549	0	1	2	1	0
0	4	0.0149253731343284	0	1	2	3	4
15	4	0.0500000000000000	0	1	5	3	4
1	1	0.0285714285714286	0	1	2	5	4
8	15	0.142857142857143	0	1	2	5	4
4	10	0.0129870129870130	0	1	2	5	4
3	2	0.0163934426229508	0	1	2	5	4
2	6	0.0188679245283019	0	1	5	3	4
9	14	0.0250000000000000	0	1	2	3	4
5	11	0.0571428571428571	0	1	2	3	4
4	5	0.0129870129870130	0	1	2	1	0
10	13	0.0294117647058824	0	1	2	5	4
9	3	0.0500000000000000	0	1	2	5	4
6	0	0.0303030303030303	0	1	2	1	0
11	0	0.0188679245283019	0	1	2	3	4
7	5	0.0408163265306122	0	1	2	5	4
14	15	0.0196078431372549	0	1	5	3	4
15	14	0.0500000000000000	0	1	2	5	4
14	2	0.0196078431372549	0	1	5	3	4
13	10	0.0384615384615385	0	1	2	1	0
0	1	0.0298507462686567	0	1	2	3	4
3	12	0.0163934426229508	0	1	2	3	4
1	12	0.0285714285714286	0	1	5	3	4
8	12	0.0714285714285714	0	1	5	3	4
4	15	0.0129870129870130	0	1	2	3	4
3	1	0.0163934426229508	0	1	2	3	4
2	11	0.0188679245283019	0	1	2	3	4
9	9	0.0250000000000000	0	1	2	3	4
5	14	0.0285714285714286	0	1	5	3	4
6	13	0.0303030303030303	0	1	2	1	0
11	15	0.0188679245283019	0	1	2	3	4
7	8	0.0204081632653061	0	1	2	3	4
14	8	0.0196078431372549	0	1	2	1	0
13	0	0.0384615384615385	0	1	5	3	4
12	8	0.0555555555555556	0	1	2	5	4
15	13	0.0500000000000000	0	1	2	1	0
0	14	0.0298507462686567	0	1	2	3	4
3	11	0.0163934426229508	0	1	2	1	0
2	1	0.0188679245283019	0	1	2	5	4
1	15	0.0285714285714286	0	1	5	3	4
8	9	0.0714285714285714	0	1	2	1	0
4	12	0.0259740259740260	0	1	2	5	4
2	12	0.0188679245283019	0	1	2	5	4
9	4	0.0500000000000000	0	1	5	3	4
5	1	0.0285714285714286	0	1	2	3	4
7	2	0.0408163265306122	0	1	2	3	4
12	2	0.0555555555555556	0	1	2	3	4
11	10	0.0188679245283019	0	1	2	1	0
7	15	0.0204081632653061	0	1	5	3	4
14	5	0.0196078431372549	0	1	2	1	0
13	3	0.0384615384615385	0	1	5	3	4
12	13	0.0555555555555556	0	1	2	5	4
15	0	0.0500000000000000	0	1	2	1	0
0	11	0.0149253731343284	0	1	2	1	0
3	6	0.0163934426229508	0	1	2	5	4
2	2	0.0188679245283019	0	1	2	3	4
1	10	0.0571428571428571	0	1	2	5	4
8	6	0.0714285714285714	0	1	2	5	4
4	1	0.0649350649350649	0	1	2	1	0
10	9	0.0294117647058824	0	1	2	5	4
9	7	0.0250000000000000	0	1	2	5	4
5	4	0.0571428571428571	0	1	2	3	4
11	4	0.0188679245283019	0	1	2	1	0
10	4	0.0294117647058824	0	1	5	3	4
7	1	0.0204081632653061	0	1	2	3	4
6	11	0.0303030303030303	0	1	2	5	4
12	7	0.0555555555555556	0	1	2	3	4
11	9	0.0188679245283019	0	1	2	1	0
14	6	0.0196078431372549	0	1	2	5	4
13	6	0.0384615384615385	0	1	2	1	0
0	5	0.0149253731343284	0	1	2	1	0
15	7	0.0500000000000000	0	1	2	1	0
1	0	0.0285714285714286	0	1	2	1	0
0	8	0.0149253731343284	0	1	2	1	0
4	11	0.0259740259740260	0	1	2	3	4
3	5	0.0163934426229508	0	1	2	3	4
2	7	0.0188679245283019	0	1	5	3	4
9	13	0.0250000000000000	0	1	5	3	4
8	3	0.0714285714285714	0	1	2	1	0
4	6	0.0129870129870130	0	1	2	3	4
10	10	0.0294117647058824	0	1	5	3	4
9	2	0.0250000000000000	0	1	2	5	4
6	1	0.0303030303030303	0	1	2	1	0
5	7	0.0285714285714286	0	1	2	1	0
11	3	0.0188679245283019	0	1	2	1	0
7	4	0.0408163265306122	0	1	2	3	4
14	12	0.0392156862745098	0	1	2	1	0
12	4	0.0555555555555556	0	1	2	3	4
15	9	0.0500000000000000	0	1	2	1	0
14	3	0.0196078431372549	0	1	2	3	4
13	9	0.0769230769230769	0	1	2	1	0
0	2	0.0149253731343284	0	1	2	5	4
3	15	0.0327868852459016	0	1	5	3	4
1	3	0.0571428571428571	0	1	2	5	4
8	13	0.0714285714285714	0	1	2	3	4
4	8	0.0389610389610390	0	1	2	5	4
3	0	0.0163934426229508	0	1	2	3	4
2	8	0.0188679245283019	0	1	2	3	4
9	8	0.0500000000000000	0	1	5	3	4
5	13	0.0285714285714286	0	1	2	1	0
10	15	0.0294117647058824	0	1	2	1	0
6	2	0.0303030303030303	0	1	2	1	0
11	14	0.0188679245283019	0	1	2	1	0
7	11	0.0204081632653061	0	1	2	5	4
14	9	0.0392156862745098	0	1	5	3	4
15	12	0.0500000000000000	0	1	2	1	0
13	12	0.0384615384615385	0	1	5	3	4
0	15	0.0149253731343284	0	1	2	1	0
3	10	0.0163934426229508	0	1	5	3	4
1	14	0.0285714285714286	0	1	2	3	4
4	13	0.0129870129870130	0	1	2	5	4
2	13	0.0377358490566038	0	1	2	3	4
9	11	0.0250000000000000	0	1	2	3	4
5	0	0.0285714285714286	0	1	2	5	4
10	0	0.0588235294117647	0	1	5	3	4
6	15	0.0606060606060606	0	1	5	3	4
12	3	0.0555555555555556	0	1	2	3	4
11	13	0.0377358490566038	0	1	2	1	0
14	10	0.0196078431372549	0	1	2	1	0
13	2	0.0384615384615385	0	1	2	1	0
12	14	0.0555555555555556	0	1	2	3	4
15	3	0.100000000000000	0	1	2	5	4
13	15	0.0384615384615385	0	1	2	3	4
1	4	0.0285714285714286	0	1	2	5	4
0	12	0.0149253731343284	0	1	2	5	4
3	9	0.0163934426229508	0	1	2	3	4
2	3	0.0566037735849057	0	1	2	3	4
1	9	0.0285714285714286	0	1	2	5	4
8	7	0.0714285714285714	0	1	2	1	0
4	2	0.0129870129870130	0	1	5	3	4
2	14	0.0188679245283019	0	1	5	3	4
6	5	0.0606060606060606	0	1	2	1	0
5	3	0.0285714285714286	0	1	2	3	4
11	7	0.0188679245283019	0	1	2	5	4
10	5	0.0294117647058824	0	1	5	3	4
7	0	0.0612244897959184	0	1	2	5	4
6	8	0.0303030303030303	0	1	2	5	4
12	0	0.111111111111111	0	1	2	5	4
11	8	0.0188679245283019	0	1	2	5	4
7	13	0.0204081632653061	0	1	2	3	4
14	7	0.0392156862745098	0	1	5	3	4
13	5	0.0384615384615385	0	1	2	1	0
0	6	0.0149253731343284	0	1	2	1	0
15	6	0.0500000000000000	0	1	5	3	4
1	7	0.0285714285714286	0	1	2	3	4
0	9	0.0149253731343284	0	1	5	3	4
3	4	0.0163934426229508	0	1	5	3	4
9	12	0.0500000000000000	0	1	2	1	0
8	4	0.0714285714285714	0	1	5	3	4
5	9	0.0285714285714286	0	1	2	1	0
4	7	0.0129870129870130	0	1	2	1	0
10	11	0.0294117647058824	0	1	2	5	4
9	1	0.0250000000000000	0	1	2	3	4
6	6	0.0303030303030303	0	1	2	1	0
5	6	0.0285714285714286	0	1	2	3	4
11	2	0.0188679245283019	0	1	2	5	4
10	6	0.0588235294117647	0	1	2	3	4
7	7	0.0204081632653061	0	1	5	3	4
14	13	0.0196078431372549	0	1	2	1	0
12	5	0.0555555555555556	0	1	5	3	4
15	8	0.0500000000000000	0	1	2	5	4
14	0	0.0196078431372549	0	1	5	3	4
0	3	0.0149253731343284	0	1	5	3	4
15	5	0.0500000000000000	0	1	2	5	4
3	14	0.0327868852459016	0	1	5	3	4
1	2	0.0285714285714286	0	1	2	3	4
8	14	0.0714285714285714	0	1	2	3	4
4	9	0.0129870129870130	0	1	2	1	0
3	3	0.0163934426229508	0	1	2	3	4
2	9	0.0188679245283019	0	1	2	3	4
8	1	0.0714285714285714	0	1	2	5	4
5	12	0.0571428571428571	0	1	2	1	0
4	4	0.0129870129870130	0	1	2	1	0
10	12	0.0294117647058824	0	1	5	3	4
6	3	0.0606060606060606	0	1	2	5	4
11	1	0.0188679245283019	0	1	2	3	4
7	10	0.0204081632653061	0	1	2	1	0
14	14	0.0196078431372549	0	1	2	5	4
12	10	0.0555555555555556	0	1	2	5	4
13	11	0.0384615384615385	0	1	2	1	0
0	0	0.0298507462686567	0	1	2	3	4
3	13	0.0163934426229508	0	1	2	3	4
1	13	0.0285714285714286	0	1	5	3	4
4	14	0.0129870129870130	0	1	2	3	4
2	10	0.0188679245283019	0	1	2	5	4
9	10	0.0250000000000000	0	1	2	3	4
5	15	0.0571428571428571	0	1	2	1	0
10	1	0.0294117647058824	0	1	5	3	4
6	12	0.0303030303030303	0	1	2	3	4
11	12	0.0188679245283019	0	1	5	3	4
7	9	0.0408163265306122	0	1	5	3	4
14	11	0.0588235294117647	0	1	5	3	4
15	2	0.0500000000000000	0	1	2	1	0
13	14	0.0384615384615385	0	1	2	3	4
0	13	0.0149253731343284	0	1	2	1	0
3	8	0.0163934426229508	0	1	5	3	4
2	0	0.0188679245283019	0	1	5	3	4
1	8	0.0285714285714286	0	1	2	5	4
4	3	0.0129870129870130	0	1	2	3	4
2	15	0.0188679245283019	0	1	2	1	0
9	5	0.0250000000000000	0	1	5	3	4
5	2	0.0571428571428571	0	1	2	3	4
11	6	0.0188679245283019	0	1	2	5	4
10	2	0.0588235294117647	0	1	5	3	4
