15	15	15
0	5	128.676
0	6	139.745
0	7	148.047
1	2	138.362
1	4	134.211
1	5	132.827
2	4	130.06
2	7	152.198
3	4	134.211
3	5	161.883
5	12	142.512
6	9	141.129
6	13	139.745
7	8	134.211
7	14	130.06
8	9	135.594
8	11	143.896
8	14	136.978
9	11	157.732
10	12	139.745
10	13	124.525
12	13	141.129
