15	15	15
0	5	103.441
0	6	109.906
0	7	126.068
1	2	122.836
1	4	119.603
1	5	106.673
2	4	106.673
2	7	104.518
3	4	102.363
3	5	117.448
5	12	117.448
6	9	126.068
6	13	124.991
7	8	114.216
7	14	101.286
8	9	102.363
8	11	121.758
8	14	127.146
9	11	126.068
10	12	107.751
10	13	121.758
12	13	105.596
