15	15	15
0	5	156.164
0	6	149.547
0	7	119.108
1	2	141.606
1	4	127.049
1	5	141.606
2	4	133.666
2	7	152.194
3	4	136.313
3	5	144.253
5	12	150.87
6	9	150.87
6	13	145.577
7	8	154.841
7	14	142.93
8	9	142.93
8	11	133.666
8	14	148.223
9	11	123.078
10	12	140.283
10	13	128.372
12	13	149.547
