15	15	15
0	5	88.1846
0	6	105.822
0	7	103.862
1	2	89.1644
1	4	99.9426
1	5	92.1039
2	4	95.0434
2	7	93.0838
3	4	116.6
3	5	92.1039
5	12	112.68
6	9	98.9627
6	13	104.842
7	8	114.64
7	14	116.6
8	9	107.781
8	11	97.9829
8	14	100.922
9	11	111.701
10	12	101.902
10	13	95.0434
12	13	110.721
