15	15	15
0	5	114.557
0	6	99.6148
0	7	101.607
1	2	98.6187
1	4	97.6225
1	5	98.6187
2	4	100.611
2	7	104.596
3	4	112.565
3	5	118.542
5	12	111.569
6	9	114.557
6	13	112.565
7	8	112.565
7	14	98.6187
8	9	111.569
8	11	118.542
8	14	101.607
9	11	96.6264
10	12	98.6187
10	13	105.592
12	13	110.572
