15	15	15
0	5	452.085
0	6	402.314
0	7	418.905
1	2	427.2
1	4	443.79
1	5	377.429
2	4	410.609
2	7	402.314
3	4	485.266
3	5	381.576
5	12	456.233
6	9	418.905
6	13	431.347
7	8	389.872
7	14	481.118
8	9	418.905
8	11	431.347
8	14	493.561
9	11	443.79
10	12	460.38
10	13	476.971
12	13	427.2
