15	15	15
0	5	91.7367
0	6	115.931
0	7	115.931
1	2	116.939
1	4	93.7529
1	5	97.7853
2	4	97.7853
2	7	90.7286
3	4	112.907
3	5	112.907
5	12	119.963
6	9	98.7934
6	13	94.761
7	8	109.882
7	14	106.858
8	9	115.931
8	11	96.7772
8	14	109.882
9	11	119.963
10	12	114.923
10	13	107.866
12	13	103.834
