15	15	15
0	5	85.5926
0	6	104.613
0	7	91.2988
1	2	109.368
1	4	104.613
1	5	97.0049
2	4	97.956
2	7	109.368
3	4	90.3477
3	5	95.1029
5	12	91.2988
6	9	85.5926
6	13	87.4946
7	8	106.515
7	14	97.0049
8	9	94.1518
8	11	110.319
8	14	86.5436
9	11	97.0049
10	12	94.1518
10	13	88.4457
12	13	89.3967
