15	15	15
0	5	149.373
0	6	148.085
0	7	148.085
1	2	146.798
1	4	148.085
1	5	150.661
2	4	148.085
2	7	115.893
3	4	131.345
3	5	128.77
5	12	118.468
6	9	145.51
6	13	145.51
7	8	146.798
7	14	126.195
8	9	136.496
8	11	118.468
8	14	145.51
9	11	149.373
10	12	145.51
10	13	145.51
12	13	121.044
