15	15	15
0	5	120.244
0	6	105.087
0	7	118.223
1	2	90.941
1	4	99.0246
1	5	117.213
2	4	116.202
2	7	118.223
3	4	92.9619
3	5	105.087
5	12	100.035
6	9	92.9619
6	13	115.192
7	8	109.129
7	14	108.119
8	9	103.066
8	11	91.9514
8	14	105.087
9	11	95.9933
10	12	114.181
10	13	94.9828
12	13	113.171
