15	15	15
0	5	107.097
0	6	141.606
0	7	111.857
1	2	140.416
1	4	108.287
1	5	122.567
2	4	128.516
2	7	132.086
3	4	140.416
3	5	115.427
5	12	130.896
6	9	109.477
6	13	110.667
7	8	109.477
7	14	132.086
8	9	127.326
8	11	117.807
8	14	141.606
9	11	135.656
10	12	126.136
10	13	121.377
12	13	115.427
