15	15	15
0	5	145.611
0	6	126.909
0	7	126.909
1	2	133.588
1	4	132.252
1	5	156.298
2	4	138.932
2	7	122.901
3	4	152.291
3	5	149.619
5	12	137.596
6	9	141.604
6	13	144.275
7	8	150.955
7	14	152.291
8	9	142.94
8	11	120.23
8	14	125.573
9	11	144.275
10	12	150.955
10	13	141.604
12	13	134.924
