15	15	15
0	5	115.436
0	6	91.3448
0	7	119.451
1	2	119.451
1	4	114.432
1	5	106.402
2	4	117.443
2	7	91.3448
3	4	116.44
3	5	93.3524
5	12	114.432
6	9	93.3524
6	13	91.3448
7	8	101.383
7	14	102.386
8	9	95.3599
8	11	99.3751
8	14	114.432
9	11	91.3448
10	12	114.432
10	13	110.417
12	13	102.386
