15	15	15
0	5	118.859
0	6	93.6771
0	7	100.728
1	2	107.779
1	4	108.786
1	5	95.6917
2	4	119.866
2	7	111.808
3	4	117.852
3	5	106.772
5	12	109.794
6	9	96.699
6	13	113.823
7	8	102.743
7	14	99.7208
8	9	94.6844
8	11	91.6626
8	14	112.815
9	11	106.772
10	12	101.735
10	13	98.7136
12	13	101.735
