15	15	15
0	5	145.579
0	6	125.981
0	7	146.978
1	2	158.177
1	4	127.381
1	5	158.177
2	4	135.78
2	7	141.379
3	4	127.381
3	5	144.179
5	12	158.177
6	9	163.776
6	13	141.379
7	8	128.781
7	14	163.776
8	9	137.18
8	11	160.976
8	14	144.179
9	11	134.38
10	12	152.578
10	13	145.579
12	13	156.777
