15	15	15
0	5	116.34
0	6	122.686
0	7	95.1876
1	2	116.34
1	4	98.3605
1	5	117.398
2	4	119.513
2	7	102.591
3	4	96.2452
3	5	124.802
5	12	101.533
6	9	106.822
6	13	108.937
7	8	99.4182
7	14	123.744
8	9	96.2452
8	11	108.937
8	14	96.2452
9	11	99.4182
10	12	109.995
10	13	108.937
12	13	100.476
