15	15	15
0	5	120.481
0	6	103.27
0	7	114.027
1	2	115.103
1	4	97.8911
1	5	121.557
2	4	111.876
2	7	124.784
3	4	105.421
3	5	106.497
5	12	121.557
6	9	126.936
6	13	110.8
7	8	117.254
7	14	106.497
8	9	124.784
8	11	105.421
8	14	115.103
9	11	105.421
10	12	100.043
10	13	121.557
12	13	97.8911
