15	15	15
0	5	88.0725
0	6	109.133
0	7	95.7309
1	2	98.6029
1	4	88.0725
1	5	107.219
2	4	102.432
2	7	99.5602
3	4	108.176
3	5	96.6883
5	12	96.6883
6	9	94.7736
6	13	112.005
7	8	100.517
7	14	101.475
8	9	111.048
8	11	105.304
8	14	113.92
9	11	89.9871
10	12	102.432
10	13	107.219
12	13	102.432
