15	15	15
0	5	132.032
0	6	99.8561
0	7	109.842
1	2	124.265
1	4	124.265
1	5	105.404
2	4	102.075
2	7	122.046
3	4	105.404
3	5	112.061
5	12	115.389
6	9	132.032
6	13	130.922
7	8	122.046
7	14	110.951
8	9	122.046
8	11	100.966
8	14	129.813
9	11	125.375
10	12	118.718
10	13	109.842
12	13	132.032
