15	15	15
0	5	151.966
0	6	139.969
0	7	143.968
1	2	138.635
1	4	134.636
1	5	134.636
2	4	130.637
2	7	153.299
3	4	150.633
3	5	139.969
5	12	126.638
6	9	151.966
6	13	135.969
7	8	135.969
7	14	134.636
8	9	135.969
8	11	154.632
8	14	130.637
9	11	158.631
10	12	149.3
10	13	137.302
12	13	154.632
