15	15	15
0	5	100.667
0	6	113.497
0	7	106.589
1	2	116.458
1	4	106.589
1	5	96.7192
2	4	102.641
2	7	91.7845
3	4	108.562
3	5	97.7061
5	12	110.536
6	9	104.615
6	13	107.575
7	8	108.562
7	14	116.458
8	9	89.8107
8	11	115.471
8	14	115.471
9	11	113.497
10	12	96.7192
10	13	102.641
12	13	97.7061
