15	15	15
0	5	128.517
0	6	117.395
0	7	128.517
1	2	112.452
1	4	147.053
1	5	138.403
2	4	116.159
2	7	135.931
3	4	111.216
3	5	119.866
5	12	116.159
6	9	113.688
6	13	142.11
7	8	128.517
7	14	114.924
8	9	142.11
8	11	118.631
8	14	143.345
9	11	139.638
10	12	132.224
10	13	128.517
12	13	138.403
