15	15	15
0	5	641.093
0	6	710.23
0	7	703.945
1	2	685.089
1	4	710.23
1	5	647.378
2	4	615.952
2	7	597.096
3	4	729.086
3	5	647.378
5	12	571.955
6	9	641.093
6	13	647.378
7	8	703.945
7	14	571.955
8	9	571.955
8	11	609.667
8	14	634.808
9	11	628.522
10	12	597.096
10	13	609.667
12	13	590.811
