15	15	15
0	5	157.724
0	6	131.436
0	7	147.501
1	2	166.486
1	4	144.58
1	5	134.357
2	4	173.788
2	7	162.105
3	4	172.328
3	5	173.788
5	12	160.644
6	9	134.357
6	13	163.565
7	8	147.501
7	14	172.328
8	9	162.105
8	11	172.328
8	14	147.501
9	11	148.961
10	12	140.199
10	13	173.788
12	13	138.738
