15	15	15
0	5	98.7389
0	6	118.89
0	7	94.7087
1	2	106.799
1	4	105.792
1	5	119.897
2	4	98.7389
2	7	106.799
3	4	104.784
3	5	105.792
5	12	97.7313
6	9	107.807
6	13	91.6861
7	8	100.754
7	14	111.837
8	9	114.859
8	11	114.859
8	14	102.769
9	11	107.807
10	12	114.859
10	13	109.822
12	13	114.859
