15	15	15
0	5	96.3475
0	6	109.672
0	7	100.447
1	2	107.622
1	4	100.447
1	5	100.447
2	4	95.3225
2	7	105.572
3	4	108.647
3	5	116.847
5	12	117.872
6	9	108.647
6	13	99.4224
7	8	96.3475
7	14	105.572
8	9	101.472
8	11	102.497
8	14	102.497
9	11	121.972
10	12	113.772
10	13	99.4224
12	13	102.497
