15	15	15
0	5	108.221
0	6	98.9448
0	7	103.068
1	2	113.374
1	4	99.9755
1	5	108.221
2	4	107.19
2	7	107.19
3	4	121.62
3	5	114.405
5	12	96.8835
6	9	104.098
6	13	94.8221
7	8	121.62
7	14	101.006
8	9	113.374
8	11	93.7914
8	14	116.466
9	11	108.221
10	12	97.9141
10	13	117.497
12	13	104.098
