15	15	15
0	5	136.727
0	6	119.788
0	7	134.307
1	2	130.678
1	4	120.998
1	5	111.318
2	4	123.418
2	7	127.048
3	4	134.307
3	5	120.998
5	12	133.097
6	9	139.147
6	13	116.158
7	8	130.678
7	14	133.097
8	9	111.318
8	11	116.158
8	14	124.628
9	11	111.318
10	12	113.738
10	13	125.838
12	13	129.468
