15	15	15
0	5	119.234
0	6	116.202
0	7	115.192
1	2	116.202
1	4	108.119
1	5	98.0142
2	4	115.192
2	7	113.171
3	4	110.14
3	5	92.9619
5	12	119.234
6	9	92.9619
6	13	93.9724
7	8	97.0037
7	14	94.9828
8	9	119.234
8	11	110.14
8	14	99.0246
9	11	112.161
10	12	116.202
10	13	106.098
12	13	101.046
