15	15	15
0	5	96.4673
0	6	88.5924
0	7	98.436
1	2	114.186
1	4	108.28
1	5	110.248
2	4	91.5455
2	7	112.217
3	4	98.436
3	5	109.264
5	12	91.5455
6	9	110.248
6	13	103.358
7	8	88.5924
7	14	92.5298
8	9	103.358
8	11	101.389
8	14	106.311
9	11	102.373
10	12	117.139
10	13	96.4673
12	13	100.405
