15	15	15
0	5	106.014
0	6	93.7091
0	7	87.0832
1	2	98.4419
1	4	96.5488
1	5	102.228
2	4	109.801
2	7	94.6557
3	4	91.816
3	5	105.068
5	12	94.6557
6	9	89.9229
6	13	112.64
7	8	100.335
7	14	108.854
8	9	92.7626
8	11	98.4419
8	14	88.9764
9	11	90.8695
10	12	100.335
10	13	93.7091
12	13	101.282
