15	15	15
0	5	106.792
0	6	95.3498
0	7	106.792
1	2	100.117
1	4	106.792
1	5	112.513
2	4	95.3498
2	7	111.559
3	4	106.792
3	5	96.3033
5	12	110.606
6	9	95.3498
6	13	103.931
7	8	99.1638
7	14	100.117
8	9	100.117
8	11	91.5358
8	14	94.3963
9	11	102.978
10	12	98.2103
10	13	88.6753
12	13	112.513
