15	15	15
0	5	152.08
0	6	132.243
0	7	156.047
1	2	132.243
1	4	153.402
1	5	146.79
2	4	130.921
2	7	141.5
3	4	156.047
3	5	144.145
5	12	144.145
6	9	149.435
6	13	141.5
7	8	156.047
7	14	157.369
8	9	153.402
8	11	130.921
8	14	150.757
9	11	152.08
10	12	125.631
10	13	122.986
12	13	136.21
