15	15	15
0	5	100.407
0	6	119.634
0	7	110.021
1	2	102.543
1	4	98.2708
1	5	99.339
2	4	100.407
2	7	97.2027
3	4	121.77
3	5	105.748
5	12	127.111
6	9	112.157
6	13	97.2027
7	8	101.475
7	14	117.498
8	9	114.293
8	11	97.2027
8	14	108.952
9	11	116.43
10	12	98.2708
10	13	99.339
12	13	100.407
