15	15	15
0	5	108.142
0	6	101.001
0	7	108.142
1	2	113.243
1	4	117.324
1	5	92.8391
2	4	106.102
2	7	93.8593
3	4	110.183
3	5	107.122
5	12	102.021
6	9	102.021
6	13	101.001
7	8	97.9401
7	14	114.263
8	9	99.9806
8	11	107.122
8	14	118.344
9	11	99.9806
10	12	120.385
10	13	101.001
12	13	106.102
