15	15	15
0	5	98.0309
0	6	95.0602
0	7	110.904
1	2	114.864
1	4	100.011
1	5	111.894
2	4	97.0407
2	7	114.864
3	4	101.992
3	5	101.001
5	12	91.0994
6	9	101.992
6	13	95.0602
7	8	90.1092
7	14	105.953
8	9	95.0602
8	11	110.904
8	14	112.884
9	11	96.0504
10	12	100.011
10	13	90.1092
12	13	95.0602
