15	15	15
0	5	103.066
0	6	116.202
0	7	120.244
1	2	99.0246
1	4	111.15
1	5	116.202
2	4	103.066
2	7	120.244
3	4	111.15
3	5	114.181
5	12	94.9828
6	9	109.129
6	13	91.9514
7	8	117.213
7	14	101.046
8	9	97.0037
8	11	104.077
8	14	106.098
9	11	103.066
10	12	116.202
10	13	106.098
12	13	106.098
