15	15	15
0	5	137.588
0	6	114.068
0	7	137.588
1	2	123.476
1	4	139.94
1	5	118.772
2	4	138.764
2	7	108.189
3	4	109.365
3	5	112.892
5	12	118.772
6	9	137.588
6	13	115.244
7	8	121.124
7	14	125.828
8	9	125.828
8	11	115.244
8	14	121.124
9	11	107.013
10	12	108.189
10	13	137.588
12	13	132.884
