15	15	15
0	5	117.546
0	6	118.577
0	7	103.11
1	2	97.9546
1	4	121.67
1	5	104.141
2	4	102.079
2	7	100.017
3	4	114.452
3	5	95.8924
5	12	95.8924
6	9	112.39
6	13	100.017
7	8	108.266
7	14	110.328
8	9	114.452
8	11	111.359
8	14	104.141
9	11	107.235
10	12	101.048
10	13	114.452
12	13	109.297
