15	15	15
0	5	438.134
0	6	411.581
0	7	477.965
1	2	526.646
1	4	473.539
1	5	517.795
2	4	460.262
2	7	407.155
3	4	398.304
3	5	473.539
5	12	517.795
6	9	522.221
6	13	464.688
7	8	526.646
7	14	429.283
8	9	482.39
8	11	513.369
8	14	411.581
9	11	469.113
10	12	526.646
10	13	495.667
12	13	429.283
