15	15	15
0	5	107.108
0	6	95.9933
0	7	92.9619
1	2	113.171
1	4	97.0037
1	5	116.202
2	4	110.14
2	7	105.087
3	4	116.202
3	5	113.171
5	12	91.9514
6	9	106.098
6	13	91.9514
7	8	107.108
7	14	104.077
8	9	91.9514
8	11	98.0142
8	14	102.056
9	11	119.234
10	12	120.244
10	13	116.202
12	13	108.119
