15	15	15
0	5	88.5339
0	6	117.061
0	7	114.11
1	2	94.4361
1	4	90.5013
1	5	100.338
2	4	98.371
2	7	89.5176
3	4	105.257
3	5	97.3872
5	12	89.5176
6	9	113.127
6	13	97.3872
7	8	98.371
7	14	95.4198
8	9	109.192
8	11	117.061
8	14	111.159
9	11	95.4198
10	12	89.5176
10	13	105.257
12	13	98.371
