15	15	15
0	5	111.252
0	6	100.237
0	7	102.44
1	2	122.267
1	4	121.166
1	5	101.339
2	4	100.237
2	7	129.978
3	4	112.354
3	5	127.775
5	12	131.08
6	9	110.151
6	13	117.861
7	8	104.643
7	14	123.369
8	9	106.846
8	11	127.775
8	14	123.369
9	11	116.76
10	12	107.948
10	13	111.252
12	13	131.08
