15	15	15
0	5	659.949
0	6	634.808
0	7	710.23
1	2	685.089
1	4	622.237
1	5	634.808
2	4	735.371
2	7	691.375
3	4	666.234
3	5	735.371
5	12	578.241
6	9	628.522
6	13	741.657
7	8	641.093
7	14	703.945
8	9	703.945
8	11	747.942
8	14	716.516
9	11	703.945
10	12	729.086
10	13	678.804
12	13	647.378
