15	15	15
0	5	261.516
0	6	271.772
0	7	297.411
1	2	287.155
1	4	235.877
1	5	248.697
2	4	302.538
2	7	258.952
3	4	261.516
3	5	266.644
5	12	241.005
6	9	269.208
6	13	299.974
7	8	233.313
7	14	261.516
8	9	243.569
8	11	248.697
8	14	243.569
9	11	289.719
10	12	248.697
10	13	294.847
12	13	269.208
