0	-1
1	-1
2	2117
3	1881
4	2171
5	2971
6	-1
7	-1
8	1243
9	-1
10	2572
11	1648
12	-1
13	2697
14	3274
15	-1
16	2277
17	-1
18	2723
19	1758
20	-1
21	2923
22	3270
23	1916
24	2891
25	2731
26	-1
27	-1
28	3012
29	-1
30	-1
31	2329
32	2004
33	-1
34	-1
35	1533
36	-1
37	3166
38	-1
39	-1
40	-1
41	-1
42	-1
43	-1
44	2215
45	2874
46	-1
47	-1
48	-1
49	2398
