50	50	50
0	29	39.688208826617576
0	46	40.844197473628505
0	48	45.082738544581986
1	34	44.31203746253146
1	47	43.54139935654581
1	49	44.31203746253146
2	8	40.844197473628505
2	31	39.302858285592315
2	37	38.1469326146463
3	11	35.064317214638834
3	20	35.449667755664066
3	31	37.37629450866065
3	32	42.38547368559978
3	43	42.00012314457452
4	5	43.54139935654581
4	22	40.844197473628505
4	35	34.67902964967844
4	44	36.99094396763536
5	21	43.15611179158544
5	22	40.844197473628505
5	25	38.917570720631915
5	32	37.76158207362103
6	7	45.082738544581986
6	22	38.1469326146463
6	38	35.449667755664066
7	15	42.38547368559978
8	11	35.449667755664066
8	13	39.688208826617576
9	16	37.37629450866065
9	23	44.31203746253146
9	33	45.8533766505676
10	14	39.302858285592315
10	25	39.302858285592315
10	35	41.61483557961414
10	44	45.8533766505676
11	13	45.082738544581986
11	31	39.688208826617576
12	14	40.844197473628505
12	29	35.064317214638834
13	25	43.15611179158544
13	31	38.1469326146463
13	49	35.83495532062445
14	48	42.77076125056015
15	27	45.8533766505676
16	18	40.07349639157797
16	19	37.37629450866065
16	28	37.76158207362103
17	24	40.07349639157797
17	30	36.60559342661011
18	19	34.67902964967844
18	25	43.54139935654581
18	49	40.844197473628505
19	25	35.064317214638834
19	44	42.38547368559978
20	43	44.69738800355674
21	22	35.83495532062445
21	27	35.449667755664066
21	43	42.38547368559978
22	39	40.844197473628505
23	24	35.064317214638834
23	28	40.45884693260321
23	42	40.45884693260321
24	33	40.07349639157797
24	42	45.082738544581986
24	45	44.69738800355674
26	30	36.60559342661011
26	34	40.844197473628505
27	43	38.1469326146463
28	29	39.688208826617576
28	44	41.229485038588884
28	46	43.92674989757105
30	45	40.45884693260321
31	32	39.302858285592315
32	43	40.45884693260321
34	37	40.07349639157797
34	40	45.082738544581986
34	41	40.07349639157797
35	39	40.07349639157797
36	38	35.83495532062445
36	48	42.38547368559978
37	41	37.37629450866065
37	49	41.61483557961414
38	39	36.99094396763536
38	48	37.76158207362103
40	41	37.76158207362103
42	46	43.92674989757105
45	47	35.83495532062445
45	49	38.917570720631915
