50	50	50
0	29	39.75734852900719
0	46	40.91533075262562
0	48	45.161244998279706
1	34	44.38927742348109
1	47	43.617248125841336
1	49	44.38927742348109
2	8	40.91533075262562
2	31	39.37133388018728
2	37	38.21335165656877
3	11	35.12541963453322
3	20	35.51137256051192
3	31	37.441384081770195
3	32	42.459265902222846
3	43	42.07331297624414
4	5	43.617248125841336
4	22	40.91533075262562
4	35	34.739404985713314
4	44	37.05536943295028
5	21	43.231295199862615
5	22	40.91533075262562
5	25	38.98531923136736
5	32	37.82733700774891
6	7	45.161244998279706
6	22	38.21335165656877
6	38	35.51137256051192
7	15	42.459265902222846
8	11	35.51137256051192
8	13	39.75734852900719
9	16	37.441384081770195
9	23	44.38927742348109
9	33	45.9332125730783
10	14	39.37133388018728
10	25	39.37133388018728
10	35	41.68729832742424
10	44	45.9332125730783
11	13	45.161244998279706
11	31	39.75734852900719
12	14	40.91533075262562
12	29	35.12541963453322
13	25	43.231295199862615
13	31	38.21335165656877
13	49	35.89738720933181
14	48	42.845280551042705
15	27	45.9332125730783
16	18	40.143301454985846
16	19	37.441384081770195
16	28	37.82733700774891
17	24	40.143301454985846
17	30	36.6693547841304
18	19	34.739404985713314
18	25	43.617248125841336
18	49	40.91533075262562
19	25	35.12541963453322
19	44	42.459265902222846
20	43	44.77523034945978
21	22	35.89738720933181
21	27	35.51137256051192
21	43	42.459265902222846
22	39	40.91533075262562
23	24	35.12541963453322
23	28	40.52931610380576
23	42	40.52931610380576
24	33	40.143301454985846
24	42	45.161244998279706
24	45	44.77523034945978
26	30	36.6693547841304
26	34	40.91533075262562
27	43	38.21335165656877
28	29	39.75734852900719
28	44	41.30128367860435
28	46	44.0032627746612
30	45	40.52931610380576
31	32	39.37133388018728
32	43	40.52931610380576
34	37	40.143301454985846
34	40	45.161244998279706
34	41	40.143301454985846
35	39	40.143301454985846
36	38	35.89738720933181
36	48	42.459265902222846
37	41	37.441384081770195
37	49	41.68729832742424
38	39	37.05536943295028
38	48	37.82733700774891
40	41	37.82733700774891
42	46	44.0032627746612
45	47	35.89738720933181
45	49	38.98531923136736
