50	50	50
0	29	40.63724898451444
0	46	41.82086470408025
0	48	46.16076864061752
1	34	45.37165075716508
1	47	44.58259397932542
1	49	45.37165075716508
2	8	41.82086470408025
2	31	40.24269004278818
2	37	39.05907432322233
3	11	35.90278610625094
3	20	36.29734504797716
3	31	38.27001754538269
3	32	43.39897825975957
3	43	43.00448042364613
4	5	44.58259397932542
4	22	41.82086470408025
4	35	35.50828827013753
4	44	37.87545860365647
5	21	44.1880350375992
5	22	41.82086470408025
5	25	39.84819220667474
5	32	38.664576487108896
6	7	46.16076864061752
6	22	39.05907432322233
6	38	36.29734504797716
7	15	43.39897825975957
8	11	36.29734504797716
8	13	40.63724898451444
9	16	38.27001754538269
9	23	45.37165075716508
9	33	46.94982541845717
10	14	40.24269004278818
10	25	40.24269004278818
10	35	42.60992148191989
10	44	46.94982541845717
11	13	46.16076864061752
11	31	40.63724898451444
12	14	41.82086470408025
12	29	35.90278610625094
13	25	44.1880350375992
13	31	39.05907432322233
13	49	36.69190398970339
14	48	43.79353720148579
15	27	46.94982541845717
16	18	41.03174682062785
16	19	38.27001754538269
16	28	38.664576487108896
17	24	41.03174682062785
17	30	37.480960767543024
18	19	35.50828827013753
18	25	44.58259397932542
18	49	41.82086470408025
19	25	35.90278610625094
19	44	43.39897825975957
20	43	45.7662096988913
21	22	36.69190398970339
21	27	36.29734504797716
21	43	43.39897825975957
22	39	41.82086470408025
23	24	35.90278610625094
23	28	41.42630576235403
23	42	41.42630576235403
24	33	41.03174682062785
24	42	46.16076864061752
24	45	45.7662096988913
26	30	37.480960767543024
26	34	41.82086470408025
27	43	39.05907432322233
28	29	40.63724898451444
28	44	42.2153625401937
28	46	44.97715292105164
30	45	41.42630576235403
31	32	40.24269004278818
32	43	41.42630576235403
34	37	41.03174682062785
34	40	46.16076864061752
34	41	41.03174682062785
35	39	41.03174682062785
36	38	36.69190398970339
36	48	43.39897825975957
37	41	38.27001754538269
37	49	42.60992148191989
38	39	37.87545860365647
38	48	38.664576487108896
40	41	38.664576487108896
42	46	44.97715292105164
45	47	36.69190398970339
45	49	39.84819220667474
