0	-1
1	-1
2	2180
3	-1
4	2186
5	3363
6	-1
7	-1
8	1285
9	-1
10	3735
11	2077
12	-1
13	2857
14	-1
15	-1
16	2362
17	-1
18	2890
19	1891
20	-1
21	3044
22	3471
23	2006
24	2859
25	3099
26	-1
27	-1
28	3594
29	-1
30	-1
31	2526
32	2153
33	-1
34	-1
35	1754
36	-1
37	3391
38	-1
39	-1
40	-1
41	-1
42	-1
43	-1
44	2421
45	2912
46	-1
47	-1
48	-1
49	2549
