50	50	50
0	29	63.9507
0	46	69.5116
0	48	68.8165
1	34	67.4263
1	47	70.2067
1	49	70.9019
2	8	66.0361
2	31	72.9872
2	37	79.9384
3	11	75.7677
3	20	77.853
3	31	81.3286
3	32	67.4263
3	43	75.7677
4	5	82.0237
4	22	82.7188
4	35	73.6823
4	44	82.0237
5	21	75.0726
5	22	75.0726
5	25	70.2067
5	32	70.2067
6	7	81.3286
6	22	63.2556
6	38	82.7188
7	15	76.4628
8	11	72.2921
8	13	62.5605
9	16	62.5605
9	23	62.5605
9	33	62.5605
10	14	79.9384
10	25	69.5116
10	35	69.5116
10	44	63.9507
11	13	71.597
11	31	77.853
12	14	68.1214
12	29	76.4628
13	25	68.8165
13	31	75.7677
13	49	70.9019
14	48	66.7312
15	27	80.6335
16	18	63.2556
16	19	80.6335
16	28	79.9384
17	24	74.3774
17	30	79.2433
18	19	66.0361
18	25	82.0237
18	49	81.3286
19	25	68.8165
19	44	79.9384
20	43	82.0237
21	22	68.1214
21	27	67.4263
21	43	66.0361
22	39	68.1214
23	24	82.7188
23	28	81.3286
23	42	68.8165
24	33	79.2433
24	42	62.5605
24	45	70.2067
26	30	81.3286
26	34	71.597
27	43	64.6458
28	29	81.3286
28	44	65.3409
28	46	65.3409
30	45	68.1214
31	32	68.1214
32	43	69.5116
34	37	65.3409
34	40	69.5116
34	41	82.0237
35	39	77.1579
36	38	75.7677
36	48	77.853
37	41	75.0726
37	49	68.8165
38	39	70.9019
38	48	81.3286
40	41	65.3409
42	46	63.9507
45	47	82.0237
45	49	64.6458
