0	1548
1	1673
2	1552
3	1342
4	1448
5	2271
6	2028
7	-1
8	963
9	1263
10	2010
11	1217
12	1212
13	2102
14	1597
15	-1
16	1692
17	-1
18	2081
19	1308
20	-1
21	1853
22	1788
23	1434
24	1657
25	2092
26	-1
27	-1
28	1881
29	1151
30	1319
31	1813
32	1542
33	-1
34	-1
35	1198
36	-1
37	2701
38	-1
39	1346
40	-1
41	-1
42	1309
43	1882
44	1562
45	1838
46	1542
47	-1
48	1672
49	1876
