50	50	50
0	29	65.44535638811328
0	46	67.35164187215224
0	48	74.34072555297982
1	34	73.0698685636205
1	47	71.7990115742612
1	49	73.0698685636205
2	8	67.35164187215224
2	31	64.8099278934336
2	37	62.90376836152435
3	11	57.820592308346505
3	20	58.45602080302615
3	31	61.63297434822992
3	32	69.89335585087096
3	43	69.25792735619129
4	5	71.7990115742612
4	22	67.35164187215224
4	35	57.185226789731715
4	44	60.99754585355022
5	21	71.1635830795815
5	22	67.35164187215224
5	25	64.17449939875397
5	32	62.26833986684468
6	7	74.34072555297982
6	22	62.90376836152435
6	38	58.45602080302615
7	15	69.89335585087096
8	11	58.45602080302615
8	13	65.44535638811328
9	16	61.63297434822992
9	23	73.0698685636205
9	33	75.61158254233918
10	14	64.8099278934336
10	25	64.8099278934336
10	35	68.62249886151163
10	44	75.61158254233918
11	13	74.34072555297982
11	31	65.44535638811328
12	14	67.35164187215224
12	29	57.820592308346505
13	25	71.1635830795815
13	31	62.90376836152435
13	49	59.09138632164098
14	48	70.52815458490181
15	27	75.61158254233918
16	18	66.08078488279297
16	19	61.63297434822992
16	28	62.26833986684468
17	24	66.08078488279297
17	30	60.36218033493542
18	19	57.185226789731715
18	25	71.7990115742612
18	49	67.35164187215224
19	25	57.820592308346505
19	44	69.89335585087096
20	43	73.70529705830019
21	22	59.09138632164098
21	27	58.45602080302615
21	43	69.89335585087096
22	39	67.35164187215224
23	24	57.820592308346505
23	28	66.71621337747263
23	42	66.71621337747263
24	33	66.08078488279297
24	42	74.34072555297982
24	45	73.70529705830019
26	30	60.36218033493542
26	34	67.35164187215224
27	43	62.90376836152435
28	29	65.44535638811328
28	44	67.98707036683193
28	46	72.43444006894083
30	45	66.71621337747263
31	32	64.8099278934336
32	43	66.71621337747263
34	37	66.08078488279297
34	40	74.34072555297982
34	41	66.08078488279297
35	39	66.08078488279297
36	38	59.09138632164098
36	48	69.89335585087096
37	41	61.63297434822992
37	49	68.62249886151163
38	39	60.99754585355022
38	48	62.26833986684468
40	41	62.26833986684468
42	46	72.43444006894083
45	47	59.09138632164098
45	49	64.17449939875397
