50	50	50
0	29	39.886904445539834
0	46	41.048641911505634
0	48	45.30842661278905
1	34	44.53391480395964
1	47	43.75940299513027
1	49	44.53391480395964
2	8	41.048641911505634
2	31	39.49967878840344
2	37	38.337880827881
3	11	35.23989408712002
3	20	35.62711974425638
3	31	37.56342951360824
3	32	42.597665529164466
3	43	42.21043987202805
4	5	43.75940299513027
4	22	41.048641911505634
4	35	34.85266842998363
4	44	37.17614336191521
5	21	43.37217733799385
5	22	41.048641911505634
5	25	39.11239263671042
5	32	37.950655170744625
6	7	45.30842661278905
6	22	38.337880827881
6	38	35.62711974425638
7	15	42.597665529164466
8	11	35.62711974425638
8	13	39.886904445539834
9	16	37.56342951360824
9	23	44.53391480395964
9	33	46.082938421618465
10	14	39.49967878840344
10	25	39.49967878840344
10	35	41.82315372033502
10	44	46.082938421618465
11	13	45.30842661278905
11	31	39.886904445539834
12	14	41.048641911505634
12	29	35.23989408712002
13	25	43.37217733799385
13	31	38.337880827881
13	49	36.014405895949416
14	48	42.98495168085746
15	27	46.082938421618465
16	18	40.27419059723285
16	19	37.56342951360824
16	28	37.950655170744625
17	24	40.27419059723285
17	30	36.788917704778854
18	19	34.85266842998363
18	25	43.75940299513027
18	49	41.048641911505634
19	25	35.23989408712002
19	44	42.597665529164466
20	43	44.921200955652694
21	22	36.014405895949416
21	27	35.62711974425638
21	43	42.597665529164466
22	39	41.048641911505634
23	24	35.23989408712002
23	28	40.66141625436924
23	42	40.66141625436924
24	33	40.27419059723285
24	42	45.30842661278905
24	45	44.921200955652694
26	30	36.788917704778854
26	34	41.048641911505634
27	43	38.337880827881
28	29	39.886904445539834
28	44	41.435928063198645
28	46	44.146689146823256
30	45	40.66141625436924
31	32	39.49967878840344
32	43	40.66141625436924
34	37	40.27419059723285
34	40	45.30842661278905
34	41	40.27419059723285
35	39	40.27419059723285
36	38	36.014405895949416
36	48	42.597665529164466
37	41	37.56342951360824
37	49	41.82315372033502
38	39	37.17614336191521
38	48	37.950655170744625
40	41	37.950655170744625
42	46	44.146689146823256
45	47	36.014405895949416
45	49	39.11239263671042
