10	10	10
0	1	168.38511792418802
0	2	173.28958688324252
0	5	191.2723097991057
1	2	188.0020039583961
1	3	184.73268791969642
1	4	188.0020039583961
2	3	173.28958688324252
2	4	166.7499650038332
3	4	161.84549604477868
3	9	148.76724208797
4	5	150.4014052063149
5	6	158.57618000607903
5	9	179.82821896064195
6	7	178.19306604028708
6	8	184.73268791969642
7	8	173.28958688324252
8	9	147.1320891676152
