10	10	10
0	1	173.96614839176297
0	2	179.03260101921106
0	5	197.61161964155812
1	2	194.2336951773016
1	3	190.85577071304522
1	4	194.2336951773016
2	3	179.03260101921106
2	4	172.2767520906981
3	4	167.2094313253769
3	9	153.6977334683512
4	5	155.38712976941594
5	6	163.83150686112046
5	9	185.788449947724
6	7	184.09992178453228
6	8	190.85577071304522
7	8	179.03260101921106
8	9	152.0092053051594
