0	-1
1	-1
2	1804
3	-1
4	-1
5	-1
6	-1
7	-1
8	2085
9	4458
10	-1
11	-1
12	-1
13	-1
14	-1
15	-1
16	-1
17	-1
18	-1
19	-1
20	-1
21	-1
22	-1
23	4926
24	3406
25	-1
26	-1
27	5902
28	1329
29	8192
30	5092
31	1323
32	2404
33	-1
34	-1
35	-1
36	-1
37	-1
38	1942
39	8463
40	-1
41	2585
42	-1
43	-1
44	-1
45	4021
46	3122
47	-1
48	-1
49	-1
50	2163
51	2928
52	3546
53	-1
54	6724
55	-1
56	-1
57	3091
58	7491
59	-1
60	-1
61	-1
62	6668
63	-1
64	-1
