65	65	65
0	13	46.49176884338266
0	30	47.84586660064627
0	42	52.81102660777938
1	9	51.90815987243712
1	38	51.0052931370949
1	53	51.90815987243712
2	27	47.84586660064627
2	29	46.04013312996179
2	51	44.68603537269819
3	48	41.07497312282872
3	58	41.52660883624961
4	24	43.78357332885545
4	50	49.65119537983129
5	16	49.1999643579099
5	62	51.0052931370949
6	15	47.84586660064627
6	39	40.623742100907386
7	34	43.33193761543461
7	44	50.554062115173515
8	20	47.84586660064627
8	29	45.58890210804046
8	32	44.23480435077683
9	27	52.81102660777938
9	29	44.68603537269819
9	32	41.52660883624961
9	41	49.65119537983129
9	46	41.52660883624961
10	34	46.49176884338266
11	34	43.78357332885545
11	59	51.90815987243712
12	15	53.71348865162208
12	22	46.04013312996179
12	39	46.04013312996179
12	42	48.74832864448901
12	61	53.71348865162208
12	64	52.81102660777938
13	21	46.49176884338266
13	30	47.84586660064627
13	40	41.07497312282872
14	23	50.554062115173515
14	25	44.68603537269819
14	58	41.977839858171016
15	39	50.10283109325213
15	61	53.71348865162208
16	18	46.942999865304024
16	26	43.78357332885545
17	43	44.23480435077683
17	63	46.942999865304024
18	44	42.88070659351323
19	37	40.623742100907386
19	57	51.0052931370949
20	57	47.84586660064627
21	40	41.07497312282872
21	52	49.65119537983129
22	40	52.35939089435852
23	25	41.977839858171016
23	47	41.52660883624961
23	50	49.65119537983129
23	54	47.84586660064627
24	37	41.07497312282872
24	60	47.394230887225454
24	62	47.394230887225454
25	48	46.942999865304024
26	48	52.81102660777938
26	62	52.35939089435852
27	28	42.88070659351323
27	29	47.84586660064627
27	30	44.68603537269819
27	31	46.49176884338266
27	38	48.29709762256764
27	45	51.456928850515766
27	52	47.394230887225454
27	54	46.04013312996179
28	29	47.394230887225454
29	32	46.942999865304024
29	39	52.81102660777938
29	51	46.942999865304024
29	57	46.942999865304024
29	62	41.977839858171016
30	31	49.65119537983129
30	38	43.78357332885545
32	37	48.74832864448901
32	62	43.33193761543461
33	54	44.23480435077683
33	63	44.23480435077683
34	44	51.456928850515766
34	58	41.977839858171016
35	49	45.58890210804046
35	52	46.942999865304024
36	45	49.1999643579099
36	53	46.04013312996179
38	45	40.623742100907386
39	49	52.35939089435852
41	44	48.74832864448901
41	46	49.1999643579099
42	64	50.554062115173515
43	55	47.84586660064627
44	46	43.33193761543461
44	58	51.456928850515766
45	64	53.71348865162208
47	60	47.394230887225454
50	54	45.13767108611903
51	54	46.942999865304024
54	55	53.26225762970075
56	58	48.29709762256764
56	59	50.10283109325213
58	59	48.29709762256764
58	62	41.52660883624961
