0	1449
1	1800
2	1264
3	1080
4	1420
5	1484
6	1004
7	-1
8	1439
9	2825
10	-1
11	-1
12	2878
13	1754
14	2104
15	1598
16	-1
17	-1
18	-1
19	-1
20	-1
21	1463
22	-1
23	3257
24	1900
25	1076
26	1582
27	4593
28	867
29	6821
30	2251
31	979
32	1490
33	2094
34	2146
35	-1
36	-1
37	1728
38	1197
39	2788
40	-1
41	1533
42	-1
43	-1
44	2333
45	2479
46	2062
47	-1
48	1561
49	1344
50	1349
51	1771
52	2095
53	-1
54	3451
55	2613
56	-1
57	2010
58	3493
59	1095
60	-1
61	-1
62	3949
63	-1
64	1747
