0	1194
1	1183
2	1173
3	1072
4	1125
5	1213
6	878
7	-1
8	1193
9	2398
10	-1
11	-1
12	2422
13	1579
14	1900
15	1337
16	1398
17	-1
18	-1
19	1292
20	1372
21	1303
22	-1
23	2404
24	1513
25	942
26	1273
27	3831
28	800
29	6703
30	2169
31	913
32	1161
33	1785
34	1973
35	1313
36	1273
37	1354
38	1162
39	2453
40	-1
41	1340
42	1034
43	-1
44	2041
45	1727
46	1839
47	1426
48	1395
49	1140
50	1288
51	1586
52	1713
53	1268
54	3198
55	2267
56	1159
57	1714
58	2738
59	931
60	1115
61	-1
62	3630
63	-1
64	1567
