65	65	65
0	13	39.73424550104342
0	30	40.89155362243303
0	42	45.134929019466966
1	9	44.363477986601886
1	38	43.5919392390088
1	53	44.363477986601886
2	27	40.89155362243303
2	29	39.348476127246876
2	51	38.19116800585732
3	48	35.10501301548497
3	58	35.49078238928154
4	24	37.419629258264216
4	50	42.43463111761924
5	16	42.04886174382269
5	62	43.5919392390088
6	15	40.89155362243303
6	39	34.719243641688465
7	34	37.03385988446766
7	44	43.20616986521228
8	20	40.89155362243303
8	29	38.96270675345037
8	32	37.80539863206074
9	27	45.134929019466966
9	29	38.19116800585732
9	32	35.49078238928154
9	41	42.43463111761924
9	46	35.49078238928154
10	34	39.73424550104342
11	34	37.419629258264216
11	59	44.363477986601886
12	15	45.906380052332004
12	22	39.348476127246876
12	39	39.348476127246876
12	42	41.66309237002614
12	61	45.906380052332004
12	64	45.134929019466966
13	21	39.73424550104342
13	30	40.89155362243303
13	40	35.10501301548497
14	23	43.20616986521228
14	25	38.19116800585732
14	58	35.876551763078034
15	39	42.82040049141575
15	61	45.906380052332004
16	18	40.12001487483995
16	26	37.419629258264216
17	43	37.80539863206074
17	63	40.12001487483995
18	44	36.648090510671146
19	37	34.719243641688465
19	57	43.5919392390088
20	57	40.89155362243303
21	40	35.10501301548497
21	52	42.43463111761924
22	40	44.749422789854485
23	25	35.876551763078034
23	47	35.49078238928154
23	50	42.43463111761924
23	54	40.89155362243303
24	37	35.10501301548497
24	60	40.505784248636516
24	62	40.505784248636516
25	48	40.12001487483995
26	48	45.134929019466966
26	62	44.749422789854485
27	28	36.648090510671146
27	29	40.89155362243303
27	30	38.19116800585732
27	31	39.73424550104342
27	38	41.2773229962296
27	45	43.97753318334936
27	52	40.505784248636516
27	54	39.348476127246876
28	29	40.505784248636516
29	32	40.12001487483995
29	39	45.134929019466966
29	51	40.12001487483995
29	57	40.12001487483995
29	62	35.876551763078034
30	31	42.43463111761924
30	38	37.419629258264216
32	37	41.66309237002614
32	62	37.03385988446766
33	54	37.80539863206074
33	63	37.80539863206074
34	44	43.97753318334936
34	58	35.876551763078034
35	49	38.96270675345037
35	52	40.12001487483995
36	45	42.04886174382269
36	53	39.348476127246876
38	45	34.719243641688465
39	49	44.749422789854485
41	44	41.66309237002614
41	46	42.04886174382269
42	64	43.20616986521228
43	55	40.89155362243303
44	46	37.03385988446766
44	58	43.97753318334936
45	64	45.906380052332004
47	60	40.505784248636516
50	54	38.576937379653856
51	54	40.12001487483995
54	55	45.52087382271953
56	58	41.2773229962296
56	59	42.82040049141575
58	59	41.2773229962296
58	62	35.49078238928154
