65	65	65
0	13	40.08808671384363
0	30	41.255701315774644
0	42	45.53710104740177
1	9	44.75863283629572
1	38	43.98016462518974
1	53	44.75863283629572
2	27	41.255701315774644
2	29	39.698896465654606
2	51	38.53128186372363
3	48	35.41762830611955
3	58	35.80686241167257
4	24	37.7528575099816
4	50	42.81255002325871
5	16	42.42331591770567
5	62	43.98016462518974
6	15	41.255701315774644
6	39	35.02843805793055
7	34	37.36366726179258
7	44	43.590930519636686
8	20	41.255701315774644
8	29	39.30970621746563
8	32	38.1420916155346
9	27	45.53710104740177
9	29	38.53128186372363
9	32	35.80686241167257
9	41	42.81255002325871
9	46	35.80686241167257
10	34	40.08808671384363
11	34	37.7528575099816
11	59	44.75863283629572
12	15	46.31556925850777
12	22	39.698896465654606
12	39	39.698896465654606
12	42	42.03412566951669
12	61	46.31556925850777
12	64	45.53710104740177
13	21	40.08808671384363
13	30	41.255701315774644
13	40	35.41762830611955
14	23	43.590930519636686
14	25	38.53128186372363
14	58	36.19605265986157
15	39	43.2017402714477
15	61	46.31556925850777
16	18	40.47732081939666
16	26	37.7528575099816
17	43	38.1420916155346
17	63	40.47732081939666
18	44	36.9744770136036
19	37	35.02843805793055
19	57	43.98016462518974
20	57	41.255701315774644
21	40	35.41762830611955
21	52	42.81255002325871
22	40	45.147647655028734
23	25	36.19605265986157
23	47	35.80686241167257
23	50	42.81255002325871
23	54	41.255701315774644
24	37	35.41762830611955
24	60	40.86651106758562
24	62	40.86651106758562
25	48	40.47732081939666
26	48	45.53710104740177
26	62	45.147647655028734
27	28	36.9744770136036
27	29	41.255701315774644
27	30	38.53128186372363
27	31	40.08808671384363
27	38	41.64493542132766
27	45	44.369179443922654
27	52	40.86651106758562
27	54	39.698896465654606
28	29	40.86651106758562
29	32	40.47732081939666
29	39	45.53710104740177
29	51	40.47732081939666
29	57	40.47732081939666
29	62	36.19605265986157
30	31	42.81255002325871
30	38	37.7528575099816
32	37	42.03412566951669
32	62	37.36366726179258
33	54	38.1420916155346
33	63	38.1420916155346
34	44	44.369179443922654
34	58	36.19605265986157
35	49	39.30970621746563
35	52	40.47732081939666
36	45	42.42331591770567
36	53	39.698896465654606
38	45	35.02843805793055
39	49	45.147647655028734
41	44	42.03412566951669
41	46	42.42331591770567
42	64	43.590930519636686
43	55	41.255701315774644
44	46	37.36366726179258
44	58	44.369179443922654
45	64	46.31556925850777
47	60	40.86651106758562
50	54	38.920472111912645
51	54	40.47732081939666
54	55	45.92611586613472
56	58	41.64493542132766
56	59	43.2017402714477
58	59	41.64493542132766
58	62	35.80686241167257
