65	65	65
0	13	46.43951507696967
0	30	47.792091194195216
0	42	52.751670505550486
1	9	51.850220190456426
1	38	50.94836923077792
1	53	51.850220190456426
2	27	47.792091194195216
2	29	45.98878991942267
2	51	44.636213802197055
3	48	41.029210608067416
3	58	41.47993576561445
4	24	43.73436284251852
4	50	49.595793113552325
5	16	49.144667311420804
5	62	50.94836923077792
6	15	47.792091194195216
6	39	40.57808480593589
7	34	43.283637684971524
7	44	50.497243428646335
8	20	47.792091194195216
8	29	45.537664117291136
8	32	44.18508800006557
9	27	52.751670505550486
9	29	44.636213802197055
9	32	41.47993576561445
9	41	49.595793113552325
9	46	41.47993576561445
10	34	46.43951507696967
11	34	43.73436284251852
11	59	51.850220190456426
12	15	53.65352146522902
12	22	45.98878991942267
12	39	45.98878991942267
12	42	48.69394215387379
12	61	53.65352146522902
12	64	52.751670505550486
13	21	46.43951507696967
13	30	47.792091194195216
13	40	41.029210608067416
14	23	50.497243428646335
14	25	44.636213802197055
14	58	41.93106156774596
15	39	50.046518271099366
15	61	53.65352146522902
16	18	46.8906408791012
16	26	43.73436284251852
17	43	44.18508800006557
17	63	46.8906408791012
18	44	42.832511882840016
19	37	40.57808480593589
19	57	50.94836923077792
20	57	47.792091194195216
21	40	41.029210608067416
21	52	49.595793113552325
22	40	52.300945348003445
23	25	41.93106156774596
23	47	41.47993576561445
23	50	49.595793113552325
23	54	47.792091194195216
24	37	41.029210608067416
24	60	47.34136603664821
24	62	47.34136603664821
25	48	46.8906408791012
26	48	52.751670505550486
26	62	52.300945348003445
27	28	42.832511882840016
27	29	47.792091194195216
27	30	44.636213802197055
27	31	46.43951507696967
27	38	48.24321699632677
27	45	51.399094388324905
27	52	47.34136603664821
27	54	45.98878991942267
28	29	47.34136603664821
29	32	46.8906408791012
29	39	52.751670505550486
29	51	46.8906408791012
29	57	46.8906408791012
29	62	41.93106156774596
30	31	49.595793113552325
30	38	43.73436284251852
32	37	48.69394215387379
32	62	43.283637684971524
33	54	44.18508800006557
33	63	44.18508800006557
34	44	51.399094388324905
34	58	41.93106156774596
35	49	45.537664117291136
35	52	46.8906408791012
36	45	49.144667311420804
36	53	45.98878991942267
38	45	40.57808480593589
39	49	52.300945348003445
41	44	48.69394215387379
41	46	49.144667311420804
42	64	50.497243428646335
43	55	47.792091194195216
44	46	43.283637684971524
44	58	51.399094388324905
45	64	53.65352146522902
47	60	47.34136603664821
50	54	45.0869389597441
51	54	46.8906408791012
54	55	53.20279630768197
56	58	48.24321699632677
56	59	50.046518271099366
58	59	48.24321699632677
58	62	41.47993576561445
