65	65	65
0	13	39.77872484141428
0	30	40.937331816181874
0	42	45.185414108321545
1	9	44.412980802074806
1	38	43.640547495828116
1	53	44.412980802074806
2	27	40.937331816181874
2	29	39.3925511728934
2	51	38.23394419812577
3	48	35.144339926946365
3	58	35.53051359546724
4	24	37.46155387648154
4	50	42.48215544407284
5	16	42.09593879094947
5	62	43.640547495828116
6	15	40.937331816181874
6	39	34.758123273823
7	34	37.0753372233582
7	44	43.25454576571705
8	20	40.937331816181874
8	29	39.00633451977002
8	32	37.84772754500243
9	27	45.185414108321545
9	29	38.23394419812577
9	32	35.53051359546724
9	41	42.48215544407284
9	46	35.53051359546724
10	34	39.77872484141428
11	34	37.46155387648154
11	59	44.412980802074806
12	15	45.95784741456823
12	22	39.3925511728934
12	39	39.3925511728934
12	42	41.7097651224286
12	61	45.95784741456823
12	64	45.185414108321545
13	21	39.77872484141428
13	30	40.937331816181874
13	40	35.144339926946365
14	23	43.25454576571705
14	25	38.23394419812577
14	58	35.91673024859059
15	39	42.868372097196186
15	61	45.95784741456823
16	18	40.16494149453762
16	26	37.46155387648154
17	43	37.84772754500243
17	63	40.16494149453762
18	44	36.68912057023484
19	37	34.758123273823
19	57	43.640547495828116
20	57	40.937331816181874
21	40	35.144339926946365
21	52	42.48215544407284
22	40	44.799412378210484
23	25	35.91673024859059
23	47	35.53051359546724
23	50	42.48215544407284
23	54	40.937331816181874
24	37	35.144339926946365
24	60	40.55115814766094
24	62	40.55115814766094
25	48	40.16494149453762
26	48	45.185414108321545
26	62	44.799412378210484
27	28	36.68912057023484
27	29	40.937331816181874
27	30	38.23394419812577
27	31	39.77872484141428
27	38	41.32354846930516
27	45	44.026979071963794
27	52	40.55115814766094
27	54	39.3925511728934
28	29	40.55115814766094
29	32	40.16494149453762
29	39	45.185414108321545
29	51	40.16494149453762
29	57	40.16494149453762
29	62	35.91673024859059
30	31	42.48215544407284
30	38	37.46155387648154
32	37	41.7097651224286
32	62	37.0753372233582
33	54	37.84772754500243
33	63	37.84772754500243
34	44	44.026979071963794
34	58	35.91673024859059
35	49	39.00633451977002
35	52	40.16494149453762
36	45	42.09593879094947
36	53	39.3925511728934
38	45	34.758123273823
39	49	44.799412378210484
41	44	41.7097651224286
41	46	42.09593879094947
42	64	43.25454576571705
43	55	40.937331816181874
44	46	37.0753372233582
44	58	44.026979071963794
45	64	45.95784741456823
47	60	40.55115814766094
50	54	38.62016085124914
51	54	40.16494149453762
54	55	45.57184568445721
56	58	41.32354846930516
56	59	42.868372097196186
58	59	41.32354846930516
58	62	35.53051359546724
